r0,r30,r60,r90,r120,r150,r180,r210,r240,r270,r300,r330,r360
1,1,1,1,1,0,1,1,0,1,1,1,1
1,1,1,1,0,1,1,1,1,1,0,1,1
1,0,0,1,1,0,1,0,0,0,1,1,1
1,1,1,1,1,1,1,1,1,1,1,1,1
1,1,1,1,1,1,1,1,1,1,1,1,1
1,1,1,1,1,1,1,1,1,1,1,1,1
1,1,1,1,1,1,1,1,1,1,1,1,1
1,1,1,1,1,1,1,1,1,1,1,1,1
1,1,1,1,1,1,1,1,1,1,1,1,1
1,1,1,1,1,1,1,1,1,1,1,1,1
1,1,1,1,1,1,1,1,1,1,1,1,1
1,1,1,1,1,1,1,1,1,1,1,1,1
1,1,1,1,1,1,1,1,1,1,1,1,1
1,1,1,1,1,1,1,1,1,1,1,1,1
1,1,1,1,1,1,1,1,1,1,1,1,1
1,1,1,1,1,1,1,1,1,1,1,1,1
1,1,1,0,0,0,0,0,0,0,0,1,1
1,1,1,1,1,1,1,1,1,1,1,1,1
1,1,1,0,0,0,0,0,0,1,1,1,1
1,1,1,1,1,1,1,1,1,1,1,1,1
1,1,1,1,1,1,1,1,1,1,1,1,1
1,1,1,1,1,1,1,1,1,1,1,1,1
1,1,1,1,1,1,1,1,1,1,1,1,1
1,1,1,1,1,1,1,1,1,1,1,1,1
1,1,0,0,0,0,0,1,0,0,1,1,1
1,1,1,1,1,1,1,1,1,1,1,1,1
1,1,1,1,1,1,1,1,1,1,1,1,1
1,1,1,0,0,0,0,0,0,0,1,1,1
1,1,1,1,1,1,1,1,1,1,1,1,1
1,1,1,1,1,1,1,1,1,1,1,1,1
1,1,1,1,1,0,0,0,0,1,1,1,1
1,1,1,1,1,1,1,1,1,1,1,1,1
1,1,1,1,1,1,1,1,1,1,1,1,1
1,1,1,1,1,1,1,1,1,1,1,1,1
1,1,1,1,1,1,1,1,1,1,1,1,1
1,1,1,1,1,0,0,1,1,1,1,1,1
1,1,0,1,0,0,1,0,0,0,0,1,1
1,1,0,1,0,0,0,0,0,0,1,1,1
1,1,1,1,1,1,1,1,1,1,1,1,1
1,1,1,0,1,1,1,1,1,1,1,1,1
1,1,1,1,1,1,1,1,1,1,1,1,1
1,1,1,1,1,1,1,1,1,1,1,1,1
1,1,1,1,1,0,1,1,0,1,1,1,1
1,1,1,0,0,0,0,0,0,1,1,1,1
1,1,0,0,0,0,1,0,0,0,1,1,1
1,1,1,0,1,1,1,1,1,0,1,1,1
1,1,1,1,1,1,1,1,1,1,1,1,1
1,1,1,1,1,1,1,1,1,1,1,1,1
1,1,1,1,1,1,1,1,1,1,1,1,1
1,1,1,1,1,1,1,1,1,1,1,1,1
1,1,1,0,1,0,0,1,0,1,1,1,1
1,1,1,1,0,1,1,1,1,1,0,1,1
1,1,1,1,1,0,1,0,0,1,1,0,1
1,1,1,1,0,0,1,1,1,0,0,1,1
1,1,1,1,1,1,1,1,1,1,1,1,1
1,1,0,0,0,0,0,0,0,1,1,1,1
1,1,0,1,1,0,1,1,0,1,1,1,1
1,1,1,1,1,1,1,1,1,1,1,1,1
1,1,1,1,0,0,0,0,0,0,1,1,1
1,1,1,1,1,1,1,1,1,1,1,1,1
1,1,1,0,0,1,0,0,1,0,1,1,1
1,1,1,1,1,1,1,1,1,1,1,1,1
1,1,1,1,1,1,1,1,1,1,1,1,1
1,1,1,1,0,1,1,1,1,1,0,1,1
1,1,1,0,1,1,1,1,1,0,1,1,1
1,1,1,0,1,0,1,1,0,0,1,1,1
1,1,0,0,0,1,1,1,1,0,1,1,1
1,1,1,1,1,1,1,0,0,0,1,1,1
1,0,1,1,0,0,0,0,1,1,0,1,1
1,1,1,1,1,1,1,1,1,1,1,1,1
1,1,1,1,0,0,1,1,1,1,0,0,1
1,1,1,1,1,1,1,1,1,1,1,1,1
1,1,1,0,0,0,0,0,0,1,1,1,1
1,1,1,0,0,1,1,1,0,0,1,1,1
1,1,1,1,1,1,1,1,0,1,1,1,1
1,1,1,1,1,1,1,1,1,1,1,1,1
1,1,1,1,1,1,1,1,1,1,1,1,1
1,1,1,1,1,1,1,1,1,1,1,1,1
1,1,1,0,0,1,1,1,1,0,1,1,1
1,1,1,1,1,1,1,1,1,1,1,1,1
1,1,0,1,1,1,1,1,0,0,1,1,1
1,1,1,0,0,1,1,1,1,0,0,1,1
1,1,1,1,1,1,1,1,1,1,1,1,1
1,1,1,1,0,0,0,0,1,1,1,1,1
1,1,1,0,0,0,1,1,1,1,1,1,1
1,1,1,1,1,1,1,1,1,1,1,1,1
1,1,1,1,1,1,1,1,1,1,1,1,1
1,1,1,1,1,1,1,1,1,1,1,1,1
1,1,1,1,1,1,1,1,1,1,1,1,1
1,1,1,1,1,1,1,1,1,1,1,1,1
1,1,1,0,0,0,1,1,0,0,1,1,1
1,1,1,1,1,1,1,1,1,1,1,1,1
1,1,1,1,1,1,1,1,1,1,1,1,1
1,1,1,0,0,0,0,0,0,0,0,1,1
1,1,1,1,1,1,1,1,1,1,1,1,1
1,1,1,1,1,1,1,1,1,1,1,1,1
1,1,1,0,1,1,1,1,1,0,1,1,1
1,1,0,0,1,0,0,1,0,0,1,0,1
1,1,1,1,1,1,1,1,1,1,1,1,1
1,0,1,0,1,1,1,0,1,1,1,1,1
1,1,1,1,1,1,1,1,1,1,1,1,1
1,1,1,1,1,1,1,1,1,1,1,1,1
1,1,0,0,0,0,1,0,0,0,0,0,1
1,1,1,0,0,0,1,1,0,0,0,1,1
1,1,1,1,1,1,1,1,1,1,1,1,1
1,1,1,1,1,1,1,1,1,1,1,1,1
1,1,0,0,1,1,1,1,0,1,1,1,1
1,1,1,1,1,0,1,1,1,1,1,1,1
1,1,1,1,1,1,1,1,1,1,1,1,1
1,1,1,1,1,1,1,1,1,1,1,1,1
1,1,0,0,0,1,1,1,0,0,1,1,1
1,0,1,0,0,0,0,0,0,1,0,1,1
1,1,1,1,0,1,1,1,1,1,1,1,1
1,1,1,1,0,1,1,0,1,1,1,1,1
1,1,1,1,1,1,1,1,1,1,1,1,1
1,1,1,1,1,1,1,1,1,1,1,1,1
1,1,1,1,0,0,1,1,1,1,1,1,1
1,1,1,1,1,1,1,1,1,1,1,1,1
1,1,1,1,1,1,1,1,1,1,1,1,1
1,1,1,1,1,1,1,1,1,1,1,1,1
1,0,0,0,0,0,0,0,0,0,0,1,1
1,1,1,1,1,1,1,1,1,1,1,1,1
1,1,1,1,0,1,0,1,1,1,1,1,1
1,1,1,1,1,1,1,1,1,1,1,1,1
1,1,1,0,0,0,0,0,0,0,0,1,1
1,1,1,0,0,0,0,0,0,0,0,1,1
1,1,1,1,1,1,1,1,1,1,1,1,1
1,0,0,0,0,0,1,0,0,0,0,0,1
1,1,1,1,0,0,1,1,1,1,1,1,1
1,1,1,0,0,0,1,1,1,0,0,1,1
1,1,30,8,4,30,5,4,30,30,1,30,1
1,30,1,30,30,30,30,30,1,30,30,30,1
1,30,30,30,16,30,4,30,30,30,30,1,1
1,1,1,30,30,30,30,30,30,30,30,1,1
1,1,1,8,1,1,1,1,1,1,1,1,1
1,1,1,30,30,1,30,30,30,30,30,1,1
1,30,1,30,30,30,30,30,30,30,30,1,1
1,1,30,30,30,1,1,1,30,30,30,1,1
1,1,1,1,1,1,1,1,1,1,1,1,1
1,1,1,30,3,1,1,1,3,30,1,1,1
1,1,30,30,30,30,30,30,30,8,1,1,1
1,9,1,30,30,30,30,30,30,11,1,1,1
1,1,1,1,1,1,4,3,1,1,1,1,1
1,1,1,30,30,30,30,1,1,1,1,1,1
1,30,1,30,30,30,30,30,30,30,30,1,1
1,1,1,30,30,30,30,30,30,30,30,1,1
1,1,1,1,1,30,30,1,1,1,1,1,1
1,1,1,1,1,1,1,1,1,1,1,1,1
1,30,30,30,30,30,30,30,30,30,30,30,1
1,1,1,1,30,30,30,30,30,1,1,1,1
1,1,1,1,1,1,30,1,1,1,1,1,1
1,1,10,30,30,30,30,30,30,21,1,1,1
1,1,30,30,30,30,30,30,30,30,1,1,1
1,1,1,1,30,30,30,30,30,30,1,1,1
1,1,30,30,30,30,30,30,30,30,30,30,1
1,1,30,1,30,1,1,1,30,1,1,1,1
1,1,30,30,30,30,30,30,30,30,30,30,1
30,30,30,30,30,30,30,30,30,30,30,30,30
1,1,1,30,30,30,30,30,30,30,1,1,1
1,1,1,1,1,4,3,1,3,1,1,1,1
1,1,1,1,30,30,30,30,30,30,16,1,1
1,1,30,30,3,30,30,3,30,30,1,1,1
1,1,1,1,1,30,1,1,1,1,1,1,1
1,1,1,30,30,3,1,1,30,30,1,1,1
1,1,1,1,1,1,1,1,1,1,1,1,1
1,1,1,30,30,30,30,30,30,30,14,1,1
1,1,30,1,30,30,30,30,30,30,30,30,1
1,1,30,1,30,30,30,30,30,30,1,30,1
1,1,5,18,30,30,30,30,30,30,10,1,1
1,30,30,30,30,30,30,30,30,30,30,10,1
1,1,1,1,1,1,1,1,1,1,1,1,1
1,1,1,30,30,30,30,30,30,30,30,1,1
1,1,30,30,30,30,30,30,30,1,19,1,1
1,1,1,30,30,30,30,30,30,30,1,1,1
30,1,30,30,30,30,30,30,30,30,30,30,30
1,1,1,1,30,1,1,30,1,1,30,1,1
1,1,20,1,30,10,1,1,30,1,30,9,1
1,1,30,30,30,30,30,30,30,30,8,1,1
1,30,1,30,30,1,30,30,1,30,30,1,1
1,1,1,10,30,30,30,30,30,30,1,1,1
1,1,30,30,30,30,30,30,30,22,7,1,1
1,1,1,16,30,1,4,1,1,12,30,1,1
1,1,30,1,30,30,30,30,30,30,1,30,1
1,1,1,30,30,30,30,30,30,30,30,30,1
1,1,30,30,30,30,30,30,30,30,1,30,1
1,1,30,30,30,30,30,30,30,30,1,1,1
1,1,30,30,1,30,30,30,30,30,1,30,1
1,1,30,30,1,1,1,1,30,30,1,1,1
1,1,1,30,30,30,30,30,30,30,30,1,1
1,1,1,1,3,30,1,1,1,1,1,1,1
1,1,25,30,30,30,30,30,30,30,9,1,1
1,1,1,21,30,4,30,30,4,30,1,1,1
1,1,1,30,30,30,30,30,30,1,1,1,1
1,1,1,30,30,1,3,30,30,30,30,1,1
1,6,19,30,30,30,30,30,30,30,8,1,1
30,18,30,30,24,30,30,30,30,30,1,30,30
1,3,30,30,30,1,1,30,30,30,30,1,1
1,1,3,1,30,30,30,30,30,30,3,1,1
1,30,1,30,30,30,30,30,30,30,30,1,1
1,1,1,1,30,30,30,30,7,30,1,1,1
1,1,1,10,30,30,1,30,30,30,30,30,1
1,1,9,1,30,30,6,30,30,30,1,12,1
1,1,30,30,30,30,30,30,30,30,30,30,1
1,1,30,30,30,30,30,30,30,30,30,1,1
1,1,30,1,30,30,30,30,30,30,30,1,1
1,1,1,1,30,1,1,1,1,30,1,1,1
1,1,30,30,30,1,1,30,30,30,1,1,1
1,1,1,30,30,1,1,1,1,30,30,1,1
1,1,1,30,30,1,1,1,1,30,3,1,1
1,1,1,30,30,30,30,30,30,30,1,1,1
1,30,30,30,30,30,30,30,30,30,30,1,1
1,1,30,30,30,30,3,1,30,30,30,30,1
1,1,1,30,30,30,30,30,30,30,30,1,1
1,1,1,30,30,30,30,30,30,30,1,1,1
1,30,30,30,30,30,30,30,30,1,30,1,1
1,1,1,30,30,30,30,30,30,30,30,1,1
1,1,8,30,30,1,1,1,7,30,30,1,1
1,1,30,30,30,30,30,30,30,30,30,1,1
1,1,5,15,30,30,30,30,30,30,1,1,1
1,1,1,30,30,30,30,30,30,30,1,1,1
1,1,30,30,30,30,30,30,30,30,30,1,1
1,1,1,9,1,24,1,1,1,9,1,30,1
1,1,1,1,1,1,1,1,3,1,1,1,1
30,30,30,30,30,30,30,30,30,30,30,30,30
1,1,30,30,1,1,1,1,30,30,1,1,1
1,1,1,30,30,30,30,30,30,30,1,1,1
1,30,1,30,30,1,1,30,1,30,30,1,1
30,1,30,30,30,30,30,30,30,30,1,30,30
1,1,1,30,30,30,30,30,30,30,30,1,1
1,30,30,30,30,1,30,30,30,30,30,1,1
1,1,1,30,30,30,30,30,30,30,1,1,1
1,1,1,1,1,1,1,1,1,1,1,1,1
1,1,30,30,30,30,30,30,30,30,30,30,1
1,1,30,30,30,30,30,30,30,30,30,30,1
1,1,1,30,30,6,3,3,4,30,30,1,1
1,1,30,30,30,30,1,4,30,30,30,1,1
1,30,30,30,30,30,30,30,30,30,1,26,1
1,1,1,1,30,30,30,30,30,1,1,1,1
1,1,1,1,3,4,30,30,3,3,1,1,1
1,1,1,30,30,30,30,30,30,30,25,1,1
1,1,30,30,30,30,30,30,30,30,30,1,1
1,30,1,30,30,30,30,30,30,30,30,1,1
1,1,1,30,30,30,30,30,30,30,30,30,1
1,1,1,30,30,30,30,30,30,1,13,1,1
1,1,1,1,30,30,30,30,30,1,1,1,1
1,1,30,30,30,30,30,30,30,30,30,30,1
1,1,30,30,30,30,30,30,30,30,1,1,1
1,30,1,6,30,30,30,30,30,1,1,1,1
1,1,1,1,1,1,1,1,1,1,1,1,1
1,1,1,14,30,30,30,30,30,30,30,1,1
1,30,30,30,30,30,30,30,30,30,30,16,1
1,1,30,1,1,1,1,1,30,1,1,1,1
1,1,1,30,30,30,30,30,30,30,1,1,1
1,30,30,30,30,30,30,30,30,30,30,1,1
1,1,30,30,30,30,30,30,30,30,30,30,1
1,1,1,30,30,30,30,30,30,30,30,1,1
1,1,30,30,30,30,30,30,30,30,1,30,1
1,3,30,30,30,30,30,30,30,30,30,30,1
1,1,1,30,30,30,30,30,30,26,1,1,1
1,1,30,30,30,30,30,30,30,30,30,30,1
1,1,1,1,1,19,1,1,1,1,1,1,1
1,1,1,1,30,1,1,1,1,1,3,1,1
1,1,1,4,9,1,1,1,1,7,3,1,1
1,1,1,1,1,1,1,1,1,1,1,1,1
1,1,1,1,1,1,1,1,1,1,1,1,1
1,1,1,1,1,1,1,1,1,1,1,1,1
1,1,1,1,30,30,30,30,30,12,1,1,1
1,1,1,30,1,1,1,1,1,30,1,1,1
1,1,1,1,1,1,1,1,1,1,1,1,1
1,1,1,1,1,1,1,1,1,1,1,1,1
1,1,4,9,1,1,3,1,10,7,1,1,1
1,5,1,7,1,1,1,7,1,6,1,1,1
1,1,1,1,1,1,1,1,1,1,1,1,1
1,1,1,1,1,1,1,1,1,1,1,1,1
1,1,1,1,30,30,30,30,30,30,1,1,1
1,1,1,30,30,30,30,30,30,30,3,1,1
1,1,1,1,1,1,1,1,1,1,1,1,1
1,1,1,1,1,1,1,1,1,1,1,1,1
1,4,1,30,30,30,30,30,30,14,6,1,1
1,1,1,1,1,1,1,1,1,1,1,1,1
1,1,1,1,1,1,1,1,1,1,1,1,1
1,1,1,8,4,3,3,4,7,1,1,1,1
1,1,1,1,1,1,1,1,1,1,1,1,1
1,1,1,1,1,1,1,1,1,1,1,1,1
1,1,4,1,1,1,1,3,3,1,1,1,1
1,1,1,1,1,1,1,1,1,1,1,1,1
1,1,1,30,30,1,1,1,1,30,30,1,1
1,1,1,30,1,30,30,1,1,30,1,1,1
1,1,1,1,1,1,3,1,1,1,1,1,1
1,1,1,1,1,1,1,1,1,1,1,1,1
1,1,1,1,1,1,4,30,1,4,1,1,1
1,1,15,8,1,1,1,1,14,1,1,1,1
1,1,1,1,1,1,1,1,1,1,1,1,1
1,1,1,1,1,1,1,1,1,1,1,1,1
1,1,1,1,1,1,1,1,1,1,1,1,1
1,1,1,1,3,30,1,1,30,30,1,1,1
1,1,30,1,1,30,1,1,30,1,1,30,1
1,1,30,1,1,30,1,4,1,3,1,7,1
1,1,1,13,11,1,1,1,6,24,1,1,1
1,1,30,30,30,12,1,30,30,30,30,1,1
1,1,1,1,1,1,1,1,1,1,1,1,1
1,1,1,1,1,1,1,1,1,1,1,1,1
1,1,1,1,1,12,1,1,1,1,1,1,1
1,1,1,30,30,30,30,30,30,30,1,1,1
1,1,30,30,1,1,1,1,1,30,1,1,1
1,1,1,1,1,1,1,1,1,1,1,1,1
1,1,1,1,1,3,1,1,3,1,1,1,1
1,1,1,1,1,3,1,1,10,13,1,1,1
1,1,1,1,1,1,1,1,1,1,1,1,1
1,1,1,5,1,1,1,1,1,20,1,1,1
1,1,7,1,1,1,1,1,14,1,1,1,1
1,1,1,7,30,1,1,1,1,1,30,1,1
1,1,1,1,1,11,30,1,1,1,1,8,1
1,1,1,1,30,30,30,30,30,30,30,1,1
1,1,30,1,1,30,1,1,30,1,1,1,1
1,1,3,30,1,1,1,1,30,30,1,1,1
1,1,30,1,1,30,3,3,30,1,1,1,1
1,1,1,15,1,1,1,1,3,1,1,1,1
1,1,1,30,30,30,30,30,30,30,30,1,1
1,1,1,1,1,1,1,1,1,1,1,1,1
1,1,19,30,30,30,30,30,30,30,4,1,1
1,1,1,1,1,1,1,1,1,1,1,1,1
1,1,1,1,1,1,1,1,1,1,1,1,1
1,1,1,1,1,1,1,1,1,1,1,1,1
1,1,12,30,3,1,1,3,19,30,1,1,1
1,1,1,1,1,1,30,3,8,1,1,1,1
1,1,1,1,1,1,1,1,1,1,1,1,1
1,1,1,1,1,4,4,3,1,1,1,1,1
1,1,1,1,1,1,30,30,1,1,1,1,1
1,1,1,1,1,1,1,1,1,1,1,1,1
1,1,1,1,1,1,1,1,1,1,1,1,1
1,1,1,1,1,1,1,1,1,1,1,1,1
1,1,30,30,30,1,1,1,30,30,30,1,1
1,1,30,30,30,1,1,1,30,30,30,1,1
1,1,1,1,1,1,1,1,1,1,1,1,1
1,1,1,1,1,1,1,1,1,1,1,1,1
1,1,1,1,1,1,1,1,1,1,1,1,1
1,1,1,1,1,1,1,1,1,1,1,1,1
1,1,1,1,1,1,1,1,1,1,1,1,1
1,1,1,1,1,1,1,1,1,1,1,1,1
1,1,30,1,1,1,1,1,1,30,1,1,1
1,1,1,30,30,1,1,1,1,30,30,1,1
1,1,1,1,1,1,1,1,1,1,1,1,1
1,1,1,1,1,1,1,1,1,1,1,1,1
1,1,1,1,1,1,1,3,1,1,1,1,1
1,1,1,1,30,1,1,1,1,3,1,1,1
1,1,1,30,1,1,1,1,1,30,1,1,1
1,1,1,30,30,3,3,30,6,10,1,1,1
1,1,1,3,1,1,1,1,1,1,1,1,1
1,1,1,1,1,3,1,3,3,1,1,1,1
1,1,1,1,1,1,1,1,30,1,1,1,1
1,1,1,1,1,3,1,1,1,1,1,1,1
1,1,1,1,1,1,1,1,1,1,1,1,1
1,1,1,13,30,30,30,30,30,3,30,30,1
1,1,1,1,1,1,1,1,1,1,1,1,1
1,1,1,1,30,30,30,30,30,1,1,1,1
1,1,1,30,1,1,1,1,1,30,1,1,1
1,1,1,24,1,1,1,1,1,30,1,1,1
1,1,1,1,9,4,3,3,3,3,1,1,1
1,1,1,27,30,1,1,1,1,30,30,1,1
1,1,1,1,1,1,1,1,1,1,1,1,1
1,1,1,1,1,1,1,1,1,1,1,1,1
1,1,1,1,30,1,1,30,30,1,30,1,1
1,1,1,30,30,1,1,1,1,30,30,1,1
1,1,1,1,1,1,1,1,1,1,1,1,1
1,1,1,4,1,1,1,1,1,3,1,1,1
1,1,30,8,1,5,1,30,30,1,1,1,1
1,1,1,1,1,1,1,1,1,1,1,1,1
1,1,1,1,1,1,1,1,1,1,1,1,1
1,1,1,1,3,1,1,1,1,3,1,1,1
1,1,4,30,30,30,30,30,1,30,30,1,1
1,1,1,1,3,30,3,3,12,1,1,1,1
1,1,1,20,30,30,30,6,30,30,30,1,1
1,1,1,30,30,30,30,30,30,1,6,1,1
1,1,1,1,1,1,1,1,1,1,1,1,1
1,1,1,30,1,1,1,1,1,1,30,1,1
1,1,1,30,30,1,1,30,30,1,1,1,1
1,1,1,1,1,1,1,1,1,1,1,1,1
1,1,1,1,1,1,1,1,1,1,1,1,1
1,1,1,1,30,4,30,30,5,30,1,1,1
1,1,3,11,1,1,1,1,1,6,1,1,1
1,1,1,1,1,1,1,1,1,1,1,1,1
1,1,1,1,30,30,30,30,30,1,1,1,1
1,1,1,1,30,30,1,30,1,1,1,1,1
1,1,1,30,1,30,30,20,30,30,1,1,1
1,1,1,1,1,1,1,1,1,1,1,1,1
1,1,1,1,1,30,1,1,30,1,1,1,1
1,1,1,1,1,6,1,1,1,1,1,1,1
1,1,1,1,30,30,30,30,30,1,1,1,1
1,1,30,30,30,30,30,30,30,30,30,30,1
0.999999999999999,1,0.953854603050006,0.960171443880542,0.961536976445392,0.925404043728865,0.960018116195869,0.961766658183728,0.929814738759588,0.952315705259001,1,0.953854603050006,0.999999999999999
0.995175998934388,0.936830408153526,0.999999999999998,0.925593052342847,0.906071821930929,0.930800832518859,0.950196892342218,0.93591729213077,0.962530020814458,0.923322452969253,0.911700595863236,0.93631930924542,0.995175998934388
1,0.953474685784252,0.940492863270952,0.939601396553081,0.960380430434509,0.949896436616843,0.962312125167766,0.950332863664751,0.937740757118043,0.933015210856912,0.91616581327002,0.964603616862908,1
1,1,1,0.950356268646173,0.926672071798175,0.94444698884415,0.950384210068512,0.947566768231023,0.944995357610672,0.914366802420224,0.957867560615961,0.999999999999999,1
0.999999999999998,0.999999999999999,0.999999999999999,0.961781554685777,0.965188027511177,0.969969342401634,0.975025552141552,0.965188027511178,0.969969342401635,0.960595937409137,0.999999999999999,1,0.999999999999998
0.999999999999998,1,0.979239651702871,0.955273051507017,0.954160610232554,0.960105955201519,0.958926769207411,0.95892676920741,0.959427555686302,0.954160610232554,0.955273051507016,0.978992309148067,0.999999999999998
1,0.944594557326892,1,0.932203483615756,0.870254541449069,0.876381481028704,0.87505058830581,0.878171094443281,0.872046601188095,0.933561221549957,0.93910876914864,0.999999999999999,1
0.999999999999998,0.999999999999997,0.949978718443336,0.855906794313965,0.94257069000861,0.981364365104706,0.975812913374305,0.979315342154428,0.945991205694555,0.854312690267674,0.945403574701127,0.999999999999999,0.999999999999998
0.999999999999999,1,0.982877542615108,0.964353305421228,0.965482850370253,0.967992925895278,0.964353305421228,0.964353305421228,0.965482850370253,0.983424523227732,1,0.999999999999999,0.999999999999999
1,1,0.963903079398815,0.93250344014256,0.96001848723829,0.980366648643439,0.973594835893295,0.982617162501176,0.960553988658793,0.932705258665467,0.963903079398815,1,1
1,0.999999999999999,0.959685875065303,0.926785709396885,0.928662422284222,0.932578420309326,0.920882082309183,0.924136275952549,0.930146355498899,0.964698148915375,0.999999999999999,1,1
0.999999999999998,0.965273983959466,1,0.948954203805554,0.942557601156212,0.954430534185639,0.946977869702476,0.943959666353374,0.952444262717757,0.970271011886744,1,1,0.999999999999998
0.999999999999999,1,1,0.972697042596941,0.965015380898909,0.965570252389659,0.960852976620095,0.962051157853808,0.965570252389659,0.962025635930753,0.975262763668412,1,0.999999999999999
1,1,0.980674319156181,0.953014404424029,0.933428748155145,0.938596348688469,0.956525031925663,0.98067431915618,1,1,0.98067431915618,1,1
0.999999999999998,0.948105294802038,0.999999999999999,0.946850758179385,0.869537294858305,0.875576989623609,0.867239561560954,0.858723280775224,0.868780398427512,0.874144287180052,0.94324328108768,0.999999999999999,0.999999999999998
1,0.999999999999999,1,0.891882055411699,0.884478828119402,0.881341231226627,0.884618711591426,0.890419135833657,0.88914471083256,0.883057466504423,0.924176175126557,1,1
0.976315354061842,0.971107284918935,0.997762020604838,0.966284129387422,0.963366218327354,0.955636909005514,0.937524826214553,0.960130165627493,0.962237497648974,0.970180667764484,0.969595399646513,0.997762020604838,0.976315354061842
1,0.999999999999999,0.979270304559063,1,0.98432123767263,0.980486011330452,0.983889378738251,0.982833799071029,0.975051527956536,0.984321237672631,1,1,1
0.986564719059762,0.95589638703056,0.932109732458082,0.905422766588521,0.892837360760214,0.876832084502192,0.906898059048901,0.892837360760214,0.880957763580157,0.925142013031529,0.945832209251823,0.932109732458083,0.986564719059762
0.999999999999999,1,1,0.97112044008462,0.946343769020854,0.933331382619726,0.945424684618673,0.944851495616663,0.946967048116064,0.976025686596944,1,1,0.999999999999999
0.983954283122428,0.999999999999999,0.962899369314372,0.983954283122422,0.976011744575292,0.970702912193567,0.958995753254379,0.976011744575292,0.961762984903214,0.983954283122426,0.999999999999999,1,0.983954283122428
0.999999999999998,0.999999999999999,0.964137393171602,0.942528977228543,0.936573881609307,0.94587928987828,0.947220881531949,0.936189672291007,0.943791955359651,0.960288703286705,0.999999999999999,0.999999999999998,0.999999999999998
0.989602619102688,0.971833042959498,0.934899140297384,0.92864947395062,0.934914513934473,0.933073873583176,0.941327146671674,0.947232053927394,0.939112162252785,0.952013470151715,0.977052340672342,0.979614468569331,0.989602619102688
0.999999999999999,1,1,0.963614266244044,0.953731045841566,0.946201944838158,0.945206186256979,0.953731045841566,0.958530938428111,0.959424917334427,1,0.963614266244043,0.999999999999999
0.972370598435973,0.982925793559454,0.912138843024234,0.916714423444513,0.924981789287681,0.922560179473774,0.917700348266925,0.933070742123004,0.913613608251467,0.917359382629829,0.943661736155641,0.947795054031338,0.972370598435973
0.999999999999997,1,0.956115229688655,0.986328233669161,0.952671110356261,0.983628660870976,0.986328233669161,0.985782162656603,0.948366980653923,0.999999999999997,0.960344676269676,1,0.999999999999997
1,1,0.94293365489546,0.838676437109644,0.863921282383578,0.92397229495165,0.937928393132387,0.938133642091653,0.924310597122831,0.866460396729215,0.837742922973118,0.943095758846773,1
0.937455913545168,0.957330734486262,0.927402403302308,0.87395107633626,0.928066298162959,0.908752810990603,0.866012206613279,0.938044648041016,0.929241794582389,0.891752928746388,0.95733073448626,0.955427523629136,0.937455913545168
1,0.999999999999998,0.965444558182785,0.945209935787778,0.939270738834215,0.944420665777697,0.935362135390756,0.948572282731308,0.945407758224524,0.952920957518137,0.999999999999999,1,1
1,0.999999999999998,0.999999999999999,0.976090737157313,0.966270529976994,0.962431762469413,0.963834636361965,0.966270529976994,0.960184530349338,0.974343409601961,0.999999999999998,1,1
0.997674395944479,0.999999999999999,1,0.963032908647545,0.916781343347343,0.919279323906948,0.91481935842803,0.898616423157709,0.919041175786537,0.94077146213521,0.960318256173113,1,0.997674395944479
1,1,0.941590844330309,0.911984661031104,0.960465874387759,0.953950604169646,0.957774013169649,0.961056173733606,0.953804507833121,0.93882494431184,1,1,1
0.999999999999999,0.969275926028432,0.975043652025713,0.975140194622118,0.970917607773482,0.959935346631129,0.970917607773481,0.975043652025714,0.975140194622118,0.97158554640649,1,1,0.999999999999999
0.999999999999999,1,0.966678873161373,0.935837884851532,0.952142427600862,0.964724793410004,0.968815371843634,0.968815371843634,0.953324641287361,0.928072378839182,0.966678873161373,0.999999999999999,0.999999999999999
0.999999999999997,1,0.979020368083791,0.999999999999997,0.987717687908677,0.979089886516138,0.983673991137764,0.987717687908677,0.967889429827488,0.985125161930158,1,0.999999999999999,0.999999999999997
1,0.999999999999999,0.97303864112635,0.926165646659432,0.917623444093494,0.888691494153629,0.943137005673938,0.923852841115855,0.890040578934921,0.915265272219901,0.962327487300789,0.973038641126351,1
0.999999999999999,0.98409554597621,0.884508683463958,0.999999999999999,0.940699718942626,0.877795322432775,0.924120507172697,0.939780553957243,0.879668686508627,0.943521621989711,0.95573750110364,0.902204171354865,0.999999999999999
0.98324643267738,0.993051091413265,0.90734359437466,0.983246432677379,0.944512689639986,0.897965512350208,0.934416505954997,0.930858484686585,0.916722506094688,0.933795843319352,0.993051091413279,0.935784543832017,0.98324643267738
1,0.999999999999999,0.961011419514428,0.960589316424143,0.919818315468439,0.934852773169483,0.939249894655335,0.936833972906035,0.918913859158978,0.920318929624709,0.962236876102078,0.999999999999999,1
1,0.917072430281128,0.830758250887072,0.779948959858648,0.7997008798608,0.931543246714965,0.939630063504634,0.896268382640443,0.905451042335478,0.836382798224199,0.805380516464148,0.968349105869713,1
1,0.999999999999998,0.99615932449956,0.993668644376003,0.991075436977819,0.993253858459245,0.991719171131488,0.990536015765856,0.990060075550583,0.991075436977819,0.996159324499561,1,1
0.999999999999998,0.999999999999999,0.967473204729556,0.934071348329321,0.922700267225031,0.936881362168031,0.953688145618626,0.957797562860525,0.941443771544545,0.918184848737355,0.924366026397897,0.962643874174576,0.999999999999998
0.999999999999999,1,0.929548477805828,0.951492602827135,0.943215902724581,0.916382795418215,0.95020981539015,0.953529975522031,0.935449829815116,0.999999999999999,0.960110158620111,0.967878532614495,0.999999999999999
0.999999999999999,0.978418126936983,1,0.902440169030801,0.889153925741842,0.863972380185413,0.895048566881808,0.881449465392222,0.89636492210297,0.893962573807445,0.978418126936982,1,0.999999999999999
0.951119144902173,0.963561307756734,0.909546146224343,0.871946537470092,0.942633389648597,0.948420972040374,0.92767987312037,0.951211934212939,0.937482052083711,0.877261800666787,0.952024382356141,0.954920240681003,0.951119144902173
0.981791158525933,0.962434903550078,0.976967126336521,0.963788908998396,0.923727369750416,0.965615962925434,0.964774614268447,0.946576746544769,0.965615962925434,0.96628350819381,0.92579596274979,0.976967126336519,0.981791158525933
1,1,0.965318109157208,1,0.926761037994236,0.961394071358464,0.971964600691282,0.977220999894637,0.946640296138161,0.971964600691282,0.913720957246089,0.960940126763466,1
1,0.999999999999999,0.95534187008886,0.911719646196359,0.923673262545609,0.912875404993519,0.923397169213992,0.936157247918149,0.91339446370788,0.956611334958729,0.961228248330096,0.988209055759682,1
0.977285970901275,0.952340392782558,1,0.943411681127041,0.930900877697985,0.975794183973833,0.953668742404231,0.930900877697987,0.975794183973833,0.939566222586081,0.95234039278256,1,0.977285970901275
1,0.999999999999998,0.999999999999999,0.960463656571211,0.958402119285998,0.948383841733351,0.957410466535166,0.95703437015913,0.948515165878993,0.946561202098902,0.999999999999998,0.999999999999999,1
0.990550522082677,1,0.944975233367033,0.953895753121513,0.944457709901991,0.947663073037424,0.954507528081137,0.958079457984993,0.935519904489495,0.964051498391371,0.96240272546021,0.962536698068088,0.990550522082677
0.999999999999999,1,1,0.965372363691639,0.902065567696553,0.961007763106542,0.961204513682004,0.962087441850576,0.961007763106541,0.961911153035336,0.894366271928744,1,0.999999999999999
1,0.980593473083201,0.946692313772947,1,0.951457049542449,0.922142923341567,0.890199909984807,0.944641710011405,0.934841946716295,0.932295082629205,0.980593473083199,0.928472444906251,1
1,1,1,0.91072321644813,0.835049618792977,0.891899796734679,0.896391021971216,0.897140099807781,0.88846844938297,0.850101432073979,0.838512627669301,0.91072321644813,1
0.988998438365907,1,0.88261404766701,0.91191238185485,0.927602592376552,0.879162607301786,0.91553333248089,0.922919059763032,0.876641485199346,0.915533332480887,1,0.952444566030228,0.988998438365907
0.999987076413222,0.997548167542985,0.910005563808199,0.887993139608224,0.926922442889966,0.940448013496423,0.952124153537431,0.933843833698275,0.900740724355306,0.894317413816099,0.997548167542983,0.999999999999999,0.999987076413222
0.984722514035995,0.985218944490794,0.899670674023393,0.928206765745304,0.985218944490792,0.90079262927175,0.921310089406302,0.924642749571865,0.883193671014268,0.92207855047502,0.985218944490792,0.92941725782808,0.984722514035995
1,1,0.933547291090382,0.935866482492563,0.964630811043698,0.963359633034339,0.963953759641384,0.964630811043697,0.92429694616765,0.930628709959737,1,1,1
0.999999999999998,1,1,0.783324290947058,0.76306680423941,0.768186890169211,0.755172210689357,0.763298758251571,0.771504201530243,0.774664545627549,0.77613901123477,1,0.999999999999998
1,0.999999999999998,0.965309711642786,0.978055758391702,0.960768660742244,0.958584321899734,0.978055758391702,0.976062959411763,0.961506916025253,1,0.973410342857678,0.999999999999999,1
0.999999999999999,0.999999999999999,0.967836726482469,0.841184319606859,0.867978745509525,0.853647921697964,0.865525768614324,0.865860653730932,0.851370892074593,0.849459210946881,0.962878888181022,1,0.999999999999999
0.993132177175456,0.990594189004512,1,0.960494965686235,0.957438827907392,0.96123658038231,0.95299518161035,0.959117415633484,0.963322970992374,0.956312484382869,0.990594189004513,1,0.993132177175456
0.999999999999999,0.999999999999999,0.966005874614289,0.931125579442136,0.931433404807906,0.923379251061745,0.927452699280504,0.929925174499299,0.927653752579923,0.96921954059842,0.999999999999999,0.967462524394532,0.999999999999999
0.999999999999999,0.970827405866665,0.966011982057382,0.931212197469727,0.949746838477393,0.961892469591392,0.969645212262728,0.948169291580952,0.946956404328614,0.923790003278073,0.94953933374013,1,0.999999999999999
1,0.960300445751486,0.961496281406833,0.881672988099961,0.951543612271325,0.950602941329189,0.956112760156154,0.950477428889212,0.945995325798269,0.873130199780617,0.961604744728015,0.999999999999999,1
0.94787133416852,0.96032886304702,0.918158148268051,0.928901374568216,0.960214102604762,0.923631976311105,0.909194439748422,0.932768319512747,0.911736035559756,0.928403559370281,0.990268849864621,0.918158148268052,0.94787133416852
1,0.960750970753791,0.942025445174339,0.933842284235327,0.956608749391443,0.965824487507325,0.970569803637443,0.951769908183762,0.949814992070716,0.931381246042032,0.956639639714555,1,1
1,1,0.961066875143186,1,0.953000100801649,0.915653848531629,0.914659565725376,0.917060816357525,0.950096985997763,0.935246424817495,0.962857619647341,1,1
0.996738428249063,0.952713093896194,0.971657642679259,0.947589175201493,0.930265282107709,0.916221292394969,0.909536798624086,0.908929259089836,0.934764525261512,0.941402249061539,0.947369953361187,0.999999999999999,0.996738428249063
0.999999999999997,0.972461192346943,1,0.969965971795184,0.953542726254011,0.939889069157455,0.949704294096007,0.957207737676119,0.960189481305702,0.951031355111125,0.966105155635505,1,0.999999999999997
1,0.961916467660231,0.97624312215569,0.960516117678547,0.947969477333878,0.948952409666576,0.964691325001093,0.929379213999336,0.941497768231299,0.943927100768838,0.953314140845374,0.947092650959157,1
1,1,0.961042265362246,1,0.953921245111038,0.952037820538065,0.960010815907333,0.950188824220723,0.952063349115195,0.959503991578231,1,0.960479790035233,1
0.965823010695974,0.961370775898725,0.885061176414788,0.867082084963651,0.873078626227785,0.923815084196503,0.931551754623392,0.930704635764572,0.897138296892486,0.903760961782121,0.903265849353192,0.931596918602731,0.965823010695974
1,1,0.885491911853722,0.845003178113302,0.887192948161375,0.945716993861557,0.939843138529398,0.936474280925093,0.87425715571064,0.843779700360121,0.885672733846499,1,1
1,1,0.945387261705609,1,0.940735769951738,0.934038441851133,0.93857323687312,0.93083005990745,0.914571378899395,0.938605812860896,0.945798598020569,1,1
1,0.999999999999999,1,0.963877244117264,0.950954965323025,0.977059147344385,0.980228657887767,0.976964233187178,0.977059147344385,0.949071182285579,0.965321512620035,1,1
1,0.966144971577063,0.954246602671104,0.95999257431822,0.949507098383018,0.96855057486532,0.97719819449354,0.952734485805736,0.950419792719138,0.95999257431822,0.96810691050046,1,1
1,1,1,0.933958532189114,0.928877591393706,0.979630945670936,0.976804318026727,0.96455196450081,0.979630945670935,0.927818513417742,0.937231016747017,1,1
1,1,1,0.95744213815637,0.954624251882393,0.967728321206429,0.96661908424289,0.966367656133408,0.967728321206428,0.954813466990493,0.960206687586776,1,1
0.999999999999999,1,0.976342805697476,0.949003249098457,0.930414077040306,0.933985139811452,0.943117108962325,0.940823727907867,0.931071192562924,0.945173678724008,0.976342805697476,1,0.999999999999999
1,0.948978292173666,0.906993917063856,0.91720827690237,0.930256317063567,0.927859917553756,0.92812650956598,0.932116471048028,0.942037128082995,0.90652983672954,0.942060734460677,1,1
1,1,0.934863893534647,0.896222612747222,0.88494449485981,0.93662775166575,0.960570311442289,0.961969662458425,0.93604771103571,0.893249726786124,0.887264209692558,0.941923671228198,1
1,1,1,0.947866805084847,0.925881567864323,0.956449105132685,0.95475570879344,0.950984608201633,0.956449105132685,0.921169216001032,0.957522989744656,1,1
0.990014796681072,0.986374257054026,0.978753300956177,0.938776481095367,0.946575887073632,0.933310860299812,0.943522308079636,0.949611776387065,0.938492469585416,0.958371104336482,0.986374257054027,1,0.990014796681072
0.967422430237259,0.956256337971598,0.945377699684759,0.940279706537806,0.951350687651991,0.949025466421497,0.930970488040664,0.918860226107374,0.939759081670438,0.967422430237258,0.9562563379716,0.986090078654855,0.967422430237259
0.988014955949632,0.98809353408209,0.995090638277382,0.9326268719211,0.905990086355432,0.949821672749411,0.948091676937789,0.949430365679895,0.952659528024448,0.921664671639846,0.924142962541247,0.995090638277384,0.988014955949632
0.999999999999999,1,0.964534937856957,0.82475205785904,0.932499334214543,0.983491847084629,0.986486496978569,0.985457907592293,0.962174061044912,0.824987038538635,0.942347295526151,1,0.999999999999999
0.999999999999998,0.982857693116931,0.959269108631052,0.90848061829395,0.897652741153922,0.927763950969628,0.930206750043231,0.905464840652732,0.913692899024285,0.947269967313074,0.945610472817359,1,0.999999999999998
1,0.999999999999999,0.963696368288061,0.960955619289712,0.95629423176609,0.949871464719372,0.950716578623268,0.953976661848972,0.952051851063944,0.944945068651457,1,0.999999999999999,1
1,0.986310841126884,0.999999999999999,0.952188167380482,0.925162480841678,0.939540734571578,0.946073423646818,0.924792510417327,0.941991950789111,0.950536114931491,0.986310841126884,1,1
1,0.998661218540945,0.950705282296615,0.933161728671854,0.932018686792068,0.935785953303726,0.919175082568536,0.914163701061438,0.904106093919361,0.940463137633002,0.954368608812204,0.994201658051053,1
1,0.999999999999998,0.999999999999998,0.961809387529063,0.981773556244496,0.963011528147502,0.97895378591366,0.981773556244496,0.981915480238592,0.961412365610688,0.999999999999998,0.927015076844736,1
0.999999999999999,1,0.982189680470771,0.964109519967633,0.96497810678629,0.967931640007239,0.968853021426523,0.96497810678629,0.961933333566366,0.984108843510661,1,1,0.999999999999999
0.947624030721927,0.93647401172549,0.930081927605035,0.911731319810539,0.905077512954434,0.866951299327798,0.886838122871921,0.906965550377705,0.898576605195023,0.911348817868195,0.899203598004918,0.88186024531451,0.947624030721927
0.999999999999999,0.984368457205573,0.955830193733767,0.955121478247676,0.980025257942525,0.991004512101441,0.990188081521774,0.976725772317989,0.952462556043924,0.955562141386214,0.986471724241943,1,0.999999999999999
1,0.999999999999999,1,0.947222877282048,0.893509705923974,0.903466055847856,0.903320780884436,0.903459403077642,0.90328188285914,0.942437253992348,1,1,1
1,0.956105714885581,0.991581298495108,0.881013718951483,0.934908297674697,0.973942277178906,0.982573342166968,0.945205129282902,0.973942277178905,0.886574078662441,0.940655834901744,0.991581298495105,1
0.947002397953083,1,0.941689756639288,0.927347262745785,0.936058319212536,0.924886818188255,0.942139362554534,0.937429151185004,0.943051381976066,0.904886517597635,1,0.921692110530584,0.947002397953083
0.999999999999999,1,0.970315819496289,0.924719167478551,0.932400782199418,0.939581744624278,0.937640512696758,0.944378726120891,0.950917201547938,0.935361178425137,0.958823913194661,0.966536009843127,0.999999999999999
0.971482991063463,0.918963916993195,0.947203833179208,0.919112433372769,0.881399025304193,0.966338521374312,0.944686632269817,0.918211816801169,0.916825709388176,0.897527585695,0.898869528006126,1,0.971482991063463
0.995252351223257,0.975578978520138,0.979273646231867,0.919309187562383,0.937317992281339,0.94364227930812,0.95816799197818,0.936746639936597,0.943986612452705,0.914241866671798,0.975578978520138,0.979273646231866,0.995252351223257
0.999999999999998,0.979200898975848,0.999999999999999,0.978042342781468,0.969974120691205,0.974594457707267,0.960562628717533,0.968380531425787,0.974594457707267,0.966305320969095,0.979200898975848,1,0.999999999999998
0.999999999999998,0.97770647678687,0.916159042890832,0.942380529260882,0.903585079574153,0.952545162898576,0.9364146803497,0.905825413811287,0.908522511786078,0.943511868906126,0.906653963625048,0.938063134128941,0.999999999999998
0.977918056429856,0.999999999999999,0.940626314369155,0.874543867932235,0.875957468583209,0.920570003321793,0.931522784798279,0.944664761502744,0.919195435979999,0.876452385513997,0.881659245231827,0.940705374208858,0.977918056429856
1,1,0.975308767214087,0.938062405649051,0.93032924486559,0.961821672980179,0.961164125303825,0.960133171794033,0.961281192898096,0.95615307797526,0.937319317690975,0.963778353617754,1
0.999999999999998,1,0.952801865726532,0.928344568414429,0.943540613648603,0.952245730152471,0.960756403982781,0.961642170144172,0.945523348249806,0.923601180067993,0.955506574366799,1,0.999999999999998
1,0.915593709349023,0.901829663338081,0.929532174523493,0.939355248681488,0.923855298707108,0.929096470774639,0.898000449479282,0.901869936426487,0.915593709349023,1,0.961609601864543,1
0.996297510495488,1,0.960766200128937,0.996297510495489,0.957191528457795,0.939621404655744,0.929536561692907,0.929820833891711,0.955685537425325,0.996297510495489,0.960766200128935,1,0.996297510495488
1,0.999999999999999,0.999999999999997,0.972197008843974,0.961217468658296,0.960596324269878,0.958663975636363,0.956410955286244,0.961539346426323,0.961195144966298,0.967200788745999,0.999999999999999,1
1,0.999999999999999,1,0.916177739072123,0.941489917555195,0.957227215686894,0.959239236441583,0.951714283416919,0.958163483217059,0.916436669065674,0.960391843500893,1,1
1,1,0.910585094619257,0.874091965709554,0.888628444652665,0.890919507920633,0.902244930313021,0.889965007177722,0.919336507153663,0.838949196830688,0.880459594995689,0.978881201029173,1
1,0.94369367330177,1,0.932500822058437,0.935467427870382,0.905685713221541,0.929114219875428,0.933777221040948,0.912369711713779,0.941092439442662,0.942525686595998,1,1
1,1,0.961338781218437,0.911895008151671,0.888256027527491,0.897905317996245,0.905579617357937,0.912871203538327,0.896674912825651,0.88885747351915,0.908870090526983,0.958443708958318,1
1,1,1,0.861175727517821,0.883827067676882,0.836246848933637,0.853407605787699,0.876524236740618,0.86117572751782,1,0.96133608482348,0.999999999999999,1
1,0.973872084411085,0.999999999999999,0.971856687916601,0.950387712750602,0.950554208895864,0.948291455753997,0.944670734390515,0.945127705338242,0.973683535754846,0.999999999999999,0.999999999999998,1
0.999999999999999,0.999999999999998,0.940022944980361,0.897017861871667,0.923067977694465,0.938340404782478,0.931739782058485,0.929715960683403,0.941302897145414,0.922927977316433,0.886854485804586,0.948039154678737,0.999999999999999
0.999999999999999,1,0.93696925443077,0.903946837174964,0.90633148050447,0.91921895169399,0.918885001052376,0.904766301077413,0.891556411660441,0.942402857706295,1,0.999999999999998,0.999999999999999
1,0.955259274048705,0.999999999999999,0.960798517764893,0.924318603789312,0.928294553756604,0.923504074841596,0.925537658000041,0.946941137833189,1,1,0.999999999999999,1
1,0.999999999999998,1,0.975354737290442,0.970170835906079,0.969633524231638,0.97414704301057,0.97414704301057,0.965176933094932,0.970170835906079,0.969633524231638,0.975354737290441,1
1,1,0.999999999999998,0.961231848038112,0.903296563831856,0.918391876449448,0.904399505279594,0.905712584305125,0.918797374802105,0.905475563531459,0.919717616142893,0.999999999999998,1
0.997814657964426,0.935681460670004,0.914314059344027,0.917221513357064,0.92372797682397,0.930798675656054,0.943341787426238,0.936751322734,0.93082489401446,0.93770219023738,0.936239310467797,0.960726674571944,0.997814657964426
1,0.974067637878254,0.94693687069655,0.966368767229605,0.979863716073776,0.979455830766279,0.98018013052478,0.966368767229604,0.944141841834286,0.974067637878255,1,1,1
1,0.999999999999997,0.999999999999999,0.930142170815629,0.870522505662971,0.868316649092842,0.866975774867275,0.868321277086241,0.871053336139361,0.935899804638824,0.999999999999998,0.999999999999999,1
1,0.954310590090232,0.932488094931279,0.94163464655663,0.905680988242053,0.907758502662876,0.92498761353712,0.906419597330574,0.925939886415516,0.94163464655663,0.949712757178074,1,1
1,0.978910118505467,0.951842952878092,0.878388704446254,0.944787868349232,0.906933336720736,0.870964469870509,0.918592129599625,0.906364877037709,0.872419340505674,0.935418021125337,0.951887230920316,1
0.963978875987775,0.971705928537257,0.970707569360709,0.926608618748058,0.936670296247929,0.917515493208086,0.941385338594691,0.932399733610742,0.922498445149984,0.945104010726557,0.934614299404719,0.970707569360708,0.963978875987775
0.985303797301707,0.999999999999999,0.944662856431743,0.952648701860105,0.954581705051094,0.900860772819894,0.931673980367712,0.955420790425678,0.894153371599593,0.940748371185017,0.967076960513054,0.944662856431744,0.985303797301707
0.999999999999999,0.961527377125595,0.936204493985705,0.93719635599829,0.959374973295068,0.927802312269134,0.954848432234442,0.954171111836085,0.925240054677905,0.929650344670793,0.950991623684801,0.911316279622148,0.999999999999999
0.991201689685892,1,1,0.914928354171982,0.904859567744842,0.907171615290109,0.895656170610421,0.903086834750463,0.899022163489962,0.96109870719196,1,1,0.991201689685892
1,1,0.884117554458602,0.853050333113289,0.869919496825835,0.874180605715215,0.875468906059947,0.883170603051297,0.893829270029509,0.847506901714137,0.852612232153548,0.879704104958981,1
1,1,1,1,1,1,1,1,1,1,1,1,1
1,1,0,1,1,0,1,1,0,1,1,1,1
1,1,1,1,1,1,1,1,1,1,1,1,1
1,1,1,1,1,1,1,1,1,1,1,1,1
1,1,1,1,1,1,1,1,1,1,1,1,1
1,1,1,0,1,1,0,1,1,0,0,1,1
1,1,1,1,1,1,1,1,1,1,1,1,1
1,1,0,1,0,1,0,0,0,1,1,1,1
1,1,1,1,1,1,1,1,1,1,1,1,1
1,1,1,1,0,1,1,1,1,1,1,1,1
1,1,0,1,0,0,1,1,0,1,1,1,1
1,1,1,0,1,1,1,1,1,1,1,1,1
1,1,1,1,1,1,1,1,1,0,1,1,1
1,1,1,1,1,1,1,1,0,1,1,1,1
1,0,0,0,0,0,0,0,0,1,1,1,1
1,1,1,1,1,1,1,1,1,1,1,1,1
1,1,0,1,1,1,1,1,0,1,1,1,1
1,1,1,1,1,1,1,1,1,1,1,1,1
1,1,1,0,0,0,1,1,0,0,1,1,1
1,1,1,1,1,1,1,1,1,1,1,1,1
1,1,0,0,0,1,1,1,0,0,0,1,1
1,1,1,0,0,1,0,1,1,1,1,1,1
1,1,1,1,1,1,1,1,1,1,1,1,1
1,1,1,1,1,1,1,1,1,1,1,1,1
1,1,1,0,0,0,0,0,0,0,1,1,1
1,1,1,1,1,1,1,1,1,1,1,1,1
1,1,1,1,1,1,1,1,1,1,1,1,1
1,1,1,1,1,1,1,1,1,1,1,1,1
1,1,1,1,0,0,0,0,1,1,1,1,1
1,0,1,0,0,0,0,0,0,0,0,0,1
1,1,1,1,1,1,1,1,1,1,1,1,1
1,1,1,1,1,1,1,1,1,1,1,1,1
1,1,1,1,1,1,1,1,1,1,1,1,1
1,1,1,1,1,1,1,1,1,1,1,1,1
1,1,1,0,1,1,1,1,1,0,1,1,1
1,1,1,1,1,1,1,1,1,1,1,1,1
1,1,0,1,1,1,1,1,0,1,1,1,1
1,1,1,1,1,1,1,1,1,1,1,1,1
1,1,1,1,1,1,1,1,0,1,1,1,1
1,1,1,1,1,1,1,1,1,1,1,1,1
1,1,1,1,1,1,1,1,1,1,1,1,1
1,1,1,1,0,1,0,0,1,0,1,1,1
1,1,1,1,1,1,1,1,1,1,1,1,1
1,0,1,1,1,0,0,0,0,0,1,1,1
1,1,1,0,0,0,0,0,0,0,1,1,1
1,1,0,0,0,0,0,0,0,0,1,1,1
1,1,0,0,1,0,0,1,0,0,1,1,1
1,1,1,1,1,1,1,1,1,1,1,1,1
1,1,1,1,0,0,0,0,0,0,0,1,1
1,1,1,1,1,1,1,1,1,1,1,1,1
1,1,1,1,1,1,1,1,1,1,1,1,1
1,1,1,1,0,1,1,0,1,0,0,1,1
1,1,1,1,0,0,0,1,0,0,1,1,1
1,1,1,1,1,1,1,1,1,1,1,1,1
1,1,0,0,0,0,0,0,0,0,1,1,1
1,1,1,0,0,0,0,0,0,1,1,1,1
1,1,1,1,1,1,1,1,1,1,1,1,1
1,1,1,1,0,0,1,0,1,1,1,1,1
1,1,1,1,1,1,1,1,1,1,1,1,1
1,1,1,0,1,1,1,1,1,0,0,1,1
1,1,1,1,1,1,1,1,1,1,1,1,1
1,1,1,1,1,1,1,1,1,1,1,1,1
1,1,1,1,1,1,1,1,1,1,1,1,1
1,1,0,0,1,1,1,1,0,1,1,1,1
1,1,1,1,0,0,1,1,1,1,0,0,1
1,1,1,1,1,1,1,1,1,1,1,1,1
1,1,1,0,0,1,0,1,0,0,1,1,1
0,1,0,0,0,0,0,0,0,0,1,1,0
1,1,1,1,0,1,1,0,0,0,0,1,1
1,1,1,0,0,0,1,1,0,0,1,1,1
1,1,0,0,0,0,1,1,0,0,0,0,1
1,1,1,1,1,0,0,1,1,0,0,1,1
1,1,1,1,1,1,1,1,1,1,1,1,1
1,1,0,0,0,1,1,1,0,0,0,1,1
1,1,1,1,0,1,1,1,1,1,0,1,1
1,1,1,0,0,0,0,0,0,0,0,1,1
1,0,0,0,0,0,1,0,0,0,0,1,1
1,1,0,0,0,0,0,0,1,0,1,1,1
1,1,1,1,1,1,1,1,1,1,1,1,1
1,1,1,1,1,1,1,1,1,1,1,1,1
1,1,1,1,1,1,1,1,1,1,1,1,1
1,1,1,1,1,1,1,1,1,1,1,1,1
1,1,1,1,1,0,1,1,1,1,1,1,1
1,1,1,1,1,1,1,1,1,1,1,1,1
1,1,1,0,0,1,1,0,1,0,0,1,1
1,1,1,1,1,1,1,1,1,1,1,1,1
1,1,1,1,1,1,1,1,1,1,1,1,1
1,1,1,1,1,1,1,1,1,1,1,1,1
1,1,1,0,0,1,0,0,1,0,0,1,1
1,1,1,1,1,1,1,1,1,1,1,1,1
1,1,0,1,1,0,1,1,0,1,1,1,1
1,1,1,1,1,1,1,1,1,1,1,1,1
1,1,0,1,1,1,1,1,1,1,1,1,1
1,1,1,0,0,1,0,0,1,0,0,1,1
1,1,1,1,1,1,1,1,1,1,1,1,1
1,1,1,1,0,1,1,1,1,1,1,1,1
1,1,1,1,0,1,1,1,1,1,1,1,1
1,1,1,1,1,1,1,1,1,1,1,1,1
1,1,1,1,1,1,1,0,1,1,1,1,1
1,1,1,1,1,1,1,1,1,1,1,1,1
1,1,0,0,0,0,0,0,0,1,1,0,1
1,1,0,0,0,0,0,0,0,1,1,1,1
1,1,1,1,1,1,1,1,1,1,1,1,1
1,1,1,0,0,0,0,0,0,0,1,1,1
1,1,1,0,1,1,1,1,0,0,1,1,1
1,1,1,1,1,1,1,1,1,1,1,1,1
1,1,1,0,1,1,1,1,1,0,1,1,1
1,1,0,0,1,1,1,1,0,0,1,1,1
1,1,1,1,1,1,1,1,1,1,1,1,1
1,0,0,1,0,0,1,0,0,1,1,0,1
1,1,1,1,1,1,1,1,1,1,1,1,1
1,1,1,1,1,1,1,1,1,1,1,1,1
1,1,1,1,1,1,1,1,1,1,1,1,1
1,1,0,0,0,0,1,1,0,0,0,1,1
1,1,0,0,0,0,0,0,0,0,0,0,1
1,1,1,1,1,1,1,1,1,1,1,1,1
1,1,1,1,1,1,1,1,1,1,1,1,1
1,1,1,1,1,1,1,1,1,1,1,1,1
1,1,1,1,1,1,1,1,1,1,1,1,1
1,1,1,1,1,1,1,1,1,1,1,1,1
1,1,1,1,1,1,0,1,1,0,1,1,1
1,1,1,1,1,1,1,1,1,1,1,1,1
1,1,1,1,1,1,1,1,1,1,1,1,1
1,1,1,1,1,1,1,1,1,1,1,1,1
1,1,0,0,0,0,0,0,0,1,0,1,1
1,1,1,1,1,1,1,1,1,1,1,1,1
1,1,0,0,0,0,0,0,0,0,0,1,1
1,1,0,1,1,1,1,1,0,1,1,1,1
1,1,1,1,1,1,1,1,1,1,1,1,1
1,1,1,1,1,1,1,1,1,0,1,1,1
1,1,1,30,30,3,3,3,3,30,30,1,1
1,1,30,30,30,30,30,30,30,30,30,1,1
1,1,1,3,30,30,30,30,1,1,1,1,1
1,1,1,30,30,30,30,30,30,30,1,1,1
1,1,1,1,30,30,3,30,30,1,1,1,1
1,1,1,30,30,30,3,30,30,4,30,1,1
1,1,1,1,30,30,30,30,30,30,30,1,1
1,1,30,30,30,30,30,30,30,1,14,1,1
1,1,1,1,30,1,1,1,1,1,1,1,1
1,1,1,7,30,30,30,30,30,30,30,1,1
1,1,30,1,30,30,1,1,30,1,30,30,1
1,1,30,30,30,30,30,30,30,30,30,1,1
1,1,1,1,30,30,30,3,30,30,1,1,1
1,1,30,30,30,1,1,30,30,30,30,1,1
1,30,30,30,30,30,30,30,30,30,1,30,1
1,1,1,30,30,30,30,30,30,30,30,30,1
1,30,30,30,30,30,30,30,30,30,1,30,1
1,1,9,30,30,30,30,30,30,30,1,1,1
1,1,30,30,30,30,30,30,30,30,30,1,1
1,1,1,1,30,30,30,30,30,30,30,1,1
30,30,30,30,30,30,30,30,30,30,30,30,30
1,1,1,30,30,30,30,30,30,30,1,1,1
1,1,1,1,1,1,1,30,1,1,1,1,1
1,1,1,30,30,30,30,30,30,30,30,1,1
30,1,30,30,30,30,30,30,30,30,3,1,30
1,1,1,1,1,1,1,1,1,1,1,1,1
1,1,1,4,5,3,4,30,4,1,1,1,1
1,1,1,1,1,1,1,1,1,1,1,1,1
1,1,1,30,30,30,30,30,30,1,1,1,1
1,30,30,30,30,30,30,30,30,30,30,30,1
1,1,1,13,30,1,1,1,1,12,30,1,1
1,1,30,1,1,1,1,1,30,1,1,1,1
1,1,1,30,30,30,7,4,1,1,1,1,1
1,30,1,30,30,30,30,30,30,30,30,1,1
1,1,1,1,1,1,1,1,1,1,1,1,1
1,1,1,1,3,3,1,1,3,3,1,1,1
1,1,30,30,1,1,1,1,30,30,1,1,1
30,30,30,30,30,30,30,30,30,30,30,1,30
1,1,30,30,30,30,30,30,30,9,1,1,1
1,1,1,1,1,1,1,1,1,1,1,1,1
1,1,1,30,30,30,30,30,30,30,1,1,1
1,1,1,30,30,30,30,30,30,30,3,1,1
1,1,1,30,30,30,30,30,30,30,30,1,1
1,30,1,1,30,30,30,30,30,30,1,30,1
1,1,30,30,30,30,30,30,30,30,30,1,1
1,30,30,30,30,30,30,30,30,30,30,1,1
1,1,30,30,30,30,30,30,30,30,1,1,1
1,30,30,5,4,30,4,30,30,1,1,1,1
1,1,30,30,30,30,30,30,30,30,30,30,1
1,1,30,30,30,1,1,1,30,30,30,1,1
1,1,1,1,1,1,1,1,1,1,1,1,1
1,1,7,30,30,30,30,30,30,30,30,15,1
1,1,13,30,30,30,30,30,30,30,30,1,1
1,1,1,30,30,30,30,30,1,1,1,1,1
1,1,30,30,30,30,30,30,30,30,1,30,1
1,1,30,30,30,30,30,30,30,1,1,1,1
1,1,1,1,30,30,30,10,30,1,1,1,1
1,1,30,30,30,30,30,30,30,30,1,30,1
1,1,30,30,1,1,30,1,30,1,1,1,1
1,1,7,30,19,3,3,3,9,30,30,1,1
1,1,30,1,1,30,30,1,1,30,1,1,1
1,30,1,1,30,30,30,30,30,3,30,23,1
1,1,1,30,30,30,30,30,30,30,30,1,1
1,1,30,30,30,1,1,1,30,30,30,1,1
1,30,1,7,30,1,1,30,1,17,30,30,1
1,1,30,4,3,3,4,3,7,1,1,1,1
1,1,30,30,30,30,30,30,30,30,30,1,1
30,30,30,30,30,30,30,30,30,30,30,30,30
1,30,1,30,30,30,30,30,30,30,30,1,1
1,1,30,30,30,30,30,30,30,30,30,30,1
1,1,30,30,30,30,30,30,30,30,30,30,1
1,1,30,1,9,30,30,30,30,30,30,30,1
1,1,1,1,1,1,1,1,1,1,1,1,1
1,1,30,30,30,1,1,1,30,30,30,1,1
1,1,1,30,1,1,1,1,1,30,30,1,1
30,30,30,30,30,30,30,30,30,30,30,30,30
1,30,30,30,30,30,30,30,30,30,30,30,1
30,1,30,30,30,30,30,30,30,30,1,30,30
1,1,1,30,30,3,6,30,3,30,30,1,1
1,1,1,30,30,30,30,30,30,30,1,1,1
1,1,10,1,30,30,30,30,30,30,30,17,1
1,1,1,1,1,30,30,30,30,1,1,1,1
1,30,1,1,30,30,30,30,30,1,1,1,1
1,1,1,1,30,30,30,30,30,30,1,1,1
1,30,30,30,30,30,30,30,30,30,30,30,1
1,1,1,30,30,30,30,30,30,30,1,1,1
1,1,1,1,1,1,1,1,1,1,1,1,1
1,1,1,1,1,1,1,1,1,1,1,1,1
1,30,1,30,30,1,30,30,30,30,30,1,1
1,1,1,1,1,1,1,1,1,1,1,1,1
1,1,30,1,1,30,1,1,30,1,1,30,1
1,1,1,1,30,30,30,30,30,1,1,1,1
1,30,30,30,30,30,30,30,30,30,1,22,1
1,30,1,30,30,30,30,30,30,30,30,30,1
1,1,30,30,30,1,1,1,30,30,30,1,1
1,1,1,30,30,30,30,30,30,30,30,1,1
1,1,30,30,30,30,30,30,30,30,30,1,1
1,1,1,3,1,1,1,1,3,1,1,1,1
1,1,1,30,30,4,30,30,1,30,13,1,1
1,1,1,1,1,30,30,30,30,30,1,1,1
30,30,30,30,30,30,30,30,30,30,30,30,30
1,1,30,30,30,30,30,30,30,30,1,1,1
1,1,1,30,30,1,1,1,1,30,30,1,1
1,1,30,30,30,30,30,30,30,30,30,1,1
1,1,30,30,30,30,30,30,30,30,30,1,1
1,1,1,1,1,1,1,1,1,1,1,1,1
1,1,9,30,3,20,3,3,10,30,1,16,1
1,1,30,30,30,30,30,3,30,30,30,1,1
1,1,1,1,30,1,1,1,1,30,1,1,1
1,30,30,30,30,30,30,30,30,1,29,30,1
1,1,1,30,30,30,30,30,30,1,1,1,1
1,1,30,30,1,3,1,1,30,30,1,1,1
1,1,30,30,30,30,30,30,19,1,1,30,1
1,1,30,30,30,30,30,1,30,30,30,30,1
1,30,30,30,30,30,30,30,30,30,30,30,1
1,1,30,1,1,30,1,1,30,1,1,30,1
1,1,1,1,1,1,1,1,1,1,1,1,1
1,1,11,30,30,30,30,30,1,1,30,1,1
1,1,1,1,1,1,1,1,1,1,1,1,1
1,1,30,4,1,1,3,4,30,1,1,1,1
1,1,1,30,30,30,30,30,30,30,1,1,1
1,30,1,8,30,30,30,30,30,30,1,1,1
1,1,1,30,30,30,30,30,30,30,30,1,1
1,1,1,1,1,1,1,1,1,1,1,1,1
1,1,30,30,30,30,30,30,30,1,30,1,1
1,30,30,30,30,30,30,30,30,30,30,1,1
1,1,30,30,30,30,30,30,30,30,30,30,1
1,8,30,30,30,30,4,10,30,27,30,1,1
1,1,7,1,30,30,30,30,30,30,1,1,1
1,1,9,30,30,30,30,30,30,30,3,1,1
1,1,1,1,1,1,1,1,1,3,1,1,1
1,1,1,30,7,1,3,4,30,30,1,1,1
1,1,1,1,1,1,1,1,1,1,1,1,1
1,1,1,30,6,4,4,7,5,4,1,1,1
1,1,1,1,1,1,1,1,1,1,1,1,1
1,1,1,1,15,1,1,1,1,1,1,1,1
1,1,1,1,1,1,1,1,1,1,1,1,1
1,1,30,30,30,1,30,30,30,1,7,1,1
1,1,1,1,1,1,1,1,1,1,1,1,1
1,1,1,1,1,1,1,1,1,7,1,1,1
1,1,1,1,1,30,1,1,1,1,9,1,1
1,1,1,30,30,1,1,1,30,30,1,1,1
1,1,1,1,1,1,1,1,1,1,1,1,1
1,1,30,30,1,1,1,1,30,30,1,1,1
1,1,1,30,1,1,3,1,1,1,1,1,1
1,1,1,1,30,30,30,30,30,30,30,1,1
1,1,30,30,1,30,1,30,30,1,1,1,1
1,1,1,1,1,1,1,1,1,1,1,1,1
1,1,1,1,1,1,1,4,1,1,1,1,1
1,1,1,1,1,1,1,1,1,1,1,1,1
1,1,5,30,30,1,1,1,30,30,30,1,1
1,1,1,30,30,30,30,30,24,30,1,1,1
1,1,1,1,1,1,1,1,1,1,1,1,1
1,1,1,13,30,3,3,3,3,12,30,1,1
1,1,1,30,30,1,1,1,30,1,1,1,1
1,1,1,1,1,1,1,1,1,1,1,1,1
1,1,1,1,1,1,1,1,1,1,1,1,1
1,1,1,1,1,1,1,1,1,1,1,1,1
1,1,1,30,30,30,30,30,30,1,1,1,1
1,1,1,1,1,1,1,1,3,1,1,1,1
1,1,1,8,30,1,1,1,1,8,17,1,1
1,1,1,1,1,1,1,1,1,1,1,1,1
1,1,1,1,1,1,1,1,1,1,1,1,1
1,1,1,1,30,1,1,30,1,30,1,1,1
1,1,1,1,1,1,1,1,1,1,1,1,1
1,1,1,1,1,1,1,1,1,1,1,1,1
1,1,30,30,1,1,1,1,30,30,1,1,1
1,1,3,30,1,1,30,1,3,30,1,1,1
1,1,1,4,3,2,1,1,3,1,1,1,1
1,1,1,1,1,1,1,1,1,1,1,1,1
1,1,1,1,1,1,1,1,1,1,1,1,1
1,1,1,1,1,1,1,1,1,1,1,1,1
1,1,1,1,1,1,1,1,1,1,1,1,1
1,1,1,1,12,30,3,30,30,5,1,1,1
1,1,1,30,30,30,15,6,1,3,1,1,1
1,1,1,1,1,1,3,30,1,4,1,1,1
1,1,4,1,30,1,1,30,5,30,1,1,1
1,1,1,1,1,1,1,1,1,1,1,1,1
1,1,1,30,5,30,30,30,30,30,30,3,1
1,1,1,30,1,1,1,1,1,30,1,1,1
1,1,1,1,1,1,1,1,1,1,1,1,1
1,1,1,20,6,3,1,1,1,4,1,1,1
1,1,1,30,30,1,30,30,30,1,1,1,1
1,1,1,1,1,1,1,1,1,1,1,1,1
1,1,30,30,30,1,30,1,30,1,1,1,1
1,1,1,1,30,7,3,3,1,1,1,1,1
1,1,1,1,1,1,3,1,1,1,1,1,1
1,1,1,30,30,30,30,30,24,1,1,1,1
1,1,1,1,1,1,1,1,1,1,1,1,1
1,1,5,30,15,1,1,1,7,30,30,1,1
1,1,1,1,1,1,1,1,1,1,1,1,1
1,30,1,1,30,30,1,30,1,1,30,14,1
1,1,1,1,1,1,1,3,3,1,1,1,1
1,1,30,30,30,1,1,1,1,30,30,1,1
1,1,1,1,1,1,1,1,1,1,1,1,1
1,1,5,1,1,1,1,1,5,1,1,1,1
1,1,30,30,30,30,30,30,30,30,30,1,1
30,1,1,30,30,3,30,1,3,4,1,1,30
1,1,1,18,3,30,3,4,30,14,1,1,1
1,1,1,30,1,1,1,1,1,30,1,1,1
1,1,1,1,30,11,1,3,1,1,30,1,1
1,1,1,1,1,1,1,3,19,3,1,1,1
1,1,1,1,1,1,1,1,1,1,1,1,1
1,1,1,1,1,1,1,1,1,1,1,1,1
1,1,1,1,1,1,1,1,1,1,1,1,1
1,1,30,30,30,30,30,30,30,30,30,30,1
1,1,30,30,30,30,1,30,1,30,30,1,1
1,1,30,1,30,30,30,1,1,30,1,1,1
1,1,1,1,1,1,1,1,1,1,1,1,1
1,1,1,1,3,4,5,4,5,1,1,1,1
1,1,1,1,1,4,1,1,30,1,30,1,1
1,1,1,1,1,1,1,1,1,1,1,1,1
1,1,1,1,30,30,30,30,30,1,1,1,1
1,1,1,1,1,1,1,1,1,1,1,1,1
1,1,7,30,3,15,1,4,9,1,1,9,1
1,1,1,1,1,1,1,1,1,1,1,1,1
1,1,1,1,1,1,1,1,1,1,1,1,1
1,1,1,1,1,1,1,1,1,1,1,1,1
1,1,1,1,1,1,1,1,1,1,1,1,1
1,1,1,1,1,1,1,1,1,1,1,1,1
1,1,1,1,1,30,1,1,6,1,1,1,1
1,1,1,1,1,1,1,1,1,1,1,1,1
1,30,30,30,30,30,30,30,30,30,1,6,1
1,1,1,1,1,1,3,1,1,1,1,1,1
1,1,1,25,1,1,1,1,1,30,1,1,1
1,1,1,1,1,1,1,1,1,30,1,1,1
1,1,1,30,30,30,30,30,30,30,1,1,1
1,1,1,1,1,1,1,1,1,1,1,1,1
1,1,1,30,1,1,1,1,1,30,1,1,1
1,1,1,1,1,1,3,3,3,1,1,1,1
1,17,1,1,30,30,1,30,30,1,1,1,1
1,1,30,30,30,30,30,30,30,30,1,1,1
1,1,1,1,1,1,1,1,1,1,1,1,1
1,1,1,1,1,1,1,1,1,1,1,1,1
1,1,1,30,30,1,1,1,30,30,1,1,1
1,1,1,1,1,1,1,1,1,1,1,1,1
1,1,5,30,1,15,1,1,6,30,1,9,1
1,1,1,1,5,1,1,1,1,1,1,1,1
1,1,1,1,1,1,1,1,1,1,1,1,1
1,1,1,1,1,30,1,1,1,1,1,30,1
1,1,1,1,1,1,1,1,1,1,1,1,1
1,1,1,8,1,1,1,1,4,1,1,1,1
1,1,12,1,1,12,1,1,4,1,1,7,1
1,1,30,1,1,30,1,1,30,1,1,30,1
1,1,30,7,4,1,1,4,30,1,1,1,1
1,1,1,1,1,1,1,1,1,1,1,1,1
1,1,1,1,1,1,1,1,1,1,1,1,1
1,1,1,1,9,1,1,1,1,1,8,1,1
1,1,1,1,1,1,1,1,1,1,1,1,1
1,1,1,1,1,1,1,1,1,1,1,1,1
1,1,1,1,1,1,1,1,1,1,1,1,1
1,1,1,1,1,1,1,8,1,1,1,1,1
1,1,1,1,3,3,3,3,3,3,1,1,1
1,1,1,1,1,1,1,1,1,1,1,1,1
1,1,1,1,1,1,1,1,1,1,1,1,1
1,1,1,1,3,1,1,1,1,1,1,1,1
1,1,30,1,1,30,1,1,30,1,1,1,1
1,1,30,1,1,1,1,1,1,1,1,1,1
1,1,4,1,3,3,3,3,7,3,1,1,1
1,1,1,1,1,1,1,1,1,1,1,1,1
1,1,0.999999999999999,0.94537463807169,0.94267449775825,0.969848327862759,0.966156047948707,0.968011287786046,0.965892220141121,0.925164075852599,0.953098554157941,0.999999999999999,1
0.991762146122458,0.989441559619129,0.925961152085733,0.908565001334549,0.926120035376623,0.933083393922077,0.928773760420246,0.927585860206553,0.909724611876641,0.904531868174444,0.931699661786716,0.960874855030481,0.991762146122458
1,1,0.983147870868094,0.962056119781952,0.942123615403124,0.940339089925836,0.943381793323259,0.945940420544191,0.960206136540972,0.982525736970029,1,0.983591407746826,1
1,1,1,0.898081065387832,0.926469588556842,0.932125921558801,0.936081112624999,0.919153874872498,0.917851047066916,0.949203758684802,1,0.999999999999999,1
0.999999999999999,0.983417344177354,0.974148501279643,0.976171779321838,0.944212752255292,0.936290835986454,0.960166146471021,0.943576254728463,0.935228849441229,0.977136625392531,0.983417344177353,0.974148501279645,0.999999999999999
0.999262733230247,1,1,0.959526905854732,0.941002212823935,0.959601854896074,0.961243761223852,0.957431656066114,0.959601854896073,0.960051250323156,0.944862951280727,1,0.999262733230247
1,0.999999999999998,1,0.980946582128439,0.95333546785066,0.937777200542223,0.942103778816648,0.941502173000153,0.939057234259139,0.943079270153647,0.957141395976006,0.98094658212844,1
1,1,0.881296825203231,0.887194061608167,0.870863541634288,0.916171242769499,0.905698728116997,0.902440129871146,0.891704788051474,0.999999999999998,0.961508019048079,0.993346598040612,1
1,1,0.964750627728467,0.968401739162991,0.952621972303613,0.96703695484867,0.968401739162991,0.970034335515319,0.965479567486697,1,0.970186008462362,1,1
0.999999999999999,0.999999999999999,0.991096289561321,0.966988947906012,0.931602137325688,0.93572913002215,0.938468325891505,0.939510891579425,0.933863552277334,0.935239194509826,0.954845063703297,0.991096289561321,0.999999999999999
0.999999999999999,1,0.918877508664509,0.969360767632012,0.910378527471119,0.901397093258679,0.969360767632012,0.971266660289457,0.924387521783565,1,0.922736113927182,0.926751116488827,0.999999999999999
1,0.999999999999996,0.930850145012875,0.822109477518627,0.900059579125294,0.934468899209319,0.929988468330999,0.932657168892094,0.888270310254816,0.822916398813784,0.94096911640201,1,1
0.999999999999999,1,1,0.96486818529928,0.952439907513731,0.956393905462079,0.955466901176538,0.960680797191002,0.952837770941602,0.955926218930931,0.967242414588463,1,0.999999999999999
0.999999999999999,0.961330535122819,0.89456829566954,0.882279050889421,0.934950987653458,0.962799555446715,0.963867830235653,0.934796085236195,0.88178486918383,0.896536306255783,0.958364664347019,1,0.999999999999999
0.999999999999999,0.938923404847263,0.933055658568277,0.899228315318871,0.939076578522285,0.947801261936704,0.92238416643588,0.952004014555127,0.953727368041667,0.94277002792497,0.981643777359104,0.945116688053826,0.999999999999999
1,1,0.999999999999998,0.931569649445499,0.859671029271371,0.881868342349402,0.894567145752609,0.882619611977073,0.884782282711386,0.886941793263754,0.853657132276703,0.931569649445499,1
1,0.917717819716179,0.872875058700492,0.904235020257793,0.951992532260186,0.905565512266682,0.953813857189707,0.904244522621834,0.879583648059105,0.917717819716179,0.999999999999999,0.928351428721814,1
1,1,0.960580026888115,0.919817494829724,0.942197189385739,0.936224277758766,0.939974105220847,0.939830339877066,0.93102870464576,0.947502852766613,1,0.999999999999999,1
1,1,0.927153879750412,0.924690684036973,0.930964375268293,0.918633904512958,0.918911205874198,0.913120111624235,0.942380938747532,0.916105147783014,0.920173478531316,0.999259304602022,1
1,1,0.999999999999999,0.96021161913433,0.925694748573488,0.918327794923487,0.924873314658535,0.914056572564124,0.920642589650651,0.924412351805778,0.957792663301136,0.999999999999999,1
0.957390773135402,0.948931218877431,0.919189425547388,0.891554794800767,0.869119364560974,0.944015529695076,0.943208743814989,0.934037529479266,0.907179966639691,0.887529251516638,0.869558764606376,0.954582602803414,0.957390773135402
0.974522642269733,1,0.999999999999997,0.892321054027819,0.875260346822744,0.873494283302117,0.902037403746621,0.877544761565254,0.918047458287316,0.87678446491411,1,0.999999999999998,0.974522642269733
1,0.968862405647607,0.999999999999999,0.966983697596515,0.969837303310851,0.966143892911866,0.96713459952537,0.951892502405648,0.966143892911866,0.968862405647607,1,0.999999999999999,1
0.999999999999999,0.999999999999998,1,0.932402921593721,0.893065618903057,0.958988965970154,0.93606698551382,0.959165013566964,0.954357109535633,0.957148341001044,0.874023482176405,1,0.999999999999999
0.943765416178827,1,0.959785397638194,0.887050169826447,0.895836396878905,0.922295464876772,0.922844652822001,0.91264097188966,0.896476239175249,0.921545170058895,0.966818255214903,0.999999999999997,0.943765416178827
1,0.999999999999999,0.999999999999998,0.985898496461132,0.976418969760293,0.984501002456698,0.992605800701321,0.988926809614883,0.984501002456698,0.98008081567095,0.982994838949849,0.999999999999998,1
1,1,0.972781153295402,0.962366991336596,0.960989385609593,0.960661438369919,0.960343895799295,0.959559501056295,0.961027324469891,0.970755735077452,1,0.972781153295402,1
0.999999999999999,0.999999999999998,0.998255677800314,0.995471646117558,0.994270850692551,0.992261977510691,0.991934375151725,0.994270850692552,0.9959824915152,0.997774470256809,0.999999999999998,0.998255677800314,0.999999999999999
0.979073267712993,1,0.97930163795778,0.886955037751852,0.900058995450706,0.882413831335754,0.885886239021821,0.899319686269815,0.887006734915748,0.979073267712993,1,0.979301637957779,0.979073267712993
0.979301881300756,0.958718591269276,0.918474555220474,0.937932880632872,0.949299918574781,0.944179488928336,0.946928949633071,0.947720603256509,0.912085613941695,0.940495309317925,0.954089132184969,0.93636053429845,0.979301881300756
1,0.993804100818674,0.999999999999999,0.965865750736097,0.887964471332964,0.976219392887318,0.975510262004766,0.975742711715846,0.976219392887318,0.965239552350265,0.954587111685069,1,1
1,1,0.917414103680674,0.97149749502593,0.971342667397777,0.96679311315768,0.97149749502593,0.971342667397777,0.921057133921788,1,1,1,1
0.999999999999999,0.983370257593947,0.965067833297997,0.954170975843297,0.948439554418322,0.951197413174954,0.960052087561577,0.961210168019158,0.9676948898259,0.983370257593947,0.999999999999999,1,0.999999999999999
1,0.949129453815723,1,0.951419055864895,0.905150705855649,0.928706154458333,0.927543420873845,0.906372014318256,0.927123581891517,0.905087083251316,0.944518583627154,1,1
0.988209159803763,0.995981701171051,0.999999999999998,0.964117655160222,0.983770888680691,0.98395952656933,0.975806028497041,0.983770888680692,0.98395952656933,0.962251488453624,0.99598170117105,0.999999999999998,0.988209159803763
1,1,0.983924469537639,0.961836941784712,0.966599483054585,0.966890579780904,0.961380421791397,0.963141451003466,0.968885009681025,0.963056399224035,0.983924469537639,0.999999999999999,1
0.999999999999999,0.999999999999999,0.886330163337498,0.880071295865434,0.966364152804439,0.963386876792078,0.961716199659275,0.966364152804438,0.863663053217777,0.880048942345084,1,0.999927707936598,0.999999999999999
0.918633867814242,0.930344702734986,0.940923738294542,0.795342561682858,0.919725162666826,0.946100391394024,0.906997336797041,0.919635891748263,0.938721619570712,0.798882032218723,0.930344702734988,0.962141778269741,0.918633867814242
1,1,0.936354636751423,0.924226312411564,0.928248261997114,0.936045482074977,0.936924947942179,0.927001994441433,0.911743159027287,0.9602206507048,1,1,1
1,1,0.994300159576517,0.983940418890033,0.976690461114304,0.974012339895595,0.975651029579455,0.976735187134092,0.974607657271901,0.982783978749738,0.994300159576518,1,1
1,1,0.964621951958905,0.929960188044055,0.935729105729247,0.934105918796059,0.943610676029465,0.946626591185844,0.938272465427264,0.920642593115257,0.964621951958905,0.999999999999999,1
0.988849578799717,0.999999999999999,0.999999999999999,0.94910715442252,0.933621808620478,0.941536718748249,0.931076937074955,0.936272112266177,0.941200638252818,0.929393405264033,0.961006282127487,1,0.988849578799717
1,1,1,0.949626400324671,0.922085463325296,0.947516846959683,0.952265480578048,0.952596218230472,0.947125657479462,0.917848504200575,0.954132216829173,1,1
0.99026278750303,0.941237889852405,1,0.990262787503028,0.951183331445474,0.890152496973912,0.911147191226679,0.901870235784134,0.887138724672321,0.917769503287083,0.991946550038103,0.955837617897081,0.99026278750303
0.966744358481397,1,0.942091164482155,0.905863528672087,0.896067755111192,0.908387182744453,0.911187746553703,0.914116919011999,0.921658636000887,0.922308144340963,0.941948953623507,1,0.966744358481397
0.979734479445611,0.933355100634808,0.952608762369344,0.927066034478001,0.938195935852509,0.948822583280414,0.928123162674367,0.909294707387588,0.946959689144385,0.925888503659259,0.945399172504432,0.980975875805134,0.979734479445611
1,0.999999999999999,0.947261786011792,0.918514833185306,0.87482450812464,0.955882645815174,0.91875578415927,0.877592081465643,0.920230012852208,0.894137536671577,0.999999999999999,0.975196675183756,1
1,0.95140208951488,0.926877314090324,0.960873483056142,0.96000412179338,0.959210191921111,0.960313553192756,0.934300513157119,0.952139077685103,1,1,1,1
1,1,0.920255288988825,0.896638838205479,0.921241188426833,0.866086216989157,0.888917743618711,0.908026929543474,0.875346561509398,0.899184292910963,0.895070954608034,0.958811106237865,1
1,1,0.956709529594947,0.907168518916257,0.955381018557601,0.995735244766815,0.995269918642677,0.99668942133411,0.955447468856127,0.907028887054173,0.95664920475095,0.999999999999999,1
1,1,1,0.984848460422313,0.97819597446895,0.975328305125829,0.985108525905596,0.982713271782482,0.976402554405347,0.976962605511595,0.984059299615429,1,1
0.999999999999998,1,0.961853931310154,0.929213453057869,0.912850715216249,0.932792801405664,0.931656287110976,0.928931208659588,0.930414187907236,0.914962441444627,0.92844729430683,0.960375926024027,0.999999999999998
0.999999999999999,0.999999999999999,0.960604029085419,0.8980573295461,0.9075307085344,0.955250918184365,0.906972482395301,0.901231337858564,0.904151745737258,0.914800264127752,0.938225632476053,0.998419477312298,0.999999999999999
0.999999999999999,0.999999999999998,0.969188798724983,0.931589484111579,0.934771077881542,0.939071540500262,0.937899007124072,0.94244143836378,0.966054881199756,0.999999999999999,0.969188798724984,1,0.999999999999999
0.965009360814762,0.96653447003561,0.898076562977121,0.889735210001372,0.893066204974426,0.923220186617036,0.892105486322052,0.917742329518363,0.904428542364035,0.924382588271443,0.96653447003561,0.930872587962406,0.965009360814762
0.987882010986948,1,0.939272612346537,0.93727089777292,0.909500308448642,0.925994339835056,0.915254632174801,0.910008864659622,0.940284540867211,0.987882010986946,1,0.988815515129526,0.987882010986948
1,0.999999999999998,1,0.973647575564839,0.953229999415448,0.954103783314437,0.955135595345908,0.960160373165089,0.954697827427293,0.981358639396633,0.999999999999999,1,1
0.999999999999999,1,0.94622599193162,0.861841594031308,0.888628868850147,0.884364967518306,0.869884055464086,0.89574559280616,0.924268696383212,0.956640084916162,1,0.958773725687338,0.999999999999999
0.966664418124554,1,0.957506968731822,0.932522967231546,0.969935578063256,0.970724060759201,0.930590384141434,0.969935578063256,0.948764805084505,0.966664418124556,1,1,0.966664418124554
0.999999999999998,1,0.964415513135432,0.84872285423517,0.960217894310013,0.967523413868869,0.966322665048886,0.968656023260462,0.963447031704917,0.858178673298872,0.877845180980777,0.999999999999999,0.999999999999998
1,0.970344316808704,0.954978411419415,0.968424482031533,0.968181348354057,0.952919062501561,0.954409171076789,0.966772822727519,0.968424482031533,0.957385983322531,0.972018652549522,1,1
1,0.885226341426787,0.999999999999999,1,0.869211890924945,0.916232146031668,0.955954886660942,0.86888851565517,0.95265995453236,0.960289133043917,0.850365008295281,0.962954113813309,1
0.999999999999999,0.988788877319788,0.979273967611431,0.959559691146316,0.935333559667396,0.925113928200855,0.950890335841241,0.928639432068104,0.925348662544694,0.943597734922056,0.951316940665504,0.979273967611429,0.999999999999999
1,1,0.909482494793464,0.861761973789587,0.890477378230985,0.963959738537283,0.965765715689897,0.975829183606803,0.912282627684155,0.912340362914747,0.901345773159082,0.999999999999999,1
1,0.946216585607414,0.99677972662843,0.961063007385984,0.950938593843839,0.960534188220156,0.972435043263112,0.949998178507005,0.971561895605966,0.960509411117588,0.944493239025275,0.954592014497526,1
1,1,0.955222994176254,0.966514553810161,0.96537190768474,0.962037563486126,0.966514040227076,0.962435476401116,0.964545422675619,1,1,0.999999999999998,1
1,1,0.876714566230053,0.802146420137373,0.814858337379602,0.832368618721076,0.837832632600704,0.842939789664261,0.810121918604107,0.835115083123326,0.872445198246302,0.999999999999999,1
0.905095927623103,0.958541163690752,0.947776430045995,0.905153942777246,0.909398996407888,0.932128893559267,0.90021375802944,0.923992965718726,0.933974210429795,0.910241460155858,0.958541163690753,0.944726131906103,0.905095927623103
0.973639441801377,0.925662348493467,0.963738654886105,0.932457916200785,0.923843095216688,0.905722552580964,0.912549908096743,0.914086290126319,0.906977343092347,0.921682277157589,0.921135014901462,0.963738654886104,0.973639441801377
0.981959467761072,1,0.932317239702593,0.894935829661941,0.939168778573033,0.942780145759065,0.919183576854644,0.93187920570244,0.942780145759065,0.882121914181919,0.91872467904361,0.932317239702595,0.981959467761072
0.990103175716387,1,0.923983501981506,0.924474679875354,0.902961234616656,0.915386893103189,0.915565592845731,0.924514161587035,0.922091758612151,0.929484683371029,0.908072036488992,0.930260266394675,0.990103175716387
0.96436126464829,0.999999999999999,0.940015070159702,0.96436126464829,0.961598459972031,0.918568691160682,0.952180330773686,0.919746462047928,0.913421949877509,0.918432747979457,0.910538800037988,0.939538944661984,0.96436126464829
1,1,0.999999999999999,0.969607751379373,0.968546979068575,0.969607800020301,0.970770963807731,0.968546979068576,0.969607800020301,0.972877584443523,1,0.999999999999998,1
0.999999999999999,1,0.938857596008562,0.930441953134571,0.958250778348966,0.963399765174927,0.967968830399504,0.969926405901017,0.946363434442584,0.938217466580641,0.959445861393993,1,0.999999999999999
1,1,1,0.948611771596006,0.960789668855285,0.972796901245833,0.968065463226512,0.967359675613479,0.972796901245833,0.944852226505726,0.959708532280365,1,1
0.958140612992859,0.936657559454343,0.863355669906475,0.855116672196393,0.846420372328663,0.870109890016203,0.871968115015035,0.864246783081864,0.859958437067709,0.858059839355494,0.831023395674152,0.866135884128964,0.958140612992859
1,0.915839044514985,0.905244021215561,0.887284553505609,0.895465888797754,0.903558043447409,0.952098782004927,0.900282844607902,0.910323803223652,0.891625519603333,0.888223014944886,0.919132100784768,1
0.914195772611077,0.964665291128908,0.907025196881813,0.910864472630644,0.908820117072307,0.908932840806748,0.90775420918891,0.91345968619662,0.925492415091595,0.907417317261738,0.964665291128909,0.925492415091595,0.914195772611077
0.999999999999998,1,1,0.951835673852098,0.9308657421701,0.961527807576639,0.960714281758734,0.958495073035002,0.960216440323502,0.922008269364148,0.943841620669755,1,0.999999999999998
1,1,1,0.926447054985296,0.921575715806338,0.920356562950865,0.916460266839008,0.923726790989305,0.918737749513645,0.928677018151905,1,1,1
1,1,0.960415492342413,1,0.926404862404347,0.922712197715444,0.936166995268476,0.928335077121873,0.907076055371481,0.933379825867791,0.884768783569969,0.960047690616872,1
0.999999999999999,0.999999999999998,0.96549671708334,0.999999999999999,0.966577944152658,0.953803534231829,0.956008302780233,0.957710145993835,0.944207645367183,0.966577944152658,0.999999999999997,1,0.999999999999999
1,0.952490850941806,0.970144393246156,0.963139614879469,0.901511081140019,0.890062918297581,0.897658959045229,0.888483410864634,0.891603822602045,0.962643442443939,0.987381503484376,0.970144393246156,1
0.999999999999998,1,0.991976551662948,0.97690323220065,0.946504049237576,0.941112369095078,0.956428014821902,0.954523573233437,0.936686164825849,0.947988279306019,0.976190213794812,0.991976551662948,0.999999999999998
0.975920585232926,0.94649635933815,0.94611560913189,0.906436497835048,0.920523820138085,0.92259063978497,0.940683820048899,0.915609299266183,0.921395547948217,0.923131097805341,0.926101773891898,0.948500851055909,0.975920585232926
0.999999999999999,0.999999999999999,0.970050662736981,0.950122696001013,0.95304568495735,0.953762301738979,0.954838804427161,0.954261844918663,0.954417429537787,0.957137296701132,0.970050662736981,0.999999999999999,0.999999999999999
1,1,0.977314272480883,0.980064445618677,0.966123109817821,0.967758078615647,0.967758078615647,0.980064445618677,0.966123109817821,1,0.980064445618677,1,1
1,0.999999999999999,0.961692728925828,0.969314639827829,0.964072090447867,0.966364844224017,0.96160337473369,0.960729946289344,1,0.969314639827829,0.964072090447867,0.966364844224018,1
0.966038245270397,0.950748384818009,0.978135380331478,0.937515513436933,0.93675176791618,0.973086088595782,0.939763905139099,0.937255523928437,0.95642305255712,0.939763905139099,0.937255523928437,1,0.966038245270397
0.999999999999999,1,1,0.992038067303165,0.983259101236211,0.982999065228002,0.984543818774317,0.982999065228002,0.984543818774316,0.983259101236211,0.991136747896415,1,0.999999999999999
0.999999999999999,0.999999999999999,0.919444603830349,0.999999999999999,0.97673509535148,0.905989376349331,0.986129968154808,0.985280735754754,0.922934981033009,0.986129968154808,0.970211583106597,0.919109202622286,0.999999999999999
0.999999999999999,0.999999999999999,0.979390095416962,0.963467225453164,0.959962257233835,0.951296697080156,0.946874348268762,0.951503044380063,0.959900549018587,0.960755573386082,0.979390095416962,1,0.999999999999999
1,0.905321234360279,0.835555972948109,0.829911224739551,0.859525313533866,0.852198232424079,0.865874198802727,0.843805128532777,0.867076972124214,0.905321234360279,0.999999999999999,0.960074441728157,1
0.966289117605164,0.949403298292286,1,0.939349123854957,0.93969758679075,0.937425501610297,0.927309840487587,0.922540273594451,0.948864407654969,0.936527767145309,0.931075712202547,0.957923168842946,0.966289117605164
1,1,0.925539090313652,0.931543472074267,0.922696428868402,0.966519243656891,0.969986849754595,0.970590352721874,0.911836830809817,0.907267393852216,0.929141763924442,1,1
0.999999999999999,1,0.999999999999999,0.946530876714157,0.947268594385939,0.948630290712521,0.942776577759867,0.947575657964507,0.948630290712521,0.905833551141727,0.942790092585604,0.999999999999999,0.999999999999999
0.999999999999998,1,0.942597762803248,0.88064487552283,0.838139533048763,0.845254395134421,0.832618281118158,0.848879767740292,0.838100268144299,0.828253730772257,0.935884814322625,0.999999999999998,0.999999999999998
1,1,0.973040698259416,0.960014605758454,0.976145997695133,0.967265843152938,0.970318647871801,0.976145997695133,0.961987958737493,0.969290293618029,1,1,1
1,0.994639383211725,1,0.902421178746537,0.945831504403105,0.961297335276681,0.954148876375546,0.945226205530474,1,0.910850975748439,0.963234335140143,1,1
1,1,1,1,0.962920155064769,0.935795335621579,0.935182095389622,0.930956107970773,0.92289493584832,0.930616707263514,0.961479091876429,1,1
0.959859223189345,0.928691826780695,0.926475292932229,0.925912396409408,0.885723648381419,0.902829287360847,0.928813441327066,0.887916218140875,0.888318688908495,0.959859223189342,0.950791430063816,0.919578359786204,0.959859223189345
1,1,0.874538380380449,0.857794425333881,0.865203030127647,0.869583176280488,0.84817051494269,0.864638533260344,0.909089923781542,0.890326063780633,1,1,1
0.999999999999999,1,1,0.952114806838862,0.938159709030604,0.96229582909239,0.961371381391756,0.964316422226751,0.96229582909239,0.938065597356236,0.951528823968484,1,0.999999999999999
0.98937041915364,1,0.958867453608717,0.924200180644746,0.932933601127532,0.937056072764303,0.951729993886361,0.953986482380711,0.947951672968162,0.949856790434953,0.959102925674215,1,0.98937041915364
0.999999999999999,1,0.941317594025329,0.903931819470103,0.895705232035799,0.929950614822973,0.934291578773083,0.931777549063367,0.899519874137978,0.882264939912649,0.941327749760213,1,0.999999999999999
0.999999999999999,0.986425756134408,1,0.98070026140012,0.973319619795892,0.975297443136829,0.969797887577762,0.971183303500567,0.98070026140012,0.999999999999999,0.999999999999999,1,0.999999999999999
1,1,0.960319997380925,0.881228457529706,0.969511740149828,0.964285148854282,0.967607012126354,0.969218948744683,0.960098894611288,0.88227907339017,1,0.963444100916708,1
0.990579362327035,1,0.936374058708097,0.932106646643708,0.910128744704421,0.929543197669139,0.943019963077298,0.960092957708378,0.920352957369882,0.926337639906594,0.938533999534956,0.973866665438527,0.990579362327035
1,1,0.977879546133526,0.961186309609372,0.951569928594986,0.961136743117642,0.970151061470964,0.973510149581891,0.961903646987748,0.951489792041916,0.961186309609372,0.976691547581639,1
0.999999999999999,0.937443360168998,0.942231094492993,0.948594842549529,0.927218929093178,0.898538122776685,0.954693080703966,0.937574255326475,0.94343517091144,0.999999999999999,0.968796417354718,0.905210191727782,0.999999999999999
1,1,0.979158269634256,0.956236755523646,0.945101714131422,0.939782419168284,0.943358423204804,0.948096196842488,0.956935091627193,0.977213819386421,1,0.999999999999999,1
1,1,0.935568389268733,0.95568805916318,0.965538289837279,0.96227341525535,0.962956070099697,0.965538289837278,0.914512786919357,0.937569972652368,1,1,1
0.981274961318083,1,0.934466708119858,0.929946698890825,0.950451689977706,0.946750735236611,0.9318782191233,0.953950669016091,0.960282827016919,0.981274961318088,1,0.962728412659956,0.981274961318083
0.977381996265871,1,0.905586460926725,0.957305332268207,0.930539359930485,0.909230834043483,0.949021923309014,0.961991759348143,0.909230834043477,0.957063231795189,0.93135363523055,0.905884056079559,0.977381996265871
0.980808898435301,0.926896411135037,0.909867081459194,0.917597467353252,0.926818578468304,0.947892646075012,0.919036596658841,0.919254565721828,0.900715807621421,0.943935040660399,0.942866135824101,0.932060672802531,0.980808898435301
0.999999999999998,0.990185984795416,0.94727555902224,0.977081183278177,0.968572785540751,0.943340647529181,0.977081183278177,0.968572785540754,0.949132650064473,0.999999999999998,0.990185984795418,0.948792262036899,0.999999999999998
0.999999999999999,0.981297075374492,0.996129138973243,0.999999999999999,0.983928692303594,0.970874740106564,0.979980781276041,0.976157610463462,0.979314157435746,0.981297075374492,1,0.97383301747414,0.999999999999999
1,1,0.964298182302945,0.956296331291327,0.953304830701912,0.951673844085777,0.958141932460603,0.954648732565322,1,1,0.911118735764571,1,1
1,1,0.999999999999998,0.967098281378871,1,0.981045532884433,0.980525333547744,0.980677912115078,0.999999999999999,0.964660612888303,0.980677912115078,0.999999999999999,1
1,0.96984276805202,0.93340027940715,0.961578899055501,0.961361853493205,0.96043364048589,0.963623947304177,0.960517515579408,0.929130474018013,0.969842768052018,1,1,1
0.990147772240976,1,1,0.951854786146881,0.931464498490848,0.934625040769485,0.924843116950763,0.936640714652988,0.935219360075155,0.938750814742558,0.962412132041396,0.999999999999999,0.990147772240976
1,0.939167434588049,1,0.963804888317378,0.954102789853381,0.937574917648697,0.943308722486622,0.93658413443514,0.938419837798718,0.931378153420424,1,1,1
0.999999999999999,0.999999999999999,0.974655253896801,0.938028391061898,0.924118558020075,0.931087541914487,0.945049764981379,0.946069426413754,0.932882939007207,0.928687257903913,0.936011234637999,0.97162108386179,0.999999999999999
1,0.999999999999999,1,0.998691884573755,0.997220889344809,0.995045781191616,0.993743455551836,0.995321146582355,0.997220889344809,0.998897799696629,0.999999999999998,1,1
0.962259024575529,0.994573023568761,0.93257473278212,0.92305479500718,0.924025538686446,0.942927269801738,0.939514822778441,0.922779570215558,0.934691361683727,0.96225902457553,0.936249691622319,0.982886237150548,0.962259024575529
1,0.934506914248723,0.913043657915309,0.918505752850317,0.914021218487287,0.933383070497336,0.937395847964734,0.918246797599539,0.913055099735248,0.918278261385322,0.932897844983937,1,1
0.967316762097695,0.973899816258564,0.899353269859276,0.95499508189483,0.955882433239127,0.90906402476431,0.95188086936308,0.953386293589016,0.904903644183179,0.951786310165635,0.953386293589016,0.916402582857025,0.967316762097695
1,0.961983030760824,0.899268228378803,0.933985899876219,0.926720160661662,0.948186223262802,0.962509831208532,0.960881165789596,0.928211072039369,0.962106242882328,0.945959811025203,0.987370556661852,1
1,0.999999999999999,0.964657162075311,1,0.942568229925239,0.946210617267893,0.943361648888186,0.940164888505723,0.941043409309419,0.942142337926864,0.999999999999999,1,1
1,1,0.960125389729354,0.922938675312884,0.937419996904601,0.948380997616406,0.950641199295566,0.952441941678292,0.944560137240558,0.926655016627967,0.960097850314827,1,1
