r0,r30,r60,r90,r120,r150,r180,r210,r240,r270,r300,r330,r360
1,1,1,1,1,1,1,1,1,0,1,1,1
1,1,0,0,0,1,1,1,0,0,0,1,1
1,1,0,0,0,0,1,1,0,0,0,0,1
1,1,1,1,1,1,1,1,1,1,1,1,1
1,1,1,1,1,1,1,1,1,1,1,1,1
1,1,1,1,1,1,1,1,1,1,1,1,1
1,1,1,0,0,0,1,0,0,0,1,1,1
1,1,1,1,1,1,1,1,1,1,1,1,1
1,1,1,1,1,1,1,1,1,1,1,1,1
1,1,1,1,1,1,1,1,1,1,1,1,1
1,0,0,0,0,1,1,0,0,0,0,1,1
1,1,1,0,0,1,1,1,0,0,1,1,1
1,1,1,0,1,1,0,1,1,0,1,1,1
1,1,1,1,1,1,1,1,1,1,1,1,1
1,1,1,0,0,1,0,0,0,1,1,1,1
1,1,1,0,0,0,0,0,0,0,0,1,1
1,1,1,1,1,1,1,1,1,1,1,1,1
1,1,0,1,1,0,1,1,0,1,1,0,1
1,1,0,0,0,0,0,0,0,0,0,0,1
1,1,1,1,1,1,1,0,1,1,1,1,1
1,0,0,0,0,1,1,0,0,0,0,1,1
1,1,1,0,1,1,1,1,0,1,1,1,1
1,1,0,1,0,0,0,0,0,1,1,1,1
1,1,1,0,1,0,0,1,0,0,1,1,1
1,1,1,1,1,0,1,1,0,0,1,1,1
1,1,1,1,1,1,1,1,1,1,1,1,1
1,1,1,1,1,1,1,1,1,1,1,1,1
1,1,0,0,0,0,0,0,0,0,0,1,1
1,1,1,1,1,1,1,1,1,1,1,1,1
1,1,1,1,1,1,1,1,1,1,1,1,1
1,1,1,0,0,0,0,0,0,0,1,1,1
1,0,0,0,0,1,0,0,0,0,0,1,1
1,1,1,1,1,1,1,1,1,1,1,1,1
1,0,1,0,0,1,1,0,1,0,0,1,1
1,1,1,1,1,1,1,1,1,1,1,1,1
1,1,1,0,0,0,1,1,1,0,0,1,1
1,0,0,0,0,0,1,0,0,0,0,0,1
1,0,0,0,0,0,0,0,0,0,0,0,1
1,1,0,0,1,1,1,1,0,0,1,1,1
1,1,1,1,1,1,1,1,1,1,1,1,1
1,1,1,1,1,1,1,1,1,1,1,1,1
1,1,1,1,1,1,1,1,1,1,1,1,1
1,1,1,1,1,1,1,1,1,1,1,1,1
1,1,0,0,0,0,0,0,0,0,0,1,1
1,0,0,0,1,1,1,0,0,0,1,1,1
1,0,0,0,0,1,1,0,0,0,0,1,1
1,1,0,0,1,1,1,1,0,0,1,1,1
1,1,1,0,0,0,1,1,1,0,0,0,1
1,1,1,0,1,1,1,1,1,0,1,1,1
1,1,0,0,0,1,1,0,0,0,0,1,1
1,0,0,0,0,0,1,0,0,0,0,0,1
1,0,0,0,0,0,1,0,0,0,0,0,1
1,1,1,0,1,1,1,0,0,0,1,1,1
1,1,0,0,0,0,1,0,0,0,0,1,1
1,1,1,0,1,1,0,0,1,0,0,1,1
1,1,0,0,0,1,1,0,0,0,1,1,1
1,0,0,1,0,0,0,0,0,0,1,1,1
1,1,0,0,1,1,1,0,0,0,1,1,1
1,1,1,0,0,0,0,0,0,0,1,1,1
1,1,1,1,1,1,1,1,1,1,1,1,1
1,0,0,0,0,0,1,0,0,0,0,0,1
1,1,0,0,1,1,1,1,0,0,1,1,1
1,1,1,1,1,1,1,1,1,1,1,1,1
1,1,0,0,0,1,1,1,0,0,0,1,1
1,1,1,0,1,1,1,1,0,1,1,1,1
1,1,0,0,1,1,1,1,0,0,1,1,1
1,1,1,0,0,1,1,1,1,0,1,1,1
1,1,1,0,1,1,1,1,1,1,1,1,1
1,1,1,1,1,1,1,1,1,1,1,1,1
1,1,1,1,1,1,1,1,1,1,1,1,1
1,1,1,1,1,1,1,0,1,0,1,1,1
1,1,0,0,1,1,1,1,0,0,1,1,1
1,1,1,0,0,0,0,0,0,0,1,1,1
1,1,0,0,1,1,1,1,0,0,1,1,1
1,1,0,0,0,1,1,0,0,0,0,1,1
1,1,0,0,1,1,1,1,1,0,1,1,1
1,1,1,1,1,1,1,1,1,1,1,1,1
1,1,1,0,0,1,1,1,1,0,0,1,1
1,1,0,0,1,1,1,1,0,0,1,1,1
1,1,1,1,1,1,1,1,1,1,1,1,1
1,1,1,1,1,1,1,1,1,1,1,1,1
1,1,0,0,0,1,1,1,0,0,0,1,1
1,1,1,1,1,1,1,1,1,1,1,1,1
1,1,1,1,1,0,0,1,1,1,1,1,1
1,1,1,0,0,1,1,1,1,0,1,1,1
1,1,0,1,1,1,1,1,0,1,1,1,1
1,1,0,0,0,1,1,1,1,0,1,1,1
1,1,1,1,0,1,0,1,1,0,1,1,1
1,0,0,0,0,1,0,0,0,0,0,1,1
1,0,0,0,0,1,1,1,0,0,0,1,1
1,1,1,1,1,0,1,1,0,1,1,1,1
1,1,0,0,1,1,1,1,0,0,1,1,1
1,1,1,1,1,1,1,1,1,1,1,1,1
1,1,1,0,0,0,0,0,0,0,1,1,1
1,1,1,1,1,1,1,1,1,1,1,1,1
1,1,1,1,1,1,1,1,1,1,1,1,1
1,0,0,0,0,0,1,0,0,0,0,0,1
1,1,0,0,0,1,1,1,1,0,0,1,1
1,1,1,1,1,1,1,1,1,1,1,1,1
1,1,1,1,1,1,1,1,1,1,1,1,1
1,1,0,0,0,1,1,1,0,0,0,1,1
1,1,1,0,1,1,1,1,1,0,1,1,1
1,1,1,0,0,0,1,1,0,0,0,1,1
1,1,0,0,1,1,1,0,0,0,1,1,1
1,1,1,1,1,1,1,1,1,1,1,1,1
1,1,1,1,1,1,1,1,1,1,1,1,1
1,0,1,0,0,0,0,1,0,0,0,1,1
1,0,0,0,0,0,0,0,0,0,0,1,1
1,1,1,1,1,1,1,1,1,1,1,1,1
1,0,0,0,0,0,1,0,0,0,0,0,1
1,1,1,0,1,1,1,1,1,0,1,1,1
1,1,0,0,0,0,0,0,0,0,0,1,1
1,1,0,0,0,1,0,0,0,0,1,1,1
1,1,1,0,0,0,1,1,0,0,1,1,1
1,1,1,1,1,1,1,1,1,1,1,1,1
1,1,1,1,1,1,1,1,1,1,1,1,1
1,1,1,1,0,1,1,1,1,1,1,1,1
1,1,0,0,0,1,0,0,0,0,0,1,1
1,1,1,1,1,1,1,1,1,1,1,1,1
1,0,0,0,0,0,0,0,0,0,0,0,1
1,1,0,0,0,0,0,0,0,0,0,1,1
1,1,1,1,1,1,1,1,1,1,1,1,1
1,1,0,0,0,0,0,0,0,0,0,1,1
1,0,0,0,0,0,0,0,0,0,0,1,1
1,1,1,0,0,1,0,0,0,0,0,1,1
1,0,0,0,0,0,0,0,0,0,0,0,1
1,1,1,1,1,1,1,1,1,1,1,1,1
1,0,0,0,0,0,1,0,0,0,0,0,1
1,1,0,0,0,1,1,0,0,1,1,1,1
1,0,0,0,0,0,0,0,0,0,0,0,1
1,1,1,1,1,1,1,1,1,1,1,1,1
1,1,1,1,1,1,1,1,1,1,1,1,1
1,1,1,1,1,1,1,1,1,1,1,1,1
1,1,1,1,1,1,1,1,1,1,1,1,1
1,1,1,1,1,1,1,1,1,1,1,1,1
1,1,1,1,1,1,1,1,1,1,1,1,1
1,1,1,1,1,1,1,1,1,1,1,1,1
1,1,1,1,1,1,1,1,1,1,1,1,1
1,1,1,1,1,1,1,1,1,1,1,1,1
1,1,1,1,1,1,1,1,1,1,1,1,1
1,1,1,1,1,1,1,1,1,1,1,1,1
1,1,1,1,1,1,1,1,1,1,1,1,1
1,1,1,1,1,1,1,1,1,1,1,1,1
1,1,1,1,1,1,1,1,1,1,1,1,1
1,1,1,1,1,1,1,1,1,1,1,1,1
1,1,1,1,1,1,1,1,1,1,1,1,1
1,1,1,1,1,1,1,1,1,1,1,1,1
1,1,1,1,1,1,1,1,1,1,1,1,1
1,1,1,1,1,1,1,1,1,1,1,1,1
1,1,1,1,1,1,1,1,1,1,1,1,1
1,1,1,1,1,1,1,1,1,1,1,1,1
1,1,1,1,1,1,1,1,1,1,1,1,1
1,1,1,1,1,1,1,1,1,1,1,1,1
1,1,1,1,1,1,1,1,1,1,1,1,1
1,1,1,1,1,1,1,1,1,1,1,1,1
1,1,1,1,1,1,1,1,1,1,1,1,1
1,1,1,1,1,1,1,1,1,1,1,1,1
1,1,1,1,1,1,1,1,1,1,1,1,1
1,1,1,1,1,1,1,1,1,1,1,1,1
1,1,1,1,1,1,1,1,1,1,1,1,1
1,1,1,1,1,1,1,1,1,1,1,1,1
1,1,1,1,1,1,1,1,1,1,1,1,1
1,1,1,1,1,1,1,1,1,1,1,1,1
1,1,1,1,1,1,1,1,1,1,1,1,1
1,1,1,1,1,1,1,1,1,1,1,1,1
1,1,1,1,1,1,1,1,1,1,1,1,1
1,1,1,1,1,1,1,1,1,1,1,1,1
1,1,1,1,1,1,1,1,1,1,1,1,1
1,1,1,1,1,1,1,1,1,1,1,1,1
1,1,1,1,1,1,1,1,1,1,1,1,1
1,1,1,1,1,1,1,1,1,1,1,1,1
1,1,1,1,1,1,1,1,1,1,1,1,1
1,1,1,1,1,1,1,1,1,1,1,1,1
1,1,1,1,1,1,1,1,1,1,1,1,1
1,1,1,1,1,1,1,1,1,1,1,1,1
1,1,1,1,1,1,1,1,1,1,1,1,1
1,1,1,1,1,1,1,1,1,1,1,1,1
1,1,1,1,1,1,1,1,1,1,1,1,1
1,1,1,1,1,1,1,1,1,1,1,1,1
1,1,1,1,1,1,1,1,1,1,1,1,1
1,1,1,1,1,1,1,1,1,1,1,1,1
1,1,1,1,1,1,1,1,1,1,1,1,1
1,1,1,1,1,1,1,1,1,1,1,1,1
1,1,1,1,1,1,1,1,1,1,1,1,1
1,1,1,1,1,1,1,1,1,1,1,1,1
1,1,1,1,1,1,1,1,1,1,1,1,1
1,1,1,1,1,1,1,1,1,1,1,1,1
1,1,1,1,1,1,1,1,1,1,1,1,1
1,1,1,1,1,1,1,1,1,1,1,1,1
1,1,1,1,1,1,1,1,1,1,1,1,1
1,1,1,1,1,1,1,1,1,1,1,1,1
1,1,1,1,1,1,1,1,1,1,1,1,1
1,1,1,1,1,1,1,1,1,1,1,1,1
1,1,1,1,1,1,1,1,1,1,1,1,1
1,1,1,1,1,1,1,1,1,1,1,1,1
1,1,1,1,1,1,1,1,1,1,1,1,1
1,1,1,1,1,1,1,1,1,1,1,1,1
1,1,1,1,1,1,1,1,1,1,1,1,1
1,1,1,1,1,1,1,1,1,1,1,1,1
1,1,1,1,1,1,1,1,1,1,1,1,1
1,1,1,1,1,1,1,1,1,1,1,1,1
1,1,1,1,1,1,1,1,1,1,1,1,1
1,1,1,1,1,1,1,1,1,1,1,1,1
1,1,1,1,1,1,1,1,1,1,1,1,1
1,1,1,1,1,1,1,1,1,1,1,1,1
1,1,1,1,1,1,1,1,1,1,1,1,1
1,1,1,1,1,1,1,1,1,1,1,1,1
1,1,1,1,1,1,1,1,1,1,1,1,1
1,1,1,1,1,1,1,1,1,1,1,1,1
1,1,1,1,1,1,1,1,1,1,1,1,1
1,1,1,1,1,1,1,1,1,1,1,1,1
1,1,1,1,1,1,1,1,1,1,1,1,1
1,1,1,1,1,1,1,1,1,1,1,1,1
1,1,1,1,1,1,1,1,1,1,1,1,1
1,1,1,1,1,1,1,1,1,1,1,1,1
1,1,1,1,1,1,1,1,1,1,1,1,1
1,1,1,1,1,1,1,1,1,1,1,1,1
1,1,1,1,1,1,1,1,1,1,1,1,1
1,1,1,1,1,1,1,1,1,1,1,1,1
1,1,1,1,1,1,1,1,1,1,1,1,1
1,1,1,1,1,1,1,1,1,1,1,1,1
1,1,1,1,1,1,1,1,1,1,1,1,1
1,1,1,1,1,1,1,1,1,1,1,1,1
1,1,1,1,1,1,1,1,1,1,1,1,1
1,1,1,1,1,1,1,1,1,1,1,1,1
1,1,1,1,1,1,1,1,1,1,1,1,1
1,1,1,1,1,1,1,1,1,1,1,1,1
1,1,1,1,1,1,1,1,1,1,1,1,1
1,1,1,1,1,1,1,1,1,1,1,1,1
1,1,1,1,1,1,1,1,1,1,1,1,1
1,1,1,1,1,1,1,1,1,1,1,1,1
1,1,1,1,1,1,1,1,1,1,1,1,1
1,1,1,1,1,1,1,1,1,1,1,1,1
1,1,1,1,1,1,1,1,1,1,1,1,1
1,1,1,1,1,1,1,1,1,1,1,1,1
1,1,1,1,1,1,1,1,1,1,1,1,1
1,1,1,1,1,1,1,1,1,1,1,1,1
1,1,1,1,1,1,1,1,1,1,1,1,1
1,1,1,1,1,1,1,1,1,1,1,1,1
1,1,1,1,1,1,1,1,1,1,1,1,1
1,1,1,1,1,1,1,1,1,1,1,1,1
1,1,1,1,1,1,1,1,1,1,1,1,1
1,1,1,1,1,1,1,1,1,1,1,1,1
1,1,1,1,1,1,1,1,1,1,1,1,1
1,1,1,1,1,1,1,1,1,1,1,1,1
1,1,1,1,1,1,1,1,1,1,1,1,1
1,1,1,1,1,1,1,1,1,1,1,1,1
1,1,1,1,1,1,1,1,1,1,1,1,1
1,1,1,1,1,1,1,1,1,1,1,1,1
1,1,1,1,1,1,1,1,1,1,1,1,1
1,1,1,1,1,1,1,1,1,1,1,1,1
1,1,1,1,1,1,1,1,1,1,1,1,1
1,1,1,1,1,1,1,1,1,1,1,1,1
1,1,1,1,1,1,1,1,1,1,1,1,1
1,1,1,1,1,1,1,1,1,1,1,1,1
1,1,1,1,1,1,1,1,1,1,1,1,1
1,1,1,1,1,1,1,1,1,1,1,1,1
1,1,1,1,1,1,1,1,1,1,1,1,1
1,1,1,1,1,1,1,1,1,1,1,1,1
1,1,1,1,1,1,1,1,1,1,1,1,1
1,1,1,1,1,1,1,1,1,1,1,1,1
1,1,1,1,1,1,1,1,1,1,1,1,1
1,1,1,1,1,1,1,1,1,1,1,1,1
1,1,1,1,1,1,1,1,1,1,1,1,1
1,1,1,1,1,1,1,1,1,1,1,1,1
1,1,1,1,1,1,1,1,1,1,1,1,1
1,1,1,1,1,1,1,1,1,1,1,1,1
1,1,1,1,1,1,1,1,1,1,1,1,1
1,1,1,1,1,1,1,1,1,1,1,1,1
1,1,1,1,1,1,1,1,1,1,1,1,1
1,1,1,1,1,1,1,1,1,1,1,1,1
1,1,1,1,1,1,1,1,1,1,1,1,1
1,1,1,1,1,1,1,1,1,1,1,1,1
1,1,1,1,1,1,1,1,1,1,1,1,1
1,1,1,1,1,1,1,1,1,1,1,1,1
1,1,1,1,1,1,1,1,1,1,1,1,1
1,1,1,1,1,1,1,1,1,1,1,1,1
1,1,1,1,1,1,1,1,1,1,1,1,1
1,1,1,1,1,1,1,1,1,1,1,1,1
1,1,1,1,1,1,1,1,1,1,1,1,1
1,1,1,1,1,1,1,1,1,1,1,1,1
1,1,1,1,1,1,1,1,1,1,1,1,1
1,1,1,1,1,1,1,1,1,1,1,1,1
1,1,1,1,1,1,1,1,1,1,1,1,1
1,1,1,1,1,1,1,1,1,1,1,1,1
1,1,1,1,1,1,1,1,1,1,1,1,1
1,1,1,1,1,1,1,1,1,1,1,1,1
1,1,1,1,1,1,1,1,1,1,1,1,1
1,1,1,1,1,1,1,1,1,1,1,1,1
1,1,1,1,1,1,1,1,1,1,1,1,1
1,1,1,1,1,1,1,1,1,1,1,1,1
1,1,1,1,1,1,1,1,1,1,1,1,1
1,1,1,1,1,1,1,1,1,1,1,1,1
1,1,1,1,1,1,1,1,1,1,1,1,1
1,1,1,1,1,1,1,1,1,1,1,1,1
1,1,1,1,1,1,1,1,1,1,1,1,1
1,1,1,1,1,1,1,1,1,1,1,1,1
1,1,1,1,1,1,1,1,1,1,1,1,1
1,1,1,1,1,1,1,1,1,1,1,1,1
1,1,1,1,1,1,1,1,1,1,1,1,1
1,1,1,1,1,1,1,1,1,1,1,1,1
1,1,1,1,1,1,1,1,1,1,1,1,1
1,1,1,1,1,1,1,1,1,1,1,1,1
1,1,1,1,1,1,1,1,1,1,1,1,1
1,1,1,1,1,1,1,1,1,1,1,1,1
1,1,1,1,1,1,1,1,1,1,1,1,1
1,1,1,1,1,1,1,1,1,1,1,1,1
1,1,1,1,1,1,1,1,1,1,1,1,1
1,1,1,1,1,1,1,1,1,1,1,1,1
1,1,1,1,1,1,1,1,1,1,1,1,1
1,1,1,1,1,1,1,1,1,1,1,1,1
1,1,1,1,1,1,1,1,1,1,1,1,1
1,1,1,1,1,1,1,1,1,1,1,1,1
1,1,1,1,1,1,1,1,1,1,1,1,1
1,1,1,1,1,1,1,1,1,1,1,1,1
1,1,1,1,1,1,1,1,1,1,1,1,1
1,1,1,1,1,1,1,1,1,1,1,1,1
1,1,1,1,1,1,1,1,1,1,1,1,1
1,1,1,1,1,1,1,1,1,1,1,1,1
1,1,1,1,1,1,1,1,1,1,1,1,1
1,1,1,1,1,1,1,1,1,1,1,1,1
1,1,1,1,1,1,1,1,1,1,1,1,1
1,1,1,1,1,1,1,1,1,1,1,1,1
1,1,1,1,1,1,1,1,1,1,1,1,1
1,1,1,1,1,1,1,1,1,1,1,1,1
1,1,1,1,1,1,1,1,1,1,1,1,1
1,1,1,1,1,1,1,1,1,1,1,1,1
1,1,1,1,1,1,1,1,1,1,1,1,1
1,1,1,1,1,1,1,1,1,1,1,1,1
1,1,1,1,1,1,1,1,1,1,1,1,1
1,1,1,1,1,1,1,1,1,1,1,1,1
1,1,1,1,1,1,1,1,1,1,1,1,1
1,1,1,1,1,1,1,1,1,1,1,1,1
1,1,1,1,1,1,1,1,1,1,1,1,1
1,1,1,1,1,1,1,1,1,1,1,1,1
1,1,1,1,1,1,1,1,1,1,1,1,1
1,1,1,1,1,1,1,1,1,1,1,1,1
1,1,1,1,1,1,1,1,1,1,1,1,1
1,1,1,1,1,1,1,1,1,1,1,1,1
1,1,1,1,1,1,1,1,1,1,1,1,1
1,1,1,1,1,1,1,1,1,1,1,1,1
1,1,1,1,1,1,1,1,1,1,1,1,1
1,1,1,1,1,1,1,1,1,1,1,1,1
1,1,1,1,1,1,1,1,1,1,1,1,1
1,1,1,1,1,1,1,1,1,1,1,1,1
1,1,1,1,1,1,1,1,1,1,1,1,1
1,1,1,1,1,1,1,1,1,1,1,1,1
1,1,1,1,1,1,1,1,1,1,1,1,1
1,1,1,1,1,1,1,1,1,1,1,1,1
1,1,1,1,1,1,1,1,1,1,1,1,1
1,1,1,1,1,1,1,1,1,1,1,1,1
1,1,1,1,1,1,1,1,1,1,1,1,1
1,1,1,1,1,1,1,1,1,1,1,1,1
1,1,1,1,1,1,1,1,1,1,1,1,1
1,1,1,1,1,1,1,1,1,1,1,1,1
1,1,1,1,1,1,1,1,1,1,1,1,1
1,1,1,1,1,1,1,1,1,1,1,1,1
1,1,1,1,1,1,1,1,1,1,1,1,1
1,1,1,1,1,1,1,1,1,1,1,1,1
1,1,1,1,1,1,1,1,1,1,1,1,1
1,1,1,1,1,1,1,1,1,1,1,1,1
1,1,1,1,1,1,1,1,1,1,1,1,1
1,1,1,1,1,1,1,1,1,1,1,1,1
1,1,1,1,1,1,1,1,1,1,1,1,1
1,1,1,1,1,1,1,1,1,1,1,1,1
1,1,1,1,1,1,1,1,1,1,1,1,1
1,1,1,1,1,1,1,1,1,1,1,1,1
1,1,1,1,1,1,1,1,1,1,1,1,1
1,1,1,1,1,1,1,1,1,1,1,1,1
1,1,1,1,1,1,1,1,1,1,1,1,1
1,1,1,1,1,1,1,1,1,1,1,1,1
1,1,1,1,1,1,1,1,1,1,1,1,1
1,1,1,1,1,1,1,1,1,1,1,1,1
1,1,1,1,1,1,1,1,1,1,1,1,1
1,1,1,1,1,1,1,1,1,1,1,1,1
1,1,1,1,1,1,1,1,1,1,1,1,1
1,1,1,1,1,1,1,1,1,1,1,1,1
1,1,1,1,1,1,1,1,1,1,1,1,1
1,1,1,1,1,1,1,1,1,1,1,1,1
1,1,1,1,1,1,1,1,1,1,1,1,1
1,1,1,1,1,1,1,1,1,1,1,1,1
1,1,1,1,1,1,1,1,1,1,1,1,1
1,1,1,1,1,1,1,1,1,1,1,1,1
1,1,1,1,1,1,1,1,1,1,1,1,1
1,1,1,1,1,1,1,1,1,1,1,1,1
1,1,1,1,1,1,1,1,1,1,1,1,1
1,1,1,1,1,1,1,1,1,1,1,1,1
1,1,1,1,1,1,1,1,1,1,1,1,1
1,1,1,1,1,1,1,1,1,1,1,1,1
1,1,1,1,1,1,1,1,1,1,1,1,1
0.999999999999999,0.995459445642024,0.897657536112531,0.80346503008621,0.869230974484417,0.952908036806743,0.946580894560201,0.946000528485511,0.873195767331135,0.81906238655051,0.893581673274967,0.999999999999999,0.999999999999999
0.991499227485257,0.916256501332279,0.939538343888431,0.932821241510628,0.919290403303633,0.907850702545878,0.945344561445886,0.919640304943815,0.933071316651286,0.92020035077575,0.900201648723629,0.910024699461925,0.991499227485257
0.989386766240506,0.977217145314654,0.906249174078827,0.926938158803488,0.946147898581233,0.919077420336246,0.941252509084167,0.933112566456421,0.884772185030492,0.908173576261165,0.919888569483406,0.906219583278902,0.989386766240506
0.999999999999998,0.999999999999999,0.953991636228314,0.881529494703815,0.867299941427718,0.933030536094396,0.969985434128426,0.962485262983937,0.927732193269774,0.867299941427719,0.881529494703815,0.955310059851828,0.999999999999998
0.999999999999999,1,0.956218264409359,0.89595704591725,0.888844794698444,0.934923791279843,0.970204294032392,0.96939055651358,0.937939333299954,0.888844794698444,0.895957045917249,0.955760471683368,0.999999999999999
1,0.971984570367518,0.947976998814213,0.942752971025043,0.943895357663667,0.945507947152307,0.941458020427611,0.947436151163064,0.947817645655921,0.942752971025044,0.943886184952159,0.972190341840232,1
1,0.916807776843102,0.794211104852784,0.782221214487522,0.794343279935128,0.816418927095238,0.764502106171252,0.735346773550847,0.723305642770089,0.757701020441539,0.800985586515163,0.919742734175222,1
0.999999999999998,1,0.935562611715536,0.82399615518182,0.827635450924857,0.923338371727135,0.968982539989174,0.970750115915098,0.926495233250062,0.827635450924857,0.82399615518182,0.931475478758685,0.999999999999998
0.999999999999999,0.979056978476469,0.958053035188032,0.947356774845559,0.944284209566266,0.952099717472408,0.955198296083087,0.954318727721227,0.948676640411322,0.947356774845559,0.95182367520461,0.977240415600724,0.999999999999999
1,0.950483447074393,0.915678057010917,0.899641821854164,0.904750751795118,0.950395029603691,0.973279193592936,0.947255162944064,0.914513542668301,0.899641821854165,0.912175698038008,0.959741254848665,1
1,0.807611569051187,0.772451726758272,0.780697592446827,0.808616306270433,0.927518543047143,0.915386567698011,0.878353770376541,0.75078417171011,0.739353237404588,0.769066174846945,0.999999999999999,1
0.999999999999999,1,0.860495640186292,0.836175287412556,0.840184195160508,0.924011295180229,0.923395585578868,0.920637200637441,0.864674739663606,0.826497327505301,0.860495640186292,1,0.999999999999999
0.968507349571746,0.969710485267534,0.957623141953572,0.950845800868411,0.956007258120984,0.945071724684194,0.938312761993398,0.95573402347263,0.957623141953574,0.946203780591988,0.969378961185552,0.990816849275194,0.968507349571746
1,0.979009503459869,0.947855729699232,0.927177397521318,0.932078874234969,0.936825935598714,0.941104305089816,0.932901143923841,0.927852140070399,0.947855729699232,0.9779658494766,1,1
0.964305075288811,0.934488539804029,0.811808841857052,0.76889580650372,0.788132754494616,0.774265650383766,0.773017451740876,0.778021509550741,0.753321549935107,0.796972395149341,0.929989431950961,0.982256588975573,0.964305075288811
0.999999999999999,1,0.897361950358205,0.760152891081195,0.779133769606702,0.822356048923503,0.758737588469013,0.751875373419403,0.760020141627886,0.753264462533578,0.801033507056421,0.885189658738382,0.999999999999999
0.999999999999997,1,0.952346393499889,0.919545737687694,0.931165829081198,0.93542187922301,0.948553123216164,0.952873389087554,0.931165829081198,0.928031588890454,0.952346393499889,1,0.999999999999997
1,1,0.964190108046132,0.96054995083489,0.967079332066454,0.94719767359821,0.986799781830066,0.98550825833179,0.958822975179204,0.964661168696711,0.977510484190049,0.946871967288864,1
0.986677739735907,1,0.798839277495068,0.757189557661171,0.815957144999209,0.973755271075686,0.972735353515315,0.884787596156473,0.804789430207491,0.802435266080522,0.826969620463514,0.875893582378354,0.986677739735907
0.999999999999998,0.953716368992507,0.941241763655743,0.929709673224643,0.910354478560035,0.916946659031702,0.922804794019083,0.899189194571929,0.920878730637377,0.929709673224643,0.926372051862234,0.97060877107548,0.999999999999998
0.997440128856499,0.954631519833031,0.936367253325926,0.970093685759759,0.934989800722547,0.942082029163402,0.975042721532061,0.946896010965142,0.926496192307875,0.959273666825641,0.927614436721613,0.94928053955266,0.997440128856499
1,0.926339250203957,0.797293573579419,0.808767677876147,0.862619445331176,0.904104382327955,0.898290927440424,0.858638133790263,0.807659681701418,0.797293573579419,0.926401183457352,0.999999999999999,1
0.984296961064618,0.970767475674179,0.938373595896439,0.896784529116336,0.895657710882677,0.943729039091861,0.917386648764734,0.906384670800281,0.949926808070426,0.896784529116339,0.939473788779945,0.961682594574955,0.984296961064618
0.995634414518135,0.992955866856934,0.905657364784497,0.912935451209226,0.914205816488333,0.900179387578654,0.944243241081983,0.932583770776228,0.882129950821393,0.902822913839779,0.941882654911032,0.954766274796623,0.995634414518135
1,1,0.933928595099365,0.915118595088266,0.910591654253639,0.91846656183077,0.916753317012821,0.91675331701282,0.917383559163002,0.911126418685294,0.915118595088266,0.936335641937905,1
1,0.948625143441529,0.855977200600916,0.803546282224811,0.839520135290924,0.928727988214909,0.984026621998714,0.937865492658902,0.850989707341714,0.803546282224811,0.846478977974706,0.941141151415565,1
1,0.940160347239414,0.854052545284852,0.881238826396099,0.920890008628089,0.930886527010872,0.931702492903073,0.923155396480663,0.881238826396099,0.854052545284852,0.937733523443789,0.999999999999999,1
1,0.879618590723267,0.878919768693809,0.878281584140495,0.835452569976382,0.873690783142776,0.877617164693272,0.897285610060888,0.906545161733408,0.875411226019691,0.852263030719579,0.863643025343685,1
0.999999999999999,1,0.956837038696388,0.933392825215116,0.916644668785825,0.915286514826667,0.894382535170773,0.915286514826666,0.923528523172764,0.933392825215116,0.956837038696388,1,0.999999999999999
1,1,0.96844993986958,0.938414467516789,0.933236273245358,0.938224213624499,0.95353314628852,0.96453655024438,0.946652781364303,0.932164933984527,0.938414467516789,0.965470805140166,1
0.952935443540202,0.953407325017786,0.915336375390086,0.883563849986745,0.883936187404877,0.881932828857417,0.876118586580784,0.852542624208894,0.860943225076096,0.857180111975501,0.903344619197675,0.966063655670228,0.952935443540202
0.999999999999999,0.93157133097741,0.889041402909446,0.908297321082203,0.84481468289518,0.863524736262809,0.942319757723705,0.947906418904604,0.894310563162668,0.903328412229355,0.84828404332872,0.888814693262092,0.999999999999999
1,0.966791721595471,0.951340608603791,0.971933393063984,0.967407367102391,0.954052264463564,0.954692244984382,0.956923708073452,0.971789742963098,0.971933393063983,0.953258414116479,0.970411006529786,1
0.973530049892822,0.938513522904634,0.91059186242936,0.918558869591484,0.924020344964594,0.947716951096318,0.940955850094659,0.932172827811739,0.918071360229577,0.907827987157579,0.938658388401818,0.965000843577153,0.973530049892822
1,0.999999999999998,0.976852252695269,0.949547982012809,0.967371563267638,0.977740366771975,0.985896572569203,0.989400480006965,0.967371563267637,0.949486902374501,0.97685225269527,1,1
1,1,0.920282919582053,0.917174119329492,0.88738332428853,0.905896334168427,0.916771462528138,0.920223946365136,0.906425577300934,0.885266473862721,0.893417513941728,0.914188676617942,1
1,0.907887588369972,0.91471643700176,0.883538572600918,0.89831407941973,0.940973810542944,0.953246771393573,0.880134601457595,0.908016544449321,0.87941493761967,0.889762455945799,0.922841459149817,1
0.98154969982451,0.907958948954448,0.902348232366211,0.924398051750501,0.855153128930543,0.876815735605207,0.868599276092839,0.905500310878478,0.903797743498081,0.869308291212933,0.930541506355753,0.880991303603459,0.98154969982451
1,0.932422249025391,0.873116957422949,0.869861277762111,0.896597605615807,0.936892521377322,0.9389859239674,0.895382643823012,0.884302213363515,0.880582673048333,0.934236644382317,0.999999999999999,1
1,1,0.905741516927142,0.802373702283667,0.797435481457415,0.888961797644568,0.936256044897917,0.932708195872698,0.886095565144363,0.797435481457415,0.802373702283667,0.909333132738503,1
0.999999999999999,1,0.996002265298792,0.994946215636895,0.991211209644648,0.989698315924092,0.991129214816443,0.990960346918023,0.989267416225086,0.992385364103609,0.994946215636895,0.996106655196733,0.999999999999999
0.999999999999998,0.973650018720961,0.94185562006814,0.923375950558405,0.949590856044771,0.965376359987565,0.958897533442652,0.949195832675226,0.931861573328856,0.941855620068141,0.96992416047376,1,0.999999999999998
1,0.999999999999997,0.94579959607118,0.903197702020095,0.904320956430119,0.92926836138518,0.934469967392712,0.930880058045523,0.904320956430119,0.892959702454491,0.945799596071181,1,1
1,0.848536318759285,0.852337921331914,0.838059764593227,0.838930628784339,0.869174677114077,0.851106189096883,0.804161033711995,0.844259196527474,0.798210409196687,0.852378782648503,0.866734017351134,1
0.974464974248498,0.919032524347194,0.908702604318292,0.904452536677475,0.891799845767299,0.948444334959284,0.95532880671586,0.92413923069773,0.914163367205084,0.910136302089999,0.905934284895272,0.968216438786952,0.974464974248498
0.964965768986118,0.925267494941323,0.904762658686295,0.946106208816105,0.934529244065547,0.917095246692218,0.943605902564973,0.927316519161293,0.908181292453126,0.953929133007913,0.937978368223455,0.923260835111181,0.964965768986118
0.999999999999997,0.918765841317118,0.82734277163171,0.866240561086879,0.903851844192971,0.973244385881518,0.975686096657076,0.906761659808691,0.855992923170923,0.871005462018156,0.918383778823802,0.999999999999999,0.999999999999997
1,0.999999999999999,0.881852087783435,0.823727237278952,0.903854848299188,0.892251763982166,0.921374288941022,0.935149752135554,0.83406496565788,0.82300482473536,0.904289039255226,0.888977460956773,1
0.986512161925805,1,0.951116103841074,0.912812466895911,0.944146443607311,0.969541187432865,0.955029821543573,0.970987806900158,0.94414644360731,0.911230105154329,0.951116103841075,1,0.986512161925805
1,0.867180394418824,0.820272168344889,0.816011480528939,0.783264518212568,0.851215135514181,0.963786959479813,0.885931058167517,0.852214783064503,0.825411419652903,0.783867720861504,0.87750215696131,1
0.997117342806082,0.909039590149975,0.905973481747111,0.926691802432534,0.891977497843796,0.860172651371784,0.949369622181171,0.883304299162672,0.932865601935984,0.903705320558635,0.908906253894233,0.866854886786073,0.997117342806082
1,0.846425503375924,0.835788151565695,0.89609391492379,0.839557223579365,0.895053811372042,0.950921579123116,0.847719667620781,0.843699982182336,0.898952450650616,0.828663524922699,0.88752873160875,1
1,1,0.930348788755815,0.853982529422544,0.846000089876491,0.878402075469494,0.882864546864776,0.886002767550321,0.904405341032326,0.87876454017354,0.930348788755815,0.999999999999999,1
1,0.887545679699901,0.895123963124318,0.875266029875766,0.894486464774975,0.888545324854349,0.904456739613666,0.859509301184578,0.890938775593728,0.88199204768455,0.883643620893574,0.88793060694485,1
0.952462791849457,0.997034136434603,0.877404834240594,0.870288967921844,0.913218627891473,0.916441535512753,0.83052798499172,0.875832919623657,0.915702745043586,0.876069401881389,0.871213565540632,0.875943256840655,0.952462791849457
1,0.870801607723935,0.858692879424415,0.792998143363769,0.824176152132875,0.906344001086023,0.897646422613826,0.845487257671832,0.883383034867081,0.7973718841616,0.864911346070041,0.999999999999999,1
0.995768999014699,0.89774582808863,0.902834170145868,0.889769507671212,0.892776541948981,0.899897477124943,0.897620137771316,0.895494892175949,0.900612004523884,0.908057360925376,0.899369966088592,0.983269508252502,0.995768999014699
1,0.889861712362026,0.813590653720482,0.777407187835902,0.861826565820578,0.958963854075554,0.959847198683878,0.875044933612171,0.836815580560218,0.78163995097861,0.886460119709918,0.999999999999998,1
0.999999999999999,0.999999999999999,0.730460744777927,0.681648239103856,0.734710265399801,0.740079278297482,0.683418179966127,0.654733831701583,0.645253470177453,0.664095658216197,0.730460744777927,0.999999999999999,0.999999999999999
1,0.964597899587855,0.902438681710161,0.908635949386017,0.944840809600791,0.950824439768252,0.978925251370279,0.950569748552427,0.893042722023351,0.918195969908968,0.961985301071187,0.982838861511916,1
1,0.870469902156341,0.85502973714954,0.830856181371138,0.809572581673076,0.858564250396908,0.882420984125563,0.862483965801985,0.891389019150583,0.885048454768478,0.793078729234636,0.862527933541139,1
1,0.951705128533609,0.920160771326832,0.874051118334025,0.884209159158623,0.921989665936682,0.933901387307191,0.925542679749859,0.90764246422399,0.870676664544207,0.884186459466547,0.949367327409734,1
0.996866121635769,1,0.966725951914463,0.927357252893662,0.922180579736207,0.917990165618726,0.915113296100111,0.915935232053892,0.916641747297364,0.924350853945795,0.966725951914463,1,0.996866121635769
0.983499297457176,0.943371906795885,0.914661231401885,0.946189671483684,0.946110966909097,0.912341016957191,0.950383129050004,0.923928647089622,0.91676809024731,0.942272413617254,0.942744807510438,0.932823712610202,0.983499297457176
1,0.933539148882262,0.832063510818391,0.834766513172801,0.860621731573409,0.89698775832712,0.902778999935012,0.868814412978967,0.821657091336505,0.832063510818391,0.932583367128727,1,1
1,0.884253623778001,0.857090251183527,0.822937150749728,0.843101690033392,0.944564332894569,0.946737151090033,0.843542549639082,0.8584530768638,0.826442122181226,0.884255133825172,1,1
0.999999999999998,1,0.929559646036802,0.936287478715804,0.932370992570768,0.950438413562234,0.959318772919079,0.9710032769907,0.913376793294769,0.935441942218991,0.943145659468507,0.985594999780456,0.999999999999998
1,0.941425444554277,0.880470257764147,0.860799983206102,0.856151858182218,0.871995694161917,0.859651978167439,0.849044115448242,0.848128789877922,0.880470257764148,0.945875698076287,1,1
0.999999999999998,1,0.972195192119917,0.955404956931491,0.951080948166358,0.928251513458564,0.921444514122918,0.928251513458564,0.952371257512527,0.954899589921276,0.972195192119916,0.999999999999999,0.999999999999998
1,1,0.969716032357018,0.95588233861194,0.963746297715698,0.961378250966885,0.947200427577836,0.947200427577837,0.964125309698814,0.963746297715698,0.954875131801806,0.972404007361433,1
0.999999999999999,0.945542032003904,0.888204837825595,0.865173053311634,0.88158378344654,0.916700293658064,0.938042292795718,0.935893537915459,0.884735192172524,0.873021467840065,0.881855020820827,0.944618604760251,0.999999999999999
1,0.943993434617182,0.920316315341228,0.885050891890445,0.91017719884661,0.917730038711629,0.942018835502842,0.916931509612947,0.922483800324231,0.89450465545902,0.944501518658817,0.985926010801109,1
1,0.931795175604486,0.884819411854086,0.850917061380211,0.866507682522873,0.886682286851233,0.885314061257302,0.888892832157132,0.869704967565648,0.848586853218827,0.87112277288656,0.924338132703841,1
0.999999999999998,0.850147842044966,0.845199294437812,0.845854579468498,0.81360879745418,0.928798181506265,0.928094326832757,0.810557506356346,0.833896126692216,0.874306870889049,0.857740864489474,1,0.999999999999998
1,0.932658070368007,0.881585290441271,0.876415554101633,0.882551064061544,0.87162646767427,0.906863825457563,0.890920772031479,0.852362397247642,0.879105553142324,0.868520290634158,0.92930290129883,1
0.999999999999999,0.956332839897112,0.889011230483047,0.898710709351614,0.890645682469659,0.933349471141449,0.982967631055301,0.946358656588452,0.885143336849332,0.891171942174569,0.896295635735453,0.945622360477444,0.999999999999999
1,0.961206456646982,0.943624946704079,0.951085453735627,0.937631669004662,0.945944022598714,0.971557127321356,0.946086610582597,0.935574799720893,0.951085453735627,0.942001095552949,0.963597930521835,1
0.999999999999999,1,0.930084910906601,0.853358901309791,0.851369430104047,0.922417055903941,0.974386328388847,0.962495859648928,0.913750511843399,0.852771842238181,0.854901521696856,0.930855928420987,0.999999999999999
1,0.951588311529884,0.882706090920992,0.860206422024126,0.921548612865137,0.957605313102283,0.954036191157149,0.921848010098783,0.887962706014426,0.874390169260182,0.954392146372817,0.999999999999999,1
1,0.973507064645932,0.937926086944591,0.919790770794323,0.9379703849463,0.946400661637571,0.95417044315216,0.941323684696577,0.920108406989845,0.937926086944591,0.97449187308633,0.999999999999999,1
1,0.993483883025726,0.910062349873234,0.925619381879803,0.918421633001649,0.910621657896497,0.926253943723613,0.923853013112983,0.90641766659495,0.923073528164115,0.923285578330304,0.979255279588186,1
0.976557535285723,0.907221882007694,0.900648871462743,0.930212982507195,0.911404337532802,0.911276355223427,0.93029089459203,0.902025805411549,0.898020194784062,0.890463884796651,0.918591251868267,0.914424866490688,0.976557535285723
1,0.937775583297121,0.856641417513493,0.841726224503057,0.902286724158917,0.935667244897972,0.93031649972759,0.894659946115933,0.841726224503057,0.856641417513492,0.946428021611511,1,1
1,0.956630339488556,0.920501109872488,0.912414440500082,0.885878258340648,0.871580046623193,0.853445703468051,0.867284221364975,0.894722728119783,0.912414440500082,0.928994664520953,0.961041006652957,1
0.999999999999999,0.942573939390468,0.878632085009298,0.857711192264095,0.872333134635538,0.908455214928014,0.949835467011551,0.909525061398612,0.865110170788259,0.846060876601025,0.876614089813737,0.945942920650341,0.999999999999999
1,0.926194221750093,0.850657541034551,0.844529124151043,0.91023440700714,0.953565686705867,0.95046063969825,0.910476036602599,0.850249101039186,0.839247249682774,0.92734956033445,1,1
0.999999999999999,0.91253320715451,0.786351475325869,0.805436218123779,0.794172177229635,0.89390048071676,0.970669364951493,0.892898321197917,0.765935695563822,0.782722137042579,0.786717693884253,0.915954141331004,0.999999999999999
1,1,0.950275487897479,0.886736181594063,0.883176893821189,0.872440458377427,0.885184442503845,0.862917767684675,0.867088767589711,0.903600407685533,0.886736181594063,0.950152591117,1
0.977106985647013,0.909146033236043,0.905820983615733,0.923844147373453,0.915983604258871,0.892281227590009,0.908782497827188,0.883809795783301,0.901030748028193,0.902537364556783,0.902607389134716,0.970401481293767,0.977106985647013
0.992305159952676,0.936336414732225,0.896607812788894,0.841632377273005,0.843404429651699,0.878937284071577,0.897259650881726,0.869555715098655,0.859151933692055,0.849087015497034,0.857770038663026,0.942175377240761,0.992305159952676
1,0.954954443544209,0.894800419078397,0.866457542861214,0.862725255672352,0.913238019989664,0.904214707923588,0.894221613632505,0.870333020844556,0.866457542861214,0.889759250697181,0.95286300638641,1
0.992233997436083,0.888193800688489,0.874687871723578,0.879505399887883,0.873010799890465,0.979261891555875,0.97145372416141,0.873313410125782,0.869374193481368,0.896386641793408,0.887377091421337,1,0.992233997436083
0.999999999999999,0.980100975677011,0.949814567725477,0.940755855907309,0.952863624289471,0.960783497051872,0.960152094069247,0.955915049207447,0.94075585590731,0.949814567725478,0.979267996448816,1,0.999999999999999
1,0.987614838634113,0.889745630176751,0.899864130836865,0.881218261211313,0.882959432190529,0.887353241954782,0.887355325320442,0.852522900356118,0.866166304656291,0.894670472706941,0.98217837044931,1
0.999999999999999,1,0.985169899710509,0.964931496704676,0.960761287818907,0.977989233697238,0.98655486357198,0.986500370104265,0.975189234681528,0.960761287818907,0.964931496704676,0.987173465597348,0.999999999999999
1,1,0.94117590106403,0.894216179147915,0.890225334913066,0.897250111746522,0.869651410201225,0.897250111746522,0.894216179147915,0.890225334913066,0.941175901064029,1,1
1,0.824300753458079,0.803039244521027,0.837065495897903,0.857050461004362,0.844353528227416,0.987281366386997,0.813093446781001,0.80682224655832,0.835098850944291,0.848777265451842,0.840896506263348,1
1,0.929961538660487,0.903965323960259,0.901522971893293,0.896375283369541,0.92384884464437,0.943449941705398,0.905018307321659,0.89574695901526,0.889860062576711,0.881916310526224,0.947729714743355,1
0.999999999999998,0.963082866122026,0.913250736873747,0.887586402284232,0.883997799433928,0.87693120712368,0.877845108378103,0.88506101574142,0.888388187077814,0.913250736873747,0.965889109170141,0.999999999999999,0.999999999999998
0.999999999999999,1,0.961802849989163,0.895928429791387,0.925965745321478,0.948367976730456,0.95117431958145,0.945428363508396,0.925965745321477,0.903187817818846,0.961802849989163,0.999999999999999,0.999999999999999
0.999999999999998,0.909015425449244,0.86176591903532,0.860691254168009,0.866927722791002,0.901025003274079,0.962589634727986,0.899947074795308,0.86194827152697,0.859324875299346,0.867435151207378,0.909171486630719,0.999999999999998
0.99477897229945,1,0.97841994742158,0.966913131526804,0.966189475233068,0.972419251912084,0.961037497093791,0.97589153023604,0.965231661015028,0.960513156444042,0.97841994742158,0.999999999999999,0.99477897229945
0.999999999999999,1,0.898742227814086,0.851394386005826,0.881838912232615,0.91514250574289,0.922429793858464,0.907834898047582,0.915142505742891,0.856186819851163,0.885546931194634,0.896682362361005,0.999999999999999
1,0.919704661116325,0.925330129452445,0.865308221933944,0.889041908174969,0.923842214276673,0.920099988966665,0.873988690479999,0.918334340404981,0.853892596020999,0.93367816332158,0.977643664066186,1
1,0.968496051685105,1,0.963554767976218,0.917467487574047,0.920593229884678,0.935738241810436,0.928860885951118,0.925634436452022,0.920593229884679,0.921204778598288,0.963554767976218,1
1,0.952854846794459,0.878882680152307,0.852264621226682,0.871376040605501,0.909275685335656,0.928874737266346,0.914892779109464,0.870064931995193,0.852264621226682,0.881935828272827,0.950726014173937,1
0.964738873926768,0.881845813256088,0.958313346952644,0.912763040383395,0.932683274649125,0.905948996468081,0.93319550338769,0.866422819386023,0.912957275970668,0.890219341185088,0.922543257631279,0.958313346952642,0.964738873926768
0.939899627159897,0.908194526066337,0.887301393056919,0.883146650437121,0.895254119976672,0.905840862253893,0.865365108307717,0.910257280804978,0.910688261955404,0.892849568013295,0.932080855517143,0.97624268686025,0.939899627159897
0.996317985425129,1,0.960670549615971,0.945080026749375,0.95295806850288,0.945682663683757,0.933658587522925,0.945325073795388,0.952867462869001,0.945080026749379,0.960670549615971,0.999999999999999,0.996317985425129
0.954985334315077,0.920199888298183,0.902943867077595,0.920071716817101,0.884271355012059,0.935514841473305,0.914178000237495,0.911146500207847,0.893627343701999,0.90911976066149,0.891945726955786,0.940133370302178,0.954985334315077
1,1,0.886419192111798,0.852392586733929,0.848294874815921,0.914352027256942,0.920029609424766,0.911107255541299,0.848294874815921,0.841257984130839,0.886419192111798,0.999999999999999,1
1,0.912509651039564,0.806648429869321,0.824549541154484,0.844821697904243,0.891863600759222,0.850790977987123,0.844821697904243,0.806647095949012,0.824573983259992,0.845926902149718,0.906576883689011,1
1,0.944462405484786,0.883260574633527,0.939249503571686,0.913503801165015,0.861309699818015,0.904901463395328,0.884772251612996,0.89403886332902,0.913628849288166,0.951277119328203,0.974208420385363,1
1,1,0.848625381773339,0.827309420990586,0.862520914754796,0.857485275158225,0.840684626255244,0.8603455169046,0.842818901881327,0.850601948382728,0.848625381773339,1,1
0.999999999999999,0.96773848480072,0.934091318727067,0.916032777151893,0.911986513830957,0.914871560611363,0.914871560611363,0.90967720983658,0.907711810968095,0.934091318727067,0.965881602134637,1,0.999999999999999
1,1,0.921956040105923,0.921883445276151,0.928154707738512,0.922678452095375,0.922678452095374,0.919413496532144,0.928154707738512,0.919821997547115,0.921956040105923,1,1
1,1,0.924120177226623,0.900297499803522,0.912167747371836,0.904707557936778,0.920179861913526,0.908517576578922,0.89566584528486,0.92419591087201,1,0.930964612076684,1
1,0.937356757901461,0.902449915221913,0.922377286661029,0.937046816164794,0.91859449982601,0.945747814297677,0.937775717959369,0.912488744067749,0.933304925198442,0.912828648457917,0.940182701815569,1
1,0.974559746637707,0.941653605371182,0.960490704747087,0.962524747770251,0.950561738604611,0.950561738604611,0.96554741446467,0.960490704747087,0.952847358468182,0.973289753335806,1,1
0.986919674087155,0.9051906177639,0.914206269939007,0.861872936373573,0.884161060284151,0.925958292305221,0.913998249783133,0.916957456073888,0.918651212512828,0.861792676089638,0.909000465611731,0.910460834499045,0.986919674087155
0.976812993064055,0.979919985575118,0.912128454319743,0.943598462478005,0.895172817397726,0.87719512744327,0.913369217574871,0.926579212913542,0.91677123812751,0.919803804913908,0.909218241867871,0.888223063380254,0.976812993064055
1,1,0.999999999999998,0.959185996257878,0.942064435515131,0.966914069966619,0.969517365261215,0.966111667847868,0.96691406996662,0.941989396746199,0.961992502062,0.999999999999998,1
0.999999999999999,0.918522440283806,0.861187939587806,0.869128874440336,0.859340971631635,0.853355384076282,0.868132213560258,0.871928752341992,0.859697734598046,0.846476690235264,0.849341289498553,0.919467522463455,0.999999999999999
0.943644739115796,0.919670505091629,0.883545673997328,0.929742702213109,0.923236984653489,0.884615214099022,0.930171674262037,0.940012507454983,0.891251439646507,0.915763220519246,0.93522750110395,0.919853486764314,0.943644739115796
1,0.968634378006978,0.950186600532394,0.871445871780363,0.891679180308,0.865408328947044,0.867745475981124,0.889508265152033,0.888194990859049,0.866953708395599,0.880646482289066,0.950171574607717,1
0.965889270366311,0.888276089486332,0.882774265200721,0.852592919655423,0.847600309348763,0.892236051709021,0.889181786783003,0.867868194677199,0.880957801823374,0.901676673101519,0.903522249063862,0.921770751418457,0.965889270366311
0.999999999999999,0.999999999999996,0.968012834955143,0.950006231858223,0.959948158202232,0.960480511064668,0.938721767294885,0.938721767294885,0.957899272508915,0.959948158202233,0.952235512873976,0.96983389960527,0.999999999999999
0.954276895727403,0.911706321539083,0.926622096399214,0.910166353241688,0.866828855256545,0.929918942276584,0.872385795620355,0.915268356978776,0.926489956217229,0.925619172000234,0.866901662271528,0.870486352156957,0.954276895727403
1,0.918217476616485,0.807070731343875,0.80810020542174,0.844269420954361,0.859141690801628,0.866102653936061,0.81568671954328,0.782329665061197,0.785533041980238,0.918304197034266,1,1
0.999999999999999,0.853018222454797,0.847955152280346,0.851779390662756,0.849970333518768,0.876731705810783,0.888428399822814,0.872093672802707,0.815095089711909,0.895680852951082,0.877117555431411,0.881520873466704,0.999999999999999
1,1,1,0,0,1,1,1,1,0,0,1,1
1,1,0,0,0,0,0,0,0,0,0,0,1
1,1,1,1,1,1,1,1,1,1,1,1,1
1,1,1,0,0,1,1,0,0,0,1,1,1
1,0,0,0,1,1,0,0,0,1,1,1,1
1,1,0,0,0,1,1,1,0,0,0,1,1
1,1,1,1,1,1,1,1,1,1,1,1,1
1,0,0,0,0,1,0,0,0,0,0,1,1
1,1,1,1,1,1,1,1,1,1,1,1,1
1,1,1,0,0,0,1,1,0,0,0,0,1
1,1,1,0,0,1,1,1,1,0,0,1,1
1,1,1,0,1,1,1,1,0,0,1,1,1
1,1,1,1,1,1,1,1,1,1,1,1,1
1,1,1,1,1,1,1,1,1,1,1,1,1
1,1,1,0,0,0,0,0,0,0,0,1,1
1,1,1,0,0,1,1,1,1,0,1,1,1
1,1,0,0,0,1,1,1,0,0,0,1,1
1,1,1,0,1,1,0,0,1,0,1,1,1
1,1,0,0,0,1,1,1,0,0,0,1,1
1,1,1,1,1,1,1,1,1,1,1,1,1
1,0,0,0,0,0,1,0,0,0,0,0,1
1,1,0,0,0,0,0,0,0,0,0,1,1
1,1,1,1,1,1,1,1,1,1,1,1,1
1,1,0,0,0,1,1,0,0,0,1,1,1
1,1,1,1,1,1,1,1,1,1,1,1,1
1,1,1,1,1,1,1,1,1,1,1,1,1
1,1,0,0,0,0,0,0,0,0,0,0,1
1,1,1,1,1,1,1,1,1,1,1,1,1
1,0,0,0,0,0,0,0,0,0,0,0,1
1,1,1,1,0,0,0,1,1,0,0,1,1
1,1,1,0,0,1,1,1,0,0,0,1,1
1,1,1,1,1,1,1,1,1,1,1,1,1
1,1,1,1,1,1,1,1,1,1,1,1,1
1,1,0,0,0,1,1,1,0,0,0,1,1
1,1,0,0,1,1,1,1,0,0,1,1,1
1,1,1,1,1,1,1,1,1,0,1,1,1
1,1,0,0,0,1,1,1,0,0,0,1,1
1,1,1,0,0,1,1,1,1,0,1,1,1
1,1,1,0,0,1,0,1,1,0,0,1,1
1,1,1,1,1,1,1,1,1,1,1,1,1
1,1,1,1,1,1,1,1,1,1,1,1,1
1,1,0,0,0,1,1,0,0,1,1,1,1
1,1,0,0,0,1,1,1,0,0,0,1,1
1,0,0,0,0,0,0,0,0,0,0,0,1
1,1,1,1,1,1,1,1,1,1,1,1,1
1,1,1,1,0,0,0,0,0,0,0,1,1
1,0,0,0,0,0,0,0,0,0,0,0,1
1,1,0,0,1,1,1,1,0,0,0,1,1
1,0,0,0,0,1,0,0,0,0,1,1,1
1,1,1,0,1,1,1,1,1,0,1,1,1
1,1,1,1,1,1,1,1,1,1,1,1,1
1,1,1,1,0,1,0,1,0,0,0,1,1
1,0,0,0,0,0,0,0,0,0,0,0,1
1,1,1,0,1,1,1,1,1,1,1,1,1
1,1,0,0,0,1,1,0,0,0,0,1,1
1,1,0,0,0,0,0,0,0,0,0,1,1
1,1,1,1,1,1,1,1,1,1,1,1,1
1,1,0,0,0,0,0,0,0,0,1,1,1
1,1,1,1,1,1,1,1,1,1,1,1,1
1,1,0,0,0,0,1,1,0,0,0,0,1
1,1,1,1,1,1,1,1,1,1,1,1,1
1,1,1,1,0,1,1,1,1,1,0,1,1
1,1,1,1,1,1,1,1,1,1,1,1,1
1,0,0,1,1,1,1,0,0,1,1,1,1
1,1,0,0,1,1,1,1,0,0,1,1,1
1,0,0,0,0,0,1,0,0,0,0,0,1
1,1,1,1,1,0,1,1,0,1,1,1,1
1,1,0,0,0,1,1,1,0,0,1,1,1
1,1,0,0,0,1,1,1,0,0,0,1,1
1,1,1,0,0,1,1,1,1,0,0,1,1
1,1,1,0,0,0,0,0,0,0,0,0,1
1,1,1,1,1,1,1,1,1,1,1,1,1
1,1,1,1,1,1,1,1,1,1,1,1,1
1,1,1,1,0,1,1,1,1,1,0,1,1
1,1,0,0,0,1,0,0,0,0,0,1,1
1,1,0,0,0,0,0,0,0,0,0,1,1
1,1,0,0,1,1,1,1,0,0,1,1,1
1,0,1,1,0,1,1,0,0,0,0,1,1
1,1,0,0,0,1,1,1,0,0,0,1,1
1,1,1,1,1,1,1,1,1,1,1,1,1
1,1,1,1,0,1,1,1,1,1,0,1,1
1,1,1,1,1,1,1,1,1,1,1,1,1
1,1,1,1,1,1,1,1,1,1,1,1,1
1,1,1,1,0,1,1,0,0,0,1,1,1
1,0,0,1,1,1,1,0,0,1,1,1,1
1,1,1,1,1,1,1,1,1,1,0,1,1
1,1,1,1,1,1,1,1,1,1,1,1,1
1,1,1,1,1,1,1,1,1,1,1,1,1
1,1,1,1,1,1,1,1,0,1,1,1,1
1,1,1,1,1,1,1,1,1,1,1,1,1
1,1,1,1,1,1,1,1,1,1,1,1,1
1,1,1,1,1,1,1,1,1,1,1,1,1
1,1,1,1,0,1,1,1,0,1,1,1,1
1,1,1,1,1,1,1,1,1,1,1,1,1
1,1,1,0,0,1,1,1,1,0,0,1,1
1,1,0,1,1,1,1,1,0,1,1,1,1
1,1,0,0,0,0,0,0,0,1,1,1,1
1,1,1,1,1,1,1,1,1,1,1,1,1
1,1,0,0,0,1,1,1,0,0,0,1,1
1,1,1,1,1,1,1,1,1,1,1,1,1
1,1,0,0,0,0,0,0,0,0,0,0,1
1,1,1,0,0,0,0,0,0,0,0,1,1
1,1,1,0,0,1,1,1,1,0,0,1,1
1,1,1,0,0,0,0,0,0,0,1,1,1
1,1,1,0,0,0,1,1,1,0,0,1,1
1,1,1,1,1,1,1,1,1,1,1,1,1
1,1,0,0,0,1,1,1,0,0,0,1,1
1,1,0,0,1,1,1,0,0,0,1,1,1
1,1,1,1,1,1,1,1,1,1,1,1,1
1,1,0,0,0,1,1,1,0,0,0,1,1
1,1,1,1,1,1,1,1,1,1,1,1,1
1,1,0,0,0,1,1,1,0,0,0,1,1
1,1,1,0,1,1,1,1,1,0,1,1,1
1,1,0,0,0,1,1,0,0,0,1,1,1
1,1,0,0,0,0,0,1,0,0,1,1,1
1,1,1,0,1,1,0,1,1,0,1,1,1
1,1,1,0,1,1,1,1,1,0,1,1,1
1,0,0,0,0,0,1,0,0,0,0,0,1
1,1,1,1,1,1,1,1,1,1,1,1,1
1,1,1,1,1,1,1,1,1,1,1,1,1
1,1,1,1,1,1,0,0,1,0,0,1,1
1,1,1,0,0,1,1,1,0,0,1,1,1
1,1,1,0,0,1,1,1,1,0,1,1,1
1,1,1,1,1,1,1,1,1,1,1,1,1
1,1,0,0,0,0,0,0,0,0,0,1,1
1,1,0,0,0,1,0,1,0,0,1,1,1
1,1,0,1,1,0,1,1,0,1,1,1,1
1,1,1,1,1,1,1,1,1,0,1,1,1
1,0,0,0,0,1,1,0,0,0,0,1,1
1,1,1,1,1,1,1,1,1,1,1,1,1
1,1,1,1,1,1,1,1,1,1,1,1,1
1,1,1,1,1,1,1,1,1,1,1,1,1
1,1,1,1,1,1,1,1,1,1,1,1,1
1,1,1,1,1,1,1,1,1,1,1,1,1
1,1,1,1,1,1,1,1,1,1,1,1,1
1,1,1,1,1,1,1,1,1,1,1,1,1
1,1,1,1,1,1,1,1,1,1,1,1,1
1,1,1,1,1,1,1,1,1,1,1,1,1
1,1,1,1,1,1,1,1,1,1,1,1,1
1,1,1,1,1,1,1,1,1,1,1,1,1
1,1,1,1,1,1,1,1,1,1,1,1,1
1,1,1,1,1,1,1,1,1,1,1,1,1
1,1,1,1,1,1,1,1,1,1,1,1,1
1,1,1,1,1,1,1,1,1,1,1,1,1
1,1,1,1,1,1,1,1,1,1,1,1,1
1,1,1,1,1,1,1,1,1,1,1,1,1
1,1,1,1,1,1,1,1,1,1,1,1,1
1,1,1,1,1,1,1,1,1,1,1,1,1
1,1,1,1,1,1,1,1,1,1,1,1,1
1,1,1,1,1,1,1,1,1,1,1,1,1
1,1,1,1,1,1,1,1,1,1,1,1,1
1,1,1,1,1,1,1,1,1,1,1,1,1
1,1,1,1,1,1,1,1,1,1,1,1,1
1,1,1,1,1,1,1,1,1,1,1,1,1
1,1,1,1,1,1,1,1,1,1,1,1,1
1,1,1,1,1,1,1,1,1,1,1,1,1
1,1,1,1,1,1,1,1,1,1,1,1,1
1,1,1,1,1,1,1,1,1,1,1,1,1
1,1,1,1,1,1,1,1,1,1,1,1,1
1,1,1,1,1,1,1,1,1,1,1,1,1
1,1,1,1,1,1,1,1,1,1,1,1,1
1,1,1,1,1,1,1,1,1,1,1,1,1
1,1,1,1,1,1,1,1,1,1,1,1,1
1,1,1,1,1,1,1,1,1,1,1,1,1
1,1,1,1,1,1,1,1,1,1,1,1,1
1,1,1,1,1,1,1,1,1,1,1,1,1
1,1,1,1,1,1,1,1,1,1,1,1,1
1,1,1,1,1,1,1,1,1,1,1,1,1
1,1,1,1,1,1,1,1,1,1,1,1,1
1,1,1,1,1,1,1,1,1,1,1,1,1
1,1,1,1,1,1,1,1,1,1,1,1,1
1,1,1,1,1,1,1,1,1,1,1,1,1
1,1,1,1,1,1,1,1,1,1,1,1,1
1,1,1,1,1,1,1,1,1,1,1,1,1
1,1,1,1,1,1,1,1,1,1,1,1,1
1,1,1,1,1,1,1,1,1,1,1,1,1
1,1,1,1,1,1,1,1,1,1,1,1,1
1,1,1,1,1,1,1,1,1,1,1,1,1
1,1,1,1,1,1,1,1,1,1,1,1,1
1,1,1,1,1,1,1,1,1,1,1,1,1
1,1,1,1,1,1,1,1,1,1,1,1,1
1,1,1,1,1,1,1,1,1,1,1,1,1
1,1,1,1,1,1,1,1,1,1,1,1,1
1,1,1,1,1,1,1,1,1,1,1,1,1
1,1,1,1,1,1,1,1,1,1,1,1,1
1,1,1,1,1,1,1,1,1,1,1,1,1
1,1,1,1,1,1,1,1,1,1,1,1,1
1,1,1,1,1,1,1,1,1,1,1,1,1
1,1,1,1,1,1,1,1,1,1,1,1,1
1,1,1,1,1,1,1,1,1,1,1,1,1
1,1,1,1,1,1,1,1,1,1,1,1,1
1,1,1,1,1,1,1,1,1,1,1,1,1
1,1,1,1,1,1,1,1,1,1,1,1,1
1,1,1,1,1,1,1,1,1,1,1,1,1
1,1,1,1,1,1,1,1,1,1,1,1,1
1,1,1,1,1,1,1,1,1,1,1,1,1
1,1,1,1,1,1,1,1,1,1,1,1,1
1,1,1,1,1,1,1,1,1,1,1,1,1
1,1,1,1,1,1,1,1,1,1,1,1,1
1,1,1,1,1,1,1,1,1,1,1,1,1
1,1,1,1,1,1,1,1,1,1,1,1,1
1,1,1,1,1,1,1,1,1,1,1,1,1
1,1,1,1,1,1,1,1,1,1,1,1,1
1,1,1,1,1,1,1,1,1,1,1,1,1
1,1,1,1,1,1,1,1,1,1,1,1,1
1,1,1,1,1,1,1,1,1,1,1,1,1
1,1,1,1,1,1,1,1,1,1,1,1,1
1,1,1,1,1,1,1,1,1,1,1,1,1
1,1,1,1,1,1,1,1,1,1,1,1,1
1,1,1,1,1,1,1,1,1,1,1,1,1
1,1,1,1,1,1,1,1,1,1,1,1,1
1,1,1,1,1,1,1,1,1,1,1,1,1
1,1,1,1,1,1,1,1,1,1,1,1,1
1,1,1,1,1,1,1,1,1,1,1,1,1
1,1,1,1,1,1,1,1,1,1,1,1,1
1,1,1,1,1,1,1,1,1,1,1,1,1
1,1,1,1,1,1,1,1,1,1,1,1,1
1,1,1,1,1,1,1,1,1,1,1,1,1
1,1,1,1,1,1,1,1,1,1,1,1,1
1,1,1,1,1,1,1,1,1,1,1,1,1
1,1,1,1,1,1,1,1,1,1,1,1,1
1,1,1,1,1,1,1,1,1,1,1,1,1
1,1,1,1,1,1,1,1,1,1,1,1,1
1,1,1,1,1,1,1,1,1,1,1,1,1
1,1,1,1,1,1,1,1,1,1,1,1,1
1,1,1,1,1,1,1,1,1,1,1,1,1
1,1,1,1,1,1,1,1,1,1,1,1,1
1,1,1,1,1,1,1,1,1,1,1,1,1
1,1,1,1,1,1,1,1,1,1,1,1,1
1,1,1,1,1,1,1,1,1,1,1,1,1
1,1,1,1,1,1,1,1,1,1,1,1,1
1,1,1,1,1,1,1,1,1,1,1,1,1
1,1,1,1,1,1,1,1,1,1,1,1,1
1,1,1,1,1,1,1,1,1,1,1,1,1
1,1,1,1,1,1,1,1,1,1,1,1,1
1,1,1,1,1,1,1,1,1,1,1,1,1
1,1,1,1,1,1,1,1,1,1,1,1,1
1,1,1,1,1,1,1,1,1,1,1,1,1
1,1,1,1,1,1,1,1,1,1,1,1,1
1,1,1,1,1,1,1,1,1,1,1,1,1
1,1,1,1,1,1,1,1,1,1,1,1,1
1,1,1,1,1,1,1,1,1,1,1,1,1
1,1,1,1,1,1,1,1,1,1,1,1,1
1,1,1,1,1,1,1,1,1,1,1,1,1
1,1,1,1,1,1,1,1,1,1,1,1,1
1,1,1,1,1,1,1,1,1,1,1,1,1
1,1,1,1,1,1,1,1,1,1,1,1,1
1,1,1,1,1,1,1,1,1,1,1,1,1
1,1,1,1,1,1,1,1,1,1,1,1,1
1,1,1,1,1,1,1,1,1,1,1,1,1
1,1,1,1,1,1,1,1,1,1,1,1,1
1,1,1,1,1,1,1,1,1,1,1,1,1
1,1,1,1,1,1,1,1,1,1,1,1,1
1,1,1,1,1,1,1,1,1,1,1,1,1
1,1,1,1,1,1,1,1,1,1,1,1,1
1,1,1,1,1,1,1,1,1,1,1,1,1
1,1,1,1,1,1,1,1,1,1,1,1,1
1,1,1,1,1,1,1,1,1,1,1,1,1
1,1,1,1,1,1,1,1,1,1,1,1,1
1,1,1,1,1,1,1,1,1,1,1,1,1
1,1,1,1,1,1,1,1,1,1,1,1,1
1,1,1,1,1,1,1,1,1,1,1,1,1
1,1,1,1,1,1,1,1,1,1,1,1,1
1,1,1,1,1,1,1,1,1,1,1,1,1
1,1,1,1,1,1,1,1,1,1,1,1,1
1,1,1,1,1,1,1,1,1,1,1,1,1
1,1,1,1,1,1,1,1,1,1,1,1,1
1,1,1,1,1,1,1,1,1,1,1,1,1
1,1,1,1,1,1,1,1,1,1,1,1,1
1,1,1,1,1,1,1,1,1,1,1,1,1
1,1,1,1,1,1,1,1,1,1,1,1,1
1,1,1,1,1,1,1,1,1,1,1,1,1
1,1,1,1,1,1,1,1,1,1,1,1,1
1,1,1,1,1,1,1,1,1,1,1,1,1
1,1,1,1,1,1,1,1,1,1,1,1,1
1,1,1,1,1,1,1,1,1,1,1,1,1
1,1,1,1,1,1,1,1,1,1,1,1,1
1,1,1,1,1,1,1,1,1,1,1,1,1
1,1,1,1,1,1,1,1,1,1,1,1,1
1,1,1,1,1,1,1,1,1,1,1,1,1
1,1,1,1,1,1,1,1,1,1,1,1,1
1,1,1,1,1,1,1,1,1,1,1,1,1
1,1,1,1,1,1,1,1,1,1,1,1,1
1,1,1,1,1,1,1,1,1,1,1,1,1
1,1,1,1,1,1,1,1,1,1,1,1,1
1,1,1,1,1,1,1,1,1,1,1,1,1
1,1,1,1,1,1,1,1,1,1,1,1,1
1,1,1,1,1,1,1,1,1,1,1,1,1
1,1,1,1,1,1,1,1,1,1,1,1,1
1,1,1,1,1,1,1,1,1,1,1,1,1
1,1,1,1,1,1,1,1,1,1,1,1,1
1,1,1,1,1,1,1,1,1,1,1,1,1
1,1,1,1,1,1,1,1,1,1,1,1,1
1,1,1,1,1,1,1,1,1,1,1,1,1
1,1,1,1,1,1,1,1,1,1,1,1,1
1,1,1,1,1,1,1,1,1,1,1,1,1
1,1,1,1,1,1,1,1,1,1,1,1,1
1,1,1,1,1,1,1,1,1,1,1,1,1
1,1,1,1,1,1,1,1,1,1,1,1,1
1,1,1,1,1,1,1,1,1,1,1,1,1
1,1,1,1,1,1,1,1,1,1,1,1,1
1,1,1,1,1,1,1,1,1,1,1,1,1
1,1,1,1,1,1,1,1,1,1,1,1,1
1,1,1,1,1,1,1,1,1,1,1,1,1
1,1,1,1,1,1,1,1,1,1,1,1,1
1,1,1,1,1,1,1,1,1,1,1,1,1
1,1,1,1,1,1,1,1,1,1,1,1,1
1,1,1,1,1,1,1,1,1,1,1,1,1
1,1,1,1,1,1,1,1,1,1,1,1,1
1,1,1,1,1,1,1,1,1,1,1,1,1
1,1,1,1,1,1,1,1,1,1,1,1,1
1,1,1,1,1,1,1,1,1,1,1,1,1
1,1,1,1,1,1,1,1,1,1,1,1,1
1,1,1,1,1,1,1,1,1,1,1,1,1
1,1,1,1,1,1,1,1,1,1,1,1,1
1,1,1,1,1,1,1,1,1,1,1,1,1
1,1,1,1,1,1,1,1,1,1,1,1,1
1,1,1,1,1,1,1,1,1,1,1,1,1
1,1,1,1,1,1,1,1,1,1,1,1,1
1,1,1,1,1,1,1,1,1,1,1,1,1
1,1,1,1,1,1,1,1,1,1,1,1,1
1,1,1,1,1,1,1,1,1,1,1,1,1
1,1,1,1,1,1,1,1,1,1,1,1,1
1,1,1,1,1,1,1,1,1,1,1,1,1
1,1,1,1,1,1,1,1,1,1,1,1,1
1,1,1,1,1,1,1,1,1,1,1,1,1
1,1,1,1,1,1,1,1,1,1,1,1,1
1,1,1,1,1,1,1,1,1,1,1,1,1
1,1,1,1,1,1,1,1,1,1,1,1,1
1,1,1,1,1,1,1,1,1,1,1,1,1
1,1,1,1,1,1,1,1,1,1,1,1,1
1,1,1,1,1,1,1,1,1,1,1,1,1
1,1,1,1,1,1,1,1,1,1,1,1,1
1,1,1,1,1,1,1,1,1,1,1,1,1
1,1,1,1,1,1,1,1,1,1,1,1,1
1,1,1,1,1,1,1,1,1,1,1,1,1
1,1,1,1,1,1,1,1,1,1,1,1,1
1,1,1,1,1,1,1,1,1,1,1,1,1
1,1,1,1,1,1,1,1,1,1,1,1,1
1,1,1,1,1,1,1,1,1,1,1,1,1
1,1,1,1,1,1,1,1,1,1,1,1,1
1,1,1,1,1,1,1,1,1,1,1,1,1
1,1,1,1,1,1,1,1,1,1,1,1,1
1,1,1,1,1,1,1,1,1,1,1,1,1
1,1,1,1,1,1,1,1,1,1,1,1,1
1,1,1,1,1,1,1,1,1,1,1,1,1
1,1,1,1,1,1,1,1,1,1,1,1,1
1,1,1,1,1,1,1,1,1,1,1,1,1
1,1,1,1,1,1,1,1,1,1,1,1,1
1,1,1,1,1,1,1,1,1,1,1,1,1
1,1,1,1,1,1,1,1,1,1,1,1,1
1,1,1,1,1,1,1,1,1,1,1,1,1
1,1,1,1,1,1,1,1,1,1,1,1,1
1,1,1,1,1,1,1,1,1,1,1,1,1
1,1,1,1,1,1,1,1,1,1,1,1,1
1,1,1,1,1,1,1,1,1,1,1,1,1
1,1,1,1,1,1,1,1,1,1,1,1,1
1,1,1,1,1,1,1,1,1,1,1,1,1
1,1,1,1,1,1,1,1,1,1,1,1,1
1,1,1,1,1,1,1,1,1,1,1,1,1
1,1,1,1,1,1,1,1,1,1,1,1,1
1,1,1,1,1,1,1,1,1,1,1,1,1
1,1,1,1,1,1,1,1,1,1,1,1,1
1,1,1,1,1,1,1,1,1,1,1,1,1
1,1,1,1,1,1,1,1,1,1,1,1,1
1,1,1,1,1,1,1,1,1,1,1,1,1
1,1,1,1,1,1,1,1,1,1,1,1,1
1,1,1,1,1,1,1,1,1,1,1,1,1
1,1,1,1,1,1,1,1,1,1,1,1,1
1,1,1,1,1,1,1,1,1,1,1,1,1
1,1,1,1,1,1,1,1,1,1,1,1,1
1,1,1,1,1,1,1,1,1,1,1,1,1
1,1,1,1,1,1,1,1,1,1,1,1,1
1,1,1,1,1,1,1,1,1,1,1,1,1
1,1,1,1,1,1,1,1,1,1,1,1,1
1,1,1,1,1,1,1,1,1,1,1,1,1
1,1,1,1,1,1,1,1,1,1,1,1,1
1,1,1,1,1,1,1,1,1,1,1,1,1
1,1,1,1,1,1,1,1,1,1,1,1,1
1,1,1,1,1,1,1,1,1,1,1,1,1
1,1,1,1,1,1,1,1,1,1,1,1,1
1,1,1,1,1,1,1,1,1,1,1,1,1
1,1,1,1,1,1,1,1,1,1,1,1,1
1,1,1,1,1,1,1,1,1,1,1,1,1
1,1,1,1,1,1,1,1,1,1,1,1,1
1,1,1,1,1,1,1,1,1,1,1,1,1
1,1,1,1,1,1,1,1,1,1,1,1,1
1,1,1,1,1,1,1,1,1,1,1,1,1
1,1,1,1,1,1,1,1,1,1,1,1,1
1,1,1,1,1,1,1,1,1,1,1,1,1
0.999999999999998,1,0.940206881717359,0.903970972410295,0.899731766976417,0.909446981833662,0.949308562645677,0.954222408625509,0.906140549146544,0.902382848328377,0.91672684137541,0.943255327734264,0.999999999999998
0.959487110710035,0.97736441330174,0.909295420107008,0.907381007242764,0.90262082143614,0.890318115059498,0.94656413987449,0.936574437242571,0.912382763297841,0.905532490649082,0.897735495118191,0.921999305753634,0.959487110710035
1,0.978934110805232,0.959221777502207,0.940757447286062,0.927176311362824,0.9276660231612,0.921375453680114,0.932274791530208,0.946080607230985,0.959221777502207,0.982214331389521,0.999999999999999,1
0.999999999999999,0.999999999999998,0.903564427409494,0.848972709784757,0.877394173269806,0.857718753815207,0.868706002558251,0.866991109897858,0.85890393891725,0.852009140752278,0.903564427409494,1,0.999999999999999
0.961961049898192,0.958253671197275,0.899532756821178,0.906985970476651,0.934958474290218,0.920186113647206,0.962802772490803,0.962810602215949,0.893459530171189,0.910880006210766,0.955695920992666,0.945246593420727,0.961961049898192
1,0.918170813499478,0.901123285930977,0.827677984970768,0.845622081659625,0.892581616011877,0.943870421209866,0.893457132713967,0.903982682414218,0.82685289272839,0.857865928850445,0.920140179473947,1
0.999999999999999,1,0.982380269450867,0.955329571781167,0.94125862001084,0.939678158639437,0.942607000252466,0.944362600036163,0.94125862001084,0.959267823711944,0.982380269450867,1,0.999999999999999
0.9434610095219,0.846969396391912,0.861547038469178,0.892402872264107,0.81425012741159,0.857510715001628,0.864180216199104,0.831708634793939,0.864159245532587,0.864180216199104,0.842343155179162,0.912762848154455,0.9434610095219
0.999999999999999,0.969000255552029,0.93266719129541,0.918895865327616,0.939435669417916,0.964325115045818,0.966726324868327,0.944180880607086,0.918895865327616,0.93266719129541,0.965361424011824,0.999999999999998,0.999999999999999
0.992631118954518,0.999999999999999,0.918216444507703,0.873789169266104,0.888104318342147,0.917302011617603,0.906503792286151,0.918594263285571,0.883738765676324,0.883744126979179,0.891858484718687,0.920391029043339,0.992631118954518
1,1,0.863117505350471,0.834583767678317,0.808204959425934,0.844714095793854,0.972003711890188,0.971202188393839,0.845970215003146,0.831088233879726,0.805617918860954,0.864303750705596,1
1,0.932140323307106,0.829962968631647,0.841561929950978,0.808553832536924,0.899600493450075,0.936885013382105,0.894983540313172,0.821380372017249,0.85433940940711,0.837211057094946,0.936015911161881,1
1,0.963648109568075,0.907306766206646,0.913768371402834,0.933607094157912,0.937821842640979,0.939507450441735,0.934555373572764,0.913768371402834,0.907306766206646,0.959447834367406,1,1
1,0.999999999999997,0.954263038845893,0.896687859897923,0.927538165457235,0.958914316713719,0.959771031712957,0.953671370948915,0.927538165457235,0.888682283081759,0.954263038845894,1,1
1,0.930988996307706,0.872354681901353,0.867924872140448,0.884669668543897,0.846751639991146,0.900923317097709,0.901435887919892,0.899212211718568,0.887183189845229,0.901898844416306,0.930783055340664,1
1,0.944725758536031,0.854827818995611,0.850846901379948,0.844588586855166,0.870679211196011,0.886568605826385,0.870813650875157,0.839967514791464,0.836151395434122,0.851940668952077,0.944877601007244,1
0.999999999999999,0.917536977340488,0.872454150677048,0.873068128725926,0.869343603115739,0.899869121121029,0.939185929029665,0.897995162841314,0.864957815206824,0.874381877564739,0.851802466483807,0.92069406694027,0.999999999999999
0.99814696239682,0.99945454395643,0.943258538533722,0.874894511411013,0.910963469492631,0.908812396782032,0.940485296845589,0.937198237270227,0.909086304399116,0.883588554142647,0.945206265602235,0.997395030874622,0.99814696239682
1,0.922815191313872,0.840107336694206,0.828856860222077,0.863458724336452,0.86660325303835,0.899717304601987,0.869451498896007,0.834710275240395,0.829946693756091,0.835733661339385,0.919682428773471,1
0.999999999999998,0.961584428154482,0.926373334291611,0.919306181165827,0.919000936930024,0.908887669834283,0.903950761533921,0.907196376320296,0.922460114279968,0.919306181165828,0.927431633936236,0.961199797221263,0.999999999999998
0.992838323569193,0.883830415695708,0.899092186134739,0.893994071316092,0.838061367156517,0.861924051222695,0.97711503675664,0.890736279011824,0.896773085247456,0.890473588763939,0.841381069175679,0.861502346225749,0.992838323569193
0.992021697437119,0.867276740386757,0.811137922119409,0.835277582062965,0.812593289127511,0.860154638763976,0.9360713880939,0.798933442498743,0.820794912389096,0.834164250521279,0.807077286826329,0.863427847694918,0.992021697437119
1,0.999999999999997,0.963517489478848,0.91170514738643,0.938155734165683,0.965318733533407,0.963590077125923,0.966666276143654,0.938155734165683,0.918208723430457,0.963517489478849,1,1
1,0.854391473585067,0.781911200292131,0.826202012933255,0.818130837807853,0.921130012212129,0.917126114658031,0.865538059275174,0.829304527727179,0.809750349079353,0.854085539441387,1,1
1,0.999999999999999,0.956896600958535,0.898343174177506,0.856705989579655,0.87314945128273,0.863481367499817,0.860148562855811,0.856705989579655,0.89003770945025,0.956896600958535,1,1
1,0.990235596315177,0.976670166827256,0.963863034562462,0.966637431442202,0.983993178977454,0.993061412029626,0.98438651279741,0.973846741803291,0.963863034562462,0.96744125320428,0.988058722806123,1
0.961274259913002,0.985684343487279,0.917432194199905,0.938703840176205,0.959548977678587,0.913151819975768,0.939518758938407,0.946679158491344,0.91132141511186,0.940718668186736,0.957995455833979,0.911872334993774,0.961274259913002
1,0.998083309742091,0.995898364916247,0.993672714349796,0.991629063773183,0.99024553267556,0.98963665198106,0.990196262266104,0.991685047353676,0.993672714349797,0.995891130151867,0.998256289826951,1
0.937103669223488,0.877926951917978,0.871532592355066,0.881975289937575,0.899798383818146,0.881539457954199,0.887823421585373,0.885587117086149,0.883920993360265,0.8914594257542,0.898092170304324,0.875903161845545,0.937103669223488
1,1,0.999999999999998,0.94190505578904,0.878531957052953,0.900243717451995,0.903144943675668,0.907184517194526,0.907490939220253,0.918670423010748,0.897185871513079,0.941905055789039,1
1,1,0.859634476862652,0.819019073580548,0.859919181053923,0.97791346603286,0.979843910191094,0.97471533861513,0.861092198091137,0.823581960443454,0.862784700098126,1,1
1,0.924171871072475,0.827297111272976,0.819141089074837,0.915239237225827,0.972373593764857,0.974111320732552,0.906804723166526,0.819141089074837,0.827297111272976,0.933560779587359,1,1
1,1,0.981149548091175,0.970360230394869,0.954226832642783,0.944312389515298,0.947807835565655,0.945783249339987,0.947849695620471,0.957931085453811,0.970360230394869,0.987234228858568,1
0.999860143352501,0.950626200607368,0.89704835278436,0.936057234352474,0.916085708386944,0.88983098817194,0.925343610894372,0.911082228806583,0.904184975967896,0.944400704730193,0.923257834632119,0.930114535923087,0.999860143352501
0.999999999999999,0.943690377081312,0.905272431537082,0.907730460000379,0.937708354495163,0.979149900346254,0.984910457726908,0.936709538057129,0.902862423593983,0.907338942565565,0.94729178921402,1,0.999999999999999
0.955324176631971,0.969667545846182,0.982880236827551,0.914153295792395,0.918412217469333,0.955069690543711,0.916741707212977,0.931889052663526,0.95605379706158,0.915013897726099,0.92787851971184,0.982932272235028,0.955324176631971
1,0.856629521822103,0.825708108373892,0.882023542189585,0.822344077972782,0.834090836180728,0.962125956538847,0.842161091014048,0.826064928863789,0.875716322068005,0.818171225113555,0.851265139272049,1
1,1,0.851309054948633,0.864362723076001,0.84661819047329,0.978046573084709,0.977798366462466,0.979459248229296,0.839377094748268,0.870588170543341,0.851309054948633,0.999999999999997,1
1,1,0.939688374306701,0.868355869258474,0.898550918284959,0.882958685812431,0.926764753659288,0.92204202482591,0.885408774466834,0.877678294599345,0.867505875029671,0.934045547344685,1
1,0.994520210626866,0.986615906108049,0.980912258923502,0.981681669517371,0.981643228000091,0.982080152390127,0.980492308200072,0.981401198553104,0.986615906108049,0.995206634519374,1,1
1,0.968560667174409,0.918917244346053,0.897419676974025,0.918995236393846,0.907108321837406,0.926642646317607,0.925898401059616,0.897419676974025,0.918917244346053,0.964359418239008,0.999999999999999,1
1,0.912960358508946,0.941281436483751,0.927501763713613,0.903540492058606,0.941122088902584,0.929845645914204,0.895736475592857,0.921608896853577,0.9078193309702,0.920173965556965,1,1
0.999999999999999,0.935853893755101,0.863967499392111,0.868710697035615,0.887487032168506,0.927515221412681,0.96707069131872,0.921493351443108,0.85557891773666,0.870317594434415,0.892260268243361,0.944716046712382,0.999999999999999
1,0.883527124532816,0.839778919635713,0.831346062223836,0.855480662351921,0.871614660147198,0.928505007462855,0.911063626162512,0.849272614391734,0.871724888141229,0.863256484324582,0.865404551764088,1
1,0.999999999999999,0.951106097376719,0.908071192356788,0.903260701750538,0.897462503002066,0.899351242480292,0.905688900995514,0.898188905598125,0.908071192356788,0.951106097376719,1,1
0.999999999999998,0.907388164543623,0.999999999999999,0.906113944721942,0.83093525395173,0.885547558960221,0.837614392214831,0.900117379856114,0.86844438585736,0.827248726015743,0.863568768491555,0.906113944721942,0.999999999999998
0.964016596670329,0.856736052629395,0.876462542252896,0.823573045496425,0.805760240515768,0.927027981828783,0.908577197511543,0.877145111058056,0.884401573371642,0.860108651181546,0.820975808440966,0.918145547319109,0.964016596670329
0.999999999999998,0.946010396727776,0.879759358638957,0.899800186615994,0.862882178605258,0.921085970916451,0.957754449547665,0.927735949108354,0.87001970605097,0.880015219746386,0.873760020815246,0.947826960584219,0.999999999999998
0.995371428444993,0.930697344642497,0.908445659316002,0.941771941436833,0.909525360007101,0.887155618107225,0.921272475543043,0.943542198862419,0.951729495822665,0.920982678887597,0.912090963198011,0.988022746827666,0.995371428444993
1,0.999999999999999,0.95281523119104,0.911487219110868,0.951873702044038,0.996104303760053,0.995546280712328,0.996537070363935,0.951873702044038,0.911115872952202,0.952815231191041,0.999999999999999,1
0.999999999999999,0.987475959887478,0.97370618264253,0.973677813262186,0.979068167644307,0.976888155413464,0.987370818061833,0.980741365589441,0.975503652252095,0.973677813262185,0.982268206511912,0.985885475168111,0.999999999999999
1,0.999999999999999,0.956245345764842,0.906103663817161,0.900983116485292,0.906626761164907,0.917910050506621,0.914817396193387,0.907464633522542,0.901523616864406,0.926609250290945,0.956157205645779,1
0.953890780875579,0.955269881806909,0.849265058689752,0.894164031051312,0.879931130461985,0.868260239976527,0.914489297936214,0.900769708278473,0.873781183920671,0.927201739309075,0.916424339287523,0.885154686132103,0.953890780875579
0.999999999999998,0.963155447329265,0.929718854456721,0.907740456860963,0.902643552073823,0.899504062962329,0.905365281647662,0.906712885413623,0.895021958283552,0.929718854456721,0.967404471040489,1,0.999999999999998
0.999999999999998,0.915115651269003,0.921530291813174,0.87292849057168,0.946565365885249,0.862576150983128,0.909286622012103,0.932090921938809,0.87984544089764,0.897959126583206,0.923659258233893,0.958480427371323,0.999999999999998
0.99492389276659,0.933111958744114,0.90234360136466,0.921943524741764,0.893623318853582,0.878571954707905,0.899285399644528,0.899549004776903,0.902795385930579,0.92119156616171,0.917874328912403,0.93891289505874,0.99492389276659
1,0.977328706409043,0.945539505422566,0.922959727568739,0.923042168417778,0.919524199064956,0.915913510468071,0.922308335715666,0.929977837118142,0.945539505422567,0.977033692120775,1,1
1,0.940240410043897,0.870366901826505,0.825049733874257,0.880959371247666,0.830535719634563,0.866544804990353,0.858901024826457,0.862393679650692,0.826589552041341,0.866810700550075,0.938635116019356,1
0.999999999999999,0.942696637944594,0.874699674269923,0.873761816787261,0.925976431098709,0.96133591511429,0.958617217278377,0.925272084031427,0.873761816787261,0.874699674269923,0.945147588519737,0.999999999999998,0.999999999999999
1,0.84773635319338,0.861571518438852,0.818003804410756,0.809643010368222,0.835638258006029,0.964343636661663,0.828975662086757,0.890217863217127,0.833311985075479,0.821505444929653,0.845622768370017,1
0.999999999999998,0.970027142681891,0.948270467345842,0.962526597415453,0.96440461744655,0.948593140882489,0.948593140882489,0.963059546778321,0.962526597415454,0.95080646612169,0.971289009991903,1,0.999999999999998
1,0.879049261192099,0.999999999999998,0.86327078263905,0.781184642059024,0.839915436833187,0.955304932713982,0.857471579692608,0.952792766233268,0.839915436833187,0.783156683020706,0.86327078263905,1
1,0.955682828599373,0.916666275524104,0.914867862223779,0.929410573682787,0.917453284026437,0.902813978028845,0.920414052905288,0.931500975700985,0.914867862223778,0.91331660317214,0.959316434309215,1
0.984610151615771,0.914454354255146,0.817373340984416,0.870912547971876,0.931977994726433,0.891522171562627,0.950785972731816,0.921604219314321,0.816965822406391,0.882478941454865,0.954050557770298,0.90484347092795,0.984610151615771
1,0.939986139784831,0.874261880365158,0.87375197467617,0.840017172920119,0.931358825745115,0.975656319440343,0.926712708731947,0.880799269958848,0.87330398033933,0.848530152988217,0.945396555150742,1
0.981110903565658,0.952071499123603,0.895380695194109,0.854343256222452,0.850153816738098,0.941047463227866,0.924638352839053,0.937074839000931,0.881101391578324,0.866416685171943,0.857970376283556,0.948294583566558,0.981110903565658
0.999999999999999,1,0.86747230671297,0.775746424626629,0.842524324964696,0.770998017929672,0.843227608634892,0.842524324964696,0.815235004048439,0.874140985175554,1,0.873679152736475,0.999999999999999
0.999999999999999,0.839697239896164,0.859391199283531,0.840457666174212,0.828372802204294,0.931273084833756,0.939548697498978,0.825515869843768,0.853243992185732,0.834495799648695,0.830509626203451,1,0.999999999999999
1,0.994508860145735,0.869636578313608,0.903106385524034,0.887697497637847,0.956388986537098,0.960819111400545,0.94950226076057,0.870522657202289,0.898138734284567,0.884385691233711,1,1
1,1,0.91116535003259,0.877120787259318,0.917928688195897,0.88463494022469,0.919341032948678,0.920169923127155,0.886221026336178,0.869642489398016,0.91839957446596,0.910860162015927,1
0.988512678822065,0.955193927664896,0.901065280311056,0.906267607412009,0.863342310946949,0.849066962270684,0.922573755586996,0.874268600830942,0.880675721284047,0.939443089598773,0.875699600502795,0.911624142084331,0.988512678822065
1,0.945360811462965,0.907450516287231,0.901662094307803,0.897651393304404,0.927422316041397,0.922259295175867,0.892364866516111,0.905203738359947,0.907450516287231,0.944153835647637,1,1
0.999999999999999,0.973014092227605,0.942029988352289,0.937237138824861,0.941673841634394,0.960268997228336,0.973830588014778,0.961912571844578,0.943826130558217,0.937237138824861,0.94395357919561,0.971092701641843,0.999999999999999
1,0.937228296083481,0.997234277230029,0.928238551613004,0.915457510199589,0.906726170319699,0.964830491910196,0.918277728463445,0.955863061676753,0.909240878520811,0.911649613493449,0.925671301114842,1
0.980127195273657,0.949124699111072,0.943854338304414,0.950680733113705,0.947783385721536,0.961162907993877,0.954877425624066,0.919962655499318,0.954038583370373,0.951090952563676,0.952361510680085,0.988867636033625,0.980127195273657
0.951224688543881,0.869770244365687,0.888770730700873,0.852301857439901,0.82917122237627,0.842103841726875,0.856393620162578,0.853922855904584,0.897128154050057,0.848688731802488,0.824518048707126,0.896354868225138,0.951224688543881
0.999999999999998,0.909828611688574,0.861068816583138,0.896489585157799,0.880785897296595,0.946682574637308,0.934760166909998,0.870497027550332,0.852720361937109,0.854770016903821,0.919082966466969,0.999999999999999,0.999999999999998
0.999999999999999,0.930575522545659,0.96880481895096,0.920419445583411,0.874210145916233,0.885405859461407,0.933446166308218,0.935841323164567,0.916036928874685,0.918813607406093,0.877722752871079,0.891706794337378,0.999999999999999
0.987917716658074,0.937318001274086,0.900404866400271,0.932953835262525,0.895564297992111,0.907549689073755,0.935576134735808,0.899111770348605,0.887820702775738,0.950008035630824,0.902580644201694,0.94175700076567,0.987917716658074
1,0.933026174050854,0.91362084602835,0.902347639116924,0.892538953664356,0.902863363278088,0.895927956702075,0.904933167421121,0.884292151779364,0.902347639116925,0.91739779086174,0.933448133304758,1
1,0.999999999999998,0.927241332028197,0.842940283785747,0.844304125397435,0.873897159609171,0.912246741996381,0.90422727213665,0.868298796895936,0.827502467467238,0.856095077147865,0.937385554698494,1
1,0.964360526438995,0.918292929367407,0.904270750782959,0.909954648786232,0.9381091904179,0.958876588414544,0.941099183835028,0.910164468223795,0.90427075078296,0.918725104321739,0.960842035210559,1
1,0.962504061538657,0.921269741375974,0.906252542850114,0.900595886698244,0.902822165949324,0.898422911691382,0.904116772455698,0.913514468674712,0.921269741375974,0.961913603740864,1,1
0.998127877505309,0.95673719063419,0.975343592124283,0.945786408383927,0.902867269548713,0.929885438905344,0.936806624594352,0.916896529636052,0.932845193565365,0.936081677419268,0.906566234337468,0.975229376003878,0.998127877505309
1,0.888035999247033,0.828096087376299,0.843198506804186,0.935528258314079,0.940969482577885,0.943426299673916,0.891361475154845,0.828594641074496,0.876413229268899,0.987780758900211,1,1
0.999999999999997,0.999256420398013,0.971285080839521,0.946766064454913,0.948342547520062,0.94954342625722,0.948075634382691,0.947370664679828,0.948713819020427,0.949048240432946,0.947214593361761,0.973073186885466,0.999999999999997
1,0.979109121576341,0.979266262382002,0.965979179028464,0.96753206193804,0.968109452766166,0.968109452766166,0.967190211867525,0.967112062857447,0.979266262382002,0.982299231834388,1,1
0.999999999999999,0.999999999999996,0.962203449280044,0.96695756096498,0.961149476139953,0.951222092511523,0.958211555549671,0.961149476139954,0.953539825806545,0.966957560964979,0.999999999999997,0.962739817321673,0.999999999999999
1,0.977444799368033,0.954998661135817,0.942280714618729,0.948730783589755,0.965002406769326,0.975150222838529,0.961889751702542,0.954337837484278,0.942280714618729,0.956197754647624,0.978885813638778,1
0.999999999999999,0.999999999999999,0.992751508790863,0.984923694457994,0.982457963467675,0.979865882811539,0.974487096230269,0.974487096230269,0.980538904555539,0.9799634772874,0.984923694457994,0.994343475638645,0.999999999999999
0.999999999999999,0.975626656907725,0.949532476716706,0.945795733998599,0.960734986244558,0.98113707218395,0.984470979694051,0.967605822924105,0.945683464553509,0.949532476716706,0.968562037042392,1,0.999999999999999
0.999999999999999,0.982664394038238,0.968450368144826,0.965666827304315,0.958649708520637,0.950931154340041,0.951614377962869,0.950238018475891,0.960213030376675,0.965666827304315,0.968803321637337,0.984673333214083,0.999999999999999
0.999999999999999,0.91610751508167,0.834452433332969,0.812418532068781,0.812506659912351,0.839438125801771,0.857566237653036,0.835152917192109,0.827361312659607,0.812418532068781,0.832840760215298,0.918349176073074,0.999999999999999
1,0.95327635609695,0.928224343464786,0.933287518482483,0.923986890119687,0.919185745475054,0.922484737027992,0.925576130884427,0.928224343464787,0.933287518482483,0.957837891844585,1,1
1,0.999999999999999,0.933608608266652,0.866552490153645,0.876701130227552,0.915010524220637,0.969303389916579,0.965745457247427,0.913519475643956,0.865250504880483,0.887555103818763,0.933835522279064,1
1,0.946755844700428,0.908941670317723,0.873567372719789,0.922615803108829,0.954778615356904,0.951175583098518,0.920383690887839,0.905082891632287,0.8807233602187,0.950701833692677,1,1
0.999999999999998,0.940696599549996,0.869429074482996,0.805692133552365,0.845202987963791,0.869429074482995,0.805692133552364,0.781581979901352,0.824612442387272,0.842346985018117,0.944011382979051,1,0.999999999999998
1,0.967830509286705,0.922540022442756,0.921801177334351,0.959837533740749,0.973194513610137,0.972585313462486,0.956463463934422,0.921801177334351,0.922540022442756,0.972829857232734,0.999999999999999,1
0.999999999999998,0.866223838032998,0.877845754068952,0.913531160779977,0.894242859855105,0.954273696403529,0.950518148850455,0.860641689553511,0.866684854833406,0.917142801319296,0.887699223192746,1,0.999999999999998
1,0.967302782362019,0.934473286428123,0.910666259373081,0.888275111023754,0.863465809349126,0.854792414660791,0.862561584642624,0.880881321293318,0.910666259373081,0.931492594144846,0.96648115250648,1
0.945446551504712,0.910742949693799,0.862377937844425,0.895772945860034,0.905103404651743,0.909810171595882,0.90701480695365,0.899524298764847,0.881294437417865,0.90701480695365,0.943870091653195,0.942312814810212,0.945446551504712
1,1,0.850412736070018,0.808995599138947,0.857097015029002,0.833187912906754,0.850810391482293,0.816910025576428,0.877206473248954,0.850810391482296,0.824288181305829,0.851865354900056,1
1,0.937391780429516,0.904153702400229,0.905226184250233,0.903350684551233,0.939856352116343,0.964934232167764,0.926794942953144,0.908994579935283,0.907977420758936,0.896425911865744,0.955721788084675,1
0.972632956880521,0.958526139469103,0.874699524172432,0.914436433159331,0.912766777229618,0.853979926924028,0.923576117053491,0.930244234307765,0.887513470523857,0.91910093998585,0.958705244808321,0.968426939894814,0.972632956880521
0.999999999999999,0.999999999999998,0.939864251895497,0.913552431469524,0.890038596081057,0.90497691365486,0.929391433098526,0.923031242976007,0.891127550691534,0.89676422255775,0.896943536588195,0.942291012007786,0.999999999999999
0.999999999999999,1,0.986163321838031,0.970525312491506,0.970249082926126,0.974055728215458,0.978458646463104,0.980924669404898,0.975212496248963,0.966509188032393,0.970525312491506,0.984834617119511,0.999999999999999
1,0.861364015870324,0.826065515363321,0.775832419364981,0.769886882874314,0.833604126313343,0.953348854289152,0.835765488890888,0.815345158009673,0.760116757349473,0.787535549654172,0.858384391054394,1
0.999999999999999,0.917609151602553,0.904163773873547,0.871790775875286,0.895840231933977,0.956670430943803,0.962666094761268,0.894324678910118,0.915354549629876,0.873000151743887,0.920437091367137,0.996805190336421,0.999999999999999
1,0.980163352296378,0.961390000224381,0.957141485878361,0.968205747468047,0.976292581926545,0.973065739356066,0.966130098831397,0.957141485878362,0.961390000224381,0.979975638340792,0.999999999999998,1
1,0.914250223757232,0.914010851794109,0.931104655165801,0.872824185109725,0.897823017953563,0.952946053396235,0.896060525417751,0.906991260831274,0.928123233092358,0.870863520749971,0.919000349123825,1
0.999999999999998,0.999999999999998,0.980781421812813,0.954302080514228,0.939857015630817,0.928239292133283,0.924394617345866,0.926326820921474,0.926187964612679,0.939205674276345,0.954302080514228,0.97805137006169,0.999999999999998
0.999999999999999,0.915936891995546,0.881986433611585,0.895610757775351,0.836774776213674,0.905795185756271,0.965729358322925,0.895461682955935,0.867586786806755,0.883275558667238,0.826113048230777,0.92725554101712,0.999999999999999
0.999999999999999,1,0.896123136208273,0.854807788061813,0.872449672647761,0.950255066425193,0.948926041248329,0.950237174597036,0.872449672647761,0.852515990738071,0.896123136208273,1,0.999999999999999
0.970354686359414,0.910887125388515,0.94753181074004,0.950976490578212,0.915664347246613,0.953039615954076,0.925441278365029,0.899155546709651,0.949490709269556,0.9519397643274,0.914763311908376,0.997222750675459,0.970354686359414
0.987063493919364,0.903733158887173,0.839743100107076,0.861844104026102,0.836597305877801,0.873848090899461,0.842261036901213,0.836334445154434,0.889274825853349,0.928118694588947,0.893439976102797,0.959463920257133,0.987063493919364
0.968298102790387,0.964816003937652,0.87949361003631,0.894621571094379,0.951852242765419,0.942105750829058,0.955227224677477,0.956996341774572,0.88030321148137,0.890115503576205,0.960850772242573,0.967453038720786,0.968298102790387
0.999999999999999,0.978241214460151,0.961630278189554,0.96278556962894,0.973103781604525,0.98169620369668,0.978668367838992,0.973660811498258,0.959924678687869,0.966048859816834,0.976760911039803,1,0.999999999999999
0.999171484427294,0.923866614800793,0.885976866336396,0.914786131511586,0.937521030575502,0.91837738192041,0.935692972163604,0.915327684227355,0.889200870482702,0.941502624362905,0.94801393716278,0.889348425479517,0.999171484427294
1,0.968995514513089,0.94156170758981,0.942255732292928,0.948963652812286,0.968508613523634,0.969606012029503,0.952963665455985,0.939315993900202,0.942255732292928,0.965616710061781,1,1
1,0.968261353321995,0.919886067786039,0.89554280145309,0.902335582887907,0.939577614605327,0.951070119686776,0.949002511606506,0.916188516784435,0.89554280145309,0.916268800633716,0.967958150152761,1
1,0.998780708600551,0.959272151334315,0.923434269918734,0.916482220787582,0.918063232864356,0.904571062996093,0.905081353115842,0.923863932169533,0.932900965671963,0.931313251752592,0.961110603439077,1
1,0.999999999999999,0.923601575654835,0.829703300371503,0.847485052840519,0.907766394054274,0.901282711240454,0.904405791320268,0.857394361648918,0.836758117394665,0.923601575654835,0.999999999999999,1
0.988948185261012,0.945529090840123,0.936692305902614,0.935364860299511,0.917948596799125,0.898565440450316,0.88857634873407,0.869841339800044,0.907823294251897,0.946757837487187,0.946830060274334,0.998804576323635,0.988948185261012
1,1,0.998884680010965,0.996767767858801,0.995138155119188,0.993140205958882,0.991454600172893,0.991454600172893,0.993107311106276,0.994796870883584,0.996767767858801,0.998939917253888,1
0.967305847873319,0.98120176247757,0.863778364707312,0.898832950355382,0.881973772773637,0.87090157140994,0.899824389921784,0.897787108228333,0.875898277672039,0.912330716555683,0.877220272263917,0.93676139956154,0.967305847873319
0.968104668308971,0.930978733184314,0.919723652480787,0.942814718541174,0.916555824952393,0.923125738381391,0.947918497915522,0.912476319412087,0.910544173566401,0.945186022365738,0.929965620619443,0.996143217181243,0.968104668308971
0.999999999999999,0.977397644026628,0.954751850825501,0.944724038758514,0.93663337017811,0.953319696560137,0.960354820901885,0.944895174434628,0.952031118547115,0.944724038758514,0.951341327714695,0.972125420307538,0.999999999999999
1,0.939203310538125,0.839056609823702,0.846954393439524,0.902811238634509,0.931005641452052,0.934581236322585,0.909522885635564,0.846954393439524,0.852561568212992,0.936530154743468,1,1
0.998532068825754,0.870781126941373,0.911724257714879,0.849720692772957,0.868072577828927,0.910061536755458,0.91085911441422,0.869443750144218,0.911523631136849,0.870214304233582,0.881376493872532,0.999999999999999,0.998532068825754
1,1,0.956298538219014,0.912797876649383,0.896026409460719,0.919936102201535,0.935535659899728,0.937004673348762,0.918708958131872,0.898823071930681,0.912797876649383,0.951183299433789,1
