r0,r30,r60,r90,r120,r150,r180,r210,r240,r270,r300,r330,r360
0,0,0,0,0,0,0,0,0,0,0,0,0
1,0,0,1,0,0,1,0,0,1,0,0,1
1,1,1,1,1,1,1,1,1,1,1,1,1
1,1,1,1,1,1,1,1,1,1,1,1,1
0,0,0,0,0,0,0,0,0,0,0,0,0
1,1,1,1,1,1,1,1,1,1,1,1,1
1,1,1,1,1,1,1,1,1,1,1,1,1
1,1,1,1,1,1,1,1,1,1,1,1,1
1,1,1,1,1,1,1,1,1,1,1,1,1
1,1,1,1,1,1,1,1,1,1,1,1,1
1,1,1,1,1,1,1,1,1,1,1,1,1
1,0,1,1,0,1,1,0,1,1,0,1,1
1,1,0,1,1,0,1,1,0,1,1,0,1
1,1,1,1,1,1,1,1,1,1,1,1,1
1,0,1,1,0,1,1,0,1,1,0,1,1
1,1,1,1,1,1,1,1,1,1,1,1,1
1,1,1,1,1,1,1,1,1,1,1,1,1
1,1,1,1,1,1,1,1,1,1,1,1,1
1,0,1,1,0,1,1,0,1,1,0,1,1
1,1,1,1,1,1,1,1,1,1,1,1,1
1,1,1,1,1,1,1,1,1,1,1,1,1
1,1,1,1,1,1,1,1,1,1,1,1,1
1,1,1,1,1,1,1,1,1,1,1,1,1
1,0,1,1,0,1,1,0,1,1,0,1,1
1,1,1,1,1,1,1,1,1,1,1,1,1
1,1,1,1,1,1,1,1,1,1,1,1,1
1,1,1,1,1,1,1,1,1,1,1,1,1
1,1,1,1,1,1,1,1,1,1,1,1,1
1,1,1,1,1,1,1,1,1,1,1,1,1
1,1,1,1,1,1,1,1,1,1,1,1,1
1,0,1,1,0,1,1,0,1,1,0,1,1
1,1,1,1,1,1,1,1,1,1,1,1,1
1,1,0,1,1,0,1,1,0,1,1,0,1
1,1,1,1,1,1,1,1,1,1,1,1,1
1,1,1,1,1,1,1,1,1,1,1,1,1
1,1,1,1,1,1,1,1,1,1,1,1,1
1,1,1,1,1,1,1,1,1,1,1,1,1
1,1,1,1,1,1,1,1,1,1,1,1,1
1,1,1,1,1,1,1,1,1,1,1,1,1
1,1,1,1,1,1,1,1,1,1,1,1,1
1,1,1,1,1,1,1,1,1,1,1,1,1
1,1,1,1,1,1,1,1,1,1,1,1,1
0,0,0,0,0,0,0,0,0,0,0,0,0
1,1,0,1,1,0,1,1,0,1,1,0,1
1,0,1,1,0,1,1,0,1,1,0,1,1
1,1,1,1,1,1,1,1,1,1,1,1,1
1,1,1,1,1,1,1,1,1,1,1,1,1
1,1,1,1,1,1,1,1,1,1,1,1,1
0,1,1,0,1,1,0,1,1,0,1,1,0
1,1,1,1,1,1,1,1,1,1,1,1,1
1,1,1,1,1,1,1,1,1,1,1,1,1
1,1,1,1,1,1,1,1,1,1,1,1,1
1,1,1,1,1,1,1,1,1,1,1,1,1
1,1,1,1,1,1,1,1,1,1,1,1,1
1,1,1,1,1,1,1,1,1,1,1,1,1
1,1,1,1,1,1,1,1,1,1,1,1,1
1,1,1,1,1,1,1,1,1,1,1,1,1
1,1,1,1,1,1,1,1,1,1,1,1,1
1,1,1,1,1,1,1,1,1,1,1,1,1
1,1,1,1,1,1,1,1,1,1,1,1,1
1,1,1,1,1,1,1,1,1,1,1,1,1
1,1,1,1,1,1,1,1,1,1,1,1,1
1,1,1,1,1,1,1,1,1,1,1,1,1
1,0,1,1,0,1,1,0,1,1,0,1,1
1,1,1,1,1,1,1,1,1,1,1,1,1
1,1,1,1,1,1,1,1,1,1,1,1,1
1,0,1,1,0,1,1,0,1,1,0,1,1
0,1,0,0,1,0,0,1,0,0,1,0,0
1,1,1,1,1,1,1,1,1,1,1,1,1
1,1,1,1,1,1,1,1,1,1,1,1,1
0,0,0,0,0,0,0,0,0,0,0,0,0
1,1,1,1,1,1,1,1,1,1,1,1,1
1,1,1,1,1,1,1,1,1,1,1,1,1
1,1,1,1,1,1,1,1,1,1,1,1,1
1,1,1,1,1,1,1,1,1,1,1,1,1
1,1,1,1,1,1,1,1,1,1,1,1,1
1,1,1,1,1,1,1,1,1,1,1,1,1
1,1,1,1,1,1,1,1,1,1,1,1,1
1,1,1,1,1,1,1,1,1,1,1,1,1
1,1,1,1,1,1,1,1,1,1,1,1,1
1,1,0,1,1,0,1,1,0,1,1,0,1
0,0,0,0,0,0,0,0,0,0,0,0,0
1,1,1,1,1,1,1,1,1,1,1,1,1
0,1,1,0,1,1,0,1,1,0,1,1,0
0,0,0,0,0,0,0,0,0,0,0,0,0
1,1,1,1,1,1,1,1,1,1,1,1,1
1,1,1,1,1,1,1,1,1,1,1,1,1
1,1,1,1,1,1,1,1,1,1,1,1,1
0,0,0,0,0,0,0,0,0,0,0,0,0
1,1,1,1,1,1,1,1,1,1,1,1,1
1,1,1,1,1,1,1,1,1,1,1,1,1
1,1,1,1,1,1,1,1,1,1,1,1,1
1,1,1,1,1,1,1,1,1,1,1,1,1
1,1,1,1,1,1,1,1,1,1,1,1,1
1,1,1,1,1,1,1,1,1,1,1,1,1
1,1,1,1,1,1,1,1,1,1,1,1,1
1,1,1,1,1,1,1,1,1,1,1,1,1
1,1,1,1,1,1,1,1,1,1,1,1,1
1,1,1,1,1,1,1,1,1,1,1,1,1
0,0,0,0,0,0,0,0,0,0,0,0,0
0,0,0,0,0,0,0,0,0,0,0,0,0
1,0,1,1,0,1,1,0,1,1,0,1,1
0,1,0,0,1,0,0,1,0,0,1,0,0
1,1,0,1,1,0,1,1,0,1,1,0,1
0,0,1,0,0,1,0,0,1,0,0,1,0
1,1,1,1,1,1,1,1,1,1,1,1,1
1,1,1,1,1,1,1,1,1,1,1,1,1
0,0,0,0,0,0,0,0,0,0,0,0,0
1,1,1,1,1,1,1,1,1,1,1,1,1
1,1,1,1,1,1,1,1,1,1,1,1,1
1,1,1,1,1,1,1,1,1,1,1,1,1
1,0,0,1,0,0,1,0,0,1,0,0,1
1,1,1,1,1,1,1,1,1,1,1,1,1
1,1,1,1,1,1,1,1,1,1,1,1,1
0,0,0,0,0,0,0,0,0,0,0,0,0
1,1,1,1,1,1,1,1,1,1,1,1,1
1,1,1,1,1,1,1,1,1,1,1,1,1
1,1,0,1,1,0,1,1,0,1,1,0,1
1,1,1,1,1,1,1,1,1,1,1,1,1
1,1,1,1,1,1,1,1,1,1,1,1,1
1,1,0,1,1,0,1,1,0,1,1,0,1
0,1,1,0,1,1,0,1,1,0,1,1,0
1,1,1,1,1,1,1,1,1,1,1,1,1
1,1,0,1,1,0,1,1,0,1,1,0,1
1,0,1,1,0,1,1,0,1,1,0,1,1
1,1,1,1,1,1,1,1,1,1,1,1,1
1,1,1,1,1,1,1,1,1,1,1,1,1
1,0,1,1,0,1,1,0,1,1,0,1,1
0,1,1,0,1,1,0,1,1,0,1,1,0
0,0,0,0,0,0,0,0,0,0,0,0,0
1,1,1,1,1,1,1,1,1,1,1,1,1
1,1,1,1,1,1,1,1,1,1,1,1,1
1,1,1,1,1,1,1,1,1,1,1,1,1
1,1,1,1,1,1,1,1,1,1,1,1,1
1,1,1,1,1,1,1,1,1,1,1,1,1
1,1,1,1,1,1,1,1,1,1,1,1,1
1,1,1,1,1,1,1,1,1,1,1,1,1
1,1,1,1,1,1,1,1,1,1,1,1,1
1,1,1,1,1,1,1,1,1,1,1,1,1
1,1,1,1,1,1,1,1,1,1,1,1,1
1,1,1,1,1,1,1,1,1,1,1,1,1
1,1,1,1,1,1,1,1,1,1,1,1,1
1,1,1,1,1,1,1,1,1,1,1,1,1
1,1,1,1,1,1,1,1,1,1,1,1,1
1,1,1,1,1,1,1,1,1,1,1,1,1
1,1,1,1,1,1,1,1,1,1,1,1,1
1,1,1,1,1,1,1,1,1,1,1,1,1
1,1,1,1,1,1,1,1,1,1,1,1,1
1,1,1,1,1,1,1,1,1,1,1,1,1
1,1,1,1,1,1,1,1,1,1,1,1,1
1,1,1,1,1,1,1,1,1,1,1,1,1
1,1,1,1,1,1,1,1,1,1,1,1,1
1,1,1,1,1,1,1,1,1,1,1,1,1
1,1,1,1,1,1,1,1,1,1,1,1,1
1,1,1,1,1,1,1,1,1,1,1,1,1
1,1,1,1,1,1,1,1,1,1,1,1,1
1,1,1,1,1,1,1,1,1,1,1,1,1
1,1,1,1,1,1,1,1,1,1,1,1,1
1,1,1,1,1,1,1,1,1,1,1,1,1
1,1,1,1,1,1,1,1,1,1,1,1,1
1,1,1,1,1,1,1,1,1,1,1,1,1
1,1,1,1,1,1,1,1,1,1,1,1,1
1,1,1,1,1,1,1,1,1,1,1,1,1
1,1,1,1,1,1,1,1,1,1,1,1,1
1,1,1,1,1,1,1,1,1,1,1,1,1
1,1,1,1,1,1,1,1,1,1,1,1,1
1,1,1,1,1,1,1,1,1,1,1,1,1
1,1,1,1,1,1,1,1,1,1,1,1,1
1,1,1,1,1,1,1,1,1,1,1,1,1
1,1,1,1,1,1,1,1,1,1,1,1,1
1,1,1,1,1,1,1,1,1,1,1,1,1
1,1,1,1,1,1,1,1,1,1,1,1,1
1,1,1,1,1,1,1,1,1,1,1,1,1
1,1,1,1,1,1,1,1,1,1,1,1,1
1,1,1,1,1,1,1,1,1,1,1,1,1
1,1,1,1,1,1,1,1,1,1,1,1,1
1,1,1,1,1,1,1,1,1,1,1,1,1
1,1,1,1,1,1,1,1,1,1,1,1,1
1,1,1,1,1,1,1,1,1,1,1,1,1
1,1,1,1,1,1,1,1,1,1,1,1,1
1,1,1,1,1,1,1,1,1,1,1,1,1
1,1,1,1,1,1,1,1,1,1,1,1,1
1,1,1,1,1,1,1,1,1,1,1,1,1
1,1,1,1,1,1,1,1,1,1,1,1,1
1,1,1,1,1,1,1,1,1,1,1,1,1
1,1,1,1,1,1,1,1,1,1,1,1,1
1,1,1,1,1,1,1,1,1,1,1,1,1
1,1,1,1,1,1,1,1,1,1,1,1,1
1,1,1,1,1,1,1,1,1,1,1,1,1
1,1,1,1,1,1,1,1,1,1,1,1,1
1,1,1,1,1,1,1,1,1,1,1,1,1
1,1,1,1,1,1,1,1,1,1,1,1,1
1,1,1,1,1,1,1,1,1,1,1,1,1
1,1,1,1,1,1,1,1,1,1,1,1,1
1,1,1,1,1,1,1,1,1,1,1,1,1
1,1,1,1,1,1,1,1,1,1,1,1,1
1,1,1,1,1,1,1,1,1,1,1,1,1
1,1,1,1,1,1,1,1,1,1,1,1,1
1,1,1,1,1,1,1,1,1,1,1,1,1
1,1,1,1,1,1,1,1,1,1,1,1,1
1,1,1,1,1,1,1,1,1,1,1,1,1
1,1,1,1,1,1,1,1,1,1,1,1,1
1,1,1,1,1,1,1,1,1,1,1,1,1
1,1,1,1,1,1,1,1,1,1,1,1,1
1,1,1,1,1,1,1,1,1,1,1,1,1
1,1,1,1,1,1,1,1,1,1,1,1,1
1,1,1,1,1,1,1,1,1,1,1,1,1
1,1,1,1,1,1,1,1,1,1,1,1,1
1,1,1,1,1,1,1,1,1,1,1,1,1
1,1,1,1,1,1,1,1,1,1,1,1,1
1,1,1,1,1,1,1,1,1,1,1,1,1
1,1,1,1,1,1,1,1,1,1,1,1,1
1,1,1,1,1,1,1,1,1,1,1,1,1
1,1,1,1,1,1,1,1,1,1,1,1,1
1,1,1,1,1,1,1,1,1,1,1,1,1
1,1,1,1,1,1,1,1,1,1,1,1,1
1,1,1,1,1,1,1,1,1,1,1,1,1
1,1,1,1,1,1,1,1,1,1,1,1,1
1,1,1,1,1,1,1,1,1,1,1,1,1
1,1,1,1,1,1,1,1,1,1,1,1,1
1,1,1,1,1,1,1,1,1,1,1,1,1
1,1,1,1,1,1,1,1,1,1,1,1,1
1,1,1,1,1,1,1,1,1,1,1,1,1
1,1,1,1,1,1,1,1,1,1,1,1,1
1,1,1,1,1,1,1,1,1,1,1,1,1
1,1,1,1,1,1,1,1,1,1,1,1,1
1,1,1,1,1,1,1,1,1,1,1,1,1
1,1,1,1,1,1,1,1,1,1,1,1,1
1,1,1,1,1,1,1,1,1,1,1,1,1
1,1,1,1,1,1,1,1,1,1,1,1,1
1,1,1,1,1,1,1,1,1,1,1,1,1
1,1,1,1,1,1,1,1,1,1,1,1,1
1,1,1,1,1,1,1,1,1,1,1,1,1
1,1,1,1,1,1,1,1,1,1,1,1,1
1,1,1,1,1,1,1,1,1,1,1,1,1
1,1,1,1,1,1,1,1,1,1,1,1,1
1,1,1,1,1,1,1,1,1,1,1,1,1
1,1,1,1,1,1,1,1,1,1,1,1,1
1,1,1,1,1,1,1,1,1,1,1,1,1
1,1,1,1,1,1,1,1,1,1,1,1,1
1,1,1,1,1,1,1,1,1,1,1,1,1
1,1,1,1,1,1,1,1,1,1,1,1,1
1,1,1,1,1,1,1,1,1,1,1,1,1
1,1,1,1,1,1,1,1,1,1,1,1,1
1,1,1,1,1,1,1,1,1,1,1,1,1
1,1,1,1,1,1,1,1,1,1,1,1,1
1,1,1,1,1,1,1,1,1,1,1,1,1
1,1,1,1,1,1,1,1,1,1,1,1,1
1,1,1,1,1,1,1,1,1,1,1,1,1
1,1,1,1,1,1,1,1,1,1,1,1,1
1,1,1,1,1,1,1,1,1,1,1,1,1
1,1,1,1,1,1,1,1,1,1,1,1,1
1,1,1,1,1,1,1,1,1,1,1,1,1
1,1,1,1,1,1,1,1,1,1,1,1,1
1,1,1,1,1,1,1,1,1,1,1,1,1
1,1,1,1,1,1,1,1,1,1,1,1,1
1,1,1,1,1,1,1,1,1,1,1,1,1
1,1,1,1,1,1,1,1,1,1,1,1,1
1,1,1,1,1,1,1,1,1,1,1,1,1
1,1,1,1,1,1,1,1,1,1,1,1,1
1,1,1,1,1,1,1,1,1,1,1,1,1
1,1,1,1,1,1,1,1,1,1,1,1,1
1,1,1,1,1,1,1,1,1,1,1,1,1
1,1,1,1,1,1,1,1,1,1,1,1,1
1,1,1,1,1,1,1,1,1,1,1,1,1
1,1,1,1,1,1,1,1,1,1,1,1,1
1,1,1,1,1,1,1,1,1,1,1,1,1
1,1,1,1,1,1,1,1,1,1,1,1,1
1,1,1,1,1,1,1,1,1,1,1,1,1
1,1,1,1,1,1,1,1,1,1,1,1,1
1,1,1,1,1,1,1,1,1,1,1,1,1
1,1,1,1,1,1,1,1,1,1,1,1,1
1,1,1,1,1,1,1,1,1,1,1,1,1
1,1,1,1,1,1,1,1,1,1,1,1,1
1,1,1,1,1,1,1,1,1,1,1,1,1
1,1,1,1,1,1,1,1,1,1,1,1,1
1,1,1,1,1,1,1,1,1,1,1,1,1
1,1,1,1,1,1,1,1,1,1,1,1,1
1,1,1,1,1,1,1,1,1,1,1,1,1
1,1,1,1,1,1,1,1,1,1,1,1,1
1,1,1,1,1,1,1,1,1,1,1,1,1
1,1,1,1,1,1,1,1,1,1,1,1,1
1,1,1,1,1,1,1,1,1,1,1,1,1
1,1,1,1,1,1,1,1,1,1,1,1,1
1,1,1,1,1,1,1,1,1,1,1,1,1
1,1,1,1,1,1,1,1,1,1,1,1,1
1,1,1,1,1,1,1,1,1,1,1,1,1
1,1,1,1,1,1,1,1,1,1,1,1,1
1,1,1,1,1,1,1,1,1,1,1,1,1
1,1,1,1,1,1,1,1,1,1,1,1,1
1,1,1,1,1,1,1,1,1,1,1,1,1
1,1,1,1,1,1,1,1,1,1,1,1,1
1,1,1,1,1,1,1,1,1,1,1,1,1
1,1,1,1,1,1,1,1,1,1,1,1,1
1,1,1,1,1,1,1,1,1,1,1,1,1
1,1,1,1,1,1,1,1,1,1,1,1,1
1,1,1,1,1,1,1,1,1,1,1,1,1
1,1,1,1,1,1,1,1,1,1,1,1,1
1,1,1,1,1,1,1,1,1,1,1,1,1
1,1,1,1,1,1,1,1,1,1,1,1,1
1,1,1,1,1,1,1,1,1,1,1,1,1
1,1,1,1,1,1,1,1,1,1,1,1,1
1,1,1,1,1,1,1,1,1,1,1,1,1
1,1,1,1,1,1,1,1,1,1,1,1,1
1,1,1,1,1,1,1,1,1,1,1,1,1
1,1,1,1,1,1,1,1,1,1,1,1,1
1,1,1,1,1,1,1,1,1,1,1,1,1
1,1,1,1,1,1,1,1,1,1,1,1,1
1,1,1,1,1,1,1,1,1,1,1,1,1
1,1,1,1,1,1,1,1,1,1,1,1,1
1,1,1,1,1,1,1,1,1,1,1,1,1
1,1,1,1,1,1,1,1,1,1,1,1,1
1,1,1,1,1,1,1,1,1,1,1,1,1
1,1,1,1,1,1,1,1,1,1,1,1,1
1,1,1,1,1,1,1,1,1,1,1,1,1
1,1,1,1,1,1,1,1,1,1,1,1,1
1,1,1,1,1,1,1,1,1,1,1,1,1
1,1,1,1,1,1,1,1,1,1,1,1,1
1,1,1,1,1,1,1,1,1,1,1,1,1
1,1,1,1,1,1,1,1,1,1,1,1,1
1,1,1,1,1,1,1,1,1,1,1,1,1
1,1,1,1,1,1,1,1,1,1,1,1,1
1,1,1,1,1,1,1,1,1,1,1,1,1
1,1,1,1,1,1,1,1,1,1,1,1,1
1,1,1,1,1,1,1,1,1,1,1,1,1
1,1,1,1,1,1,1,1,1,1,1,1,1
1,1,1,1,1,1,1,1,1,1,1,1,1
1,1,1,1,1,1,1,1,1,1,1,1,1
1,1,1,1,1,1,1,1,1,1,1,1,1
1,1,1,1,1,1,1,1,1,1,1,1,1
1,1,1,1,1,1,1,1,1,1,1,1,1
1,1,1,1,1,1,1,1,1,1,1,1,1
1,1,1,1,1,1,1,1,1,1,1,1,1
1,1,1,1,1,1,1,1,1,1,1,1,1
1,1,1,1,1,1,1,1,1,1,1,1,1
1,1,1,1,1,1,1,1,1,1,1,1,1
1,1,1,1,1,1,1,1,1,1,1,1,1
1,1,1,1,1,1,1,1,1,1,1,1,1
1,1,1,1,1,1,1,1,1,1,1,1,1
1,1,1,1,1,1,1,1,1,1,1,1,1
1,1,1,1,1,1,1,1,1,1,1,1,1
1,1,1,1,1,1,1,1,1,1,1,1,1
1,1,1,1,1,1,1,1,1,1,1,1,1
1,1,1,1,1,1,1,1,1,1,1,1,1
1,1,1,1,1,1,1,1,1,1,1,1,1
1,1,1,1,1,1,1,1,1,1,1,1,1
1,1,1,1,1,1,1,1,1,1,1,1,1
1,1,1,1,1,1,1,1,1,1,1,1,1
1,1,1,1,1,1,1,1,1,1,1,1,1
1,1,1,1,1,1,1,1,1,1,1,1,1
1,1,1,1,1,1,1,1,1,1,1,1,1
1,1,1,1,1,1,1,1,1,1,1,1,1
1,1,1,1,1,1,1,1,1,1,1,1,1
1,1,1,1,1,1,1,1,1,1,1,1,1
1,1,1,1,1,1,1,1,1,1,1,1,1
1,1,1,1,1,1,1,1,1,1,1,1,1
1,1,1,1,1,1,1,1,1,1,1,1,1
1,1,1,1,1,1,1,1,1,1,1,1,1
1,1,1,1,1,1,1,1,1,1,1,1,1
1,1,1,1,1,1,1,1,1,1,1,1,1
1,1,1,1,1,1,1,1,1,1,1,1,1
1,1,1,1,1,1,1,1,1,1,1,1,1
1,1,1,1,1,1,1,1,1,1,1,1,1
1,1,1,1,1,1,1,1,1,1,1,1,1
1,1,1,1,1,1,1,1,1,1,1,1,1
1,1,1,1,1,1,1,1,1,1,1,1,1
1,1,1,1,1,1,1,1,1,1,1,1,1
1,1,1,1,1,1,1,1,1,1,1,1,1
1,1,1,1,1,1,1,1,1,1,1,1,1
1,1,1,1,1,1,1,1,1,1,1,1,1
1,1,1,1,1,1,1,1,1,1,1,1,1
1,1,1,1,1,1,1,1,1,1,1,1,1
1,1,1,1,1,1,1,1,1,1,1,1,1
1,1,1,1,1,1,1,1,1,1,1,1,1
1,1,1,1,1,1,1,1,1,1,1,1,1
1,1,1,1,1,1,1,1,1,1,1,1,1
1,1,1,1,1,1,1,1,1,1,1,1,1
1,1,1,1,1,1,1,1,1,1,1,1,1
1,1,1,1,1,1,1,1,1,1,1,1,1
1,1,1,1,1,1,1,1,1,1,1,1,1
1,1,1,1,1,1,1,1,1,1,1,1,1
1,1,1,1,1,1,1,1,1,1,1,1,1
1,1,1,1,1,1,1,1,1,1,1,1,1
1,1,1,1,1,1,1,1,1,1,1,1,1
1,1,1,1,1,1,1,1,1,1,1,1,1
1,1,1,1,1,1,1,1,1,1,1,1,1
1,1,1,1,1,1,1,1,1,1,1,1,1
1,1,1,1,1,1,1,1,1,1,1,1,1
1,1,1,1,1,1,1,1,1,1,1,1,1
1,1,1,1,1,1,1,1,1,1,1,1,1
0.49053207113313,0.812960805073152,0.488140940194722,0.490532071133144,0.812960805073145,0.488140940194722,0.490532071133147,0.812960805073149,0.488140940194724,0.490532071133143,0.812960805073154,0.488140940194719,0.49053207113313
0.632292386878452,0.608652727795065,0.71595311621972,0.63229238687845,0.608652727795066,0.715953116219714,0.632292386878452,0.608652727795059,0.715953116219722,0.632292386878454,0.608652727795058,0.71595311621972,0.632292386878452
0.577605994030416,0.731135043870982,0.840457924262082,0.577605994030421,0.731135043870977,0.840457924262082,0.577605994030423,0.731135043870988,0.840457924262086,0.577605994030418,0.731135043870988,0.840457924262082,0.577605994030416
1.16463189626532,1.34237177919005,1.13369712212238,1.16463189626531,1.34237177919005,1.13369712212238,1.16463189626531,1.34237177919005,1.13369712212237,1.16463189626531,1.34237177919005,1.13369712212238,1.16463189626532
0.500067333806353,0.49208582170806,0.483520692976336,0.500067333806362,0.492085821708053,0.483520692976337,0.500067333806357,0.492085821708061,0.483520692976335,0.500067333806356,0.492085821708054,0.483520692976321,0.500067333806353
1.3950428745673,1.83435868567791,1.58062699368263,1.3950428745673,1.83435868567791,1.58062699368262,1.39504287456731,1.83435868567791,1.58062699368261,1.3950428745673,1.83435868567791,1.58062699368262,1.3950428745673
1.10201770010958,0.986737257676401,0.927061240004478,1.10201770010958,0.986737257676395,0.927061240004475,1.10201770010958,0.986737257676395,0.927061240004485,1.10201770010957,0.986737257676407,0.927061240004483,1.10201770010958
1.27639190302725,0.947372006437531,1.06940640741849,1.27639190302725,0.947372006437533,1.06940640741849,1.27639190302725,0.947372006437536,1.06940640741849,1.27639190302725,0.947372006437534,1.06940640741848,1.27639190302725
0.809920160620085,0.868417459442137,1.04328156908293,0.809920160620082,0.868417459442135,1.04328156908293,0.809920160620085,0.868417459442137,1.04328156908294,0.809920160620085,0.868417459442141,1.04328156908294,0.809920160620085
1.71303329937831,1.78477165859339,1.67040622893323,1.71303329937831,1.78477165859339,1.67040622893324,1.7130332993783,1.78477165859337,1.67040622893323,1.71303329937832,1.78477165859339,1.67040622893324,1.71303329937831
0.539288484992749,0.67292667065139,0.622176678103154,0.539288484992752,0.672926670651391,0.62217667810316,0.539288484992749,0.672926670651389,0.622176678103158,0.53928848499275,0.672926670651387,0.622176678103156,0.539288484992749
0.565977918710193,0.6751003815639,0.734959975082557,0.565977918710189,0.675100381563904,0.73495997508256,0.565977918710189,0.675100381563903,0.734959975082554,0.565977918710192,0.675100381563903,0.734959975082552,0.565977918710193
0.376431574877711,0.549253061117356,0.663029676180115,0.376431574877711,0.549253061117356,0.663029676180114,0.376431574877712,0.54925306111736,0.663029676180117,0.376431574877714,0.549253061117362,0.663029676180112,0.376431574877711
3.54448360151239,3.76033482957673,3.64990534879376,3.5444836015124,3.76033482957673,3.64990534879377,3.5444836015124,3.76033482957674,3.64990534879376,3.5444836015124,3.76033482957674,3.64990534879376,3.54448360151239
0.46228691976251,0.459563709479665,0.543191705560803,0.462286919762512,0.459563709479662,0.543191705560801,0.462286919762512,0.459563709479662,0.543191705560803,0.462286919762511,0.459563709479664,0.543191705560805,0.46228691976251
0.893525167442474,0.711742741777554,0.734803939871203,0.893525167442472,0.711742741777554,0.7348039398712,0.893525167442474,0.711742741777554,0.734803939871196,0.893525167442471,0.711742741777552,0.734803939871202,0.893525167442474
0.54690097340653,0.729004744241697,0.660749036662106,0.546900973406528,0.729004744241691,0.6607490366621,0.546900973406529,0.729004744241691,0.660749036662097,0.546900973406533,0.729004744241697,0.660749036662104,0.54690097340653
1.24364235944449,1.23679934213384,1.5336325934273,1.24364235944449,1.23679934213383,1.53363259342731,1.24364235944449,1.23679934213384,1.53363259342731,1.24364235944449,1.23679934213385,1.5336325934273,1.24364235944449
0.287053528983562,0.534593200504413,0.277446862241742,0.287053528983557,0.534593200504413,0.277446862241739,0.287053528983559,0.534593200504408,0.277446862241738,0.287053528983561,0.534593200504412,0.277446862241741,0.287053528983562
0.848998179623362,1.03358860404566,0.796428726674385,0.84899817962336,1.03358860404567,0.796428726674381,0.848998179623363,1.03358860404566,0.796428726674387,0.848998179623362,1.03358860404567,0.796428726674381,0.848998179623362
1.01227146822016,0.62125059362024,0.650402974006603,1.01227146822017,0.621250593620235,0.65040297400661,1.01227146822016,0.621250593620235,0.650402974006603,1.01227146822016,0.621250593620238,0.650402974006606,1.01227146822016
0.991263621130007,1.19180560601213,0.975253003442767,0.991263621130008,1.19180560601213,0.975253003442756,0.99126362113,1.19180560601213,0.975253003442759,0.991263621130004,1.19180560601213,0.975253003442763,0.991263621130007
0.414657240003167,0.490290125954279,0.465801567427167,0.414657240003168,0.490290125954272,0.465801567427169,0.414657240003173,0.490290125954272,0.465801567427163,0.414657240003172,0.490290125954277,0.465801567427165,0.414657240003167
0.55703566277133,0.433432387415903,0.510316510441423,0.557035662771333,0.433432387415907,0.510316510441428,0.557035662771335,0.433432387415914,0.510316510441429,0.557035662771327,0.433432387415909,0.510316510441421,0.55703566277133
0.803107641902193,0.719311380504171,0.905756407290681,0.803107641902194,0.719311380504166,0.905756407290682,0.803107641902205,0.719311380504174,0.905756407290697,0.803107641902203,0.719311380504174,0.905756407290689,0.803107641902193
1.75311731166265,1.98247406533459,1.69170431540803,1.75311731166265,1.98247406533458,1.69170431540803,1.75311731166264,1.98247406533458,1.69170431540803,1.75311731166265,1.98247406533458,1.69170431540803,1.75311731166265
1.89847457465449,1.79298410774248,1.5524638254693,1.89847457465449,1.79298410774247,1.5524638254693,1.89847457465448,1.79298410774248,1.5524638254693,1.89847457465448,1.79298410774249,1.55246382546931,1.89847457465449
0.604143671281984,0.631160525694212,0.537781136336693,0.604143671281983,0.631160525694215,0.537781136336693,0.604143671281981,0.631160525694215,0.537781136336694,0.604143671281979,0.631160525694216,0.537781136336696,0.604143671281984
0.698230381122852,0.65574240623729,0.692841953060818,0.698230381122852,0.655742406237292,0.692841953060818,0.698230381122849,0.655742406237293,0.692841953060819,0.698230381122851,0.655742406237294,0.692841953060816,0.698230381122852
0.732452252436223,1.24355581044478,1.31376971906612,0.732452252436226,1.24355581044479,1.31376971906611,0.732452252436235,1.24355581044478,1.31376971906611,0.732452252436239,1.24355581044478,1.31376971906612,0.732452252436223
0.530344560910687,0.497960407154296,0.675223424141787,0.530344560910681,0.497960407154299,0.675223424141783,0.53034456091068,0.497960407154299,0.675223424141782,0.530344560910686,0.497960407154303,0.675223424141784,0.530344560910687
0.617662335207086,0.798207467064556,0.644594616652273,0.61766233520708,0.79820746706456,0.64459461665227,0.617662335207078,0.79820746706456,0.644594616652275,0.617662335207076,0.798207467064563,0.644594616652277,0.617662335207086
0.463088571878884,0.506362252541,0.499120371533538,0.463088571878883,0.506362252540995,0.499120371533549,0.463088571878878,0.506362252540995,0.49912037153355,0.463088571878883,0.506362252540999,0.499120371533558,0.463088571878884
1.18754648290103,1.25085894937861,1.16520706231253,1.18754648290104,1.2508589493786,1.16520706231253,1.18754648290105,1.25085894937862,1.16520706231254,1.18754648290104,1.2508589493786,1.16520706231253,1.18754648290103
0.905858669965745,0.828635892147693,0.933275923571612,0.905858669965745,0.828635892147692,0.933275923571608,0.905858669965748,0.828635892147689,0.933275923571605,0.905858669965747,0.828635892147692,0.933275923571608,0.905858669965745
0.573648453544302,0.719999542292833,0.659060383299343,0.573648453544298,0.719999542292834,0.659060383299334,0.573648453544299,0.719999542292828,0.65906038329933,0.573648453544301,0.719999542292834,0.659060383299338,0.573648453544302
0.808707383185299,0.922047210212047,0.799532033689002,0.808707383185299,0.922047210212049,0.799532033689001,0.808707383185296,0.922047210212045,0.799532033689003,0.808707383185298,0.922047210212047,0.799532033689004,0.808707383185299
0.469397014729973,0.502059476821539,0.427744782514864,0.469397014729973,0.502059476821538,0.427744782514866,0.469397014729975,0.502059476821539,0.427744782514867,0.469397014729972,0.502059476821541,0.427744782514868,0.469397014729973
0.828540841851936,1.0030087694702,1.41649819566425,0.828540841851932,1.00300876947021,1.41649819566426,0.828540841851925,1.00300876947021,1.41649819566427,0.828540841851934,1.00300876947021,1.41649819566425,0.828540841851936
2.4658516565155,2.3176492748013,2.26253444557313,2.4658516565155,2.31764927480131,2.26253444557311,2.4658516565155,2.31764927480132,2.26253444557312,2.46585165651551,2.3176492748013,2.26253444557312,2.4658516565155
4.3562817551584,3.89212185094531,5.04484781205417,4.35628175515838,3.89212185094531,5.04484781205416,4.35628175515838,3.89212185094532,5.04484781205417,4.35628175515839,3.89212185094531,5.04484781205415,4.3562817551584
1.70457710115968,2.15363995776629,2.14843358807521,1.70457710115968,2.15363995776628,2.14843358807521,1.70457710115968,2.15363995776629,2.14843358807521,1.70457710115969,2.15363995776628,2.1484335880752,1.70457710115968
0.520586735239823,0.524439506299885,0.55960017204148,0.520586735239823,0.524439506299882,0.55960017204148,0.520586735239823,0.524439506299887,0.559600172041477,0.520586735239822,0.524439506299888,0.559600172041471,0.520586735239823
0.64800433691548,0.508424004859083,0.657074090915484,0.648004336915481,0.508424004859085,0.657074090915482,0.648004336915485,0.508424004859082,0.657074090915491,0.64800433691548,0.508424004859081,0.657074090915499,0.64800433691548
0.44484830085891,0.58322149178954,0.674973579111219,0.444848300858912,0.583221491789538,0.674973579111213,0.444848300858907,0.583221491789537,0.674973579111217,0.444848300858908,0.583221491789537,0.674973579111213,0.44484830085891
0.883491308872572,0.649294102165575,0.967239447274079,0.883491308872573,0.649294102165574,0.967239447274076,0.883491308872573,0.649294102165577,0.967239447274078,0.883491308872568,0.649294102165589,0.967239447274078,0.883491308872572
1.02379396662767,0.950878473849833,0.830979274884573,1.02379396662766,0.950878473849829,0.830979274884573,1.02379396662766,0.95087847384983,0.830979274884573,1.02379396662767,0.950878473849829,0.830979274884574,1.02379396662767
0.747115192207255,0.790856256353097,1.07034510999518,0.747115192207257,0.790856256353094,1.07034510999518,0.74711519220726,0.790856256353095,1.07034510999518,0.747115192207261,0.790856256353097,1.07034510999519,0.747115192207255
0.437343564641398,0.396228850294039,0.315720014814572,0.437343564641401,0.396228850294034,0.315720014814575,0.437343564641397,0.396228850294034,0.315720014814576,0.43734356464139,0.396228850294033,0.315720014814576,0.437343564641398
1.13306825453235,1.26509729448676,0.973332012925913,1.13306825453235,1.26509729448676,0.97333201292592,1.13306825453235,1.26509729448677,0.973332012925916,1.13306825453235,1.26509729448676,0.973332012925913,1.13306825453235
0.708075859798835,0.796488299810467,0.780615621079123,0.708075859798833,0.796488299810467,0.780615621079121,0.708075859798843,0.796488299810468,0.780615621079116,0.708075859798837,0.796488299810471,0.780615621079119,0.708075859798835
0.924239141204979,0.905861441512463,1.19874631369858,0.924239141204976,0.90586144151246,1.19874631369857,0.924239141204983,0.905861441512466,1.19874631369857,0.924239141204989,0.905861441512459,1.19874631369857,0.924239141204979
0.811150627883405,1.05997643957234,1.10022363965893,0.811150627883406,1.05997643957234,1.10022363965893,0.811150627883421,1.05997643957233,1.10022363965893,0.811150627883406,1.05997643957234,1.10022363965893,0.811150627883405
0.593087501774477,0.350842006835496,0.58986186161819,0.593087501774476,0.3508420068355,0.589861861618201,0.593087501774474,0.3508420068355,0.589861861618193,0.593087501774481,0.350842006835499,0.58986186161819,0.593087501774477
0.378422146923144,0.479628687968865,0.320005547487061,0.378422146923142,0.479628687968861,0.320005547487059,0.37842214692314,0.479628687968862,0.320005547487055,0.378422146923141,0.479628687968864,0.320005547487057,0.378422146923144
0.933107109211921,0.915928201626362,0.712844596348857,0.933107109211919,0.915928201626354,0.712844596348858,0.933107109211911,0.91592820162635,0.712844596348857,0.933107109211924,0.915928201626359,0.712844596348858,0.933107109211921
0.500768267030633,0.456916218537367,0.658854281517363,0.500768267030636,0.456916218537368,0.658854281517365,0.500768267030635,0.456916218537363,0.658854281517368,0.500768267030632,0.456916218537364,0.658854281517366,0.500768267030633
1.46409911566123,1.47907879848545,1.31735114527916,1.46409911566123,1.47907879848545,1.31735114527916,1.46409911566123,1.47907879848546,1.31735114527916,1.46409911566124,1.47907879848545,1.31735114527916,1.46409911566123
0.629054645174611,0.932920157109079,0.793103167075492,0.629054645174616,0.932920157109076,0.793103167075493,0.629054645174618,0.932920157109084,0.793103167075486,0.629054645174615,0.932920157109076,0.793103167075489,0.629054645174611
0.721180700486138,0.627579045626096,0.85816428613747,0.721180700486139,0.627579045626091,0.858164286137483,0.72118070048614,0.627579045626091,0.858164286137477,0.721180700486135,0.627579045626093,0.858164286137475,0.721180700486138
0.650366329277487,0.995898138566438,0.643404194762921,0.650366329277487,0.995898138566431,0.643404194762921,0.65036632927749,0.995898138566428,0.643404194762923,0.650366329277484,0.995898138566432,0.643404194762923,0.650366329277487
1.0967706375498,0.873208561117829,0.936950336773021,1.0967706375498,0.873208561117829,0.936950336773021,1.0967706375498,0.873208561117832,0.936950336773022,1.0967706375498,0.87320856111783,0.936950336773014,1.0967706375498
1.47811120610855,1.52559797932977,1.33863015643539,1.47811120610856,1.52559797932976,1.33863015643538,1.47811120610855,1.52559797932977,1.33863015643539,1.47811120610856,1.52559797932976,1.33863015643539,1.47811120610855
0.659212236423633,0.688866016070459,0.670373193882859,0.659212236423628,0.688866016070474,0.670373193882854,0.65921223642363,0.68886601607048,0.670373193882853,0.659212236423632,0.688866016070458,0.670373193882859,0.659212236423633
0.645042201628006,0.961581705051618,0.694810277979799,0.645042201627992,0.961581705051618,0.694810277979797,0.645042201627992,0.961581705051607,0.694810277979795,0.64504220162801,0.961581705051606,0.6948102779798,0.645042201628006
0.628370388038744,0.677767848316165,0.67376353772331,0.628370388038753,0.677767848316168,0.673763537723306,0.628370388038751,0.677767848316172,0.673763537723303,0.628370388038747,0.677767848316171,0.673763537723305,0.628370388038744
0.914793343434242,1.02033813045869,1.08874710267019,0.914793343434238,1.0203381304587,1.0887471026702,0.914793343434238,1.0203381304587,1.0887471026702,0.914793343434242,1.0203381304587,1.08874710267019,0.914793343434242
0.782915917711899,0.709329153522786,0.623994560416462,0.782915917711904,0.709329153522788,0.623994560416457,0.782915917711903,0.709329153522784,0.623994560416451,0.782915917711899,0.709329153522784,0.62399456041646,0.782915917711899
0.863702175888997,0.776114833911469,0.9211288907259,0.863702175888988,0.776114833911465,0.921128890725904,0.863702175888989,0.776114833911467,0.921128890725906,0.863702175888998,0.776114833911471,0.921128890725905,0.863702175888997
1.14652082102061,1.17216648900748,0.978196796502463,1.14652082102061,1.17216648900747,0.978196796502463,1.14652082102062,1.17216648900747,0.978196796502462,1.14652082102061,1.17216648900748,0.978196796502463,1.14652082102061
0.419810424361281,0.493184650573208,0.595552607155968,0.419810424361275,0.493184650573204,0.595552607155963,0.419810424361277,0.493184650573205,0.595552607155955,0.419810424361275,0.493184650573208,0.595552607155949,0.419810424361281
0.763460983720025,0.568904518417886,0.641821619040444,0.763460983720032,0.568904518417889,0.641821619040447,0.76346098372003,0.568904518417889,0.641821619040447,0.763460983720019,0.568904518417888,0.641821619040447,0.763460983720025
0.911066964155361,0.647954702914298,0.795746888597955,0.911066964155361,0.647954702914308,0.795746888597954,0.911066964155368,0.647954702914307,0.795746888597951,0.911066964155368,0.647954702914302,0.795746888597947,0.911066964155361
0.878221759520427,0.987085013126889,0.755284058355755,0.878221759520422,0.987085013126889,0.755284058355762,0.878221759520428,0.987085013126892,0.755284058355761,0.878221759520427,0.987085013126887,0.755284058355757,0.878221759520427
0.604720406580313,0.77029105577479,0.587475626517058,0.604720406580311,0.770291055774794,0.587475626517064,0.604720406580312,0.770291055774789,0.587475626517057,0.604720406580315,0.770291055774788,0.587475626517062,0.604720406580313
0.630835807975696,0.728899172815645,1.19301864726253,0.630835807975701,0.728899172815651,1.19301864726254,0.630835807975699,0.728899172815647,1.19301864726253,0.630835807975697,0.728899172815645,1.19301864726253,0.630835807975696
1.17530522886796,1.27457993757326,1.12704969631445,1.17530522886795,1.27457993757327,1.12704969631445,1.17530522886795,1.27457993757327,1.12704969631444,1.17530522886795,1.27457993757326,1.12704969631444,1.17530522886796
1.20611537460494,1.12135044333385,1.1574221162001,1.20611537460494,1.12135044333384,1.15742211620011,1.20611537460493,1.12135044333385,1.1574221162001,1.20611537460493,1.12135044333384,1.1574221162001,1.20611537460494
0.786317082669665,0.720747164816108,0.875460348571258,0.786317082669666,0.720747164816113,0.875460348571262,0.786317082669669,0.720747164816105,0.875460348571261,0.78631708266966,0.720747164816105,0.875460348571257,0.786317082669665
2.66700864149958,2.54707369085375,3.22723982873631,2.66700864149958,2.54707369085373,3.2272398287363,2.66700864149958,2.54707369085373,3.2272398287363,2.66700864149959,2.54707369085374,3.22723982873628,2.66700864149958
0.388800719077643,0.42066409162837,0.306122727728486,0.388800719077642,0.420664091628371,0.306122727728483,0.388800719077642,0.420664091628369,0.306122727728481,0.388800719077636,0.42066409162837,0.306122727728488,0.388800719077643
0.632044455603599,0.64018904986731,0.635337894529021,0.632044455603604,0.640189049867302,0.635337894529016,0.632044455603617,0.640189049867302,0.635337894529023,0.632044455603606,0.6401890498673,0.635337894529024,0.632044455603599
0.98105945995876,1.03593272370445,1.00265263664334,0.981059459958761,1.03593272370445,1.00265263664334,0.981059459958763,1.03593272370445,1.00265263664333,0.981059459958767,1.03593272370445,1.00265263664334,0.98105945995876
0.503200821681466,0.434100368560657,0.462164150490832,0.503200821681475,0.434100368560652,0.462164150490831,0.503200821681475,0.434100368560654,0.462164150490831,0.503200821681471,0.43410036856066,0.462164150490836,0.503200821681466
0.608155795807571,0.570448421926047,0.598915110538369,0.608155795807573,0.570448421926048,0.598915110538373,0.60815579580757,0.570448421926051,0.598915110538369,0.608155795807567,0.570448421926048,0.598915110538369,0.608155795807571
1.17922031247756,0.976261845688156,0.800994458064056,1.17922031247756,0.976261845688158,0.800994458064051,1.17922031247756,0.976261845688158,0.800994458064046,1.17922031247756,0.976261845688152,0.800994458064055,1.17922031247756
3.27319580820811,4.03220888001819,3.92576897303161,3.2731958082081,4.03220888001818,3.92576897303161,3.27319580820808,4.03220888001818,3.92576897303159,3.27319580820808,4.03220888001821,3.92576897303158,3.27319580820811
0.367189167317824,0.535498227903123,0.402077482049449,0.367189167317824,0.535498227903117,0.402077482049447,0.367189167317825,0.535498227903119,0.402077482049445,0.367189167317824,0.535498227903124,0.402077482049446,0.367189167317824
0.566354747561455,0.634115931551288,0.691494053213751,0.566354747561442,0.634115931551294,0.691494053213751,0.566354747561447,0.634115931551298,0.691494053213758,0.566354747561447,0.634115931551282,0.691494053213757,0.566354747561455
0.643962377967342,0.447625191338827,0.63667895376214,0.643962377967342,0.447625191338829,0.636678953762135,0.643962377967341,0.447625191338828,0.63667895376214,0.643962377967343,0.44762519133883,0.636678953762142,0.643962377967342
0.760466005175511,1.03128763457126,0.683479730115136,0.760466005175502,1.03128763457125,0.683479730115137,0.760466005175503,1.03128763457125,0.683479730115143,0.760466005175507,1.03128763457125,0.683479730115135,0.760466005175511
0.7577373785836,0.690532118819315,0.611240889337552,0.7577373785836,0.690532118819316,0.611240889337552,0.757737378583601,0.690532118819317,0.611240889337548,0.757737378583599,0.690532118819317,0.611240889337549,0.7577373785836
0.55953621727287,0.675300249456326,0.723136611655486,0.559536217272872,0.675300249456331,0.723136611655489,0.559536217272867,0.675300249456329,0.723136611655485,0.55953621727287,0.675300249456333,0.723136611655476,0.55953621727287
0.652943905575745,0.507491584950443,0.63235806208408,0.65294390557574,0.507491584950444,0.632358062084078,0.652943905575741,0.507491584950445,0.632358062084079,0.652943905575746,0.507491584950443,0.632358062084083,0.652943905575745
0.869734702695334,0.842738683795728,0.872279160437175,0.86973470269533,0.842738683795731,0.872279160437177,0.869734702695335,0.842738683795723,0.872279160437173,0.869734702695333,0.842738683795726,0.872279160437173,0.869734702695334
0.516482985812904,0.737175126892053,0.697778240832488,0.516482985812901,0.737175126892053,0.697778240832491,0.516482985812899,0.737175126892048,0.697778240832494,0.516482985812901,0.737175126892056,0.697778240832487,0.516482985812904
0.620804625944022,0.632153537170693,0.586699240373501,0.620804625944021,0.632153537170693,0.586699240373499,0.620804625944015,0.632153537170695,0.5866992403735,0.62080462594402,0.632153537170693,0.5866992403735,0.620804625944022
0.476536462834398,0.573431317166655,0.478038773694617,0.476536462834401,0.573431317166655,0.478038773694619,0.476536462834395,0.573431317166657,0.478038773694621,0.476536462834397,0.573431317166661,0.47803877369462,0.476536462834398
0.955514893684197,0.982774712547492,0.851558732697052,0.955514893684199,0.982774712547493,0.851558732697045,0.955514893684201,0.982774712547489,0.851558732697045,0.955514893684196,0.982774712547491,0.851558732697051,0.955514893684197
0.753156516907938,0.526435173161706,0.685717888909439,0.753156516907947,0.526435173161699,0.685717888909448,0.753156516907943,0.526435173161705,0.68571788890944,0.753156516907938,0.526435173161704,0.685717888909431,0.753156516907938
0.476918822861561,0.617307908928861,0.458899879477515,0.476918822861562,0.617307908928867,0.458899879477519,0.476918822861564,0.617307908928858,0.458899879477513,0.47691882286156,0.617307908928867,0.458899879477504,0.476918822861561
0.939030629454096,0.738630636132262,0.708032198933772,0.939030629454097,0.738630636132283,0.708032198933779,0.939030629454098,0.738630636132251,0.708032198933779,0.939030629454094,0.738630636132263,0.708032198933784,0.939030629454096
0.410047555014071,0.287948843919515,0.515573411998712,0.410047555014067,0.287948843919515,0.515573411998718,0.410047555014074,0.287948843919516,0.515573411998701,0.410047555014075,0.287948843919516,0.515573411998703,0.410047555014071
0.89443628197046,0.711274246720631,0.934515801718251,0.894436281970463,0.711274246720631,0.934515801718258,0.894436281970459,0.711274246720634,0.934515801718252,0.894436281970458,0.711274246720626,0.934515801718246,0.89443628197046
0.936666247024086,0.750526320517002,0.907631387168939,0.936666247024083,0.750526320517002,0.907631387168937,0.936666247024081,0.750526320517002,0.907631387168938,0.936666247024079,0.750526320517004,0.907631387168936,0.936666247024086
1.90585237714749,1.8088068983528,1.83263770855427,1.90585237714748,1.8088068983528,1.83263770855428,1.90585237714748,1.80880689835279,1.83263770855427,1.9058523771475,1.80880689835279,1.83263770855428,1.90585237714749
0.627223897691902,0.623840853571044,0.44137770852809,0.627223897691901,0.623840853571038,0.441377708528083,0.627223897691903,0.62384085357104,0.441377708528085,0.627223897691902,0.623840853571044,0.441377708528088,0.627223897691902
0.321611067907331,0.385926266614223,0.40225704810591,0.321611067907335,0.385926266614218,0.402257048105911,0.321611067907339,0.385926266614217,0.402257048105916,0.321611067907334,0.385926266614228,0.402257048105916,0.321611067907331
0.789603427560133,0.822517968965539,0.587142075663313,0.789603427560129,0.822517968965546,0.587142075663314,0.789603427560134,0.822517968965547,0.587142075663315,0.78960342756013,0.822517968965542,0.587142075663316,0.789603427560133
0.386085727092047,0.37985278705956,0.500565306227154,0.386085727092046,0.37985278705955,0.500565306227149,0.38608572709205,0.379852787059551,0.50056530622715,0.386085727092045,0.379852787059554,0.500565306227151,0.386085727092047
0.6428173521327,0.612533915065657,0.460701135262422,0.6428173521327,0.612533915065656,0.460701135262425,0.642817352132701,0.612533915065655,0.460701135262423,0.642817352132703,0.612533915065656,0.46070113526242,0.6428173521327
0.467695313987714,0.70004279381248,0.557593045227118,0.467695313987712,0.700042793812478,0.557593045227112,0.467695313987714,0.700042793812477,0.557593045227103,0.467695313987715,0.700042793812478,0.557593045227109,0.467695313987714
0.901818708951102,0.953374132023558,1.0121733573945,0.901818708951099,0.953374132023555,1.01217335739449,0.901818708951105,0.953374132023562,1.0121733573945,0.9018187089511,0.95337413202355,1.0121733573945,0.901818708951102
0.474333093227123,0.491197545378918,0.58945769433381,0.474333093227133,0.491197545378919,0.589457694333805,0.474333093227133,0.491197545378921,0.589457694333811,0.474333093227132,0.491197545378915,0.589457694333809,0.474333093227123
0.535808772222124,0.612954619833381,0.521803928622943,0.53580877222213,0.612954619833377,0.521803928622942,0.535808772222116,0.612954619833388,0.521803928622937,0.535808772222123,0.612954619833386,0.521803928622932,0.535808772222124
1.36942414460772,1.68966256311591,1.79405314943908,1.36942414460771,1.6896625631159,1.79405314943908,1.36942414460771,1.6896625631159,1.79405314943907,1.36942414460771,1.6896625631159,1.79405314943908,1.36942414460772
0.789361324809308,0.632782535571844,1.00526491735587,0.789361324809298,0.632782535571842,1.00526491735586,0.7893613248093,0.63278253557184,1.00526491735587,0.789361324809307,0.632782535571846,1.00526491735587,0.789361324809308
0.459037691768268,0.431776027610679,0.468038115980026,0.459037691768268,0.43177602761068,0.468038115980024,0.459037691768264,0.431776027610683,0.46803811598002,0.459037691768268,0.431776027610682,0.468038115980031,0.459037691768268
1.53947611426206,1.67953094662561,1.4884246783986,1.53947611426206,1.67953094662561,1.4884246783986,1.53947611426206,1.67953094662562,1.48842467839861,1.53947611426206,1.67953094662562,1.4884246783986,1.53947611426206
0.53112223450377,0.714866712820189,0.532076581684637,0.531122234503771,0.714866712820198,0.532076581684642,0.531122234503771,0.714866712820202,0.532076581684641,0.531122234503773,0.714866712820198,0.532076581684643,0.53112223450377
0.38667375205518,0.434767207232686,0.431686286589965,0.386673752055177,0.434767207232687,0.431686286589954,0.386673752055176,0.434767207232686,0.431686286589962,0.386673752055178,0.434767207232687,0.431686286589969,0.38667375205518
0.710849871409409,0.647003106425579,0.611609829364492,0.710849871409407,0.647003106425582,0.611609829364493,0.710849871409407,0.647003106425583,0.611609829364492,0.710849871409408,0.647003106425581,0.611609829364487,0.710849871409409
0.984018348766531,0.897874231460597,1.10815521086953,0.984018348766525,0.897874231460578,1.10815521086953,0.984018348766521,0.897874231460572,1.10815521086953,0.984018348766525,0.897874231460582,1.10815521086953,0.984018348766531
0.701002965455994,0.695202719388742,0.843000660401036,0.701002965455995,0.69520271938874,0.843000660401034,0.701002965455995,0.69520271938874,0.843000660401036,0.701002965455997,0.695202719388743,0.843000660401037,0.701002965455994
0.643426798602645,1.04282075445856,0.665626260164509,0.643426798602647,1.04282075445855,0.665626260164503,0.643426798602655,1.04282075445856,0.665626260164509,0.643426798602651,1.04282075445856,0.665626260164506,0.643426798602645
0.351371025545014,0.368798923552134,0.396812388585474,0.351371025545015,0.368798923552141,0.396812388585476,0.351371025545012,0.368798923552141,0.396812388585481,0.351371025545011,0.368798923552137,0.396812388585477,0.351371025545014
0.988558772028641,1.21728390934754,1.0349618581527,0.988558772028644,1.21728390934753,1.03496185815271,0.98855877202864,1.21728390934753,1.0349618581527,0.988558772028638,1.21728390934754,1.0349618581527,0.988558772028641
0.498940182200703,0.582054847334857,0.698211409162811,0.4989401822007,0.582054847334851,0.698211409162809,0.498940182200704,0.582054847334856,0.698211409162802,0.498940182200708,0.582054847334858,0.698211409162808,0.498940182200703
0.425791610517733,0.543353129314431,0.515982765269731,0.425791610517734,0.543353129314431,0.515982765269733,0.425791610517733,0.543353129314433,0.515982765269736,0.425791610517731,0.543353129314435,0.515982765269735,0.425791610517733
0.231049432094196,0.350775886656611,0.325522617049807,0.231049432094194,0.35077588665661,0.325522617049807,0.231049432094195,0.350775886656611,0.325522617049809,0.231049432094195,0.350775886656608,0.325522617049806,0.231049432094196
