r0,r30,r60,r90,r120,r150,r180,r210,r240,r270,r300,r330,r360
1,1,0,1,0,1,1,0,0,1,1,1,1
1,0,1,1,1,1,1,0,1,0,1,1,1
1,1,1,1,1,1,1,1,1,1,1,1,1
1,1,1,1,1,1,1,1,1,1,1,1,1
1,0,0,0,1,1,1,0,0,0,1,1,1
1,1,1,1,1,1,1,1,1,1,1,1,1
1,1,1,1,0,0,0,1,1,1,1,1,1
1,1,0,1,1,1,1,1,0,1,1,1,1
1,1,1,1,1,1,1,1,1,1,1,1,1
1,1,1,1,1,1,1,1,1,1,1,1,1
1,1,1,0,1,0,1,1,1,0,1,0,1
1,1,1,0,1,1,1,1,1,0,0,1,1
1,1,1,1,1,1,1,1,1,1,1,1,1
1,1,1,1,1,1,1,1,1,1,1,1,1
1,1,1,0,0,0,0,0,0,1,1,1,1
1,1,1,1,0,0,0,0,0,1,1,1,1
1,1,1,0,1,1,1,1,1,0,1,1,1
1,1,1,1,1,1,1,1,1,1,1,1,1
1,1,0,0,0,0,0,0,0,0,1,1,1
1,1,1,1,1,1,1,1,1,1,1,1,1
1,1,1,1,1,1,1,1,1,1,1,1,1
1,1,1,1,0,0,1,1,1,0,0,1,1
1,1,1,1,1,1,1,1,1,1,1,1,1
1,1,1,1,0,1,1,0,1,1,0,1,1
1,1,1,1,1,1,1,1,1,1,1,1,1
1,1,1,1,1,1,1,1,1,1,1,1,1
1,1,1,1,1,1,1,1,1,1,1,1,1
1,1,1,0,0,1,1,1,0,1,1,1,1
1,1,1,1,1,1,1,1,1,1,1,1,1
1,1,1,0,1,1,1,1,1,1,1,1,1
1,1,1,1,1,1,1,0,0,0,0,1,1
1,1,0,0,1,1,1,1,0,0,1,1,1
1,1,1,1,1,1,1,1,1,1,1,1,1
1,1,1,1,1,1,1,1,1,1,1,1,1
1,1,1,1,1,1,1,1,1,1,1,1,1
1,1,0,0,1,0,1,1,0,0,1,1,1
1,1,0,0,1,1,1,1,0,0,1,1,1
1,1,0,0,0,0,0,0,1,1,1,0,1
1,1,1,0,1,1,1,1,1,0,1,1,1
1,1,1,1,1,1,1,1,1,1,1,1,1
1,1,1,1,1,1,1,1,1,1,1,1,1
1,1,1,1,1,1,1,1,1,1,1,1,1
1,1,1,0,0,0,0,1,0,0,0,1,1
1,1,1,1,0,0,0,0,0,0,0,1,1
1,1,1,1,0,1,1,1,1,1,0,1,1
1,1,1,1,0,1,1,1,1,1,0,1,1
1,1,0,0,1,1,1,1,0,0,1,1,1
1,1,1,1,1,1,1,1,1,1,1,1,1
1,1,1,0,0,1,0,1,1,0,0,1,1
1,1,1,1,1,1,1,1,1,1,1,1,1
1,1,1,1,1,1,1,1,1,1,1,1,1
1,1,1,1,1,0,1,1,0,1,1,1,1
1,1,1,1,1,1,1,1,1,1,1,1,1
1,1,1,0,0,1,1,1,0,0,0,1,1
1,1,1,0,1,0,0,1,1,1,1,1,1
1,1,1,1,1,1,1,1,1,1,0,1,1
1,1,1,1,1,1,0,1,1,1,1,1,1
1,1,1,1,1,1,1,1,1,1,1,1,1
1,1,1,0,0,0,0,0,1,1,1,1,1
1,1,1,1,1,1,1,1,1,1,1,1,1
1,1,1,1,1,0,1,0,1,1,1,1,1
1,1,1,1,1,1,1,1,1,1,1,1,1
1,1,1,1,1,1,1,1,1,1,1,1,1
1,1,1,1,1,1,1,1,1,1,1,1,1
1,1,0,0,1,1,1,1,0,1,1,1,1
1,0,1,0,1,0,1,0,1,1,1,0,1
1,1,1,0,0,1,1,0,1,0,0,1,1
1,1,1,0,1,0,0,1,1,1,1,1,1
1,1,1,1,1,1,1,1,1,1,1,1,1
1,1,1,1,1,1,1,1,1,1,1,1,1
1,0,0,0,0,1,1,0,0,0,0,1,1
1,1,1,1,1,1,1,1,1,1,1,1,1
1,1,1,1,0,0,0,0,0,1,1,1,1
1,1,1,0,1,1,1,1,1,0,1,1,1
1,1,1,1,1,0,1,1,0,1,1,1,1
1,1,1,1,1,1,1,1,1,1,1,1,1
1,1,1,1,1,1,1,1,1,1,1,1,1
1,1,1,0,1,1,1,1,1,0,1,1,1
1,1,1,1,1,1,1,1,1,0,1,1,1
1,1,1,1,1,1,1,1,1,1,1,1,1
1,1,1,1,1,0,1,1,0,1,1,1,1
0,0,0,0,0,0,0,0,0,0,0,0,0
1,1,1,1,1,1,1,1,1,1,1,1,1
1,1,1,1,1,0,0,0,0,0,1,1,1
1,0,0,0,0,0,0,0,1,1,0,0,1
1,1,1,0,1,1,1,1,1,0,1,1,1
1,1,1,1,1,1,1,1,1,1,1,1,1
1,1,1,1,0,1,1,1,1,1,1,1,1
1,1,1,0,0,0,0,1,0,0,0,1,1
1,1,1,0,0,1,1,1,1,1,1,1,1
1,1,1,1,1,1,1,1,1,1,1,1,1
1,1,1,0,0,1,1,1,0,0,1,1,1
1,1,1,1,1,1,1,1,1,1,1,1,1
1,1,1,1,0,0,0,0,0,0,0,1,1
1,1,1,1,1,1,1,1,1,1,1,1,1
1,1,0,0,0,0,0,0,0,1,1,1,1
1,1,1,0,0,1,1,1,1,0,0,1,1
1,1,1,1,1,1,1,1,1,1,0,1,1
1,1,1,1,1,1,1,1,1,1,1,1,1
0,1,1,1,1,1,0,1,1,0,0,1,0
1,0,1,1,0,1,0,0,1,1,0,1,1
1,1,1,1,1,1,1,1,1,1,1,1,1
1,1,1,0,0,0,1,1,0,0,0,0,1
1,1,1,1,1,0,1,1,1,1,1,0,1
1,1,1,1,0,1,0,0,1,1,1,1,1
1,1,1,1,1,1,1,1,1,1,1,1,1
1,1,1,1,1,1,1,1,0,1,1,1,1
1,1,0,0,0,0,0,0,0,0,1,1,1
1,1,1,1,1,1,1,1,1,1,1,1,1
1,1,1,0,0,1,1,1,1,0,0,1,1
1,1,1,1,1,1,1,1,1,0,1,1,1
1,1,1,1,0,0,0,0,0,1,1,1,1
1,1,1,1,0,1,1,1,0,1,1,1,1
1,1,1,0,0,1,1,1,1,0,1,1,1
1,0,0,1,1,0,0,0,0,0,0,0,1
1,1,1,1,1,1,1,1,1,1,1,1,1
1,1,1,1,0,1,1,1,1,1,1,1,1
1,1,1,1,1,1,1,1,1,1,0,1,1
1,1,1,1,1,1,1,1,1,1,1,1,1
1,1,1,1,1,1,1,1,1,1,1,1,1
1,1,0,0,1,0,0,0,0,0,1,0,1
1,1,1,1,1,1,1,1,1,1,1,1,1
1,1,1,1,1,1,1,1,1,1,1,1,1
1,1,1,1,1,1,1,1,1,1,1,1,1
1,1,1,1,1,0,1,0,0,1,1,1,1
1,1,1,0,0,0,0,0,0,0,1,1,1
1,1,1,1,1,1,1,1,1,1,1,1,1
1,1,1,0,1,1,1,1,0,0,1,1,1
1,1,1,0,0,1,0,1,0,0,1,1,1
1,1,0,0,0,0,0,0,0,0,0,0,1
1,1,1,1,1,1,1,1,1,1,1,1,1
1,1,1,1,1,1,1,1,1,1,1,1,1
1,1,1,1,1,1,1,1,1,1,1,1,1
1,1,1,1,1,1,1,1,1,1,1,1,1
1,1,1,1,1,1,1,1,1,1,1,1,1
1,1,1,1,1,1,1,1,1,1,1,1,1
1,1,1,1,1,1,1,1,1,1,1,1,1
1,1,1,1,1,1,1,1,1,1,1,1,1
1,1,1,1,1,1,1,1,1,1,1,1,1
1,1,1,1,1,1,1,1,1,1,1,1,1
1,1,1,1,1,1,1,1,1,1,1,1,1
1,1,1,1,1,1,1,1,1,1,1,1,1
1,1,1,1,1,1,1,1,1,1,1,1,1
1,1,1,1,1,1,1,1,1,1,1,1,1
1,1,1,1,1,1,1,1,1,1,1,1,1
1,1,1,1,1,1,1,1,1,1,1,1,1
1,1,1,1,1,1,1,1,1,1,1,1,1
1,1,1,1,1,1,1,1,1,1,1,1,1
1,1,1,1,1,1,1,1,1,1,1,1,1
1,1,1,1,1,1,1,1,1,1,1,1,1
1,1,1,1,1,1,1,1,1,1,1,1,1
1,1,1,1,1,1,1,1,1,1,1,1,1
1,1,1,1,1,1,1,1,1,1,1,1,1
1,1,1,1,1,1,1,1,1,1,1,1,1
1,1,1,1,1,1,1,1,1,1,1,1,1
1,1,1,1,1,1,1,1,1,1,1,1,1
1,1,1,1,1,1,1,1,1,1,1,1,1
1,1,1,1,1,1,1,1,1,1,1,1,1
1,1,1,1,1,1,1,1,1,1,1,1,1
1,1,1,1,1,1,1,1,1,1,1,1,1
1,1,1,1,1,1,1,1,1,1,1,1,1
1,1,1,1,1,1,1,1,1,1,1,1,1
1,1,1,1,1,1,1,1,1,1,1,1,1
1,1,1,1,1,1,1,1,1,1,1,1,1
1,1,1,1,1,1,1,1,1,1,1,1,1
1,1,1,1,1,1,1,1,1,1,1,1,1
1,1,1,1,1,1,1,1,1,1,1,1,1
1,1,1,1,1,1,1,1,1,1,1,1,1
1,1,1,1,1,1,1,1,1,1,1,1,1
1,1,1,1,1,1,1,1,1,1,1,1,1
1,1,1,1,1,1,1,1,1,1,1,1,1
1,1,1,1,1,1,1,1,1,1,1,1,1
1,1,1,1,1,1,1,1,1,1,1,1,1
1,1,1,1,1,1,1,1,1,1,1,1,1
1,1,1,1,1,1,1,1,1,1,1,1,1
1,1,1,1,1,1,1,1,1,1,1,1,1
1,1,1,1,1,1,1,1,1,1,1,1,1
1,1,1,1,1,1,1,1,1,1,1,1,1
1,1,1,1,1,1,1,1,1,1,1,1,1
1,1,1,1,1,1,1,1,1,1,1,1,1
1,1,1,1,1,1,1,1,1,1,1,1,1
1,1,1,1,1,1,1,1,1,1,1,1,1
1,1,1,1,1,1,1,1,1,1,1,1,1
1,1,1,1,1,1,1,1,1,1,1,1,1
1,1,1,1,1,1,1,1,1,1,1,1,1
1,1,1,1,1,1,1,1,1,1,1,1,1
1,1,1,1,1,1,1,1,1,1,1,1,1
1,1,1,1,1,1,1,1,1,1,1,1,1
1,1,1,1,1,1,1,1,1,1,1,1,1
1,1,1,1,1,1,1,1,1,1,1,1,1
1,1,1,1,1,1,1,1,1,1,1,1,1
1,1,1,1,1,1,1,1,1,1,1,1,1
1,1,1,1,1,1,1,1,1,1,1,1,1
1,1,1,1,1,1,1,1,1,1,1,1,1
1,1,1,1,1,1,1,1,1,1,1,1,1
1,1,1,1,1,1,1,1,1,1,1,1,1
1,1,1,1,1,1,1,1,1,1,1,1,1
1,1,1,1,1,1,1,1,1,1,1,1,1
1,1,1,1,1,1,1,1,1,1,1,1,1
1,1,1,1,1,1,1,1,1,1,1,1,1
1,1,1,1,1,1,1,1,1,1,1,1,1
1,1,1,1,1,1,1,1,1,1,1,1,1
1,1,1,1,1,1,1,1,1,1,1,1,1
1,1,1,1,1,1,1,1,1,1,1,1,1
1,1,1,1,1,1,1,1,1,1,1,1,1
1,1,1,1,1,1,1,1,1,1,1,1,1
1,1,1,1,1,1,1,1,1,1,1,1,1
1,1,1,1,1,1,1,1,1,1,1,1,1
1,1,1,1,1,1,1,1,1,1,1,1,1
1,1,1,1,1,1,1,1,1,1,1,1,1
1,1,1,1,1,1,1,1,1,1,1,1,1
1,1,1,1,1,1,1,1,1,1,1,1,1
1,1,1,1,1,1,1,1,1,1,1,1,1
1,1,1,1,1,1,1,1,1,1,1,1,1
1,1,1,1,1,1,1,1,1,1,1,1,1
1,1,1,1,1,1,1,1,1,1,1,1,1
1,1,1,1,1,1,1,1,1,1,1,1,1
1,1,1,1,1,1,1,1,1,1,1,1,1
1,1,1,1,1,1,1,1,1,1,1,1,1
1,1,1,1,1,1,1,1,1,1,1,1,1
1,1,1,1,1,1,1,1,1,1,1,1,1
1,1,1,1,1,1,1,1,1,1,1,1,1
1,1,1,1,1,1,1,1,1,1,1,1,1
1,1,1,1,1,1,1,1,1,1,1,1,1
1,1,1,1,1,1,1,1,1,1,1,1,1
1,1,1,1,1,1,1,1,1,1,1,1,1
1,1,1,1,1,1,1,1,1,1,1,1,1
1,1,1,1,1,1,1,1,1,1,1,1,1
1,1,1,1,1,1,1,1,1,1,1,1,1
1,1,1,1,1,1,1,1,1,1,1,1,1
1,1,1,1,1,1,1,1,1,1,1,1,1
1,1,1,1,1,1,1,1,1,1,1,1,1
1,1,1,1,1,1,1,1,1,1,1,1,1
1,1,1,1,1,1,1,1,1,1,1,1,1
1,1,1,1,1,1,1,1,1,1,1,1,1
1,1,1,1,1,1,1,1,1,1,1,1,1
1,1,1,1,1,1,1,1,1,1,1,1,1
1,1,1,1,1,1,1,1,1,1,1,1,1
1,1,1,1,1,1,1,1,1,1,1,1,1
1,1,1,1,1,1,1,1,1,1,1,1,1
1,1,1,1,1,1,1,1,1,1,1,1,1
1,1,1,1,1,1,1,1,1,1,1,1,1
1,1,1,1,1,1,1,1,1,1,1,1,1
1,1,1,1,1,1,1,1,1,1,1,1,1
1,1,1,1,1,1,1,1,1,1,1,1,1
1,1,1,1,1,1,1,1,1,1,1,1,1
1,1,1,1,1,1,1,1,1,1,1,1,1
1,1,1,1,1,1,1,1,1,1,1,1,1
1,1,1,1,1,1,1,1,1,1,1,1,1
1,1,1,1,1,1,1,1,1,1,1,1,1
1,1,1,1,1,1,1,1,1,1,1,1,1
1,1,1,1,1,1,1,1,1,1,1,1,1
1,1,1,1,1,1,1,1,1,1,1,1,1
1,1,1,1,1,1,1,1,1,1,1,1,1
1,1,1,1,1,1,1,1,1,1,1,1,1
1,1,1,1,1,1,1,1,1,1,1,1,1
1,1,1,1,1,1,1,1,1,1,1,1,1
1,1,1,1,1,1,1,1,1,1,1,1,1
1,1,1,1,1,1,1,1,1,1,1,1,1
1,1,1,1,1,1,1,1,1,1,1,1,1
1,1,1,1,1,1,1,1,1,1,1,1,1
1,1,1,1,1,1,1,1,1,1,1,1,1
1,1,1,1,1,1,1,1,1,1,1,1,1
1,1,1,1,1,1,1,1,1,1,1,1,1
1,1,1,1,1,1,1,1,1,1,1,1,1
1,1,1,1,1,1,1,1,1,1,1,1,1
1,1,1,1,1,1,1,1,1,1,1,1,1
1,1,1,1,1,1,1,1,1,1,1,1,1
1,1,1,1,1,1,1,1,1,1,1,1,1
1,1,1,1,1,1,1,1,1,1,1,1,1
1,1,1,1,1,1,1,1,1,1,1,1,1
1,1,1,1,1,1,1,1,1,1,1,1,1
1,1,1,1,1,1,1,1,1,1,1,1,1
1,1,1,1,1,1,1,1,1,1,1,1,1
1,1,1,1,1,1,1,1,1,1,1,1,1
1,1,1,1,1,1,1,1,1,1,1,1,1
1,1,1,1,1,1,1,1,1,1,1,1,1
1,1,1,1,1,1,1,1,1,1,1,1,1
1,1,1,1,1,1,1,1,1,1,1,1,1
1,1,1,1,1,1,1,1,1,1,1,1,1
1,1,1,1,1,1,1,1,1,1,1,1,1
1,1,1,1,1,1,1,1,1,1,1,1,1
1,1,1,1,1,1,1,1,1,1,1,1,1
1,1,1,1,1,1,1,1,1,1,1,1,1
1,1,1,1,1,1,1,1,1,1,1,1,1
1,1,1,1,1,1,1,1,1,1,1,1,1
1,1,1,1,1,1,1,1,1,1,1,1,1
1,1,1,1,1,1,1,1,1,1,1,1,1
1,1,1,1,1,1,1,1,1,1,1,1,1
1,1,1,1,1,1,1,1,1,1,1,1,1
1,1,1,1,1,1,1,1,1,1,1,1,1
1,1,1,1,1,1,1,1,1,1,1,1,1
1,1,1,1,1,1,1,1,1,1,1,1,1
1,1,1,1,1,1,1,1,1,1,1,1,1
1,1,1,1,1,1,1,1,1,1,1,1,1
1,1,1,1,1,1,1,1,1,1,1,1,1
1,1,1,1,1,1,1,1,1,1,1,1,1
1,1,1,1,1,1,1,1,1,1,1,1,1
1,1,1,1,1,1,1,1,1,1,1,1,1
1,1,1,1,1,1,1,1,1,1,1,1,1
1,1,1,1,1,1,1,1,1,1,1,1,1
1,1,1,1,1,1,1,1,1,1,1,1,1
1,1,1,1,1,1,1,1,1,1,1,1,1
1,1,1,1,1,1,1,1,1,1,1,1,1
1,1,1,1,1,1,1,1,1,1,1,1,1
1,1,1,1,1,1,1,1,1,1,1,1,1
1,1,1,1,1,1,1,1,1,1,1,1,1
1,1,1,1,1,1,1,1,1,1,1,1,1
1,1,1,1,1,1,1,1,1,1,1,1,1
1,1,1,1,1,1,1,1,1,1,1,1,1
1,1,1,1,1,1,1,1,1,1,1,1,1
1,1,1,1,1,1,1,1,1,1,1,1,1
1,1,1,1,1,1,1,1,1,1,1,1,1
1,1,1,1,1,1,1,1,1,1,1,1,1
1,1,1,1,1,1,1,1,1,1,1,1,1
1,1,1,1,1,1,1,1,1,1,1,1,1
1,1,1,1,1,1,1,1,1,1,1,1,1
1,1,1,1,1,1,1,1,1,1,1,1,1
1,1,1,1,1,1,1,1,1,1,1,1,1
1,1,1,1,1,1,1,1,1,1,1,1,1
1,1,1,1,1,1,1,1,1,1,1,1,1
1,1,1,1,1,1,1,1,1,1,1,1,1
1,1,1,1,1,1,1,1,1,1,1,1,1
1,1,1,1,1,1,1,1,1,1,1,1,1
1,1,1,1,1,1,1,1,1,1,1,1,1
1,1,1,1,1,1,1,1,1,1,1,1,1
1,1,1,1,1,1,1,1,1,1,1,1,1
1,1,1,1,1,1,1,1,1,1,1,1,1
1,1,1,1,1,1,1,1,1,1,1,1,1
1,1,1,1,1,1,1,1,1,1,1,1,1
1,1,1,1,1,1,1,1,1,1,1,1,1
1,1,1,1,1,1,1,1,1,1,1,1,1
1,1,1,1,1,1,1,1,1,1,1,1,1
1,1,1,1,1,1,1,1,1,1,1,1,1
1,1,1,1,1,1,1,1,1,1,1,1,1
1,1,1,1,1,1,1,1,1,1,1,1,1
1,1,1,1,1,1,1,1,1,1,1,1,1
1,1,1,1,1,1,1,1,1,1,1,1,1
1,1,1,1,1,1,1,1,1,1,1,1,1
1,1,1,1,1,1,1,1,1,1,1,1,1
1,1,1,1,1,1,1,1,1,1,1,1,1
1,1,1,1,1,1,1,1,1,1,1,1,1
1,1,1,1,1,1,1,1,1,1,1,1,1
1,1,1,1,1,1,1,1,1,1,1,1,1
1,1,1,1,1,1,1,1,1,1,1,1,1
1,1,1,1,1,1,1,1,1,1,1,1,1
1,1,1,1,1,1,1,1,1,1,1,1,1
1,1,1,1,1,1,1,1,1,1,1,1,1
1,1,1,1,1,1,1,1,1,1,1,1,1
1,1,1,1,1,1,1,1,1,1,1,1,1
1,1,1,1,1,1,1,1,1,1,1,1,1
1,1,1,1,1,1,1,1,1,1,1,1,1
1,1,1,1,1,1,1,1,1,1,1,1,1
1,1,1,1,1,1,1,1,1,1,1,1,1
1,1,1,1,1,1,1,1,1,1,1,1,1
1,1,1,1,1,1,1,1,1,1,1,1,1
1,1,1,1,1,1,1,1,1,1,1,1,1
1,1,1,1,1,1,1,1,1,1,1,1,1
1,1,1,1,1,1,1,1,1,1,1,1,1
1,1,1,1,1,1,1,1,1,1,1,1,1
1,1,1,1,1,1,1,1,1,1,1,1,1
1,1,1,1,1,1,1,1,1,1,1,1,1
1,1,1,1,1,1,1,1,1,1,1,1,1
1,1,1,1,1,1,1,1,1,1,1,1,1
1,1,1,1,1,1,1,1,1,1,1,1,1
1,1,1,1,1,1,1,1,1,1,1,1,1
1,1,1,1,1,1,1,1,1,1,1,1,1
1,1,1,1,1,1,1,1,1,1,1,1,1
1,1,1,1,1,1,1,1,1,1,1,1,1
1,1,1,1,1,1,1,1,1,1,1,1,1
1,1,1,1,1,1,1,1,1,1,1,1,1
1,1,1,1,1,1,1,1,1,1,1,1,1
1,1,1,1,1,1,1,1,1,1,1,1,1
1,1,1,1,1,1,1,1,1,1,1,1,1
1,1,1,1,1,1,1,1,1,1,1,1,1
1,1,1,1,1,1,1,1,1,1,1,1,1
1,1,1,1,1,1,1,1,1,1,1,1,1
1,1,1,1,1,1,1,1,1,1,1,1,1
1,1,1,1,1,1,1,1,1,1,1,1,1
1,1,1,1,1,1,1,1,1,1,1,1,1
1,1,1,1,1,1,1,1,1,1,1,1,1
1,1,1,1,1,1,1,1,1,1,1,1,1
1,1,1,1,1,1,1,1,1,1,1,1,1
1,1,1,1,1,1,1,1,1,1,1,1,1
1,1,1,1,1,1,1,1,1,1,1,1,1
1,1,1,1,1,1,1,1,1,1,1,1,1
1,1,1,1,1,1,1,1,1,1,1,1,1
1,1,1,1,1,1,1,1,1,1,1,1,1
1,1,1,1,1,1,1,1,1,1,1,1,1
1,1,1,1,1,1,1,1,1,1,1,1,1
0.989441586781318,0.90031782441116,0.89384804765664,0.989441586781312,0.884244124172117,0.917780152224718,0.947842654890758,0.884244124172116,0.919589577743352,0.989441586781313,0.90031782441116,0.960639613083622,0.989441586781318
1,0.933727368747233,0.986149516489224,0.926321249170189,0.938415013777397,0.914553101634799,0.960213019830973,0.910064794591386,0.949384296629388,0.930214904933212,0.974018080543584,0.917968984482488,1
1,0.999999999999999,1,1,0.919372140496905,0.894244637657177,0.961222849407267,0.962723588730902,0.961745943112581,0.961222849407267,0.898582921570807,0.915820487660697,1
0.999999999999999,0.999999999999998,0.951332705009397,0.87475976205448,0.860176062849656,0.926527087852407,0.961420515350614,0.963916578947129,0.926039849507293,0.860176062849656,0.87475976205448,0.953476376667164,0.999999999999999
0.996572885888969,0.932332812744649,0.927156822363458,0.961730364150909,0.929971979119601,0.962163513896022,0.972075669278853,0.929795969697887,0.927788136012881,0.962193742354564,0.956037200184084,0.985871248124085,0.996572885888969
0.999999999999999,1,0.979542023437255,0.96437242392254,0.962882984095953,0.966356504613474,0.966029210355285,0.966356504613473,0.96437242392254,0.960990419007733,0.979542023437255,1,0.999999999999999
1,1,0.921843017449081,0.807018620861128,0.804021748568005,0.810136604434459,0.805890159543944,0.807018620861128,0.927374284126657,0.999999999999999,1,1,1
1,0.939215111790815,0.908933411997544,0.922596887236472,0.960767794132695,0.968340695907909,0.962317617426405,0.922596887236472,0.898360064125133,0.939215111790815,1,0.999999999999999,1
0.999999999999997,0.984252036939218,0.97067459127936,0.961026323507654,0.963231190808667,0.962516554594407,0.961026323507654,0.961759882074257,0.982679314241738,0.999999999999997,0.98473661304415,1,0.999999999999997
0.999999999999998,0.999999999999999,0.967430261502278,0.931385083207106,0.955595079862443,0.974227877124719,0.969723053888041,0.974187642662095,0.955595079862444,0.937455679289721,0.967430261502277,0.999999999999998,0.999999999999998
1,1,1,0.869313972684895,0.932363569486503,0.878786635599782,0.92605464353178,0.932363569486504,0.934811695663171,0.867323205548381,0.999999999999999,0.879370120932329,1
1,0.997940816962064,0.939678086172643,0.860640724236322,0.844225256453741,0.939678086172643,0.941028163311417,0.929912644993614,0.999999999999999,0.889156499342023,0.899657918814264,0.999999999999998,1
1,1,0.957808112013368,1,0.973777059954598,0.950114788090257,0.973431153076561,0.966188935407053,0.957041872385697,1,0.973777059954597,0.983717256934553,1
0.999999999999999,1,1,0.973934325447103,0.957008911703475,0.969684266037176,0.968686989618975,0.968783677714987,0.969684266037176,0.960511639427832,0.976476863084107,0.999999999999999,0.999999999999999
1,0.971370939729067,0.941836461153052,0.88119706505614,0.839390641511967,0.857266103189324,0.881197065056139,0.880634506439338,0.868328610700684,0.9454473530425,0.971370939729066,0.999999999999999,1
1,1,0.999999999999998,0.87224683081949,0.819392940241863,0.821211399906243,0.829268912102431,0.804314218140168,0.821211399906243,0.882481593615334,1,0.999999999999999,1
1,1,0.956903403340744,0.935460137559563,0.942971704413525,0.943691340268877,0.957327354735104,0.963924662893272,0.942971704413525,0.943484317692914,0.956903403340744,0.999999999999999,1
1,1,0.981225612054636,0.99016623401566,0.980298042890503,0.989001199781526,0.990166234015661,0.990956756044619,0.979901910710796,0.999999999999999,0.986341672765255,0.999999999999999,1
0.999999999999998,0.970014677116091,0.881075660010866,0.84258141880609,0.92297265150962,0.90393929774794,0.963848376030348,0.922972651509619,0.961463272610822,0.892675071973777,0.97001467711609,1,0.999999999999998
0.999999999999999,0.999999999999999,1,0.972341405436721,0.94274849815444,0.932370236111177,0.927601282475579,0.924196227637302,0.932370236111177,0.945717090440886,0.972594128089022,1,0.999999999999999
0.999999999999997,1,0.964268448916041,0.917250109984727,0.914286222736156,0.950181068377714,0.975031004398168,0.981550300123274,0.955678501238982,0.914286222736156,0.917250109984727,0.960895057133954,0.999999999999997
1,0.999999999999999,0.999999999999999,0.906028693547261,0.870333022112802,0.877411557810287,0.930127041363102,0.938498251811143,0.934638752133018,0.886347299105737,0.879352815811534,0.906028693547261,1
0.999999999999998,1,1,0.98087140231875,0.951873459285656,0.929715939672825,0.918080471683539,0.926005058658575,0.951873459285656,0.977256519347817,1,0.98087140231875,0.999999999999998
0.999999999999999,0.973507536351521,0.954981969199567,0.891992879549327,0.945883052346066,0.9384705494069,0.928727671378213,0.945883052346066,0.923479230377274,0.898146849694524,0.932357633257611,1,0.999999999999999
0.999999999999999,0.999999999999999,1,0.970420250103042,0.935813130255771,0.922789594953019,0.933909379973943,0.933909379973943,0.917049023814422,0.930470487466182,0.968100217560115,1,0.999999999999999
0.999999999999999,1,0.947872983484231,0.85649163433339,0.937797506219711,0.98589944000522,0.985539433637757,0.986258913925476,0.937797506219709,0.860936487112501,0.947872983484231,1,0.999999999999999
0.999999999999998,1,0.939855894004306,0.927113102830077,0.938292366461962,0.937940989673642,0.934381875512273,0.938292366461962,0.923854397665292,0.939633181627996,0.999999999999999,1,0.999999999999998
1,0.999999999999998,0.889549379925078,0.869860024045284,0.86610297545378,0.851382990937027,0.89559257074026,0.999999999999998,0.901055693048301,1,0.89559257074026,1,1
0.999999999999999,0.999999999999998,0.999999999999999,0.965742227236555,0.917864786009016,0.917694954774076,0.918473707907013,0.917864786009016,0.918473707907014,0.959530375711367,0.999999999999999,1,0.999999999999999
0.999999999999997,0.999999999999999,0.97566952385543,0.953956581560143,0.947117877477906,0.95433064273175,0.956031570415109,0.959112206991669,0.947117877477906,0.950661611889996,0.975669523855429,0.999999999999999,0.999999999999997
1,0.968146614172643,0.999999999999997,0.963946475766374,0.968146614172642,0.957629871354712,0.907254789620076,0.891741192786603,0.89775426650893,0.887975722920096,0.895449553402995,0.963946475766375,1
1,1,0.904778275445222,0.901665544622457,0.946074794600606,0.93651259947396,0.938489786104893,0.946074794600606,0.916234781472828,0.91592365145529,1,1,1
0.999999999999999,1,0.994721896274176,0.971973907779864,0.971192212665876,0.966767765659301,0.97149716585951,0.971897541695245,0.966369503048756,0.971192212665876,0.972751239631763,0.99472189627417,0.999999999999999
1,0.999999999999998,0.969508860946208,0.966888778923282,0.96769690658942,0.958119633391386,0.966888778923282,0.96769690658942,0.946675383055307,0.97263413179949,0.999999999999998,1,1
1,0.987076053442489,0.956146951585627,0.979543871715293,0.988802852518178,0.969964966390125,0.987966479553417,0.979543871715294,0.958430230461657,0.987076053442489,1,0.9794215537609,1
1,0.930119475338565,0.908599207198926,0.899940491371612,0.913563389119995,0.921225216323971,0.923716194061986,0.913655978867881,0.881628053658102,0.900020153942424,0.9304475896185,1,1
0.999999999999998,0.999999999999999,0.897616899885875,0.901787698484449,0.960609165149245,0.958480360167681,0.958440442821243,0.960609165149243,0.899327452234439,0.899370303387888,1,1,0.999999999999998
1,1,0.936593588215258,0.967856914784298,0.897298047925631,0.854265620814831,0.856887685552425,0.885733572983232,0.87867511596034,1,1,0.882290400701573,1
0.999999999999999,1,0.932429828968309,0.87143916909065,0.910943654311536,0.952781298685195,0.954806355433777,0.95564373033805,0.910943654311536,0.860078918410581,0.932429828968309,1,0.999999999999999
1,0.932622578649899,1,0.933165618193037,0.885539380597744,0.913641760936011,0.918033659708685,0.889953122290811,0.913641760936011,0.89044530379497,0.932622578649898,1,1
1,1,1,0.995596078863945,0.989020962442577,0.986993751469227,0.988355129129269,0.989020962442577,0.987315682833047,0.994350081825327,1,1,1
0.999999999999999,1,0.979025073048335,0.947890176028915,0.950278791780984,0.955648355997407,0.95552140423798,0.95900351471586,0.950278791780984,0.958873414286248,0.979025073048335,1,0.999999999999999
0.989778859102303,0.988170372186971,0.944430779582186,0.934223124091039,0.941936204366231,0.917153395660249,0.934223124091038,0.931551237780491,0.914396021467765,0.918838410510089,0.921248832103598,0.944864116283945,0.989778859102303
0.999999999999999,1,0.999205214868625,0.874388665415831,0.845436101739498,0.828330917414695,0.843004037599213,0.827949523599205,0.852717626836405,0.846208369327023,0.863004643690959,0.873693714305514,0.999999999999999
1,0.975133142410175,0.92638630133485,1,0.915071034722122,0.977129927418663,0.977110191787827,0.951337056932683,0.912181046687956,0.977110191787826,0.915979364152019,0.999999999999999,1
1,0.963304848321684,1,0.961270412484622,0.922291281871548,0.955255203544466,0.982250743721622,0.958128791163877,0.98724953490653,0.955255203544466,0.919743748458544,0.961270412484622,1
1,1,0.916928866473249,0.889526773739805,0.896886678417425,0.965123203692391,0.971705786917843,0.971718883481472,0.904818156624937,0.880405880763558,0.915481506761697,1,1
1,1,1,0.912190297710836,0.88471475869146,0.951629954576901,0.953826823413108,0.960234208445937,0.951629954576901,0.881788457035465,0.913353213062274,1,1
0.989738808423978,0.999999999999999,0.959843669557978,0.970441372564414,0.944317770613736,0.95539662075368,0.975854816746914,0.978700048386926,0.953281063093371,0.975854816746915,0.952733601401469,0.961192378854224,0.989738808423978
1,1,1,0.880747646317749,0.860136483826118,0.963843209939498,0.972243946338143,0.973989642490769,0.963843209939498,0.85814844029862,0.882304254845156,1,1
1,0.999999999999999,1,1,0.956637278998136,0.952020004099285,0.954910204936379,0.956637278998136,0.952020004099285,1,1,1,1
1,1,0.869907046589067,1,0.963268890659628,0.846100299539822,0.954459488203603,0.963268890659627,0.849721820316909,0.954459488203603,1,0.869907046589068,1
1,1,0.999999999999998,0.940466963179158,0.869961888648575,0.897058380906391,0.899208560551802,0.902075212802877,0.940466963179159,0.999999999999999,0.941474677030092,0.999999999999999,1
0.999999999999999,1,0.90468056826936,0.877242985451704,0.902735236915481,0.919798767735539,0.921168037463707,0.918538831417355,0.901968355471622,0.883851682920021,0.911836665435696,1,0.999999999999999
1,1,0.999999999999999,0.923285259288987,0.925943582434724,0.943957108817711,0.928768234213498,0.921078706007538,0.91810033677662,0.925943582434724,0.999999999999999,0.999999999999999,1
1,1,0.999999999999999,1,0.880849417189108,0.91247175336824,0.905769539919803,0.901501751781895,0.91247175336824,0.905769539919803,0.877728631578544,0.999999999999999,1
1,0.922152922769067,0.999999999999998,0.91401377186742,0.90830343201422,0.903147866309903,0.913868096612876,0.911620961722348,0.914013771867421,1,1,0.999999999999999,1
0.999999999999999,1,1,0.916399320729464,0.971175017398194,0.972970103681858,0.971647104254848,0.971175017398194,1,0.916399320729463,0.999999999999999,1,0.999999999999999
1,1,0.768699451514379,0.704380023031821,0.71221009516374,0.71681833682128,0.694697603786063,0.689377223268198,0.772845380260048,1,0.771825074175215,1,1
1,1,0.999999999999999,0.97386716683366,0.960889344261255,0.974518355810351,0.984956372773179,0.98450420933983,0.97451835581035,0.961602708614913,0.973648828707765,0.999999999999999,1
1,1,0.999999999999997,1,0.855689562086162,0.833036519817241,0.846947984037003,0.838005712368002,0.82809727552601,0.846947984037003,0.857367371080275,0.999999999999996,1
1,0.999999999999998,1,0.958140589468366,0.955582455963746,0.942107176483398,0.947906558207424,0.955582455963746,0.942107176483399,0.960871894818605,0.999999999999999,1,1
0.999999999999998,0.968301208279467,0.924401173713335,0.90662291490533,0.906253588168359,0.899639108535385,0.902229427213424,0.90475241096529,0.896607786699462,0.924401173713336,0.968895530411578,1,0.999999999999998
1,0.969247769983637,0.945370283101548,0.971950460992472,0.997219311973905,0.970804596442511,0.961288514822673,0.94144870463405,0.971955907075017,1,0.997219311973908,1,1
0.999999999999999,0.9412754704046,0.857159650711405,0.83954798421633,0.887872955211812,0.918768863954047,0.921709240313371,0.886781377404604,0.842177675949921,0.852416984473002,0.941454306219221,0.999999999999999,0.999999999999999
1,0.921089594262922,1,0.909298151063346,0.95483763671964,0.895044871440999,0.960424408623063,0.895637204025151,0.958376481191203,0.890773097060358,1,0.918967908577927,1
1,0.955993188538411,0.949503023118281,0.922320088143317,0.948290595401338,0.925130184681532,0.949448506705445,0.923081690700129,0.925637421329252,0.920523686893469,0.944469687543654,0.943527514096177,1
0.995659629187029,1,0.950382965092187,0.8891458007355,0.869080527602627,0.896759778168456,0.912799272124557,0.892874141014883,0.94622889303601,0.99565962918703,0.954897521243662,0.995272208743828,0.995659629187029
1,1,0.970079781923441,0.945359485777632,0.93457936545124,0.909528436493169,0.89234729809375,0.909528436493168,0.937315730760644,0.943772854425691,0.970079781923441,0.999999999999998,1
0.999999999999998,0.999999999999999,0.973991320042899,0.956785094265829,0.959094336366178,0.956441333109625,0.959094336366178,0.956441333109625,0.956785094265829,0.977014767329442,0.999999999999999,0.999999999999999,0.999999999999998
0.985350807949495,0.938401522106571,0.925083367833544,0.934956575845035,0.938401522106572,0.961691005739687,0.947408009845726,0.930044264882985,0.919348050165109,0.924064256234052,0.930044264882985,0.995659233899758,0.985350807949495
0.999999999999999,0.950485006022903,0.999999999999998,0.999999999999999,0.95006876218644,0.941372434867134,0.948594845548792,0.924632719051705,0.941372434867134,0.95006876218644,0.999999999999999,0.999999999999997,0.999999999999999
0.999999999999999,1,0.938333251577921,0.876501079486238,0.853701232140155,0.8751364056163,0.859652557324486,0.84899503158534,0.855974342994037,0.888034656560294,0.938333251577921,1,0.999999999999999
0.999999999999999,1,0.873546469576727,0.85201731436407,0.848074565955679,0.932677790240573,0.926253067437513,0.936608864913071,0.84807456595568,0.841196954703706,0.873546469576726,1,0.999999999999999
1,0.936278170112106,0.874703315414765,0.885189585774569,0.91522265516714,0.88337051710914,0.920308576512389,0.88518958577457,0.868668397036371,0.936278170112106,1,0.93725620755236,1
0.999999999999998,1,0.964283552982246,0.912559413088252,0.954804972303288,0.984474478482309,0.987025447219994,0.985419076299677,0.954804972303289,0.913396663429761,0.964283552982246,1,0.999999999999998
1,0.999999999999999,1,0.968088065142849,0.976504047659225,0.97600149432861,0.978974157870723,0.976504047659225,0.97600149432861,0.966830351267442,0.999999999999999,1,1
0.999999999999999,1,0.93391712017288,0.855467835883273,0.912397634108253,0.972882014895357,0.960577037286339,0.953139692494947,0.912397634108253,0.862451568944316,0.933917120172881,0.999999999999999,0.999999999999999
1,0.999999999999999,0.959632629709661,0.891446085724066,0.945687557745244,0.9799310699914,0.976398437465499,0.976523756783217,0.945687557745244,0.893675302965939,0.959632629709662,1,1
1,1,0.985145258629997,0.970677853061323,0.955146892042724,0.935903513385051,0.938031954156755,0.955146892042723,0.967888649722617,0.985642317319522,1,1,1
0.999999999999998,0.943334818186344,0.985414978045812,0.999999999999999,0.943334818186344,0.926378280940737,0.92904588505744,0.932466292975875,0.918978286530232,0.929045885057441,0.938965242215952,0.985414978045809,0.999999999999998
0.971814817335109,0.948764031504966,0.959223632811819,0.956361034711299,0.964527851600976,0.956557451300925,0.956361034711299,0.955441547270623,0.97395888362218,0.971814817335109,0.975355175388563,0.953861345436128,0.971814817335109
1,0.947841251158686,0.874674996033016,0.868754175655816,0.929410465259367,0.957772769458885,0.957082925424532,0.923914493916303,0.868754175655815,0.874674996033016,0.954664841605763,1,1
0.981122585660422,1,1,0.954222618494436,0.93593643468467,0.954121587240982,0.891981486701061,0.915557623683889,0.954444594108137,0.906398182787076,0.942936693944315,0.972582460582256,0.981122585660422
0.944507014604416,0.943932431875233,0.946991864780231,0.943305938208793,0.94321347723642,0.942206837272192,0.929330863708988,0.936664819653364,0.942898427115148,0.944507014604415,0.936126442656813,0.955424994585556,0.944507014604416
0.999999999999998,0.999999999999998,0.934781930203852,0.878041301643379,0.909815696991245,0.944937164788671,0.946790955953499,0.943694657222498,0.909815696991244,0.855751419362422,0.934781930203853,1,0.999999999999998
1,1,1,0.926525637107106,0.981296544121866,0.980155958590369,0.980664117358491,0.981296544121865,0.980155958590369,0.927697274896217,1,1,1
1,1,0.999999999999999,0.958960786489929,0.9081634984711,0.890481436000878,0.893214294258388,0.893214294258389,0.883270125813272,0.896901026801024,0.958307097867476,0.999999999999999,1
0.958875489996084,0.93405037491235,0.857234871426848,0.928006554459467,0.847395371515353,0.834372338181853,0.89484595721159,0.873061813384135,0.830491994139559,0.888810187220519,0.83400748416757,0.854916682148826,0.958875489996084
1,1,0.953538754895437,0.882138055875681,0.880633779567159,0.874799632892393,0.890196127432241,0.953538754895437,1,0.948806360137254,0.953538754895437,1,1
1,0.962930825725297,1,0.96294106140329,0.959907414442448,0.959008152843419,0.96345093714694,0.953893491849931,0.959008152843418,0.962930825725297,0.999999999999997,0.999999999999999,1
0.999999999999998,1,0.907864175570735,0.91733931811911,0.898188238219713,0.980848626909196,0.979151287406107,0.980270625985357,0.903967149778417,0.919805011683986,0.907864175570734,1,0.999999999999998
1,0.984566955008314,1,0.982216589581588,0.960449982509509,0.956981693555447,0.957518172224352,0.955436258681631,0.956981693555447,0.959743411377866,0.983284971112055,1,1
0.999999999999998,1,1,0.914446192991571,0.876125151655482,0.904844387143666,0.869438761102257,0.870152483166738,0.854181410807387,0.886495886802844,0.898122435870988,0.914446192991571,0.999999999999998
1,0.999999999999998,1,0.992599566608999,0.993468053068631,0.993115107121408,0.992599566608998,0.993468053068631,0.993115107121407,1,0.999999999999998,1,1
1,0.930663125786077,0.90598219784394,0.872622285036237,0.893066782874097,0.893121311996521,0.866930479077016,0.893066782874099,0.903138133804228,0.930663125786077,1,0.934360827419527,1
1,0.999999999999999,0.999999999999998,0.861749858766658,0.893210945716763,0.989027048858085,0.98988587659211,0.990907068216886,0.989027048858085,0.86536019691207,0.902165818454955,0.999999999999999,1
1,0.954926611873704,1,0.95300641232832,0.901820724469316,0.926492690739596,0.939484371023976,0.927295055556513,0.943630270388694,0.926492690739596,0.905418549356323,0.953006412328319,1
1,1,0.96808312110529,0.917274173413639,0.919833310354665,0.913060946674993,0.912414458288346,0.919833310354665,0.917081515322658,0.962557160675625,1,0.968083121105288,1
0.940253454196033,0.979357450498159,0.959595520296677,0.935836903652782,0.949740297492836,0.943999577863299,0.939960651217552,0.963089287070117,0.9439995778633,0.934586911953915,0.961501570561053,0.959595520296676,0.940253454196033
0.955306713505096,0.953993077859336,0.997653467857027,0.922722778759836,0.921728564739929,0.960243672157948,0.959939259869963,0.960962844232394,0.96024367215795,0.955306713505097,0.919393072352243,0.997653467857031,0.955306713505096
1,0.984393290154231,0.98088010330794,0.970169127045551,0.953208488266214,0.973793917177795,0.969518678571761,0.960481839297259,0.96777472216781,0.969316138378847,0.965571792142126,1,1
0.969883872362385,0.999999999999999,0.982474525917372,0.920559768716418,0.945381474923307,0.916467988872506,0.916879950224628,0.937615850470445,0.911033582642264,0.910637067272607,0.934827134250038,0.903530876323432,0.969883872362385
0.999999999999998,0.999999999999999,0.95477543898202,0.999999999999998,0.940054110695351,0.956789153700441,0.92786586303048,0.926643545407334,0.914829763571228,0.940054110695352,1,0.967431927152975,0.999999999999998
0.999535958550441,0.994235099795386,0.972780352558794,0.927617182477569,0.950425239663858,0.942877901143841,0.956203166456236,0.953435239362153,0.937759157512964,0.926502841283781,0.967172370905283,0.999999999999999,0.999535958550441
1,0.961669573513397,1,0.959811338292482,0.951807861226485,0.944830291669626,0.960344160493069,0.942955324890117,0.944830291669626,0.961669573513397,1,1,1
0.999999999999999,0.913945628154999,0.91377843181584,1,0.931132424855523,0.933916371714713,0.928613756975642,0.893167863417416,0.913483578848205,0.928613756975643,1,0.999999999999999,0.999999999999999
0.990977444552213,0.957380642232546,0.932871462949563,0.921673084859862,0.906321356051819,0.919483399849251,0.917112615853014,0.898672180634864,0.936265609171513,0.93511522830338,0.9134981238333,0.965402201528168,0.990977444552213
0.999999999999999,0.970051710397872,0.970468487073019,0.969883124797391,0.963157079662202,0.960047824900721,0.955544959081895,0.963082249727124,0.970468487073019,0.969883124797391,0.971532691954977,0.999999999999999,0.999999999999999
1,1,1,0.913520246420567,0.922519861443957,0.95926477295619,0.965479505018119,0.956993523184206,0.95926477295619,0.911877777420107,0.921573310592259,1,1
1,0.999999999999998,1,0.888427558070571,0.999999999999999,0.903275617297325,0.906733539555367,0.902834660278534,0.903275617297325,0.856721984134999,0.902834660278534,1,1
0.999999999999999,0.866724160691821,0.974659137046718,0.915779822120621,0.869757598868238,0.882553014060693,0.893403741845772,0.843021759517575,0.883706560040792,0.921244812977841,0.94081849740919,0.97465913704672,0.999999999999999
1,1,0.956596031228433,0.895833603964681,0.862834188167485,0.87435151529487,0.865285515169955,0.878610447113223,0.888639402171796,0.878979619566152,0.956596031228433,0.999999999999998,1
0.999999999999999,0.999999999999998,1,0.894702637022534,0.867205821914627,0.928199901437047,0.936565188249388,0.945454509886333,0.928199901437046,0.883313353899401,0.866932160323854,1,0.999999999999999
0.952522500728287,0.934079706240008,0.944785977118316,0.952522500728283,0.93204517631609,0.944785977118317,0.922835990798263,0.936193089910737,0.915034260430171,0.933197804303627,0.920463634563508,0.927920413782546,0.952522500728287
1,0.937731545008631,1,0.939244238858976,0.929973377343628,0.936715175555915,0.931743433229206,0.936713669142232,0.931743433229207,0.936715175555915,0.929060688000167,0.939244238858976,1
0.999999999999999,0.938285489485217,0.999999999999998,0.947032877318205,0.890770122225023,0.920787081352411,0.934513107680519,0.920643234849175,0.923686554062069,0.920787081352411,0.876358713883533,0.947032877318205,0.999999999999999
1,0.999999999999999,0.999685116843011,1,0.947788813996512,0.920996921504093,0.923636824352743,0.923636824352743,0.920996921504094,0.921287019269212,0.924822688072123,0.945429053754056,1
1,1,0.999999999999998,0.97613018599133,0.97149917593334,0.966911813971036,0.97149917593334,0.97149917593334,0.976130185991331,1,1,0.999999999999999,1
1,1,0.910208066078863,1,0.899601324377457,0.888405539557175,0.876906364328903,0.884463958801037,0.907245857152203,1,0.910208066078864,1,1
0.999999999999999,1,0.91085052702489,0.946259078971703,0.910850037103251,0.892733029778991,0.938303248276576,0.923078569108738,0.940275949803444,0.939491166618253,0.999999999999999,0.90367597670522,0.999999999999999
0.995593073378347,0.971035864768278,0.93318188330376,0.957968294206823,0.981087678809888,0.976633625739809,0.975632810152745,0.962208677242148,0.934333714821497,0.966756580965251,1,1,0.995593073378347
1,1,0.929686678350666,0.852105552245162,0.846537923961078,0.84859793402113,0.840985088307134,0.848597934021129,0.856630761575311,0.925837145089306,1,1,1
1,1,0.968140238744021,0.962358459454138,0.96243116223411,0.926618750116037,0.963122201583443,0.96243116223411,0.926618750116037,0.962358459454138,1,0.96814023874402,1
1,0.988418213844893,0.999999999999999,1,0.93831725324323,0.911790773907073,0.865336974680853,0.898579869524226,0.911531967424869,0.884256751160729,0.941947974738608,1,1
0.999999999999999,0.999999999999998,0.911184232052127,0.919715762398382,0.922851334473569,0.911348677449439,0.902665443152489,0.896586073396877,0.913130429174027,0.902665443152488,0.911184232052127,1,0.999999999999999
0.999999999999999,0.969077529768444,1,0.970045552534987,0.951121648796452,0.940415343080669,0.949088313424189,0.951481602594602,0.949088313424189,0.947152215291267,0.969077529768443,1,0.999999999999999
1,0.99724914400216,0.909028751176438,0.856876049498574,0.878517978612242,0.932440825976016,0.937225525105574,0.932666485218761,0.895844056365701,0.879645063353707,0.906528143984055,0.999999999999998,1
0.985548774212305,0.999999999999999,0.921193491154322,0.91004371252066,0.895025556505233,0.92147800008277,0.925241758400034,0.92226799438849,0.889307969216911,0.912093878389964,0.921193491154322,1,0.985548774212305
0.990671471289644,0.979830928877476,0.863626626742688,0.832880155469604,0.845895526043793,0.862559277193391,0.941156311224512,0.918418329095076,0.915028548932256,0.941156311224513,0.920793503562744,0.915028548932257,0.990671471289644
