r0,r30,r60,r90,r120,r150,r180,r210,r240,r270,r300,r330,r360
1,0,1,1,0,1,1,0,1,1,0,1,1
1,1,1,0,1,1,1,1,1,0,1,1,1
1,1,1,1,1,1,1,1,1,1,1,1,1
1,1,1,1,1,1,1,1,1,1,1,1,1
1,1,1,1,1,1,1,1,1,1,1,1,1
1,1,1,1,1,1,1,1,1,1,1,1,1
1,1,1,0,0,0,0,1,1,1,1,1,1
1,1,1,1,1,1,1,1,1,1,1,1,1
1,1,1,1,1,1,1,1,1,1,1,1,1
1,1,1,1,1,1,1,1,1,1,1,1,1
1,1,1,1,1,1,1,1,1,1,1,1,1
1,1,1,1,1,1,1,1,1,1,1,1,1
1,1,1,0,1,1,0,1,1,0,1,1,1
1,1,1,1,1,1,1,1,1,1,1,1,1
1,1,1,0,0,0,1,1,0,1,1,1,1
1,1,1,0,0,1,1,0,1,1,1,1,1
1,1,1,1,1,1,1,1,1,1,1,1,1
1,1,0,1,1,0,1,1,0,1,1,0,1
1,1,1,0,0,0,0,0,0,0,0,0,1
1,1,1,1,1,1,1,1,1,1,1,1,1
1,1,1,0,0,1,1,1,1,0,0,1,1
1,1,1,1,1,1,1,1,1,1,1,1,1
1,1,1,1,1,0,0,1,0,1,1,1,1
1,1,1,0,1,0,0,1,1,0,1,1,1
1,1,0,1,1,0,1,1,0,1,1,1,1
1,1,1,1,1,1,1,1,1,1,1,1,1
1,1,1,1,1,1,1,1,1,1,1,1,1
1,1,1,1,0,0,0,0,0,1,1,1,1
1,1,1,1,1,1,1,1,1,1,1,1,1
1,1,1,1,1,1,1,1,1,1,1,1,1
1,1,1,0,0,0,0,0,0,1,1,1,1
1,1,0,0,0,1,0,0,0,0,0,1,1
1,1,1,1,1,1,1,1,1,1,1,1,1
1,0,1,1,1,1,1,0,1,0,1,1,1
1,1,1,1,1,1,1,1,1,1,1,1,1
1,1,1,0,1,0,1,1,0,0,1,1,1
1,1,1,1,1,1,1,1,1,1,1,1,1
1,0,0,0,0,0,0,0,0,0,0,1,1
1,1,1,1,1,1,1,1,1,1,1,1,1
1,1,1,1,1,1,1,1,1,1,1,1,1
1,1,1,1,1,1,1,1,1,1,1,1,1
1,1,1,1,1,1,1,1,1,1,1,1,1
1,1,1,1,1,1,1,1,1,1,1,1,1
1,1,0,0,0,0,0,0,0,0,0,0,1
1,1,1,1,1,1,1,1,1,1,1,1,1
1,0,0,0,0,1,1,0,0,0,0,1,1
1,1,1,1,1,1,1,1,1,1,1,1,1
1,1,1,1,1,1,1,1,1,1,1,1,1
1,1,0,0,0,1,1,1,0,0,0,1,1
1,1,1,1,1,1,1,1,1,1,1,1,1
1,1,1,0,0,0,1,1,1,1,1,1,1
1,1,1,0,1,1,1,0,1,0,1,1,1
1,1,0,0,0,0,1,0,0,0,1,1,1
1,1,0,0,0,0,1,1,0,0,0,0,1
1,0,0,0,1,1,0,0,1,0,0,1,1
1,1,1,1,1,1,1,1,0,0,0,1,1
1,1,0,1,1,1,1,0,0,0,0,0,1
1,1,0,0,0,1,1,0,0,0,0,1,1
1,1,0,0,0,0,0,0,0,0,0,0,1
1,1,1,1,1,1,1,1,1,0,1,1,1
1,1,1,1,1,1,1,1,0,1,1,1,1
1,1,1,1,1,1,1,1,1,1,1,1,1
1,1,1,1,1,1,1,1,1,1,1,1,1
1,0,0,0,0,0,1,0,0,0,0,1,1
1,1,1,1,1,1,1,1,1,1,1,1,1
1,1,0,0,0,1,1,1,0,0,0,1,1
1,1,0,0,1,1,1,1,1,0,1,1,1
1,1,1,1,0,1,1,1,1,0,1,1,1
1,1,1,1,1,1,1,1,1,1,1,1,1
1,1,1,1,1,1,1,1,1,1,1,1,1
1,1,1,1,1,1,1,1,1,1,1,1,1
1,1,1,1,1,1,1,1,0,1,1,1,1
1,1,1,0,0,0,0,0,0,0,1,1,1
1,1,0,0,0,0,1,0,0,0,0,1,1
1,1,1,1,0,1,1,1,1,1,1,1,1
1,1,0,0,1,1,1,1,0,0,1,1,1
1,1,1,1,1,1,1,1,1,1,1,1,1
1,1,1,1,1,1,1,1,1,0,1,1,1
1,1,1,1,1,1,1,1,1,1,1,1,1
1,1,1,1,1,1,1,1,1,1,1,1,1
1,1,0,0,1,1,1,1,1,1,0,1,1
1,0,0,0,0,1,1,0,0,0,0,1,1
1,1,1,1,1,1,1,1,1,1,1,1,1
1,1,1,1,1,0,1,1,1,1,1,1,1
1,1,1,1,1,1,1,1,1,1,1,1,1
1,1,1,1,1,1,1,1,1,1,1,1,1
1,1,1,1,1,1,1,1,1,1,1,1,1
1,1,1,1,1,1,1,1,1,0,1,1,1
1,1,1,1,1,1,0,1,0,0,1,1,1
1,1,1,1,1,1,1,1,1,1,1,1,1
1,1,1,1,1,0,1,1,1,1,1,1,1
1,1,1,1,1,1,1,1,1,0,1,1,1
1,1,1,1,1,1,1,1,1,1,1,1,1
1,1,1,0,0,1,0,0,1,1,1,1,1
1,1,1,1,1,1,1,1,1,1,1,1,1
1,1,1,1,1,1,1,1,1,1,1,1,1
1,1,1,1,1,1,1,1,1,1,1,1,1
1,1,1,1,0,1,1,1,1,1,0,1,1
1,1,1,1,1,1,1,1,1,1,1,1,1
1,1,1,1,1,1,1,1,1,1,1,1,1
1,1,1,1,1,1,1,1,1,0,1,1,1
1,1,1,0,1,1,1,1,1,0,1,1,1
1,1,0,0,0,0,1,1,0,0,0,1,1
1,1,0,0,0,0,1,1,0,0,0,0,1
1,1,1,1,1,1,1,1,1,1,1,1,1
1,1,1,1,1,1,1,1,1,1,1,1,1
1,1,0,0,0,0,0,1,0,0,1,1,1
0,1,0,0,0,0,0,0,0,0,0,0,0
1,1,1,1,1,1,1,1,1,1,1,1,1
1,1,1,1,0,0,1,1,1,0,1,1,1
1,1,0,1,1,1,1,1,0,1,1,1,1
1,1,1,1,0,0,1,0,0,1,1,1,1
1,1,0,0,0,0,0,0,0,0,0,0,1
1,1,1,0,1,0,0,1,0,1,1,1,1
1,1,1,1,1,1,1,1,1,1,1,1,1
1,1,1,1,1,1,1,1,1,1,1,1,1
1,1,0,0,0,0,1,1,0,0,0,1,1
1,1,1,1,0,1,0,0,0,0,1,1,1
1,1,1,1,1,1,1,1,1,1,1,1,1
1,0,0,0,0,0,0,0,0,0,1,1,1
1,0,0,0,0,0,0,0,0,0,0,1,1
1,1,1,1,1,1,1,1,1,1,1,1,1
1,1,1,0,0,0,0,0,0,0,1,1,1
1,0,0,0,0,0,0,0,0,0,0,1,1
1,1,0,0,0,0,0,0,0,0,0,1,1
1,0,0,0,0,0,0,0,0,0,0,1,1
1,1,1,1,1,1,1,1,1,1,1,1,1
1,1,0,0,0,0,0,0,0,0,0,1,1
1,1,1,1,1,1,1,1,1,1,1,1,1
1,1,0,0,0,0,0,0,0,0,0,0,1
1,30,30,30,30,30,30,30,30,30,30,5,1
1,5,12,30,30,30,30,30,30,30,11,8,1
1,1,4,30,30,30,30,30,30,30,5,1,1
1,1,30,30,30,30,1,1,30,30,30,30,1
1,3,9,21,12,5,1,30,30,30,9,3,1
1,1,1,30,30,30,30,30,30,30,1,1,1
1,4,30,30,30,30,30,30,30,30,30,30,1
1,1,4,15,18,7,1,1,6,17,14,5,1
1,1,1,30,30,30,30,30,30,30,30,1,1
1,30,19,30,30,30,1,30,30,30,30,3,1
1,4,30,30,30,30,30,30,30,30,4,1,1
1,1,6,30,30,30,30,30,30,30,30,30,1
1,1,30,30,4,30,30,7,30,30,30,30,1
1,1,30,30,30,30,30,30,30,30,30,1,1
1,30,30,30,30,30,30,30,30,30,30,30,1
1,30,30,30,30,30,30,30,30,30,30,30,1
1,3,30,30,30,30,30,30,30,30,18,3,1
1,1,1,1,1,30,1,1,30,1,1,30,1
1,4,30,30,30,1,1,30,30,30,30,30,1
1,30,30,30,30,30,30,30,30,30,30,1,1
1,3,10,1,1,6,1,10,12,30,1,3,1
1,1,4,30,30,30,30,30,30,30,4,1,1
1,1,1,30,30,30,30,30,30,30,15,1,1
1,30,30,30,30,30,30,30,30,30,18,30,1
1,30,30,30,30,30,30,30,30,30,30,1,1
1,1,3,10,6,1,1,1,4,11,4,1,1
1,30,25,30,30,30,30,30,30,30,30,6,1
1,14,30,30,30,30,30,30,30,30,13,8,1
1,30,30,30,30,30,30,30,30,30,30,1,1
1,1,30,30,30,30,4,30,30,30,30,1,1
30,30,30,30,30,30,30,30,30,30,30,30,30
1,1,30,30,30,30,30,30,30,30,30,1,1
1,1,1,1,1,30,30,1,1,1,1,1,1
1,30,17,30,30,3,30,30,30,30,30,1,1
1,1,13,30,30,1,1,1,21,30,30,1,1
1,1,6,30,30,30,30,30,30,30,22,15,1
1,4,30,30,6,30,30,30,30,8,4,1,1
1,30,30,30,30,30,30,30,30,30,30,1,1
1,7,30,19,30,30,30,30,30,30,10,4,1
1,30,17,30,30,30,30,30,30,30,7,1,1
1,1,1,1,1,1,1,1,1,1,1,1,1
1,1,1,21,30,6,3,1,5,30,23,1,1
1,3,30,30,30,30,30,30,30,30,30,30,1
1,1,30,30,30,30,30,30,30,30,30,30,1
1,5,30,30,5,30,30,6,30,30,4,1,1
1,30,30,30,30,30,30,30,30,30,30,1,1
1,1,3,8,5,1,1,1,4,9,4,1,1
1,1,5,30,30,30,30,30,30,30,4,1,1
1,30,30,30,30,30,30,30,30,30,30,30,1
1,1,4,30,30,30,1,1,30,30,30,4,1
1,3,30,30,30,30,30,30,30,30,30,30,1
1,30,30,30,30,30,30,30,30,30,9,4,1
1,30,30,30,30,30,30,30,30,30,30,1,1
1,1,30,30,30,30,30,30,30,30,30,30,1
30,30,30,30,30,30,30,30,30,30,30,30,30
1,1,30,30,30,30,30,30,30,30,30,15,1
1,1,30,30,30,30,30,30,30,30,30,30,1
1,30,30,30,30,6,2,30,30,30,30,6,1
1,30,30,30,30,30,30,30,30,30,30,30,1
1,1,30,30,30,30,1,1,30,30,30,30,1
1,1,7,30,30,30,30,30,30,10,6,1,1
1,1,3,13,30,30,30,4,6,30,12,3,1
1,1,30,30,30,30,30,30,30,30,30,1,1
1,30,30,30,30,30,4,14,30,15,30,30,1
1,3,8,30,30,30,30,30,30,11,4,1,1
1,30,30,30,30,30,30,30,30,30,30,7,1
1,6,30,26,30,30,3,7,30,30,15,7,1
1,5,30,30,30,30,30,30,30,30,4,1,1
1,1,1,1,30,30,30,30,30,30,1,1,1
1,1,1,1,1,1,30,1,1,1,1,1,1
1,1,30,11,25,30,30,30,30,30,30,5,1
1,1,8,30,30,30,30,30,30,30,12,8,1
1,1,26,30,30,30,30,30,30,30,30,30,1
1,30,30,30,30,30,30,30,30,30,30,30,1
1,4,26,30,30,30,30,30,30,30,30,30,1
1,30,30,30,30,30,1,30,30,30,30,30,1
1,1,1,30,30,1,1,1,30,30,1,1,1
1,1,30,30,30,1,1,1,30,30,30,1,1
1,3,10,30,30,30,30,30,30,30,3,1,1
1,1,30,30,30,30,30,30,30,30,1,1,1
1,30,30,30,30,30,30,30,30,30,30,30,1
1,30,30,30,30,30,30,30,30,30,30,1,1
1,1,30,30,30,30,30,30,30,30,30,30,1
1,30,30,30,30,30,30,30,30,30,30,1,1
1,10,30,30,30,10,4,30,30,30,30,6,1
1,1,5,11,30,30,30,30,9,30,17,5,1
1,8,11,21,30,6,1,30,30,30,9,4,1
1,1,30,30,30,30,30,30,30,30,30,30,1
1,30,1,6,30,30,30,30,30,30,7,1,1
1,3,30,30,30,30,30,30,30,30,30,30,1
1,1,30,30,30,30,30,30,30,26,30,1,1
1,1,30,30,30,8,1,1,30,30,30,7,1
1,1,7,30,30,30,1,4,30,30,8,1,1
1,30,30,30,30,30,30,30,30,30,30,30,1
1,1,30,30,1,1,1,1,30,30,1,1,1
1,1,30,30,30,30,30,30,30,30,30,1,1
1,4,7,30,4,1,1,4,30,30,4,1,1
1,30,30,30,30,30,30,30,30,30,30,3,1
1,1,17,30,30,30,30,30,30,30,30,1,1
1,1,1,13,30,30,30,30,30,30,29,1,1
1,1,5,30,7,1,1,1,7,30,6,1,1
1,1,1,1,1,1,1,1,1,1,1,1,1
1,8,30,30,30,30,30,30,30,30,30,30,1
1,1,30,30,30,30,30,30,30,30,30,30,1
1,1,30,30,30,8,30,30,30,30,1,1,1
1,5,30,30,30,30,30,30,30,23,10,1,1
1,1,30,30,30,30,30,30,30,30,1,30,1
30,30,30,30,30,30,30,30,30,30,30,30,30
1,1,30,30,30,30,30,30,30,30,1,1,1
30,1,5,30,30,30,30,30,30,30,30,5,30
1,30,30,30,30,30,30,30,30,30,1,30,1
1,4,30,30,30,30,30,30,30,30,5,1,1
1,30,30,30,30,30,30,30,30,30,30,30,1
1,4,15,30,30,30,30,30,30,11,5,1,1
1,1,30,30,30,30,30,30,30,30,1,1,1
1,30,18,30,30,30,30,30,30,30,12,1,1
1,30,30,30,30,30,30,30,30,30,30,30,1
1,30,30,30,30,30,30,30,30,30,21,6,1
1,1,30,30,1,30,30,1,1,30,30,1,1
1,30,30,30,30,30,30,30,30,30,30,5,1
1,30,30,30,30,30,30,30,30,30,30,30,1
1,3,10,22,30,1,1,30,30,30,1,1,1
1,30,30,30,30,30,30,30,30,30,30,30,1
30,30,30,30,30,30,30,30,30,30,30,30,30
1,30,30,30,30,30,30,30,30,30,30,30,1
1,30,30,30,30,30,30,30,30,30,30,1,1
1,1,30,30,3,30,30,30,30,30,30,1,1
30,30,30,30,30,30,30,30,30,30,30,30,30
1,1,5,30,30,30,30,30,30,21,9,6,1
1,1,30,30,30,30,30,30,30,30,30,30,1
1,3,10,19,19,3,1,8,12,30,16,1,1
1,1,1,1,1,3,1,1,1,1,8,1,1
1,1,3,1,3,1,1,1,3,3,3,1,1
1,1,1,30,30,1,1,1,1,30,30,1,1
1,1,4,13,6,1,1,1,4,14,4,1,1
1,1,1,1,1,1,1,1,1,1,1,1,1
1,1,11,30,30,30,30,30,30,30,30,1,1
1,1,1,12,13,1,1,1,1,12,12,1,1
1,1,1,1,1,1,1,1,1,1,1,1,1
1,1,1,30,30,1,1,1,1,30,1,1,1
1,3,30,7,4,1,1,4,30,6,3,1,1
1,1,5,30,30,30,1,1,6,30,10,30,1
1,1,1,1,1,1,1,1,1,1,1,1,1
1,1,1,1,1,1,1,1,1,1,1,1,1
1,1,30,30,30,30,30,30,30,30,30,1,1
1,3,30,30,30,30,30,30,30,30,30,3,1
1,1,3,1,1,1,1,1,1,1,1,1,1
1,1,1,1,1,1,1,1,1,1,1,1,1
1,3,30,30,30,1,1,30,30,30,30,30,1
1,1,1,1,1,1,1,30,1,1,1,1,1
1,1,1,1,1,1,1,1,1,1,1,1,1
1,1,1,13,5,3,3,3,5,10,1,1,1
1,1,1,1,14,1,1,1,1,4,1,1,1
1,1,11,1,12,30,1,1,30,30,12,1,1
1,1,1,1,1,1,3,1,1,1,1,1,1
1,1,1,7,1,1,1,1,1,8,1,1,1
1,1,12,23,30,1,1,1,14,27,30,1,1
1,5,9,24,30,30,30,30,3,1,10,4,1
1,1,1,1,1,3,4,1,1,1,1,1,1
1,1,1,1,1,1,1,1,1,1,1,1,1
1,3,23,30,30,30,30,30,30,30,30,1,1
1,1,30,3,30,1,1,1,30,4,30,1,1
1,1,1,1,1,1,1,1,1,1,1,1,1
1,1,1,1,1,1,1,1,1,30,1,1,1
1,1,1,1,1,1,1,1,1,1,1,1,1
1,1,1,16,30,3,1,1,3,28,14,1,1
1,3,13,7,1,1,1,3,10,6,1,1,1
1,1,30,1,5,30,30,1,3,30,1,1,1
1,1,6,11,11,3,1,7,30,30,8,1,1
1,1,10,19,8,1,1,7,10,30,3,1,1
1,1,1,1,1,1,1,1,1,1,1,1,1
1,1,1,1,1,1,1,1,1,1,1,1,1
1,1,25,28,30,30,1,3,22,15,5,1,1
1,1,30,30,30,30,30,30,30,30,30,30,1
1,1,3,1,3,1,1,1,1,1,3,1,1
1,1,3,1,1,1,1,1,3,1,1,1,1
1,1,1,7,3,1,1,1,3,7,1,1,1
1,1,3,9,4,1,1,1,5,7,3,1,1
1,1,1,30,1,1,1,1,1,30,3,1,1
1,1,3,8,7,3,1,1,3,9,7,3,1
1,3,30,30,4,30,1,3,30,13,4,30,1
1,30,30,30,8,3,1,30,30,30,8,3,1
1,1,30,30,30,30,30,30,3,30,1,1,1
1,1,3,30,30,30,30,3,30,30,30,30,1
1,28,30,30,1,30,30,30,1,30,30,30,1
1,1,30,30,30,14,30,30,30,30,30,12,1
1,1,30,30,4,5,15,7,11,3,7,30,1
1,30,30,30,30,4,1,30,30,30,30,4,1
1,30,30,30,30,30,30,30,30,30,30,30,1
1,1,1,1,1,1,1,1,1,1,1,1,1
1,1,5,30,30,30,30,30,30,9,4,1,1
1,1,1,9,7,1,1,1,1,8,7,1,1
1,1,1,1,1,1,1,1,1,1,1,1,1
1,1,1,1,1,1,1,1,1,1,1,1,1
1,1,6,10,4,3,3,4,8,9,1,1,1
1,30,30,30,30,8,1,30,30,30,30,4,1
1,1,6,1,1,3,1,1,6,1,1,1,1
1,1,5,27,30,30,30,30,30,30,1,1,1
1,1,1,1,1,1,1,1,1,1,1,1,1
1,1,1,1,1,1,1,1,1,1,1,1,1
1,1,1,5,18,1,1,1,1,8,30,1,1
1,1,1,13,8,4,1,1,1,15,7,1,1
1,1,1,30,30,30,30,30,30,30,30,1,1
1,30,30,30,30,30,1,30,30,30,30,30,1
1,1,22,30,30,30,30,30,30,18,11,1,1
1,1,7,30,30,1,1,1,7,30,30,1,1
1,1,1,1,1,1,1,1,1,1,1,1,1
1,1,1,30,1,1,1,1,1,30,1,1,1
1,1,6,23,1,1,1,1,8,29,1,1,1
1,1,1,1,1,1,1,1,1,1,1,1,1
1,1,30,30,1,30,30,1,30,30,30,1,1
1,4,4,1,3,1,1,4,3,30,1,1,1
1,1,1,30,30,30,1,1,30,30,30,1,1
1,1,1,1,30,30,30,30,30,1,1,1,1
1,1,8,19,12,3,1,3,10,24,12,1,1
1,1,1,9,12,1,1,1,1,8,13,1,1
1,1,6,14,7,3,1,3,7,14,7,1,1
1,1,1,30,30,6,30,30,30,30,30,1,1
1,3,1,1,1,5,3,14,30,6,3,1,1
1,1,8,17,13,4,3,4,10,15,6,1,1
1,1,1,28,18,1,4,4,30,15,1,1,1
1,1,30,30,30,5,1,1,30,30,30,4,1
1,1,1,1,1,1,1,1,1,1,1,1,1
1,3,8,6,30,30,4,30,30,4,10,4,1
1,1,1,1,1,1,1,1,1,1,1,1,1
1,1,1,30,30,30,30,30,30,30,1,1,1
1,3,7,7,3,1,1,3,7,7,3,1,1
1,1,14,12,30,1,1,30,18,30,30,1,1
1,1,1,26,11,8,5,4,6,10,1,1,1
1,1,1,7,29,1,1,1,1,13,22,1,1
1,1,1,28,3,1,1,1,3,30,1,1,1
1,1,1,1,1,1,1,1,1,1,1,1,1
1,3,30,30,30,30,1,8,30,30,30,30,1
1,1,1,30,30,1,1,1,1,30,30,1,1
1,1,1,1,1,1,1,1,1,1,1,1,1
1,1,30,17,3,1,1,1,30,10,1,1,1
1,1,30,6,1,1,1,30,1,5,1,1,1
1,3,16,1,4,1,1,1,1,1,30,1,1
1,1,1,1,1,1,1,1,1,1,1,1,1
1,1,3,1,10,1,1,1,4,3,4,1,1
1,30,30,30,1,11,1,30,30,30,1,7,1
1,1,8,30,30,5,30,30,30,8,3,1,1
1,1,10,1,1,28,1,30,4,30,5,1,1
1,3,13,30,30,30,30,30,30,9,3,1,1
1,1,1,1,1,1,1,3,3,1,1,1,1
1,1,10,1,1,1,1,1,1,30,1,1,1
1,1,30,30,1,30,1,30,22,30,4,1,1
1,1,9,1,1,1,3,1,1,1,1,1,1
1,1,1,1,1,1,1,1,1,1,1,1,1
1,5,3,7,1,1,1,3,1,7,3,3,1
1,1,1,1,30,30,30,1,1,1,1,1,1
1,1,3,15,1,1,1,1,5,26,1,1,1
1,1,22,30,30,30,30,30,30,30,19,1,1
1,1,30,30,1,30,1,1,30,1,1,1,1
1,1,30,30,30,30,30,30,30,30,30,1,1
1,30,5,30,30,30,30,30,30,30,30,1,1
1,1,1,1,1,1,1,1,1,1,1,1,1
1,1,1,1,30,1,1,1,1,1,30,1,1
1,1,1,30,30,30,30,30,30,14,6,1,1
1,1,30,30,3,30,30,30,30,30,3,30,1
0.999999999999999,0.946012602004113,0.930932887939374,0.925945413404476,0.927208636767085,0.949704221311028,0.953446075729048,0.920971622032401,0.912690398836822,0.899375179956024,0.948057613462736,0.969225453015229,0.999999999999999
0.991499227485257,0.96087366833686,0.964494004021803,0.932821241510628,0.950983489430413,0.946744626677402,0.948165526811419,0.958750928750783,0.946023635079753,0.921185957995426,0.966626846258854,0.963124652992602,0.991499227485257
0.989386766240506,0.977217145314654,0.980031199095527,0.957844234883063,0.939960173318227,0.957591740430987,0.9506600211228,0.938536142739067,0.955204487087081,0.940546451775498,0.96165829662279,0.996743535785178,0.989386766240506
0.999999999999998,0.999999999999999,0.953991636228314,0.881529494703815,0.871705134685496,0.933111442979565,0.969985434128426,0.962485262983937,0.927732193269774,0.867299941427719,0.882684861291576,0.955336153635483,0.999999999999998
0.999999999999999,0.965496989246091,0.963330899649054,0.96156998288685,0.960067331226842,0.961746682022117,0.970204294032392,0.948571216240401,0.951123438162605,0.949802483577488,0.964201067248361,0.971299215967784,0.999999999999999
1,1,0.970600330921061,0.947817645655921,0.944863393999569,0.950556566759824,0.947436151163065,0.950556566759824,0.947817645655921,0.948759197473632,0.970600330921062,1,1
1,0.963555383025152,0.930947877202115,0.847785436117512,0.851483727513001,0.847894486938011,0.854097275881591,0.852350662089667,0.863694010402582,0.900593300293318,0.900465214010728,0.922331704205536,1
0.999999999999998,1,0.963206427550064,0.963844640702963,0.961320645447842,0.963507638522964,0.968982539989174,0.970750115915098,0.961334495671572,0.960783060599569,0.960676016618331,0.965875561335544,0.999999999999998
0.999999999999999,1,0.980444570248247,0.951823675204609,0.946962743597047,0.953509423180648,0.955848519786535,0.956752097222349,0.954009436998053,0.947356774845559,0.95182367520461,0.977240415600724,0.999999999999999
1,0.956422662017136,0.96055946577,0.900733122635347,0.909772458177775,0.956888805683302,0.973279193592936,0.950617678653675,0.952122432249077,0.899641821854165,0.914055577781546,0.965056520063474,1
1,0.966679743062943,0.900708427261012,0.921769539080808,0.931112858311322,0.933723851725302,0.915683924507842,0.917114356903802,0.899264851759209,0.931742414042472,0.965361505318244,0.999999999999999,1
0.999999999999999,1,0.968672837965838,0.896101140472983,0.901756501139475,0.888982770426174,0.927484209495061,0.937090974715584,0.944906632277225,0.903378998656862,0.916993252721495,0.90223264672811,0.999999999999999
0.968507349571746,0.969710485267534,0.950657841602562,0.950845800868411,0.960644531088932,0.949951534441758,0.938955503594575,0.960344428096611,0.951835935031644,0.946969155153761,0.957702931063691,0.95822270997073,0.968507349571746
1,0.979009503459869,0.947855729699232,0.927177397521318,0.927088835255132,0.933751917106793,0.941104305089816,0.932901143923841,0.92207756644658,0.927177397521317,0.945584905267522,0.975765009827866,1
0.964305075288811,0.950911321178259,0.837910452709457,0.821625253877378,0.855197262911454,0.843205311678918,0.833549174773161,0.873613326990368,0.846678429110855,0.842605795687328,0.876186501937178,0.921229308445792,0.964305075288811
0.999999999999999,0.951412705386685,0.908299781115874,0.874487920641867,0.877251616222881,0.861972066473054,0.86627874038365,0.864027061362471,0.858671474096704,0.880768877580448,0.890275628955507,0.918004027010783,0.999999999999999
0.999999999999997,0.963631945036159,0.934581380876633,0.914535682813148,0.937163079942826,0.941366904821312,0.952017775731243,0.948743832921846,0.931388936875667,0.915556050870189,0.962619334532079,0.960008149709908,0.999999999999997
1,0.981621417249324,0.961590053639588,0.96054995083489,0.967079332066454,0.947700923035147,0.986799781830066,0.97170194820053,0.957007208776752,0.964661168696711,0.977510484190049,0.947411121156064,1
0.986677739735907,0.967991664758422,0.889402101349505,0.890504943730828,0.904526154143758,0.973755271075686,0.972735353515315,0.901722938368657,0.86709345465847,0.872688038771394,0.878896006549293,0.884580273372217,0.986677739735907
0.999999999999998,0.953716368992507,0.943305689329161,0.934199571750675,0.917072389415447,0.922592020076552,0.929738168016001,0.905644825112678,0.926410924633267,0.934041204119596,0.930794224670866,0.97060877107548,0.999999999999998
0.997440128856499,0.960210139381336,0.961669626855165,0.970093685759759,0.967694634284035,0.961313607665202,0.975042721532061,0.960509349994078,0.961605652588893,0.959861073913164,0.960499908249334,0.961230339924159,0.997440128856499
1,0.999999999999998,0.96268404722804,0.930852258832106,0.929500678630291,0.939175210438358,0.940773427822494,0.933200022966026,0.933340795957271,0.949009761138856,0.971637202876348,0.999999999999999,1
0.984296961064618,0.996599502991568,0.962853732650412,0.95282286577732,0.919074406640869,0.955393698506101,0.917386648764734,0.926812871456244,0.95937762252038,0.917660643288742,0.960000174026655,0.961682594574955,0.984296961064618
0.995634414518135,0.951363135189166,0.930640744651999,0.912935451209226,0.920897730407674,0.900179387578654,0.944243241081983,0.91613087527486,0.883894221012269,0.904453239423485,0.963517680887157,0.946110757335982,0.995634414518135
1,0.952124839651972,0.925227446623476,0.932575704052888,0.935893044470685,0.921139235956908,0.933737939516377,0.949946001503231,0.927846732798879,0.9198354891603,0.953145783279702,0.979838143841742,1
1,1,0.96666317084302,0.97316241641604,0.965866886222177,0.983732753997997,0.984026621998714,0.984415045637526,0.964091813567955,0.967789927974522,0.963926602943851,1,1
1,0.949769152674135,0.960317150084229,0.943690720412419,0.879438677162718,0.930406005311083,0.934855689659191,0.926028010306365,0.922919045114555,0.91589299537983,0.852510553607965,0.960546531810751,1
1,0.965553292541983,0.95747997651678,0.938917399662309,0.867351879369053,0.882560426065449,0.853630788525849,0.868315870459118,0.911815463544721,0.939970985405927,0.96269281820239,0.969572421403661,1
0.999999999999999,0.950388680508598,0.934269487869217,0.945679753310722,0.940909787604635,0.928792519487475,0.939803460637158,0.948692494016601,0.94677700007107,0.951410983670209,0.958803382644332,1,0.999999999999999
1,0.964501953434287,0.933279624054016,0.929721538761834,0.934371637583716,0.942608382578119,0.962213043820894,0.954409335119611,0.935304945059776,0.935150623253492,0.939614500014018,0.965470805140166,1
0.952935443540202,0.928196291003402,0.922545285876003,0.883563849986745,0.877095875353525,0.898160286294911,0.876118586580784,0.871435328787567,0.89036558584687,0.871914070901019,0.892687444601398,0.921055766381392,0.952935443540202
0.999999999999999,1,0.892243352645433,0.914692733251431,0.904952379049886,0.932757056076345,0.942319757723705,0.947906418904604,0.895465497974148,0.911595288396654,0.900167338070638,1,0.999999999999999
1,0.966791721595471,0.966017401394775,0.971933393063984,0.967407367102391,0.954052264463564,0.954692244984382,0.969143819977097,0.971789742963098,0.971933393063983,0.96798131899662,1,1
0.973530049892822,0.938513522904634,0.961185676209463,0.926873723786044,0.92991008942826,0.965023383808738,0.948712287862329,0.933889235054762,0.957441897028089,0.907827987157579,0.938867724269763,0.999999999999999,0.973530049892822
1,0.983398446541939,0.960251033338569,0.937721221299884,0.951694891333607,0.964377227684773,0.985896572569203,0.976229503158149,0.960304436190115,0.936380991503866,0.949669455853186,0.974366706889451,1
1,1,0.962303290046309,0.937690784124336,0.908746881631001,0.922916336384629,0.920634694581474,0.924825283960601,0.923326064274523,0.928103835046416,0.960006248614533,0.961250069283607,1
1,0.980365266108755,0.947534080832822,0.952778697059397,0.961440965930895,0.956403297455771,0.959910636566997,0.959934164293245,0.934418930309613,0.960175715303633,0.963224659071145,0.990545453523512,1
0.98154969982451,0.929034811291291,0.902366427198723,0.924398051750501,0.915171375997178,0.899496395249019,0.909113747773455,0.925015001171297,0.917454391810497,0.908343841984636,0.953283310136282,0.994107143260336,0.98154969982451
1,0.962444884062936,0.959345471954578,0.96095329048309,0.913950995187412,0.925478522929152,0.9389859239674,0.914054251031608,0.903843668259815,0.909736944479544,0.961834398133758,0.968358080194124,1
1,0.929595713424246,0.960416865544932,0.945380660558042,0.930596188759837,0.935393722827147,0.937801166452962,0.926218969514205,0.921911962661659,0.909865047635757,0.96158509365601,0.999999999999997,1
0.999999999999999,0.995175608918518,0.990943595856333,0.992385364103609,0.991211209644648,0.989698315924092,0.991129214816443,0.988226749605919,0.987176730947185,0.992385364103609,0.994946215636895,0.996106655196733,0.999999999999999
0.999999999999998,1,0.969924160473759,0.960370269210573,0.959973708380289,0.960697966569352,0.965956920611114,0.961201723565017,0.960391411952916,0.956346924047225,0.96025189171855,0.965736728841875,0.999999999999998
1,0.962030816918251,0.957102443760119,0.910313703159586,0.906465845660328,0.906682702980729,0.938392960564471,0.936800388600152,0.926169754493902,0.945372001587005,0.940980991705426,0.945911814556852,1
1,0.999999999999999,0.883576570469535,0.873798487946878,0.843427855156054,0.906973248111309,0.877052985613059,0.847105968464818,0.873141878429185,0.849078174739519,0.854575018101788,0.879589231664727,1
0.974464974248498,0.972207171942086,0.955983425457589,0.935253481280772,0.96168968053132,0.948444334959284,0.956807315709569,0.963401354257666,0.941422454619179,0.950487280480408,0.961586206346928,0.968216438786952,0.974464974248498
0.964965768986118,0.928102887927253,0.928682520702832,0.946106208816105,0.934529244065547,0.951942578854044,0.944178763140911,0.931645938413609,0.927161808735906,0.953929133007913,0.937978368223455,0.967419823552294,0.964965768986118
0.999999999999997,1,0.968555378266977,0.967332619675708,0.969197652669833,0.973244385881518,0.975686096657076,0.978806915748645,0.970740608774654,0.964734059157064,0.966242728859557,0.999999999999999,0.999999999999997
1,0.999999999999999,0.971062781919673,0.919767207437059,0.93453123020743,0.929377762143183,0.928655532052694,0.935298240232318,0.930309969300547,0.950419511310136,0.972767048684065,1,1
0.986512161925805,0.947860467862781,0.918445601069568,0.90214516981411,0.928908314906467,0.947201907948564,0.956091144705996,0.939920094083541,0.919297099276679,0.904885534045842,0.922401411051215,0.953713323838035,0.986512161925805
1,0.999999999999999,0.972097635003298,0.95853025786627,0.941769671269538,0.958777692532724,0.963786959479813,0.962314038039221,0.955106230679914,0.941507981672562,0.959929632012462,0.966703631472592,1
0.997117342806082,0.963411528475826,0.904578746777038,0.886027903530294,0.910900784491226,0.860172651371784,0.949369622181171,0.94395642408646,0.868293074551749,0.918537284543491,0.940443052215989,0.877471468736147,0.997117342806082
1,0.863896219600599,0.907180927800198,0.89609391492379,0.935354067959804,0.949516915843981,0.950921579123116,0.854341450815882,0.883853238286164,0.898952450650616,0.963956483726933,0.981843803815603,1
1,0.922173925170212,0.90492731969456,0.854980819151409,0.863129795197372,0.889647292632622,0.884543802871017,0.880229994918072,0.93298969746013,0.880285587169762,0.930348788755815,0.999999999999999,1
1,0.999999999999999,0.922633119902883,0.903945146236461,0.903321540277262,0.905118861844274,0.904509405651139,0.915108469348939,0.890074563008281,0.903725244399117,0.883643620893574,0.890334752205179,1
0.952462791849457,0.918036525827775,0.882542988967145,0.870288967921844,0.913521904606209,0.869205075725718,0.83052798499172,0.882252849670166,0.915702745043586,0.876069401881389,0.871364058349602,0.875943256840655,0.952462791849457
1,0.999999999999999,0.864911346070041,0.859306499624981,0.856425447917251,0.911035883878435,0.898773513125042,0.891487713595027,0.884933716404472,0.851216903526512,0.85535542974577,0.964405081047662,1
0.995768999014699,0.992801851354846,0.900383770737518,0.889946951918944,0.929907576153375,0.923425337543916,0.933301079553301,0.91568588756799,0.915603400093177,0.921581402059059,0.914712192395424,0.909989256894547,0.995768999014699
1,0.889861712362026,0.824652607624945,0.884278066976266,0.848613952940089,0.963080454546916,0.960050280694957,0.8775051608818,0.836815580560218,0.890449152822733,0.848791952394412,0.966486797410921,1
0.999999999999999,0.880454000211566,0.761789393449631,0.756809989398425,0.789035880186315,0.813352574989903,0.782170779034431,0.768388978597837,0.756296819615993,0.760178654885063,0.76653079258587,0.805598459628725,0.999999999999999
1,0.999999999999999,0.945476538096003,0.918458258132612,0.911972667764842,0.929187855996929,0.978925251370279,0.977393893986363,0.928626265618037,0.913989268760518,0.918458258132612,0.944372870427172,1
1,0.982540481210718,0.962100259008612,0.880622074489839,0.860383367580416,0.884035922874362,0.886079008350179,0.862556682071234,0.900870403345835,0.960216094938102,0.966506120302708,1,1
1,0.999999999999999,0.966850097744633,0.962977607002908,0.949945741299457,0.958919532949118,0.952605366144714,0.960085848883587,0.961182727345021,0.945594472174976,0.961437986911379,0.963718291906357,1
0.996866121635769,0.969662792199533,0.92725676385613,0.917347541179296,0.927670261758623,0.929653325813082,0.924352180768721,0.926521063042057,0.920996735911281,0.920660106231265,0.930272614111866,0.969178013156805,0.996866121635769
0.983499297457176,0.957534708684018,0.925992215565866,0.953519803393578,0.951211834181973,0.918619420782243,0.962468608654223,0.960735889969176,0.922071777210314,0.960074692701997,0.95988117947958,0.932823712610202,0.983499297457176
1,0.963975468443012,0.961399726103683,0.937938229876698,0.935879940204386,0.936730177965977,0.940464173381965,0.939240635198355,0.931017241008009,0.966294546470907,0.97316485043933,1,1
1,0.884253623778001,0.863066626609786,0.879369818972572,0.861099849122263,0.949698230132936,0.94683627961753,0.843542549639082,0.864890427106134,0.881068875378296,0.84217679045528,0.964323635463874,1
0.999999999999998,0.961680549393778,0.95443774738538,0.960031908887521,0.956141813952661,0.951569063095314,0.964333729816092,0.961282561770588,0.943774005371985,0.955821529872212,0.96095945712683,0.960169575522239,0.999999999999998
1,0.96020330469493,0.95450213448804,0.929916711347112,0.89965621817205,0.893077570559891,0.889817539792496,0.891375055158256,0.87991364306111,0.905864649695808,0.961323612543186,1,1
0.999999999999998,1,0.999999999999999,0.973383549346359,0.954475663893454,0.952371257512527,0.928931916864111,0.929420601774549,0.953449756965775,0.954899589921276,0.972195192119916,0.999999999999999,0.999999999999998
1,1,0.969716032357018,0.964125309698814,0.963746297715698,0.961378250966885,0.952647320398829,0.961378250966885,0.964125309698814,0.963746297715698,0.969716032357019,1,1
0.999999999999999,0.999999999999999,0.954221700481775,0.963730775578404,0.961105604487286,0.932684549768978,0.938042292795718,0.939118866455641,0.920192121222284,0.928206596680536,0.881855020820827,0.961692504227855,0.999999999999999
1,1,0.961636994693522,0.959588027495537,0.937897627992296,0.934970931038574,0.954046241560699,0.947429007651859,0.94280098796398,0.935242413636451,0.962223876984806,0.96082225139767,1
1,1,0.960281422781471,0.890596720098622,0.881503063461977,0.892417907026093,0.905480826034685,0.90702586235091,0.899010093591442,0.887966844776066,0.910013490301689,0.924338132703841,1
0.999999999999998,0.850147842044966,0.846413377257193,0.847284775581515,0.823828496750312,0.842264161136951,0.928099605951536,0.863446263033311,0.863509922291637,0.874711328825272,0.863049795099992,0.865078703303625,0.999999999999998
1,0.961620591899537,0.963165650656052,0.881792446566164,0.889413075320931,0.879257816410899,0.909358721373554,0.903422311835314,0.885857180113026,0.9390034005573,0.93737035505573,0.93500131086161,1
0.999999999999999,0.956332839897112,0.927399596667484,0.898710709351614,0.890645682469659,0.933349471141449,0.982967631055301,0.946358656588452,0.923486808240428,0.892378012753807,0.896295635735453,0.945622360477444,0.999999999999999
1,1,0.964662394071592,0.951639507630098,0.948945369127,0.964819134384419,0.971557127321356,0.97209538517559,0.944941962346329,0.951085453735627,0.964662394071592,1,1
0.999999999999999,1,0.930084910906601,0.871560423555726,0.9137505118434,0.978825227529292,0.974386328388847,0.962495859648928,0.913750511843399,0.85480142256292,0.930084910906601,1,0.999999999999999
1,0.965112262688627,0.961765591058917,0.948510642269962,0.949798396550728,0.957605313102283,0.954036191157149,0.943149155281588,0.930258906490998,0.910687369353518,0.964482566897745,0.999999999999999,1
1,0.973507064645932,0.941203470717606,0.923834341801774,0.944361815472653,0.952786549601843,0.958269066800697,0.948593065207453,0.925864400603069,0.938229614737439,0.97449187308633,0.999999999999999,1
1,0.957481040140844,0.865759411956048,0.884250281079596,0.918772070075256,0.903241380052094,0.896888030710773,0.920218364678429,0.909199108382552,0.878759712103783,0.90782372124536,0.917692232486309,1
0.976557535285723,0.937122182382291,0.921047822474716,0.932145922071702,0.936310374108075,0.941740823985082,0.936715111115766,0.927721519749156,0.932618039927089,0.893980340438037,0.9272208276869,0.985693685064378,0.976557535285723
1,1,0.946428021611511,0.860344637184728,0.842560812930453,0.901024851873888,0.93031649972759,0.927025338362804,0.902286724158916,0.864911056368815,0.863443803390616,0.942616945857672,1
1,0.956630339488556,0.925123637934419,0.91815972556286,0.903082361496996,0.891731638457419,0.876627765780187,0.889810606292495,0.906393105037057,0.915269077435927,0.929864514443906,0.961041006652957,1
0.999999999999999,0.960355431239025,0.950621605496601,0.944413977417943,0.952438334656031,0.960496793119637,0.962673017840579,0.954195256256435,0.94573252314895,0.932980996554046,0.959860415869451,0.961606362402422,0.999999999999999
1,1,0.967834505084116,0.963566432786069,0.951630526039909,0.958645009929058,0.959066219407435,0.958980747779779,0.960717464316453,0.954844733462136,0.964908897585252,0.966530305431545,1
0.999999999999999,0.961865008712331,0.962834573839372,0.960372906693849,0.951319561695279,0.961499716336622,0.970669364951493,0.950922786865559,0.941371758502957,0.938521692966066,0.970129445507984,0.973614687712029,0.999999999999999
1,1,0.950328984475197,0.900063005160588,0.906670665187579,0.911770367525256,0.908526305245981,0.901652040826855,0.899602106111524,0.905508576576564,0.907340253130042,0.951314882297734,1
0.977106985647013,0.927837499564227,0.970401481293767,0.961133293057828,0.926882574214662,0.917864652297596,0.924764261621864,0.910414153675878,0.904101533103977,0.920759380406688,0.961421981752351,0.970401481293767,0.977106985647013
0.992305159952676,0.960847940299171,0.951438781958852,0.915789739242102,0.910146530920536,0.924705031750543,0.926237596189753,0.91643387268263,0.923735662061698,0.921723690061203,0.928935616868603,0.953339115940928,0.992305159952676
1,1,0.951364464006262,0.911804274118543,0.915295616830719,0.917698123044687,0.913943465941727,0.914421818141963,0.894658442145571,0.963076860511054,0.95904435931136,0.999999999999999,1
0.992233997436083,1,0.898169081721024,0.890055933090782,0.887067177736243,0.971262572417959,0.97145372416141,0.977341858176479,0.891711962679176,0.893867304465038,0.889622195328172,0.97691679587726,0.992233997436083
0.999999999999999,0.980100975677011,0.962771818434136,0.936475334103516,0.955783173045744,0.959807549946539,0.960152094069247,0.960866205024372,0.959212900359893,0.938521398204314,0.960923587260865,0.979826686932618,0.999999999999999
1,0.956074224504569,0.935434539470019,0.928543225139148,0.880459628180623,0.883773469329328,0.916437024728391,0.897323282121209,0.884980103042092,0.937375426374355,0.923141423637449,0.938748917057185,1
0.999999999999999,0.983231294290929,0.955462584430576,0.945760424798897,0.960761287818907,0.977989233697238,0.98655486357198,0.972640183670598,0.950045985942565,0.946105418550303,0.964931496704676,0.987173465597348,0.999999999999999
1,1,0.94117590106403,0.894216179147915,0.890244745554245,0.897250111746522,0.86983226619515,0.897250111746522,0.894339574607363,0.890225334913066,0.941175901064029,1,1
1,0.979331860302931,0.960627777402514,0.953297874339842,0.97276597636435,0.988871614895682,0.987281366386997,0.97295227988237,0.957941299425988,0.959985668770697,0.979326828556089,0.999999999999999,1
1,0.929961538660487,0.935409021018174,0.936200616469115,0.896375283369541,0.940948774342291,0.943449941705398,0.905018307321659,0.912079160054769,0.905953049876239,0.881916310526224,0.96398371476901,1
0.999999999999998,0.963082866122026,0.960794060403867,0.912649348838026,0.920163814594435,0.919553282221481,0.921792978543556,0.929618903292607,0.928777653255254,0.957716788764888,0.959841387848767,0.96433724789207,0.999999999999998
0.999999999999999,1,0.961802849989163,0.963683878584576,0.918188428690279,0.939404936321771,0.95117431958145,0.945428363508396,0.937360717528718,0.930561338740739,0.966113947164409,0.960023896490719,0.999999999999999
0.999999999999998,1,0.97426142959744,0.951444778874467,0.962384819565215,0.964841276520838,0.962589634727986,0.966724004282859,0.962377998344437,0.806193892870122,0.973186559842258,0.999999999999998,0.999999999999998
0.99477897229945,1,0.97841994742158,0.966913131526804,0.966189475233068,0.972419251912084,0.961037497093791,0.97589153023604,0.965231661015028,0.960513156444042,0.97841994742158,0.999999999999999,0.99477897229945
0.999999999999999,0.975954377863709,0.902926125935029,0.865561114119961,0.899290018419243,0.908154875042658,0.922441897636113,0.914306135218652,0.893476532826271,0.864400714126943,0.885546931194634,0.896682362361005,0.999999999999999
1,1,0.925330129452445,0.867581271579479,0.87437397980126,0.924938526756303,0.93991412579493,0.931559235285751,0.928775259043089,0.858288633467326,0.870735599730041,0.933723650081158,1
1,0.964090542437156,0.918412445523165,0.918595522139751,0.938918059356486,0.961347021452612,0.958924877991984,0.949417619359247,0.941029014135173,0.932414948598946,0.968496051685105,1,1
1,0.960637732718611,0.890833042161705,0.918115924785265,0.91761521262311,0.931853267488776,0.934051857038182,0.936468850224836,0.870719339105839,0.960865407955898,0.960146061756124,1,1
0.964738873926768,0.965939612076731,0.906701306994424,0.916590075658745,0.937755668922067,0.931623135288871,0.936871207424499,0.8980467679819,0.92235627496103,0.912893609880664,0.965939612076731,0.958313346952642,0.964738873926768
0.947385530585247,0.946280592679034,0.934379447521954,0.938032172831677,0.917058126193714,0.927626701890377,0.932458787784995,0.910257280804978,0.936432676382863,0.946252799085896,0.908372403222832,0.932926655167904,0.947385530585247
0.996317985425129,0.961783569886405,0.953772278379791,0.94661084506265,0.947947653837813,0.95492940372503,0.944273273837396,0.950407490468544,0.957469786173097,0.949984013092916,0.960670549615971,0.999999999999999,0.996317985425129
0.954985334315077,0.96305033933834,0.969499883868814,0.930385876766401,0.910560988578443,0.935566680239328,0.914178000237495,0.912542346594986,0.933666122794117,0.919955269243656,0.934157914972332,0.963852269980905,0.954985334315077
1,0.896669540086264,0.845791733080405,0.856995591501728,0.912655546392742,0.912998813168387,0.920116361085106,0.856995591501728,0.85211039700765,0.896669540086264,0.999999999999999,0.950772747549947,1
1,0.969851362132662,0.943761817708018,0.874422085268408,0.877756961090418,0.910953333663381,0.877017464911567,0.876177630176566,0.882454135162316,0.944579384179574,0.96692376618699,1,1
1,0.944462405484786,0.920374076781337,0.939540432279807,0.935898278923313,0.921789465507403,0.915867324853022,0.908012973882916,0.938723828623901,0.907779512243804,0.915509662686708,0.934122394981701,1
1,0.961445759647443,0.97046614418767,0.851517421386424,0.852823177318938,0.856831289864316,0.847072848529863,0.852990714960612,0.883658797982922,0.971084301539158,0.968327118925359,1,1
0.999999999999999,0.96773848480072,0.935176163571366,0.924430832564495,0.933005862144388,0.939293792798635,0.939199493625563,0.93098344335425,0.916575095239129,0.934091318727067,0.965881602134637,1,0.999999999999999
1,0.934201802576802,0.962105295243895,0.921883445276151,0.928154707738512,0.922678452095375,0.924700469034554,0.920259981663552,0.926170186639085,0.899034698035754,0.963288124140954,1,1
1,0.92419591087201,0.89653107764418,0.882296846844566,0.912621952317793,0.906873216526165,0.921055019808596,0.900297499803522,0.910797309819601,0.898083430499459,0.918975741158691,0.930964612076684,1
1,0.957221589701025,0.955141569649944,0.940118262114641,0.941346081950046,0.927189325687034,0.921872662524119,0.935910708413477,0.922661610041612,0.933304925198442,0.962929529784703,0.963986526198648,1
1,0.974559746637707,0.946575486528277,0.953692067360883,0.962524747770251,0.957453155179877,0.953099731430874,0.96554741446467,0.960490704747087,0.952847358468182,0.953481326469583,0.970408019364471,1
0.986919674087155,0.927011522719604,0.931092997099391,0.936458536758035,0.926542546212481,0.928735963633198,0.928198262789979,0.931766400725588,0.931740940100954,0.930888309485996,0.948866718921484,0.97226472983679,0.986919674087155
0.976812993064055,0.929068702460904,0.940220738143187,0.943598462478005,0.905655035188599,0.906402451183916,0.905783790833597,0.927184994593667,0.91677123812751,0.924294345600861,0.929102123129399,0.953814323734811,0.976812993064055
1,0.967197903593202,0.963570145817035,0.961219707602119,0.953031582504975,0.966914069966619,0.969517365261215,0.94514935096816,0.948455427197854,0.931246307327528,0.961992502062,0.999999999999998,1
0.999999999999999,0.943009509637528,0.921764762601345,0.871254758682249,0.884988085750462,0.856790784249961,0.87019461610986,0.895720040362092,0.877441850254881,0.877170850201745,0.931593218677113,0.950239318437704,0.999999999999999
0.943644739115796,0.927628186312316,0.898711817135881,0.898716210438952,0.925131259661868,0.89856587967075,0.931036419540579,0.922523725868164,0.90020104559358,0.915814679433908,0.935843153258435,0.919853486764314,0.943644739115796
1,0.914207583431489,0.887540629522657,0.872770920486675,0.897006500810606,0.887712715494537,0.868452288686445,0.893312170734485,0.889359505248603,0.870162108928375,0.878994137968337,0.950171574607717,1
0.965889270366311,0.892989508205747,0.92134351598587,0.881316129063593,0.866424151102862,0.909491629690852,0.90564158952675,0.896898044656709,0.897391150636179,0.907522181572419,0.903522249063862,0.96682527833942,0.965889270366311
0.999999999999999,0.968194878632565,0.938520575032523,0.950398007027395,0.960627185191119,0.935563775970879,0.918632601330217,0.938721767294885,0.958463544133342,0.950941634338242,0.940066460743817,0.96983389960527,0.999999999999999
0.954276895727403,0.93339394168539,0.926702063199946,0.924596905583291,0.893803879361899,0.931230171772833,0.921070670329695,0.915268356978776,0.930348204827435,0.930026736379885,0.89341957741548,0.957686810447752,0.954276895727403
1,0.999999999999999,0.969205053112495,0.869937939556706,0.869404547396056,0.87563666853763,0.883895159951036,0.880317562000928,0.877313093293669,0.961644873508538,0.961118155150849,0.961082411238727,1
0.999999999999999,0.99273618284301,0.877691221307554,0.887798169500794,0.918241050434249,0.896978454191803,0.892824732793099,0.89687001324454,0.897493139253246,0.895680852951082,0.919339632607277,0.89808918228923,0.999999999999999
