r0,r30,r60,r90,r120,r150,r180,r210,r240,r270,r300,r330,r360
1,1,1,1,1,1,1,1,1,1,1,1,1
0,0,0,0,0,0,0,0,0,0,0,0,0
1,1,1,1,1,1,1,1,1,1,1,1,1
1,1,1,1,1,1,1,1,1,1,1,1,1
0,0,0,0,0,0,0,0,0,0,0,0,0
1,1,1,1,1,1,1,1,1,1,1,1,1
1,1,1,1,1,1,1,1,1,1,1,1,1
0,0,0,0,0,0,0,0,0,0,0,0,0
1,1,1,1,1,1,1,1,1,1,1,1,1
0,1,0,0,1,0,0,1,0,0,1,0,0
1,1,1,1,1,1,1,1,1,1,1,1,1
1,1,1,1,1,1,1,1,1,1,1,1,1
1,1,1,1,1,1,1,1,1,1,1,1,1
1,1,1,1,1,1,1,1,1,1,1,1,1
1,0,0,1,0,0,1,0,0,1,0,0,1
1,1,1,1,1,1,1,1,1,1,1,1,1
1,1,1,1,1,1,1,1,1,1,1,1,1
0,0,0,0,0,0,0,0,0,0,0,0,0
1,1,1,1,1,1,1,1,1,1,1,1,1
1,1,1,1,1,1,1,1,1,1,1,1,1
0,1,1,0,1,1,0,1,1,0,1,1,0
0,1,1,0,1,1,0,1,1,0,1,1,0
1,1,1,1,1,1,1,1,1,1,1,1,1
1,1,1,1,1,1,1,1,1,1,1,1,1
1,1,1,1,1,1,1,1,1,1,1,1,1
1,1,1,1,1,1,1,1,1,1,1,1,1
0,0,0,0,0,0,0,0,0,0,0,0,0
1,1,1,1,1,1,1,1,1,1,1,1,1
0,0,0,0,0,0,0,0,0,0,0,0,0
1,1,1,1,1,1,1,1,1,1,1,1,1
1,1,1,1,1,1,1,1,1,1,1,1,1
1,1,1,1,1,1,1,1,1,1,1,1,1
1,1,1,1,1,1,1,1,1,1,1,1,1
0,0,0,0,0,0,0,0,0,0,0,0,0
1,1,1,1,1,1,1,1,1,1,1,1,1
0,0,1,0,0,1,0,0,1,0,0,1,0
1,1,1,1,1,1,1,1,1,1,1,1,1
1,1,1,1,1,1,1,1,1,1,1,1,1
1,1,1,1,1,1,1,1,1,1,1,1,1
1,1,1,1,1,1,1,1,1,1,1,1,1
1,1,1,1,1,1,1,1,1,1,1,1,1
1,0,1,1,0,1,1,0,1,1,0,1,1
1,1,1,1,1,1,1,1,1,1,1,1,1
1,1,1,1,1,1,1,1,1,1,1,1,1
1,1,1,1,1,1,1,1,1,1,1,1,1
1,1,1,1,1,1,1,1,1,1,1,1,1
0,0,0,0,0,0,0,0,0,0,0,0,0
1,1,1,1,1,1,1,1,1,1,1,1,1
0,0,0,0,0,0,0,0,0,0,0,0,0
1,1,1,1,1,1,1,1,1,1,1,1,1
1,1,1,1,1,1,1,1,1,1,1,1,1
1,1,1,1,1,1,1,1,1,1,1,1,1
0,0,0,0,0,0,0,0,0,0,0,0,0
1,1,1,1,1,1,1,1,1,1,1,1,1
1,1,0,1,1,0,1,1,0,1,1,0,1
0,0,1,0,0,1,0,0,1,0,0,1,0
1,1,1,1,1,1,1,1,1,1,1,1,1
1,1,1,1,1,1,1,1,1,1,1,1,1
1,1,1,1,1,1,1,1,1,1,1,1,1
1,1,1,1,1,1,1,1,1,1,1,1,1
1,1,1,1,1,1,1,1,1,1,1,1,1
1,1,1,1,1,1,1,1,1,1,1,1,1
1,1,1,1,1,1,1,1,1,1,1,1,1
0,0,1,0,0,1,0,0,1,0,0,1,0
1,1,1,1,1,1,1,1,1,1,1,1,1
0,1,1,0,1,1,0,1,1,0,1,1,0
1,1,1,1,1,1,1,1,1,1,1,1,1
1,1,1,1,1,1,1,1,1,1,1,1,1
1,0,1,1,0,1,1,0,1,1,0,1,1
1,1,1,1,1,1,1,1,1,1,1,1,1
0,0,0,0,0,0,0,0,0,0,0,0,0
1,1,1,1,1,1,1,1,1,1,1,1,1
1,1,1,1,1,1,1,1,1,1,1,1,1
1,1,0,1,1,0,1,1,0,1,1,0,1
0,0,0,0,0,0,0,0,0,0,0,0,0
0,0,0,0,0,0,0,0,0,0,0,0,0
1,1,1,1,1,1,1,1,1,1,1,1,1
1,1,0,1,1,0,1,1,0,1,1,0,1
0,1,1,0,1,1,0,1,1,0,1,1,0
1,1,1,1,1,1,1,1,1,1,1,1,1
1,1,1,1,1,1,1,1,1,1,1,1,1
1,1,1,1,1,1,1,1,1,1,1,1,1
1,1,1,1,1,1,1,1,1,1,1,1,1
0,0,1,0,0,1,0,0,1,0,0,1,0
1,0,1,1,0,1,1,0,1,1,0,1,1
1,0,0,1,0,0,1,0,0,1,0,0,1
1,1,1,1,1,1,1,1,1,1,1,1,1
1,1,1,1,1,1,1,1,1,1,1,1,1
1,1,1,1,1,1,1,1,1,1,1,1,1
1,1,1,1,1,1,1,1,1,1,1,1,1
1,0,1,1,0,1,1,0,1,1,0,1,1
1,1,1,1,1,1,1,1,1,1,1,1,1
1,1,1,1,1,1,1,1,1,1,1,1,1
1,1,1,1,1,1,1,1,1,1,1,1,1
1,1,1,1,1,1,1,1,1,1,1,1,1
1,1,1,1,1,1,1,1,1,1,1,1,1
1,1,1,1,1,1,1,1,1,1,1,1,1
1,1,1,1,1,1,1,1,1,1,1,1,1
1,1,1,1,1,1,1,1,1,1,1,1,1
1,1,1,1,1,1,1,1,1,1,1,1,1
0,0,0,0,0,0,0,0,0,0,0,0,0
1,1,1,1,1,1,1,1,1,1,1,1,1
1,0,1,1,0,1,1,0,1,1,0,1,1
0,1,0,0,1,0,0,1,0,0,1,0,0
1,1,1,1,1,1,1,1,1,1,1,1,1
1,1,1,1,1,1,1,1,1,1,1,1,1
1,1,1,1,1,1,1,1,1,1,1,1,1
1,0,0,1,0,0,1,0,0,1,0,0,1
1,1,1,1,1,1,1,1,1,1,1,1,1
1,1,1,1,1,1,1,1,1,1,1,1,1
1,1,1,1,1,1,1,1,1,1,1,1,1
1,1,1,1,1,1,1,1,1,1,1,1,1
1,1,1,1,1,1,1,1,1,1,1,1,1
0,0,0,0,0,0,0,0,0,0,0,0,0
0,0,0,0,0,0,0,0,0,0,0,0,0
0,1,0,0,1,0,0,1,0,0,1,0,0
1,1,1,1,1,1,1,1,1,1,1,1,1
0,1,0,0,1,0,0,1,0,0,1,0,0
1,1,1,1,1,1,1,1,1,1,1,1,1
1,1,1,1,1,1,1,1,1,1,1,1,1
1,0,1,1,0,1,1,0,1,1,0,1,1
1,1,1,1,1,1,1,1,1,1,1,1,1
0,0,0,0,0,0,0,0,0,0,0,0,0
1,1,1,1,1,1,1,1,1,1,1,1,1
0,0,0,0,0,0,0,0,0,0,0,0,0
0,1,0,0,1,0,0,1,0,0,1,0,0
1,1,1,1,1,1,1,1,1,1,1,1,1
1,1,1,1,1,1,1,1,1,1,1,1,1
0,0,1,0,0,1,0,0,1,0,0,1,0
1,1,1,1,1,1,1,1,1,1,1,1,1
1,1,1,1,1,1,1,1,1,1,1,1,1
1,1,1,1,1,1,1,1,1,1,1,1,1
1,1,1,1,1,1,1,1,1,1,1,1,1
1,1,1,1,1,1,1,1,1,1,1,1,1
1,1,1,1,1,1,1,1,1,1,1,1,1
1,1,1,1,1,1,1,1,1,1,1,1,1
1,1,1,1,1,1,1,1,1,1,1,1,1
1,1,1,1,1,1,1,1,1,1,1,1,1
1,1,1,1,1,1,1,1,1,1,1,1,1
1,1,1,1,1,1,1,1,1,1,1,1,1
1,1,1,1,1,1,1,1,1,1,1,1,1
1,1,1,1,1,1,1,1,1,1,1,1,1
1,1,1,1,1,1,1,1,1,1,1,1,1
1,1,1,1,1,1,1,1,1,1,1,1,1
1,1,1,1,1,1,1,1,1,1,1,1,1
1,1,1,1,1,1,1,1,1,1,1,1,1
1,1,1,1,1,1,1,1,1,1,1,1,1
1,1,1,1,1,1,1,1,1,1,1,1,1
1,1,1,1,1,1,1,1,1,1,1,1,1
1,1,1,1,1,1,1,1,1,1,1,1,1
1,1,1,1,1,1,1,1,1,1,1,1,1
1,1,1,1,1,1,1,1,1,1,1,1,1
1,1,1,1,1,1,1,1,1,1,1,1,1
1,1,1,1,1,1,1,1,1,1,1,1,1
1,1,1,1,1,1,1,1,1,1,1,1,1
1,1,1,1,1,1,1,1,1,1,1,1,1
1,1,1,1,1,1,1,1,1,1,1,1,1
1,1,1,1,1,1,1,1,1,1,1,1,1
1,1,1,1,1,1,1,1,1,1,1,1,1
1,1,1,1,1,1,1,1,1,1,1,1,1
1,1,1,1,1,1,1,1,1,1,1,1,1
1,1,1,1,1,1,1,1,1,1,1,1,1
1,1,1,1,1,1,1,1,1,1,1,1,1
1,1,1,1,1,1,1,1,1,1,1,1,1
1,1,1,1,1,1,1,1,1,1,1,1,1
1,1,1,1,1,1,1,1,1,1,1,1,1
1,1,1,1,1,1,1,1,1,1,1,1,1
1,1,1,1,1,1,1,1,1,1,1,1,1
1,1,1,1,1,1,1,1,1,1,1,1,1
1,1,1,1,1,1,1,1,1,1,1,1,1
1,1,1,1,1,1,1,1,1,1,1,1,1
1,1,1,1,1,1,1,1,1,1,1,1,1
1,1,1,1,1,1,1,1,1,1,1,1,1
1,1,1,1,1,1,1,1,1,1,1,1,1
1,1,1,1,1,1,1,1,1,1,1,1,1
1,1,1,1,1,1,1,1,1,1,1,1,1
1,1,1,1,1,1,1,1,1,1,1,1,1
1,1,1,1,1,1,1,1,1,1,1,1,1
1,1,1,1,1,1,1,1,1,1,1,1,1
1,1,1,1,1,1,1,1,1,1,1,1,1
1,1,1,1,1,1,1,1,1,1,1,1,1
1,1,1,1,1,1,1,1,1,1,1,1,1
1,1,1,1,1,1,1,1,1,1,1,1,1
1,1,1,1,1,1,1,1,1,1,1,1,1
1,1,1,1,1,1,1,1,1,1,1,1,1
1,1,1,1,1,1,1,1,1,1,1,1,1
1,1,1,1,1,1,1,1,1,1,1,1,1
1,1,1,1,1,1,1,1,1,1,1,1,1
1,1,1,1,1,1,1,1,1,1,1,1,1
1,1,1,1,1,1,1,1,1,1,1,1,1
1,1,1,1,1,1,1,1,1,1,1,1,1
1,1,1,1,1,1,1,1,1,1,1,1,1
1,1,1,1,1,1,1,1,1,1,1,1,1
1,1,1,1,1,1,1,1,1,1,1,1,1
1,1,1,1,1,1,1,1,1,1,1,1,1
1,1,1,1,1,1,1,1,1,1,1,1,1
1,1,1,1,1,1,1,1,1,1,1,1,1
1,1,1,1,1,1,1,1,1,1,1,1,1
1,1,1,1,1,1,1,1,1,1,1,1,1
1,1,1,1,1,1,1,1,1,1,1,1,1
1,1,1,1,1,1,1,1,1,1,1,1,1
1,1,1,1,1,1,1,1,1,1,1,1,1
1,1,1,1,1,1,1,1,1,1,1,1,1
1,1,1,1,1,1,1,1,1,1,1,1,1
1,1,1,1,1,1,1,1,1,1,1,1,1
1,1,1,1,1,1,1,1,1,1,1,1,1
1,1,1,1,1,1,1,1,1,1,1,1,1
1,1,1,1,1,1,1,1,1,1,1,1,1
1,1,1,1,1,1,1,1,1,1,1,1,1
1,1,1,1,1,1,1,1,1,1,1,1,1
1,1,1,1,1,1,1,1,1,1,1,1,1
1,1,1,1,1,1,1,1,1,1,1,1,1
1,1,1,1,1,1,1,1,1,1,1,1,1
1,1,1,1,1,1,1,1,1,1,1,1,1
1,1,1,1,1,1,1,1,1,1,1,1,1
1,1,1,1,1,1,1,1,1,1,1,1,1
1,1,1,1,1,1,1,1,1,1,1,1,1
1,1,1,1,1,1,1,1,1,1,1,1,1
1,1,1,1,1,1,1,1,1,1,1,1,1
1,1,1,1,1,1,1,1,1,1,1,1,1
1,1,1,1,1,1,1,1,1,1,1,1,1
1,1,1,1,1,1,1,1,1,1,1,1,1
1,1,1,1,1,1,1,1,1,1,1,1,1
1,1,1,1,1,1,1,1,1,1,1,1,1
1,1,1,1,1,1,1,1,1,1,1,1,1
1,1,1,1,1,1,1,1,1,1,1,1,1
1,1,1,1,1,1,1,1,1,1,1,1,1
1,1,1,1,1,1,1,1,1,1,1,1,1
1,1,1,1,1,1,1,1,1,1,1,1,1
1,1,1,1,1,1,1,1,1,1,1,1,1
1,1,1,1,1,1,1,1,1,1,1,1,1
1,1,1,1,1,1,1,1,1,1,1,1,1
1,1,1,1,1,1,1,1,1,1,1,1,1
1,1,1,1,1,1,1,1,1,1,1,1,1
1,1,1,1,1,1,1,1,1,1,1,1,1
1,1,1,1,1,1,1,1,1,1,1,1,1
1,1,1,1,1,1,1,1,1,1,1,1,1
1,1,1,1,1,1,1,1,1,1,1,1,1
1,1,1,1,1,1,1,1,1,1,1,1,1
1,1,1,1,1,1,1,1,1,1,1,1,1
1,1,1,1,1,1,1,1,1,1,1,1,1
1,1,1,1,1,1,1,1,1,1,1,1,1
1,1,1,1,1,1,1,1,1,1,1,1,1
1,1,1,1,1,1,1,1,1,1,1,1,1
1,1,1,1,1,1,1,1,1,1,1,1,1
1,1,1,1,1,1,1,1,1,1,1,1,1
1,1,1,1,1,1,1,1,1,1,1,1,1
1,1,1,1,1,1,1,1,1,1,1,1,1
1,1,1,1,1,1,1,1,1,1,1,1,1
1,1,1,1,1,1,1,1,1,1,1,1,1
1,1,1,1,1,1,1,1,1,1,1,1,1
1,1,1,1,1,1,1,1,1,1,1,1,1
1,1,1,1,1,1,1,1,1,1,1,1,1
1,1,1,1,1,1,1,1,1,1,1,1,1
1,1,1,1,1,1,1,1,1,1,1,1,1
1,1,1,1,1,1,1,1,1,1,1,1,1
1,1,1,1,1,1,1,1,1,1,1,1,1
1,1,1,1,1,1,1,1,1,1,1,1,1
1,1,1,1,1,1,1,1,1,1,1,1,1
1,1,1,1,1,1,1,1,1,1,1,1,1
1,1,1,1,1,1,1,1,1,1,1,1,1
1,1,1,1,1,1,1,1,1,1,1,1,1
1,1,1,1,1,1,1,1,1,1,1,1,1
1,1,1,1,1,1,1,1,1,1,1,1,1
1,1,1,1,1,1,1,1,1,1,1,1,1
1,1,1,1,1,1,1,1,1,1,1,1,1
1,1,1,1,1,1,1,1,1,1,1,1,1
1,1,1,1,1,1,1,1,1,1,1,1,1
1,1,1,1,1,1,1,1,1,1,1,1,1
1,1,1,1,1,1,1,1,1,1,1,1,1
1,1,1,1,1,1,1,1,1,1,1,1,1
1,1,1,1,1,1,1,1,1,1,1,1,1
1,1,1,1,1,1,1,1,1,1,1,1,1
1,1,1,1,1,1,1,1,1,1,1,1,1
1,1,1,1,1,1,1,1,1,1,1,1,1
1,1,1,1,1,1,1,1,1,1,1,1,1
1,1,1,1,1,1,1,1,1,1,1,1,1
1,1,1,1,1,1,1,1,1,1,1,1,1
1,1,1,1,1,1,1,1,1,1,1,1,1
1,1,1,1,1,1,1,1,1,1,1,1,1
1,1,1,1,1,1,1,1,1,1,1,1,1
1,1,1,1,1,1,1,1,1,1,1,1,1
1,1,1,1,1,1,1,1,1,1,1,1,1
1,1,1,1,1,1,1,1,1,1,1,1,1
1,1,1,1,1,1,1,1,1,1,1,1,1
1,1,1,1,1,1,1,1,1,1,1,1,1
1,1,1,1,1,1,1,1,1,1,1,1,1
1,1,1,1,1,1,1,1,1,1,1,1,1
1,1,1,1,1,1,1,1,1,1,1,1,1
1,1,1,1,1,1,1,1,1,1,1,1,1
1,1,1,1,1,1,1,1,1,1,1,1,1
1,1,1,1,1,1,1,1,1,1,1,1,1
1,1,1,1,1,1,1,1,1,1,1,1,1
1,1,1,1,1,1,1,1,1,1,1,1,1
1,1,1,1,1,1,1,1,1,1,1,1,1
1,1,1,1,1,1,1,1,1,1,1,1,1
1,1,1,1,1,1,1,1,1,1,1,1,1
1,1,1,1,1,1,1,1,1,1,1,1,1
1,1,1,1,1,1,1,1,1,1,1,1,1
1,1,1,1,1,1,1,1,1,1,1,1,1
1,1,1,1,1,1,1,1,1,1,1,1,1
1,1,1,1,1,1,1,1,1,1,1,1,1
1,1,1,1,1,1,1,1,1,1,1,1,1
1,1,1,1,1,1,1,1,1,1,1,1,1
1,1,1,1,1,1,1,1,1,1,1,1,1
1,1,1,1,1,1,1,1,1,1,1,1,1
1,1,1,1,1,1,1,1,1,1,1,1,1
1,1,1,1,1,1,1,1,1,1,1,1,1
1,1,1,1,1,1,1,1,1,1,1,1,1
1,1,1,1,1,1,1,1,1,1,1,1,1
1,1,1,1,1,1,1,1,1,1,1,1,1
1,1,1,1,1,1,1,1,1,1,1,1,1
1,1,1,1,1,1,1,1,1,1,1,1,1
1,1,1,1,1,1,1,1,1,1,1,1,1
1,1,1,1,1,1,1,1,1,1,1,1,1
1,1,1,1,1,1,1,1,1,1,1,1,1
1,1,1,1,1,1,1,1,1,1,1,1,1
1,1,1,1,1,1,1,1,1,1,1,1,1
1,1,1,1,1,1,1,1,1,1,1,1,1
1,1,1,1,1,1,1,1,1,1,1,1,1
1,1,1,1,1,1,1,1,1,1,1,1,1
1,1,1,1,1,1,1,1,1,1,1,1,1
1,1,1,1,1,1,1,1,1,1,1,1,1
1,1,1,1,1,1,1,1,1,1,1,1,1
1,1,1,1,1,1,1,1,1,1,1,1,1
1,1,1,1,1,1,1,1,1,1,1,1,1
1,1,1,1,1,1,1,1,1,1,1,1,1
1,1,1,1,1,1,1,1,1,1,1,1,1
1,1,1,1,1,1,1,1,1,1,1,1,1
1,1,1,1,1,1,1,1,1,1,1,1,1
1,1,1,1,1,1,1,1,1,1,1,1,1
1,1,1,1,1,1,1,1,1,1,1,1,1
1,1,1,1,1,1,1,1,1,1,1,1,1
1,1,1,1,1,1,1,1,1,1,1,1,1
1,1,1,1,1,1,1,1,1,1,1,1,1
1,1,1,1,1,1,1,1,1,1,1,1,1
1,1,1,1,1,1,1,1,1,1,1,1,1
1,1,1,1,1,1,1,1,1,1,1,1,1
1,1,1,1,1,1,1,1,1,1,1,1,1
1,1,1,1,1,1,1,1,1,1,1,1,1
1,1,1,1,1,1,1,1,1,1,1,1,1
1,1,1,1,1,1,1,1,1,1,1,1,1
1,1,1,1,1,1,1,1,1,1,1,1,1
1,1,1,1,1,1,1,1,1,1,1,1,1
1,1,1,1,1,1,1,1,1,1,1,1,1
1,1,1,1,1,1,1,1,1,1,1,1,1
1,1,1,1,1,1,1,1,1,1,1,1,1
1,1,1,1,1,1,1,1,1,1,1,1,1
1,1,1,1,1,1,1,1,1,1,1,1,1
1,1,1,1,1,1,1,1,1,1,1,1,1
1,1,1,1,1,1,1,1,1,1,1,1,1
1,1,1,1,1,1,1,1,1,1,1,1,1
1,1,1,1,1,1,1,1,1,1,1,1,1
1,1,1,1,1,1,1,1,1,1,1,1,1
1,1,1,1,1,1,1,1,1,1,1,1,1
1,1,1,1,1,1,1,1,1,1,1,1,1
1,1,1,1,1,1,1,1,1,1,1,1,1
1,1,1,1,1,1,1,1,1,1,1,1,1
1,1,1,1,1,1,1,1,1,1,1,1,1
1,1,1,1,1,1,1,1,1,1,1,1,1
1,1,1,1,1,1,1,1,1,1,1,1,1
1,1,1,1,1,1,1,1,1,1,1,1,1
1,1,1,1,1,1,1,1,1,1,1,1,1
1,1,1,1,1,1,1,1,1,1,1,1,1
1,1,1,1,1,1,1,1,1,1,1,1,1
1,1,1,1,1,1,1,1,1,1,1,1,1
1,1,1,1,1,1,1,1,1,1,1,1,1
1,1,1,1,1,1,1,1,1,1,1,1,1
1,1,1,1,1,1,1,1,1,1,1,1,1
1,1,1,1,1,1,1,1,1,1,1,1,1
1,1,1,1,1,1,1,1,1,1,1,1,1
1,1,1,1,1,1,1,1,1,1,1,1,1
1,1,1,1,1,1,1,1,1,1,1,1,1
1,1,1,1,1,1,1,1,1,1,1,1,1
1,1,1,1,1,1,1,1,1,1,1,1,1
1,1,1,1,1,1,1,1,1,1,1,1,1
1,1,1,1,1,1,1,1,1,1,1,1,1
1,1,1,1,1,1,1,1,1,1,1,1,1
1,1,1,1,1,1,1,1,1,1,1,1,1
1,1,1,1,1,1,1,1,1,1,1,1,1
1,1,1,1,1,1,1,1,1,1,1,1,1
1,1,1,1,1,1,1,1,1,1,1,1,1
1,1,1,1,1,1,1,1,1,1,1,1,1
1,1,1,1,1,1,1,1,1,1,1,1,1
1,1,1,1,1,1,1,1,1,1,1,1,1
1,1,1,1,1,1,1,1,1,1,1,1,1
1,1,1,1,1,1,1,1,1,1,1,1,1
1,1,1,1,1,1,1,1,1,1,1,1,1
1,1,1,1,1,1,1,1,1,1,1,1,1
1,1,1,1,1,1,1,1,1,1,1,1,1
0.699620658848387,0.698710872551878,0.718981440266314,0.699620658848392,0.698710872551875,0.718981440266305,0.699620658848395,0.698710872551872,0.718981440266314,0.69962065884839,0.698710872551871,0.718981440266309,0.699620658848387
0.278550936776307,0.215400335215648,0.176083577680676,0.278550936776307,0.215400335215648,0.176083577680676,0.278550936776316,0.215400335215645,0.17608357768068,0.278550936776307,0.215400335215651,0.17608357768068,0.278550936776307
0.454760089507281,0.536877862538021,0.708799879857311,0.454760089507281,0.536877862538023,0.708799879857305,0.454760089507283,0.536877862538022,0.708799879857312,0.454760089507283,0.536877862538021,0.708799879857308,0.454760089507281
0.513303653095812,0.443785086168619,0.563267034806488,0.513303653095812,0.443785086168617,0.563267034806486,0.513303653095812,0.443785086168617,0.563267034806488,0.513303653095811,0.443785086168617,0.563267034806492,0.513303653095812
0.593144342740792,0.623241068523115,0.63622910972494,0.59314434274079,0.62324106852311,0.636229109724941,0.593144342740793,0.623241068523121,0.636229109724949,0.593144342740793,0.623241068523115,0.636229109724948,0.593144342740792
0.82846280712158,0.778337465481337,0.615687562007736,0.828462807121577,0.778337465481326,0.615687562007737,0.828462807121579,0.778337465481333,0.615687562007725,0.828462807121577,0.77833746548134,0.615687562007731,0.82846280712158
1.10056536811513,1.14951680761834,0.880446659267671,1.10056536811512,1.14951680761834,0.880446659267672,1.10056536811513,1.14951680761834,0.880446659267677,1.10056536811512,1.14951680761834,0.88044665926767,1.10056536811513
0.483454658107988,0.587418813235243,0.404808961849559,0.483454658107973,0.587418813235235,0.40480896184956,0.483454658107985,0.587418813235238,0.40480896184956,0.483454658107986,0.587418813235239,0.404808961849559,0.483454658107988
0.96552343159258,1.02257331143068,1.04725163875363,0.965523431592587,1.02257331143068,1.04725163875364,0.965523431592582,1.02257331143069,1.04725163875364,0.965523431592578,1.02257331143068,1.04725163875363,0.96552343159258
0.697924768320582,0.590593738942665,0.846386163071894,0.69792476832058,0.590593738942664,0.846386163071905,0.697924768320579,0.590593738942667,0.846386163071904,0.697924768320583,0.590593738942664,0.846386163071901,0.697924768320582
1.04197241761523,0.845529854950258,0.710632359727698,1.04197241761523,0.845529854950262,0.710632359727696,1.04197241761524,0.845529854950254,0.7106323597277,1.04197241761523,0.845529854950254,0.710632359727698,1.04197241761523
1.05411272868321,0.947695917507203,0.866958541695382,1.05411272868321,0.947695917507196,0.866958541695391,1.05411272868321,0.947695917507198,0.866958541695386,1.05411272868321,0.9476959175072,0.866958541695384,1.05411272868321
1.11764576744249,1.03344604870053,1.55396771955319,1.11764576744249,1.03344604870053,1.5539677195532,1.11764576744249,1.03344604870055,1.55396771955319,1.11764576744248,1.03344604870054,1.55396771955319,1.11764576744249
1.15669435740084,1.53992572854287,1.16536507680014,1.15669435740085,1.53992572854287,1.16536507680015,1.15669435740086,1.53992572854288,1.16536507680014,1.15669435740085,1.53992572854287,1.16536507680014,1.15669435740084
0.270680618965947,0.465960659935504,0.488682879137878,0.270680618965945,0.465960659935506,0.48868287913787,0.27068061896595,0.465960659935523,0.48868287913787,0.270680618965949,0.465960659935509,0.488682879137879,0.270680618965947
3.24317942726383,3.1196681389658,2.89823669220376,3.24317942726383,3.11966813896578,2.89823669220376,3.24317942726385,3.11966813896578,2.89823669220377,3.24317942726383,3.11966813896578,2.89823669220377,3.24317942726383
1.05550700793357,1.10646324703127,1.39161016164217,1.05550700793358,1.10646324703128,1.39161016164217,1.05550700793357,1.10646324703128,1.39161016164217,1.05550700793357,1.10646324703127,1.39161016164217,1.05550700793357
0.449185920168308,0.489342245440214,0.414635524956369,0.449185920168325,0.489342245440215,0.414635524956359,0.449185920168319,0.489342245440214,0.414635524956368,0.449185920168315,0.489342245440222,0.414635524956369,0.449185920168308
0.745140577473343,1.04969332504539,0.439649633771007,0.745140577473338,1.04969332504539,0.439649633771008,0.745140577473344,1.04969332504539,0.439649633771016,0.745140577473349,1.04969332504539,0.439649633771012,0.745140577473343
0.842618599036387,0.986232909222399,0.906622420972154,0.842618599036381,0.986232909222406,0.906622420972154,0.842618599036386,0.986232909222408,0.906622420972159,0.842618599036386,0.986232909222414,0.906622420972163,0.842618599036387
0.389174326693011,0.460177264237838,0.550795368112949,0.389174326693011,0.46017726423784,0.550795368112947,0.38917432669301,0.460177264237835,0.550795368112946,0.389174326693011,0.460177264237838,0.550795368112945,0.389174326693011
0.496487956474368,0.432216905491498,0.548908498205191,0.496487956474371,0.432216905491504,0.548908498205189,0.496487956474374,0.432216905491499,0.548908498205192,0.496487956474375,0.4322169054915,0.54890849820519,0.496487956474368
2.06167635877391,1.88689137875755,1.92370580408676,2.06167635877391,1.88689137875754,1.92370580408677,2.06167635877391,1.88689137875754,1.92370580408677,2.06167635877392,1.88689137875755,1.92370580408677,2.06167635877391
0.666515498690746,0.701224281440878,0.806600398893266,0.66651549869075,0.70122428144088,0.806600398893271,0.66651549869075,0.701224281440879,0.806600398893273,0.666515498690752,0.701224281440881,0.806600398893267,0.666515498690746
0.803099730572401,0.704595334106282,0.678587511006075,0.8030997305724,0.704595334106286,0.678587511006074,0.803099730572397,0.704595334106292,0.678587511006076,0.803099730572402,0.704595334106286,0.678587511006077,0.803099730572401
1.35734746550499,1.46883299588449,1.71129194109207,1.357347465505,1.46883299588449,1.71129194109208,1.35734746550499,1.46883299588449,1.71129194109208,1.35734746550499,1.46883299588449,1.71129194109207,1.35734746550499
0.379712201714699,0.258715772672288,0.373066524454692,0.379712201714711,0.258715772672288,0.373066524454692,0.379712201714707,0.258715772672287,0.373066524454689,0.379712201714697,0.258715772672286,0.373066524454693,0.379712201714699
1.22162343099433,1.44200666649796,1.27420171310036,1.22162343099433,1.44200666649796,1.27420171310035,1.22162343099433,1.44200666649796,1.27420171310035,1.22162343099433,1.44200666649796,1.27420171310036,1.22162343099433
0.331066162601618,0.281221683184452,0.55244144298353,0.331066162601619,0.281221683184454,0.552441442983534,0.33106616260162,0.28122168318445,0.552441442983535,0.331066162601615,0.281221683184448,0.552441442983537,0.331066162601618
0.500636358760193,0.487825501505444,0.568745829893403,0.500636358760198,0.487825501505441,0.568745829893406,0.500636358760195,0.487825501505443,0.568745829893409,0.500636358760193,0.487825501505447,0.568745829893404,0.500636358760193
0.627699963503283,0.459236747960099,0.718280736534124,0.627699963503283,0.459236747960104,0.718280736534125,0.627699963503282,0.459236747960101,0.718280736534118,0.627699963503282,0.4592367479601,0.718280736534119,0.627699963503283
1.25794112841323,1.35763642057564,1.7152626568705,1.25794112841323,1.35763642057564,1.7152626568705,1.25794112841323,1.35763642057564,1.71526265687048,1.25794112841323,1.35763642057564,1.71526265687048,1.25794112841323
1.41880875656712,1.25943364387541,1.21397929646521,1.41880875656712,1.25943364387541,1.21397929646521,1.41880875656712,1.25943364387541,1.21397929646521,1.41880875656712,1.2594336438754,1.21397929646521,1.41880875656712
0.368251628710476,0.385091405443788,0.433622841253834,0.36825162871048,0.38509140544379,0.433622841253839,0.368251628710481,0.385091405443789,0.433622841253836,0.368251628710477,0.38509140544379,0.433622841253832,0.368251628710476
0.486618199423672,0.599062802575715,0.595515583555241,0.486618199423669,0.599062802575712,0.595515583555241,0.486618199423672,0.599062802575715,0.595515583555244,0.486618199423672,0.599062802575722,0.595515583555244,0.486618199423672
0.450706108889392,0.48267612226147,0.356135134049545,0.450706108889389,0.482676122261465,0.356135134049542,0.450706108889391,0.482676122261466,0.35613513404954,0.450706108889393,0.482676122261476,0.356135134049545,0.450706108889392
0.695282927398799,0.629890212725158,0.752034539830508,0.695282927398799,0.629890212725157,0.752034539830506,0.695282927398795,0.62989021272516,0.752034539830509,0.695282927398796,0.629890212725159,0.752034539830508,0.695282927398799
0.513575044605549,0.623124961285522,0.564092842240089,0.513575044605554,0.623124961285522,0.564092842240091,0.51357504460555,0.623124961285519,0.564092842240089,0.513575044605548,0.62312496128552,0.564092842240089,0.513575044605549
0.761704007447906,0.730485989001548,0.689092391016857,0.761704007447906,0.730485989001558,0.689092391016866,0.761704007447917,0.730485989001554,0.689092391016859,0.761704007447904,0.730485989001543,0.689092391016854,0.761704007447906
0.490579331123196,0.477309940950812,0.432939698626095,0.490579331123194,0.477309940950811,0.432939698626098,0.490579331123193,0.477309940950813,0.432939698626097,0.490579331123197,0.477309940950811,0.432939698626099,0.490579331123196
0.695161236551667,0.687254684799008,0.631735133022145,0.695161236551671,0.687254684799007,0.631735133022145,0.695161236551666,0.687254684799005,0.631735133022145,0.695161236551666,0.687254684799008,0.631735133022142,0.695161236551667
0.28941111859365,0.351330584264674,0.372862561073688,0.289411118593651,0.351330584264671,0.372862561073687,0.289411118593652,0.351330584264673,0.372862561073689,0.289411118593653,0.351330584264663,0.372862561073692,0.28941111859365
0.79572016545842,0.862863163848257,1.0763401308171,0.795720165458414,0.862863163848262,1.0763401308171,0.795720165458424,0.862863163848254,1.07634013081709,0.795720165458424,0.862863163848254,1.07634013081709,0.79572016545842
0.445506781446504,0.258938625765384,0.337111455156101,0.445506781446508,0.258938625765386,0.337111455156103,0.44550678144651,0.258938625765383,0.337111455156104,0.445506781446509,0.258938625765381,0.337111455156102,0.445506781446504
0.630715973940058,0.599550774423145,0.602977342547614,0.630715973940049,0.599550774423146,0.602977342547621,0.630715973940048,0.599550774423137,0.602977342547618,0.630715973940049,0.599550774423144,0.602977342547614,0.630715973940058
0.410605722008418,0.526973085520943,0.393030123613774,0.410605722008415,0.526973085520944,0.393030123613774,0.410605722008416,0.526973085520952,0.393030123613774,0.41060572200842,0.526973085520946,0.393030123613778,0.410605722008418
0.250998972003959,0.31244364739066,0.319938420267248,0.250998972003958,0.312443647390662,0.319938420267244,0.25099897200396,0.312443647390667,0.319938420267246,0.250998972003959,0.312443647390661,0.319938420267252,0.250998972003959
0.677710767638205,0.638515913492342,0.713925049129218,0.677710767638202,0.638515913492347,0.713925049129218,0.6777107676382,0.638515913492339,0.713925049129215,0.6777107676382,0.638515913492342,0.713925049129216,0.677710767638205
0.526497074381381,0.49583266846769,0.441411500589234,0.526497074381387,0.495832668467675,0.441411500589239,0.526497074381391,0.49583266846768,0.44141150058924,0.52649707438139,0.495832668467687,0.441411500589237,0.526497074381381
0.912872635841815,0.832805577127449,0.888498769707115,0.912872635841814,0.83280557712745,0.888498769707112,0.912872635841814,0.832805577127452,0.888498769707113,0.912872635841814,0.832805577127454,0.888498769707115,0.912872635841815
1.77329281451697,1.88764321478585,1.73565690970654,1.773292814517,1.88764321478585,1.73565690970655,1.77329281451699,1.88764321478586,1.73565690970655,1.77329281451698,1.88764321478585,1.73565690970654,1.77329281451697
0.397099711783106,0.581702624151199,0.270975225588062,0.397099711783107,0.581702624151197,0.270975225588062,0.397099711783105,0.581702624151199,0.270975225588059,0.397099711783105,0.581702624151197,0.27097522558806,0.397099711783106
0.330379795129787,0.223571400886751,0.407863242941587,0.330379795129791,0.223571400886754,0.407863242941589,0.330379795129786,0.223571400886758,0.407863242941588,0.330379795129792,0.223571400886754,0.407863242941576,0.330379795129787
0.745298253133763,0.953543986125334,0.889409530494748,0.745298253133765,0.953543986125334,0.889409530494759,0.745298253133761,0.953543986125338,0.889409530494757,0.745298253133767,0.953543986125332,0.889409530494743,0.745298253133763
0.454630737209405,0.366873021728814,0.831146903059778,0.454630737209406,0.366873021728817,0.831146903059788,0.454630737209403,0.366873021728816,0.831146903059791,0.454630737209402,0.366873021728814,0.831146903059774,0.454630737209405
0.443439267846963,0.503124685470579,0.469720505655761,0.443439267846961,0.503124685470584,0.469720505655757,0.443439267846962,0.503124685470583,0.469720505655759,0.443439267846962,0.503124685470587,0.469720505655759,0.443439267846963
1.76745285262736,1.77232466051595,1.83366283555333,1.76745285262735,1.77232466051595,1.83366283555333,1.76745285262735,1.77232466051595,1.83366283555333,1.76745285262735,1.77232466051596,1.83366283555333,1.76745285262736
0.795669737993736,0.857932457935955,0.916344779202546,0.795669737993732,0.857932457935949,0.916344779202541,0.795669737993735,0.85793245793595,0.916344779202547,0.795669737993725,0.857932457935954,0.916344779202542,0.795669737993736
1.10637005669046,0.904227865337704,1.08706124351014,1.10637005669046,0.904227865337708,1.08706124351013,1.10637005669046,0.904227865337711,1.08706124351013,1.10637005669045,0.904227865337713,1.08706124351014,1.10637005669046
0.81849428610208,0.704885706886292,0.795270242527345,0.818494286102079,0.704885706886299,0.795270242527339,0.818494286102073,0.704885706886292,0.795270242527337,0.818494286102084,0.704885706886295,0.795270242527347,0.81849428610208
0.423656987064266,0.494803296350569,0.549031619828232,0.423656987064269,0.494803296350564,0.549031619828237,0.423656987064274,0.494803296350562,0.549031619828239,0.42365698706427,0.494803296350565,0.549031619828237,0.423656987064266
1.69491700616066,1.76634920760304,1.64211692235584,1.69491700616066,1.76634920760304,1.64211692235582,1.69491700616065,1.76634920760304,1.64211692235583,1.69491700616065,1.76634920760304,1.64211692235583,1.69491700616066
0.792350400687972,0.578715422175075,0.721438252998193,0.792350400687976,0.578715422175077,0.72143825299819,0.792350400687973,0.578715422175079,0.721438252998186,0.792350400687971,0.578715422175082,0.721438252998188,0.792350400687972
0.637000172926714,0.891848310852147,1.01330097342671,0.637000172926719,0.891848310852151,1.0133009734267,0.637000172926717,0.891848310852145,1.01330097342671,0.637000172926709,0.891848310852148,1.01330097342671,0.637000172926714
0.967941209067061,0.960593881687775,1.00888256373487,0.967941209067061,0.960593881687782,1.00888256373487,0.967941209067062,0.960593881687781,1.00888256373488,0.967941209067059,0.960593881687784,1.00888256373486,0.967941209067061
0.204931756887016,0.269880296185375,0.30511341060741,0.204931756887017,0.269880296185372,0.305113410607412,0.204931756887015,0.269880296185372,0.305113410607411,0.204931756887013,0.269880296185376,0.305113410607408,0.204931756887016
1.70224393248277,1.91550197936625,1.87070936263378,1.70224393248277,1.91550197936623,1.87070936263378,1.70224393248277,1.91550197936623,1.87070936263379,1.70224393248276,1.91550197936625,1.87070936263378,1.70224393248277
0.546201026642537,0.665334456729783,0.430097843856527,0.54620102664254,0.665334456729788,0.43009784385652,0.546201026642535,0.665334456729784,0.430097843856532,0.546201026642536,0.665334456729779,0.430097843856538,0.546201026642537
0.484398927110255,0.40525223078559,0.452146072208048,0.484398927110255,0.405252230785591,0.452146072208053,0.484398927110257,0.405252230785588,0.452146072208055,0.484398927110255,0.405252230785589,0.452146072208054,0.484398927110255
0.57739069490417,0.810383552174836,0.43569186923377,0.577390694904171,0.810383552174833,0.435691869233766,0.577390694904174,0.810383552174838,0.435691869233766,0.577390694904169,0.810383552174837,0.435691869233767,0.57739069490417
0.256056446104205,0.357201370868185,0.297102575570657,0.256056446104211,0.357201370868187,0.297102575570657,0.256056446104216,0.357201370868183,0.297102575570663,0.256056446104205,0.357201370868188,0.297102575570656,0.256056446104205
0.724558364819425,0.727585423637002,0.663960619796258,0.72455836481942,0.727585423636999,0.663960619796265,0.724558364819419,0.727585423636999,0.663960619796263,0.72455836481942,0.727585423636998,0.66396061979626,0.724558364819425
2.26045312627765,2.45672601315395,2.23506991709013,2.26045312627767,2.45672601315394,2.23506991709014,2.26045312627767,2.45672601315394,2.23506991709014,2.26045312627767,2.45672601315396,2.23506991709014,2.26045312627765
0.6525507384603,0.574062934498404,0.574512509915595,0.652550738460298,0.574062934498409,0.574512509915593,0.652550738460297,0.574062934498403,0.574512509915596,0.6525507384603,0.574062934498405,0.574512509915594,0.6525507384603
0.360572235117032,0.453177915020275,0.509649300125868,0.360572235117041,0.453177915020278,0.509649300125873,0.360572235117042,0.453177915020281,0.509649300125871,0.360572235117034,0.453177915020282,0.509649300125868,0.360572235117032
0.687968640346486,0.602382474470186,0.535531992561244,0.687968640346509,0.602382474470192,0.535531992561227,0.687968640346509,0.602382474470185,0.535531992561251,0.687968640346496,0.602382474470177,0.535531992561249,0.687968640346486
0.72981861691267,0.618258363269903,0.496189054520431,0.729818616912668,0.618258363269904,0.496189054520428,0.729818616912668,0.618258363269907,0.49618905452043,0.729818616912668,0.618258363269906,0.496189054520432,0.72981861691267
0.332715808871242,0.499758057587966,0.48035365963129,0.332715808871241,0.499758057587972,0.480353659631293,0.332715808871237,0.499758057587973,0.48035365963129,0.332715808871239,0.499758057587966,0.480353659631291,0.332715808871242
0.613632192013855,0.636171756656852,0.700964965377057,0.613632192013866,0.636171756656853,0.700964965377056,0.613632192013861,0.636171756656853,0.700964965377064,0.613632192013853,0.636171756656853,0.70096496537706,0.613632192013855
0.755650522329847,0.922886439779264,0.939210415295943,0.755650522329844,0.922886439779265,0.939210415295951,0.755650522329847,0.922886439779263,0.939210415295948,0.755650522329843,0.922886439779263,0.939210415295946,0.755650522329847
1.12833183452918,1.11236782203279,1.04376814368175,1.12833183452917,1.11236782203279,1.04376814368175,1.12833183452917,1.11236782203278,1.04376814368175,1.12833183452917,1.11236782203278,1.04376814368174,1.12833183452918
0.951872766873424,0.952619956692309,1.10403291437729,0.951872766873424,0.952619956692307,1.10403291437729,0.951872766873414,0.952619956692302,1.10403291437729,0.951872766873426,0.952619956692308,1.10403291437729,0.951872766873424
1.03604929529763,1.09690915004506,0.72799983410234,1.03604929529763,1.09690915004505,0.727999834102353,1.03604929529763,1.09690915004506,0.727999834102348,1.03604929529763,1.09690915004506,0.72799983410234,1.03604929529763
0.441399295968624,0.557234363281605,0.451557993999551,0.441399295968619,0.557234363281606,0.451557993999555,0.441399295968619,0.557234363281603,0.451557993999559,0.441399295968621,0.557234363281598,0.451557993999561,0.441399295968624
0.370288221921676,0.41591841807144,0.418936915720335,0.370288221921679,0.415918418071448,0.418936915720336,0.370288221921677,0.415918418071448,0.418936915720335,0.370288221921676,0.415918418071439,0.418936915720337,0.370288221921676
0.284708543020827,0.373297206126098,0.336072390049843,0.284708543020826,0.373297206126097,0.336072390049839,0.284708543020827,0.373297206126099,0.336072390049842,0.284708543020828,0.3732972061261,0.336072390049842,0.284708543020827
2.03759255032621,1.95893546121696,2.49038663755333,2.03759255032621,1.95893546121695,2.4903866375533,2.03759255032622,1.95893546121695,2.49038663755331,2.03759255032621,1.95893546121695,2.49038663755331,2.03759255032621
1.24114467101649,1.33222644396456,1.10406784359079,1.24114467101649,1.33222644396456,1.10406784359078,1.24114467101649,1.33222644396455,1.10406784359079,1.24114467101649,1.33222644396456,1.10406784359078,1.24114467101649
0.652124892237711,0.64825122707805,0.643305738971085,0.652124892237707,0.64825122707805,0.643305738971088,0.652124892237706,0.648251227078049,0.643305738971086,0.652124892237712,0.64825122707805,0.643305738971084,0.652124892237711
0.72520614104036,0.534380763504532,0.629431363541627,0.725206141040363,0.53438076350453,0.629431363541629,0.725206141040362,0.534380763504527,0.62943136354163,0.72520614104036,0.53438076350453,0.629431363541632,0.72520614104036
0.565173066651422,0.541756549546229,0.691946502550482,0.56517306665142,0.541756549546225,0.691946502550484,0.565173066651425,0.54175654954624,0.691946502550486,0.565173066651423,0.54175654954623,0.691946502550481,0.565173066651422
4.17080535126135,4.2689246091308,4.50904469366476,4.17080535126136,4.26892460913081,4.50904469366475,4.17080535126137,4.26892460913081,4.50904469366475,4.17080535126134,4.26892460913081,4.50904469366476,4.17080535126135
0.824680524252369,0.812654230947981,0.524555572383736,0.824680524252371,0.812654230947981,0.52455557238374,0.824680524252369,0.81265423094798,0.52455557238374,0.824680524252368,0.812654230947977,0.524555572383742,0.824680524252369
0.482614472577992,0.483562917601444,0.472447305470894,0.482614472577987,0.48356291760144,0.472447305470901,0.482614472577992,0.483562917601438,0.4724473054709,0.482614472577992,0.483562917601445,0.472447305470895,0.482614472577992
1.03662201294816,0.96681446217288,1.11424905622015,1.03662201294816,0.96681446217288,1.11424905622014,1.03662201294816,0.966814462172887,1.11424905622016,1.03662201294817,0.966814462172889,1.11424905622015,1.03662201294816
0.48522271384644,0.487752845314792,0.768734118531055,0.485222713846431,0.487752845314791,0.768734118531046,0.48522271384643,0.487752845314792,0.768734118531041,0.485222713846435,0.487752845314792,0.768734118531039,0.48522271384644
1.07721454108913,1.21192670839725,0.746020315468116,1.07721454108912,1.21192670839725,0.746020315468119,1.07721454108912,1.21192670839725,0.746020315468122,1.07721454108913,1.21192670839725,0.746020315468122,1.07721454108913
1.21469031729783,1.30179467513066,1.27821421304155,1.21469031729784,1.30179467513066,1.27821421304155,1.21469031729785,1.30179467513066,1.27821421304157,1.21469031729784,1.30179467513066,1.27821421304156,1.21469031729783
0.318926490328607,0.364514734450034,0.325720504262922,0.318926490328605,0.364514734450034,0.325720504262923,0.318926490328604,0.364514734450035,0.325720504262923,0.318926490328606,0.364514734450035,0.32572050426292,0.318926490328607
0.586114495641234,0.598231508438281,0.925524626726556,0.586114495641237,0.598231508438276,0.925524626726559,0.586114495641234,0.598231508438272,0.925524626726566,0.586114495641236,0.598231508438278,0.925524626726564,0.586114495641234
0.261581232047968,0.271662877445915,0.280520890012704,0.261581232047971,0.271662877445922,0.280520890012707,0.261581232047974,0.271662877445912,0.280520890012707,0.26158123204797,0.271662877445913,0.280520890012699,0.261581232047968
0.640784301846381,0.607399550268647,0.797415566635197,0.640784301846382,0.607399550268644,0.797415566635201,0.640784301846382,0.607399550268645,0.797415566635207,0.640784301846386,0.607399550268644,0.797415566635196,0.640784301846381
0.577616325745466,0.55951575331278,0.576450492124428,0.577616325745468,0.559515753312775,0.576450492124427,0.577616325745467,0.559515753312783,0.576450492124425,0.577616325745466,0.559515753312777,0.576450492124426,0.577616325745466
0.621759378232541,0.517954156414056,0.674989823559534,0.62175937823254,0.517954156414058,0.674989823559527,0.621759378232546,0.517954156414057,0.674989823559541,0.62175937823254,0.517954156414057,0.674989823559539,0.621759378232541
0.739655905453557,0.722282228989868,0.794194069575803,0.739655905453552,0.722282228989866,0.794194069575808,0.739655905453543,0.722282228989858,0.794194069575797,0.739655905453548,0.722282228989868,0.794194069575803,0.739655905453557
1.07971171834532,0.898567847292714,1.21942377062118,1.07971171834534,0.898567847292711,1.21942377062118,1.07971171834532,0.898567847292714,1.21942377062118,1.07971171834532,0.898567847292718,1.21942377062118,1.07971171834532
0.979874315063137,1.04919423606963,0.773648259675366,0.979874315063135,1.04919423606963,0.773648259675368,0.979874315063136,1.04919423606963,0.773648259675364,0.979874315063136,1.04919423606963,0.773648259675365,0.979874315063137
1.56087652449624,1.40558625804111,1.00304589749663,1.56087652449624,1.40558625804112,1.00304589749663,1.56087652449625,1.40558625804112,1.00304589749664,1.56087652449625,1.40558625804112,1.00304589749664,1.56087652449624
0.79258267251631,0.916734770810082,0.773120222635589,0.792582672516308,0.916734770810084,0.773120222635589,0.792582672516311,0.916734770810089,0.77312022263559,0.792582672516311,0.916734770810083,0.773120222635593,0.79258267251631
0.450634495778645,0.499763728122062,0.678437409843077,0.450634495778644,0.499763728122066,0.678437409843081,0.450634495778644,0.499763728122066,0.678437409843083,0.450634495778641,0.499763728122062,0.67843740984308,0.450634495778645
0.387027632714146,0.4816398330395,0.476372139262982,0.387027632714148,0.481639833039499,0.476372139262983,0.387027632714149,0.481639833039498,0.476372139262984,0.387027632714144,0.481639833039498,0.476372139262984,0.387027632714146
0.718977565348591,0.86897653801476,1.33634036126677,0.718977565348591,0.868976538014763,1.33634036126677,0.718977565348595,0.868976538014752,1.33634036126677,0.718977565348594,0.868976538014759,1.33634036126678,0.718977565348591
0.440956765445733,0.560732741016536,0.626207938876846,0.44095676544574,0.560732741016538,0.626207938876849,0.440956765445742,0.560732741016536,0.626207938876854,0.440956765445735,0.560732741016532,0.626207938876852,0.440956765445733
0.272267951056578,0.360182696967621,0.247339982545822,0.272267951056568,0.360182696967618,0.247339982545825,0.272267951056564,0.360182696967627,0.247339982545827,0.272267951056574,0.360182696967631,0.247339982545832,0.272267951056578
0.668332405073996,0.580263877496521,0.44781255300896,0.668332405073997,0.580263877496522,0.447812553008957,0.668332405074,0.580263877496519,0.447812553008961,0.668332405073996,0.580263877496525,0.44781255300896,0.668332405073996
0.647604425234109,0.454001116469199,0.531594051954695,0.647604425234097,0.454001116469203,0.531594051954704,0.647604425234113,0.454001116469203,0.531594051954701,0.647604425234114,0.454001116469199,0.531594051954696,0.647604425234109
0.731662666456562,0.647429029597284,0.92736064285724,0.73166266645656,0.647429029597285,0.927360642857247,0.731662666456555,0.647429029597276,0.927360642857243,0.731662666456556,0.647429029597272,0.927360642857234,0.731662666456562
0.293591411535117,0.242392639025481,0.245888891171324,0.293591411535121,0.242392639025482,0.245888891171327,0.293591411535119,0.24239263902548,0.245888891171327,0.293591411535123,0.242392639025477,0.245888891171323,0.293591411535117
0.478930063785823,0.418725486681007,0.319489570839547,0.478930063785824,0.418725486681005,0.319489570839544,0.47893006378582,0.418725486681002,0.319489570839544,0.478930063785823,0.418725486681001,0.319489570839548,0.478930063785823
1.88441615713104,1.92871425145931,2.00738515716152,1.88441615713105,1.92871425145932,2.00738515716151,1.88441615713105,1.92871425145932,2.00738515716152,1.88441615713105,1.92871425145931,2.00738515716151,1.88441615713104
0.549929110256939,0.478653042152915,0.610000716823932,0.549929110256932,0.478653042152914,0.61000071682393,0.549929110256935,0.478653042152917,0.610000716823932,0.549929110256938,0.478653042152912,0.61000071682394,0.549929110256939
0.690941722823172,0.88866408250363,0.771942492221786,0.690941722823175,0.888664082503632,0.771942492221775,0.690941722823172,0.888664082503631,0.771942492221775,0.690941722823173,0.888664082503634,0.771942492221787,0.690941722823172
0.583316838917662,0.585659863907989,0.842467236115635,0.58331683891767,0.585659863907992,0.842467236115633,0.583316838917672,0.585659863907999,0.842467236115638,0.583316838917669,0.585659863907998,0.842467236115649,0.583316838917662
3.58936575099895,3.58502321971677,3.63419896537198,3.58936575099894,3.58502321971677,3.63419896537196,3.58936575099893,3.58502321971676,3.63419896537196,3.58936575099893,3.58502321971674,3.63419896537199,3.58936575099895
0.343854410903816,0.196659571902123,0.368187500776361,0.343854410903821,0.196659571902122,0.368187500776359,0.343854410903815,0.196659571902124,0.368187500776359,0.343854410903816,0.196659571902127,0.368187500776354,0.343854410903816
0.478595520292714,0.326045622778169,0.362334240755614,0.478595520292711,0.326045622778169,0.362334240755624,0.478595520292704,0.326045622778171,0.362334240755624,0.478595520292708,0.326045622778167,0.362334240755615,0.478595520292714
1.40358579817673,1.35090355952965,2.03439237491043,1.40358579817673,1.35090355952966,2.03439237491044,1.40358579817673,1.35090355952965,2.03439237491044,1.40358579817673,1.35090355952966,2.03439237491044,1.40358579817673
1.32521161609102,1.20580251406366,0.927133497624828,1.32521161609102,1.20580251406365,0.927133497624831,1.32521161609102,1.20580251406366,0.927133497624838,1.32521161609102,1.20580251406366,0.927133497624838,1.32521161609102
0.293167523311511,0.248508655556094,0.301348633479952,0.293167523311513,0.248508655556093,0.301348633479953,0.29316752331151,0.248508655556094,0.30134863347995,0.293167523311513,0.248508655556092,0.301348633479948,0.293167523311511
0.437270852875139,0.43468689393306,0.276997708133472,0.437270852875136,0.434686893933065,0.276997708133469,0.437270852875136,0.434686893933066,0.276997708133469,0.437270852875136,0.434686893933062,0.27699770813347,0.437270852875139
