r0,r30,r60,r90,r120,r150,r180,r210,r240,r270,r300,r330,r360
1,1,1,1,1,1,1,1,1,1,1,1,1
1,1,1,0,1,1,1,1,1,0,1,1,1
1,1,1,1,1,1,1,1,1,1,1,1,1
1,1,0,1,1,1,1,1,0,1,1,1,1
1,1,1,1,1,1,1,1,1,1,1,1,1
1,1,1,1,1,1,1,1,1,1,1,1,1
1,1,1,1,1,1,1,1,1,1,1,1,1
1,1,1,1,1,1,1,1,1,1,1,1,1
1,1,1,1,1,1,1,1,1,1,1,1,1
1,1,1,1,1,1,1,1,1,1,1,1,1
1,1,0,0,0,0,1,1,0,1,0,0,1
1,1,1,1,1,1,1,1,1,1,1,1,1
1,1,1,1,1,1,1,1,1,1,1,1,1
1,1,1,1,1,1,1,1,1,1,1,1,1
1,1,1,1,1,1,1,1,1,1,1,1,1
1,1,1,1,1,1,1,1,1,1,1,1,1
1,1,1,1,1,1,1,1,1,1,1,1,1
1,1,1,1,1,1,1,1,1,1,1,1,1
1,1,0,0,0,0,0,0,0,0,0,0,1
1,1,1,1,1,1,1,1,1,1,1,1,1
1,1,1,1,1,1,1,1,1,1,1,1,1
1,1,1,1,1,1,1,1,1,1,1,1,1
1,0,0,1,0,0,0,0,0,0,0,0,1
1,1,1,1,1,1,1,1,1,1,1,1,1
1,1,1,1,1,1,1,0,1,1,1,1,1
1,1,1,1,1,1,1,1,1,1,1,1,1
1,1,1,1,1,1,1,1,1,1,1,1,1
1,1,1,1,0,0,0,0,0,0,1,1,1
1,1,1,1,1,1,1,1,1,1,1,1,1
1,1,0,1,0,0,1,1,0,1,1,0,1
1,1,1,1,1,1,1,1,1,1,1,1,1
1,1,0,0,0,0,1,1,0,0,0,0,1
1,1,1,1,1,1,1,1,1,1,1,1,1
1,1,1,1,1,1,1,1,1,1,1,1,1
1,1,1,1,1,1,1,1,1,1,1,1,1
1,1,1,1,1,1,1,1,1,1,1,1,1
1,1,1,0,0,0,1,1,1,1,1,1,1
1,0,0,0,0,0,0,0,0,0,0,0,1
1,1,1,1,1,1,1,1,1,1,1,1,1
1,1,1,1,1,1,1,1,1,1,1,1,1
1,1,1,1,1,1,1,1,1,1,1,1,1
1,1,1,1,1,1,1,1,1,1,1,1,1
1,1,1,1,1,1,1,1,1,1,1,1,1
1,1,0,0,0,0,0,0,0,0,0,1,1
1,0,1,1,0,0,1,0,1,1,0,1,1
1,1,0,1,0,1,1,1,0,1,0,1,1
1,1,1,1,1,1,1,1,1,1,1,1,1
1,1,1,1,1,1,1,1,1,1,1,1,1
1,1,1,1,1,1,1,1,1,1,1,1,1
1,1,1,1,1,1,1,1,0,1,1,1,1
1,1,1,1,1,1,1,1,1,1,1,1,1
1,1,1,1,1,1,1,1,1,1,1,1,1
1,1,0,0,0,0,1,0,0,0,0,1,1
1,1,0,0,0,0,1,1,0,0,0,0,1
1,0,0,0,0,0,0,0,0,1,0,0,1
1,1,0,0,0,0,1,0,0,0,0,1,1
1,1,1,1,1,1,1,1,1,1,1,1,1
1,1,0,1,0,1,1,1,0,1,0,1,1
1,1,0,0,0,0,0,0,0,0,0,1,1
1,1,0,1,1,0,1,1,0,1,1,0,1
1,1,1,1,1,1,1,1,1,1,1,1,1
1,1,1,1,1,1,1,1,1,1,1,1,1
1,1,1,1,1,1,1,1,1,1,1,1,1
1,1,1,1,1,1,1,1,1,1,1,1,1
1,1,1,1,1,1,1,1,1,1,1,1,1
1,0,0,0,0,1,1,0,0,0,0,1,1
1,1,1,1,1,1,1,1,1,1,1,1,1
1,1,1,1,1,0,1,1,0,1,1,1,1
1,1,1,1,1,1,1,1,1,1,1,1,1
1,1,1,1,1,1,1,1,1,1,1,1,1
1,1,1,1,1,1,1,1,1,1,1,1,1
1,1,1,1,1,1,1,1,1,1,1,1,1
1,1,1,0,0,0,0,0,0,1,1,1,1
1,1,0,0,0,0,1,0,0,0,0,1,1
1,1,1,1,0,0,1,1,0,1,1,0,1
1,1,1,1,1,1,1,1,1,1,1,1,1
1,1,1,1,1,1,1,1,1,1,1,1,1
1,1,0,0,1,0,1,1,0,0,1,1,1
1,1,1,1,1,0,1,1,0,1,1,1,1
1,1,1,1,1,1,1,1,1,1,1,1,1
1,1,1,1,1,1,1,1,1,1,1,1,1
1,1,0,0,0,0,1,1,0,0,0,0,1
1,1,1,1,1,1,1,1,1,1,1,1,1
1,1,1,1,1,1,1,1,1,1,1,1,1
1,1,1,1,1,1,1,1,1,1,1,1,1
1,1,1,1,1,1,1,1,1,1,1,1,1
1,1,1,1,1,1,1,1,1,1,1,1,1
1,1,0,1,1,1,1,1,1,1,1,1,1
1,1,1,1,1,1,1,1,1,1,1,1,1
1,1,1,1,1,1,1,1,1,1,1,1,1
1,1,1,1,1,1,1,1,1,1,1,1,1
1,1,0,0,0,1,1,1,0,0,0,1,1
1,1,1,1,1,1,1,1,1,1,1,1,1
1,1,1,1,1,1,1,1,1,1,1,1,1
1,1,1,1,1,1,1,1,1,1,1,1,1
1,1,1,1,1,1,1,1,1,1,1,1,1
1,1,1,1,1,1,1,1,1,1,1,1,1
1,1,1,1,1,1,1,1,1,1,0,1,1
1,1,1,1,1,1,1,1,1,1,1,1,1
1,1,1,1,1,1,1,1,1,1,1,1,1
1,1,1,1,1,1,1,1,1,1,1,1,1
1,1,1,1,1,0,1,1,1,1,1,1,1
1,1,0,0,0,0,1,1,0,0,0,0,1
1,1,0,0,0,0,1,1,0,0,0,1,1
1,1,1,1,1,1,1,1,1,1,1,1,1
1,1,1,1,1,1,1,1,1,1,1,1,1
1,1,0,1,0,0,1,0,0,1,0,1,1
1,1,1,1,1,1,1,1,1,1,1,1,1
1,1,1,1,1,1,1,1,1,1,1,1,1
1,1,1,1,1,1,1,1,1,1,1,1,1
1,1,0,0,0,1,1,0,0,0,0,1,1
1,1,1,1,0,0,1,0,0,1,1,1,1
1,1,1,1,0,1,1,0,1,1,0,1,1
1,1,1,1,0,0,1,1,1,1,0,1,1
1,1,1,1,1,1,1,1,1,1,1,1,1
1,1,1,1,1,1,1,1,1,1,1,1,1
1,1,0,1,0,1,1,1,0,0,0,1,1
1,1,1,1,1,1,1,1,1,1,1,1,1
1,1,1,1,1,1,1,1,1,1,1,1,1
1,1,1,1,1,1,1,1,1,1,1,1,1
1,1,1,1,0,1,1,0,1,1,0,1,1
1,1,1,1,1,1,1,1,1,1,1,1,1
1,1,1,1,1,0,1,0,0,1,1,1,1
1,1,1,1,1,1,1,1,1,1,1,1,1
1,1,0,1,0,0,1,1,0,1,0,1,1
1,0,0,0,0,0,0,0,0,0,0,0,1
1,1,1,1,1,1,1,1,1,1,1,1,1
1,1,0,0,0,1,1,0,0,0,0,1,1
1,1,1,1,1,1,1,1,1,1,1,1,1
1,1,0,0,0,0,1,0,0,1,0,0,1
1,1,1,1,1,1,1,1,1,1,1,1,1
1,1,0,0,0,0,1,0,0,0,0,0,1
1,1,1,1,1,1,1,1,1,1,1,1,1
1,0,0,0,0,0,1,0,0,0,0,0,1
1,1,1,1,1,1,1,1,1,1,1,1,1
1,1,1,1,1,1,1,1,1,1,1,1,1
1,1,1,1,1,1,1,1,1,1,1,1,1
1,1,0,0,0,1,1,1,0,0,0,1,1
1,1,1,1,1,1,1,1,1,1,1,1,1
1,1,1,1,1,1,1,1,1,1,1,1,1
1,1,1,1,1,1,1,1,1,1,1,1,1
1,1,0,0,0,0,1,1,0,0,0,1,1
1,1,1,1,1,1,1,1,1,1,1,1,1
1,1,1,1,1,1,1,1,1,1,1,1,1
1,1,1,1,1,0,1,1,0,1,1,1,1
1,1,1,1,1,1,1,1,1,1,1,1,1
1,1,1,1,1,1,1,1,1,1,1,1,1
1,1,1,1,0,0,1,1,1,1,1,1,1
1,1,1,1,1,1,1,1,1,1,1,1,1
1,1,1,1,1,1,1,1,1,1,1,1,1
1,30,30,30,30,30,30,30,30,30,30,3,1
1,3,7,30,30,30,30,30,30,30,7,4,1
1,3,30,30,30,4,1,30,30,30,30,3,1
1,4,30,30,30,30,1,30,30,30,30,30,1
1,3,6,17,30,30,1,30,30,30,7,2,1
1,1,30,30,30,30,30,30,30,30,30,1,1
1,3,30,30,30,30,30,30,30,30,30,30,1
1,30,30,30,30,30,30,30,30,30,14,3,1
1,1,1,30,30,1,1,1,1,30,1,1,1
1,3,30,30,30,3,1,30,30,30,13,3,1
1,30,30,30,30,30,30,30,30,30,30,30,1
1,3,30,30,30,30,30,30,30,30,30,30,1
1,1,30,3,30,30,30,30,30,30,30,30,1
1,1,1,1,30,1,1,30,30,1,1,1,1
1,4,30,30,30,30,30,30,30,30,30,30,1
1,30,30,30,30,30,30,30,30,30,30,30,1
1,1,22,30,30,30,4,30,30,30,10,3,1
1,1,1,1,30,1,1,1,1,1,1,1,1
1,30,30,30,30,30,30,30,30,30,30,30,1
1,1,30,30,30,30,30,30,30,30,1,1,1
1,1,6,30,10,4,1,3,9,30,9,3,1
1,3,30,30,30,30,30,30,30,30,30,4,1
1,3,8,29,30,30,30,4,30,30,19,5,1
1,1,9,17,30,30,30,30,30,30,9,1,1
1,1,30,30,30,30,30,30,30,30,30,1,1
1,3,30,30,9,4,1,30,30,30,8,3,1
1,30,30,30,30,30,30,30,30,30,13,3,1
1,12,30,30,30,30,30,30,30,30,8,5,1
1,30,30,30,30,30,30,30,30,30,30,1,1
1,1,30,30,30,30,1,30,5,30,30,30,1
1,1,30,30,30,30,30,30,30,30,30,1,1
1,30,30,30,30,30,30,30,30,30,30,30,1
1,1,30,1,1,1,1,1,1,1,30,1,1
1,1,11,30,21,4,1,1,13,30,18,1,1
1,1,7,22,13,1,1,1,8,23,19,1,1
1,3,9,30,30,30,30,30,30,27,9,10,1
1,3,30,30,30,30,30,30,30,30,30,30,1
1,30,2,30,30,30,30,30,30,30,30,30,1
1,30,30,30,30,30,30,30,30,30,30,4,1
1,8,30,30,30,30,30,30,30,30,30,3,1
1,1,1,1,1,1,1,1,1,1,1,1,1
1,1,30,30,30,30,30,30,30,30,30,1,1
1,3,13,30,30,30,30,30,30,30,15,30,1
1,30,30,30,30,30,30,30,30,30,30,30,1
1,30,30,30,30,30,1,30,30,17,30,30,1
1,30,30,30,30,5,1,30,30,30,30,5,1
1,30,30,30,30,4,1,30,30,30,7,3,1
1,3,30,30,30,30,30,30,30,30,30,5,1
1,30,30,30,30,30,1,30,30,30,30,30,1
1,30,30,30,30,30,1,30,30,30,8,4,1
1,3,30,30,30,30,30,30,30,30,30,30,1
1,30,30,30,30,30,30,30,30,30,30,4,1
1,30,30,30,30,30,30,30,30,30,30,30,1
1,6,30,30,30,30,30,30,30,30,30,30,1
1,30,30,30,30,30,30,30,30,30,30,30,1
1,30,30,30,30,30,30,30,30,30,30,30,1
1,30,30,30,30,30,30,30,30,30,30,30,1
1,30,30,30,30,5,1,30,30,30,30,5,1
1,30,30,30,30,30,30,30,30,30,30,30,1
1,1,30,30,30,30,1,30,30,30,30,30,1
1,4,30,30,30,30,30,30,30,30,30,30,1
1,3,9,30,30,6,4,30,30,30,9,3,1
1,1,30,30,30,30,30,30,30,30,30,1,1
1,1,30,30,30,30,30,30,30,30,30,1,1
1,3,30,30,30,30,30,30,30,30,30,4,1
1,30,30,30,30,30,1,30,30,30,30,6,1
1,3,30,30,30,30,5,7,30,30,30,3,1
1,3,30,30,30,30,30,30,30,30,30,30,1
1,1,30,30,30,30,30,30,30,30,30,1,1
1,1,30,30,3,30,30,30,1,30,30,1,1
1,30,30,30,30,30,30,30,30,30,30,3,1
1,3,9,22,30,30,30,30,30,30,9,3,1
1,5,30,30,30,30,30,30,30,30,30,30,1
1,30,30,30,30,30,30,30,30,30,30,30,1
1,3,30,30,30,30,30,30,30,17,10,30,1
1,30,30,30,30,30,1,30,30,30,30,30,1
1,1,30,30,30,30,1,30,30,30,30,1,1
1,30,30,30,30,30,1,30,30,30,30,30,1
1,3,8,30,30,30,1,30,30,30,30,3,1
1,1,1,30,30,30,30,30,30,30,1,1,1
1,5,16,30,30,30,30,30,30,30,20,30,1
1,30,30,30,30,30,30,30,30,30,30,30,1
1,27,30,30,30,30,30,30,30,30,30,30,1
1,30,30,30,30,30,30,30,30,30,30,30,1
1,6,30,30,30,30,4,30,30,30,30,4,1
1,30,30,30,30,30,30,30,30,30,10,4,1
1,5,30,30,30,30,1,30,30,30,30,3,1
1,4,30,30,30,30,30,30,30,30,30,30,1
1,30,30,30,30,30,30,30,30,30,30,3,1
1,3,30,30,30,30,30,30,30,30,30,30,1
1,3,30,30,30,30,30,30,30,30,30,30,1
1,30,30,30,30,6,1,30,30,30,30,5,1
1,1,7,30,30,7,1,3,30,30,11,1,1
1,30,30,30,30,30,30,30,30,30,30,30,1
1,1,30,30,3,1,1,1,30,30,1,1,1
1,30,30,30,30,30,30,30,30,30,30,30,1
1,30,30,30,30,5,1,30,30,28,30,4,1
1,30,30,30,30,30,30,30,30,30,30,3,1
1,3,9,30,30,30,30,30,30,24,11,3,1
1,1,30,30,30,4,1,30,30,30,30,1,1
1,30,10,25,30,30,1,30,30,30,9,4,1
1,1,1,1,30,1,1,3,4,1,1,1,1
1,4,30,30,30,30,30,30,30,30,30,30,1
1,30,30,30,30,30,30,30,30,30,30,30,1
1,1,30,30,30,30,30,30,30,30,30,1,1
1,1,30,30,30,30,1,5,30,30,30,1,1
1,30,30,30,30,30,30,30,30,30,30,15,1
1,3,30,30,30,30,30,30,30,30,30,30,1
1,1,1,1,1,4,3,3,1,1,1,1,1
1,30,30,30,30,30,30,30,30,30,8,3,1
1,30,30,30,30,30,30,30,30,30,30,30,1
1,30,30,30,30,30,30,30,30,30,30,30,1
1,30,30,30,30,30,30,30,30,30,30,1,1
1,30,30,30,30,30,30,30,30,30,30,30,1
1,1,30,30,30,30,5,30,30,30,30,1,1
1,30,12,30,30,30,30,30,30,30,13,4,1
1,30,30,30,30,30,30,30,30,30,30,30,1
1,30,30,30,30,30,30,30,30,30,17,4,1
1,1,3,1,1,1,1,1,1,1,1,1,1
1,30,30,30,30,30,30,30,30,30,30,4,1
1,30,30,30,30,30,30,30,30,30,30,6,1
1,1,7,14,11,3,1,30,30,30,10,1,1
1,30,30,30,30,30,30,30,30,30,30,30,1
1,6,30,30,30,30,30,30,30,30,30,4,1
1,30,30,30,30,30,30,30,30,30,30,30,1
1,30,30,30,30,30,30,30,30,30,30,30,1
1,1,30,30,30,30,30,30,30,30,30,1,1
1,30,30,30,30,30,30,30,30,30,30,30,1
1,3,6,30,30,30,30,30,30,19,8,4,1
1,30,30,30,30,30,30,30,30,30,30,30,1
1,3,7,16,10,6,3,4,8,13,9,3,1
1,30,30,30,30,30,30,30,30,30,30,1,1
1,1,30,30,30,30,30,30,30,30,3,1,1
1,30,30,30,30,30,30,30,30,30,30,30,1
1,1,8,30,30,7,1,4,30,19,7,1,1
1,30,30,30,30,30,30,30,30,30,30,4,1
1,1,1,30,30,30,3,30,30,30,1,1,1
1,30,30,30,30,30,30,30,30,30,30,30,1
1,1,30,30,30,30,1,30,30,30,30,1,1
1,4,11,28,30,30,30,30,30,30,8,4,1
1,30,30,30,30,30,1,30,30,30,30,4,1
1,30,30,30,30,30,30,30,30,30,30,30,1
1,1,30,30,30,30,30,30,30,30,30,1,1
1,30,30,30,30,30,30,30,30,30,30,30,1
1,30,30,30,30,30,30,30,30,30,30,3,1
1,30,30,30,30,30,30,30,30,30,30,30,1
1,30,30,30,30,30,30,30,30,30,8,3,1
1,30,30,30,30,30,30,30,30,30,30,30,1
1,3,7,30,30,30,30,30,30,30,7,3,1
1,1,30,30,30,30,30,30,30,30,30,1,1
1,2,7,12,18,3,1,3,8,30,11,1,1
1,1,5,30,5,1,1,1,5,30,6,1,1
1,2,4,9,5,1,1,3,5,10,6,3,1
1,1,30,30,30,1,1,1,30,17,3,1,1
1,1,3,11,4,1,1,1,4,11,3,1,1
1,1,1,1,1,1,1,1,1,1,1,1,1
1,1,8,30,30,30,30,30,30,17,9,1,1
1,1,6,11,12,1,1,1,6,12,11,1,1
1,1,1,1,1,1,1,1,1,1,1,1,1
1,1,1,16,3,1,1,1,1,30,1,1,1
1,3,30,30,30,30,30,30,30,30,30,5,1
1,3,6,24,8,5,1,3,30,27,6,3,1
1,1,1,1,1,1,1,1,1,1,1,1,1
1,1,1,1,1,1,1,1,1,1,1,1,1
1,1,30,30,30,30,30,30,30,30,30,1,1
1,3,30,30,30,30,30,30,30,30,8,3,1
1,1,1,1,1,1,1,1,1,1,1,1,1
1,1,1,1,1,1,1,1,1,1,1,1,1
1,3,30,3,30,30,30,30,30,30,30,30,1
1,1,1,1,1,1,1,1,1,1,1,1,1
1,1,1,30,1,1,1,1,3,30,1,1,1
1,1,5,20,7,4,1,3,6,12,5,1,1
1,1,1,1,1,1,1,1,1,1,1,1,1
1,1,1,9,1,1,1,1,1,6,1,1,1
1,1,1,1,1,3,2,1,3,1,1,1,1
1,1,4,8,6,1,1,1,4,9,6,1,1
1,1,4,9,9,1,1,1,6,11,11,1,1
1,3,6,14,30,4,30,19,30,30,7,3,1
1,1,1,1,1,3,3,3,1,1,1,1,1
1,1,1,1,1,1,1,1,1,1,1,1,1
1,1,8,30,30,10,5,6,18,10,3,1,1
1,30,30,30,30,30,1,30,30,30,30,4,1
1,1,1,1,1,1,1,1,1,1,1,1,1
1,1,1,11,1,1,1,1,1,11,1,1,1
1,1,1,1,1,1,1,1,1,1,1,1,1
1,1,7,30,30,30,1,3,30,23,6,1,1
1,3,8,3,1,1,1,3,8,3,1,3,1
1,1,1,3,30,30,30,3,30,30,30,30,1
1,1,6,16,9,4,1,30,30,30,7,1,1
1,1,6,10,30,4,1,6,30,30,7,1,1
1,1,1,1,1,1,1,1,1,1,1,1,1
1,1,1,1,1,1,1,1,1,1,1,1,1
1,1,10,16,13,30,1,3,9,10,4,1,1
1,30,30,30,30,30,30,30,30,30,30,30,1
1,30,15,15,30,1,1,30,30,13,30,1,1
1,1,1,8,30,1,1,1,1,7,1,1,1
1,1,5,9,6,3,1,3,5,11,6,1,1
1,3,5,30,8,4,1,3,30,9,5,3,1
1,1,30,30,30,1,1,1,30,30,30,1,1
1,30,30,16,7,3,1,30,30,30,7,3,1
1,3,6,30,30,30,1,30,30,10,6,3,1
1,30,30,30,7,3,1,30,30,30,7,3,1
1,1,4,30,30,30,1,30,1,30,30,1,1
1,3,30,30,30,30,1,7,30,30,30,1,1
1,30,30,30,30,30,30,30,30,30,30,30,1
1,30,1,30,30,30,1,30,1,30,30,30,1
1,1,21,8,3,21,30,30,3,30,30,1,1
1,30,30,30,30,4,1,30,30,30,30,3,1
1,30,30,30,30,30,30,30,30,30,30,30,1
1,1,1,30,1,1,1,1,1,4,1,1,1
1,3,6,30,30,30,3,30,30,11,7,3,1
1,1,3,9,5,1,1,1,3,10,1,1,1
1,1,1,1,1,1,1,1,1,1,1,1,1
1,1,1,30,4,1,1,1,30,30,1,1,1
1,1,5,11,6,3,1,3,6,12,5,1,1
1,30,1,30,30,5,1,30,3,30,30,3,1
1,1,4,14,5,1,1,1,5,13,5,1,1
1,1,4,16,30,5,30,30,30,30,5,1,1
1,1,1,1,1,1,1,2,1,1,1,1,1
1,1,1,1,1,1,1,1,1,1,1,1,1
1,1,30,30,30,1,1,1,30,30,30,1,1
1,1,5,14,6,1,1,1,5,12,5,1,1
1,1,11,30,30,30,30,30,30,25,9,1,1
1,30,30,30,30,30,30,30,30,30,30,30,1
1,1,8,8,4,1,1,3,7,8,4,1,1
1,1,30,30,30,1,1,1,30,30,30,1,1
1,1,1,1,1,1,1,1,1,1,1,1,1
1,1,1,30,30,3,1,1,1,30,30,1,1
1,1,1,10,6,1,1,1,1,13,5,1,1
1,1,1,1,1,1,1,1,1,1,1,1,1
1,1,12,30,1,1,1,1,1,20,9,1,1
1,1,30,30,30,1,1,1,30,30,30,1,1
1,1,30,30,30,30,1,3,30,30,30,1,1
1,1,1,21,30,30,30,30,30,30,1,1,1
1,1,6,14,7,3,1,3,7,13,8,1,1
1,1,6,10,8,3,1,3,8,13,7,1,1
1,3,5,9,5,3,1,3,6,10,5,1,1
1,1,30,30,30,30,30,30,30,30,6,1,1
1,1,4,9,6,3,1,4,7,12,6,1,1
1,1,5,30,30,30,7,30,30,9,4,1,1
1,1,1,26,30,1,1,1,30,19,1,1,1
1,30,30,30,30,4,1,30,30,30,30,4,1
1,1,1,1,1,1,1,1,1,1,1,1,1
1,3,6,30,30,12,6,30,30,15,8,3,1
1,1,1,1,1,1,1,1,1,1,1,1,1
1,1,30,30,30,30,30,30,30,30,30,1,1
1,3,5,11,4,3,1,3,5,9,1,3,1
1,1,30,30,1,1,1,1,28,30,1,1,1
1,1,5,13,6,4,3,3,6,10,4,1,1
1,1,1,9,3,1,1,1,1,9,30,1,1
1,1,6,13,7,1,1,1,6,14,7,1,1
1,1,1,1,1,1,1,1,1,1,1,1,1
1,3,6,30,1,30,1,5,6,30,1,30,1
1,1,4,30,30,30,1,30,4,30,30,1,1
1,1,1,10,30,1,1,1,3,9,1,1,1
1,1,1,8,1,1,1,1,1,8,1,1,1
1,1,30,30,30,30,1,30,30,30,30,4,1
1,1,30,5,3,3,1,3,30,8,7,1,1
1,1,1,1,1,1,1,1,1,1,1,1,1
1,3,5,10,7,3,1,3,6,18,6,2,1
1,30,30,30,30,30,30,30,30,30,30,30,1
1,2,30,30,30,30,30,30,30,13,6,1,1
1,1,30,30,1,4,3,5,30,30,1,1,1
1,3,6,30,1,1,1,30,30,13,30,1,1
1,1,1,1,1,1,1,1,1,1,1,1,1
1,1,5,20,1,1,3,1,1,8,9,1,1
1,1,1,30,30,1,1,1,1,30,30,1,1
1,1,5,12,7,2,4,3,5,14,13,1,1
1,1,1,1,1,1,1,1,1,1,1,1,1
1,30,30,30,30,30,30,30,30,30,8,3,1
1,1,30,30,9,30,30,1,30,30,30,1,1
1,1,1,9,3,1,1,1,3,10,3,1,1
1,1,11,30,30,30,30,30,30,26,10,1,1
1,1,1,1,30,1,1,1,16,1,30,1,1
1,1,4,30,30,30,30,30,30,30,30,1,1
1,30,1,30,30,1,30,30,3,30,30,10,1
1,1,1,1,1,1,1,1,1,1,1,1,1
1,1,30,30,30,30,1,30,30,30,3,1,1
1,2,5,13,7,4,1,3,6,9,5,3,1
1,3,30,30,30,4,30,30,30,30,30,3,1
1,1,5,9,5,1,1,1,6,8,4,1,1
1,1,30,30,30,30,5,30,30,30,1,1,1
1,1,1,1,1,1,3,3,1,1,1,1,1
1,30,30,30,30,30,4,30,30,30,1,30,1
1,1,1,1,1,1,1,1,1,1,1,1,1
1,1,30,30,30,3,1,30,30,30,30,1,1
1,1,1,1,1,1,1,1,1,1,1,1,1
1,30,30,30,30,30,30,30,30,30,30,30,1
1,1,1,1,1,1,1,1,1,1,1,1,1
1,3,5,13,8,4,1,4,9,30,6,2,1
1,30,30,30,6,3,1,30,30,30,6,3,1
1,1,3,30,30,7,1,30,3,30,30,1,1
1,1,1,6,1,1,1,1,1,10,1,1,1
1,1,30,30,30,1,1,1,30,30,30,1,1
1,1,7,16,30,30,30,30,30,30,8,1,1
1,1,30,30,30,30,30,30,30,30,30,1,1
1,1,5,9,7,3,1,3,7,30,6,1,1
1,30,30,7,7,1,1,30,30,10,6,3,1
1,1,5,30,5,3,1,1,5,30,5,1,1
1,1,1,1,1,1,1,1,1,1,1,1,1
0.999999999999999,0.951885160943555,0.94019948369191,0.927912331938814,0.927906474744947,0.94850382596183,0.956324946878488,0.93595202887921,0.915841390614675,0.905325265606292,0.937179234454112,0.960659213187493,0.999999999999999
0.999999999999998,0.96290690157543,0.964880591818208,0.808482747457858,0.946380717817446,0.952205733632596,0.953002646279403,0.954691558730451,0.946426076800245,0.805541032615035,0.962928456089116,0.96964264649211,0.999999999999998
1,0.962283994035402,0.945720889019801,0.940831096324013,0.9524310449359,0.966259041570097,0.962814830974176,0.95140269480991,0.947425547935006,0.93657690699576,0.95882957146898,0.967031172566724,1
1,0.960492850241222,0.901452071635654,0.907015688378409,0.905187226984718,0.932019904717716,0.964750017200513,0.959306667869753,0.902719954670875,0.912328744623386,0.913789358679131,0.957720311497512,1
1,0.97127969404993,0.962086321252985,0.960522332703222,0.950824645614689,0.957710733376978,0.965162559587435,0.949156381138312,0.944102810877921,0.946823995717166,0.972576979750681,0.960551269366514,1
1,0.97282464750478,0.951327024149454,0.942391935106853,0.943198062618369,0.946005824703351,0.941385363996818,0.945846832802637,0.946758855919875,0.943447001372251,0.949011686992668,0.975103420551485,1
1,0.960437521062349,0.93421137995896,0.829438257814492,0.829172867132884,0.846987573981371,0.83939431093953,0.835227297891206,0.841829280058086,0.91368706045327,0.91886145028454,0.937705810066036,1
0.999999999999998,0.946862574532024,0.956620337762448,0.951075641491391,0.945744554691264,0.958445078073623,0.959022725361356,0.925253085768697,0.935498566860616,0.928987324204974,0.968650206816866,0.96210286798016,0.999999999999998
0.999999999999999,0.982912964385644,0.967796045613028,0.95757131793767,0.956386747608016,0.963517951550222,0.964234203751956,0.964270221118859,0.960078838331661,0.956986709370548,0.960679793310804,0.982428149165817,0.999999999999999
1,0.961014586686554,0.957124256106408,0.954970086434537,0.953097308964763,0.963397607114674,0.980095829791256,0.955016027411762,0.951976725774665,0.907730592289573,0.960768513929086,0.969662488880843,1
0.999999999999998,0.928322772476796,0.878628320261102,0.846797401169238,0.862969494527329,0.896546825526818,0.904210517373296,0.879704820864331,0.854706932409479,0.834711389497362,0.871069128070618,0.911233161562045,0.999999999999998
1,0.965070722409681,0.925719329575619,0.912981170692886,0.919795329191994,0.919016000971458,0.933444332273212,0.921991018531966,0.900806297657836,0.911919236192308,0.930771963780579,0.935217960423931,1
0.999999999999999,0.967388199703889,0.936383907233241,0.960009965136088,0.949967457044567,0.925551578504408,0.941329309039413,0.942136320306792,0.926197432776468,0.958464007358338,0.953962380573182,0.945383593357681,0.999999999999999
1,0.982567785076885,0.969075964509279,0.962440064557754,0.958138058854209,0.961554916622038,0.96494491844839,0.959021285359404,0.959914017004229,0.962440064557753,0.967160932760419,0.983196212391653,1
1,0.964481238293762,0.84315949519268,0.80863838459058,0.810610205810487,0.810618409040969,0.813439574012163,0.822016016704658,0.871507910385383,0.884310925762795,0.88492759088354,0.9385738152305,1
1,0.951094893871118,0.871313672330795,0.83882198786119,0.851523816843224,0.848834729611836,0.861775185865112,0.852298764933724,0.825165580233459,0.896465921330453,0.914182138323216,0.915315670834963,1
0.999999999999998,0.960828591393016,0.961397131882894,0.960550628893761,0.950111767740824,0.956777577981258,0.961086579733443,0.956120425726439,0.947144356198176,0.92878401012908,0.965764161034095,0.967137114137765,0.999999999999998
0.999999999999999,0.981239845518608,0.972295178844034,0.966807224659923,0.958977273126613,0.973413653667737,0.990510888111913,0.974652441963219,0.969134946740374,0.966807224659924,0.962649797443265,0.979929796869825,0.999999999999999
1,0.9265345285252,0.841936623063668,0.920090479436727,0.886663483233561,0.880363304856444,0.903383637415721,0.8606968685635,0.852220241395355,0.893823893223256,0.857985354510895,0.880464577804422,1
1,0.982957354436762,0.956663906495015,0.95633911789954,0.957480922149271,0.944272219653319,0.950828640349238,0.946683195368626,0.943169338560633,0.950984746994046,0.963361281062798,0.972841122896871,1
0.999999999999999,0.961033063023152,0.962425429254209,0.900971632457497,0.961076122034113,0.964528626696322,0.974084460748889,0.961778640981117,0.960025985551698,0.900742815905207,0.969812981458129,0.97444000781719,0.999999999999999
1,0.962262845529438,0.955827393577865,0.919631506830731,0.926645654026354,0.943325597284973,0.94655730282615,0.934520670240271,0.932913940134213,0.947270271226028,0.954593780131588,0.969982060066341,1
1,0.960870199412177,0.960545784570578,0.960058648306885,0.935061206003364,0.95830638842951,0.940329269708762,0.960660630048124,0.95854224787856,0.939422963519153,0.960012786314595,0.960383596646636,1
0.999999999999997,0.960936963494205,0.965047120916942,0.960925286538526,0.9468201130622,0.953704691342285,0.955728990088507,0.954404269528836,0.948347834627217,0.945154569448486,0.963852970244107,0.963604019705815,0.999999999999997
1,0.960283792895956,0.923102906232568,0.933360284598941,0.93693924261965,0.93598075662406,0.940893914644472,0.947665584671146,0.938773351014862,0.928567080905788,0.931479944734708,0.964169267568163,1
0.999999999999999,0.965938761798334,0.952018956916454,0.941390440854092,0.967103120996308,0.967411202499175,0.984113522543225,0.953590090852513,0.94455033635821,0.933056021365724,0.965744982864691,0.966970006876961,0.999999999999999
0.999999999999999,0.954160756994282,0.951282386682534,0.943682262730312,0.916927257404852,0.923517015300017,0.932189513135793,0.921283798867191,0.915271963711512,0.915048321938953,0.96491921793347,0.968630058843821,0.999999999999999
0.999999999999999,0.961063254663593,0.95032629050247,0.933817690287633,0.909844026927942,0.926753391121769,0.82964674515413,0.912940782993062,0.900781022895421,0.84150732149077,0.963909375091172,0.979582421673586,0.999999999999999
0.999999999999999,0.952957740414876,0.929301460975896,0.936359796173097,0.941561095919279,0.927559164890923,0.93639462755455,0.942185539825438,0.946717632153027,0.945043255700272,0.953464310196905,0.960140753453376,0.999999999999999
1,0.967441084570102,0.959217009431521,0.951487431184957,0.944891497455912,0.954350743308426,0.965165612463501,0.957354742193714,0.960179543275335,0.956203523352406,0.94884012743003,0.948243093293542,1
1,0.960198840947201,0.959318349109206,0.906696985857155,0.907899861431675,0.914315062756363,0.914436738216719,0.914809241817432,0.91040022689305,0.949249059765726,0.951879906609135,0.960695951523724,1
0.999999999999998,0.901593803595384,0.889339433414525,0.834254487335144,0.846053173559928,0.89078743120566,0.92675809651628,0.861670985804079,0.906398473459227,0.849389649469167,0.835070365134934,0.912001454164182,0.999999999999998
1,0.971064969640937,0.956831340822921,0.976920327691532,0.975479227289138,0.960619143352045,0.962290693914832,0.965457661950824,0.975383664856628,0.976920327691531,0.959522458175012,0.972056681671644,1
0.999999999999998,0.971301019751531,0.960474381754885,0.957676182857246,0.960214864649793,0.961277141428404,0.964118235799678,0.963886863458041,0.96009161332014,0.947081725387759,0.96051153156442,0.966819766463574,0.999999999999998
1,0.982039243664297,0.960285590237143,0.960840062077746,0.96016023282113,0.964115931929725,0.987214913196804,0.975463910076317,0.96078302607563,0.960099909634594,0.960524986006377,0.972688440638262,1
1,0.96848221961029,0.96649220386479,0.905239247638725,0.909473443515505,0.905059636542457,0.920524582587362,0.918243317835076,0.905717874569146,0.965229930939305,0.962061322634223,0.963714123387852,1
0.999999999999999,0.969754879525462,0.948801872904701,0.915239140029565,0.913737044031812,0.917545872738708,0.94768912960839,0.934973978384442,0.915728213277745,0.918979651591239,0.923622849053311,0.915770816078987,0.999999999999999
0.999999999999999,0.912168040469421,0.960663617576255,0.915632398335986,0.895213674770387,0.88947137686831,0.864540641607651,0.917371693981118,0.900721715708859,0.865390183910814,0.871444471202125,0.892989251914323,0.999999999999999
1,0.945588397266115,0.918185338227139,0.924302206945884,0.911677560489471,0.918586292092711,0.918278343015004,0.905690337823341,0.891245142778501,0.894702336367454,0.943318624347057,0.967065353958717,1
0.999999999999998,0.961756276702201,0.959407073956833,0.948609378390371,0.904709366909139,0.916384865244195,0.924439130373112,0.918641639683922,0.909415787231492,0.904947928762567,0.960070351276884,0.96869268393381,0.999999999999998
1,0.995682373276602,0.991765984260753,0.990955455189648,0.988938604875264,0.98681590985564,0.987993850453847,0.986185234748973,0.986031672401758,0.990955455189648,0.994641875834973,0.997092810714644,1
0.999999999999999,0.97477359673476,0.946936634966531,0.945227324319123,0.943555667172317,0.942063711061608,0.953744854470464,0.952813882279701,0.941782149765836,0.941852913071236,0.956261827160078,0.965570769556264,0.999999999999999
0.999999999999999,0.973141861740717,0.9635091334259,0.912997815364144,0.921738633297638,0.905034966110936,0.935223157810625,0.932986602887683,0.922704550218474,0.956104620102958,0.962155936690907,0.951381708572479,0.999999999999999
1,0.859100492724318,0.867360698934886,0.853215996198445,0.843338868854165,0.879442687326597,0.84809527146796,0.816405761150114,0.84229595243829,0.77642086108286,0.814273004538185,0.864178329528211,1
0.999999999999998,0.882017007361299,0.916308903295298,0.95335070282465,0.886683765461992,0.926481297892444,0.97960153210527,0.887986044792707,0.903332020647493,0.96061017981753,0.883343406762577,0.93033937281665,0.999999999999998
0.999999999999998,0.958922294614824,0.934363478537024,0.924767557036271,0.900555572992071,0.960025181392928,0.984277574582494,0.952910768520779,0.934698584408193,0.923505664659444,0.914564986766061,0.96343134964618,0.999999999999998
1,0.943446625767869,0.94304013980423,0.934117245412921,0.951949449128254,0.965630092562059,0.974350339910195,0.923114988759295,0.930346935076991,0.924428328087193,0.964099906833954,0.96516466376298,1
1,0.968814623457053,0.948092846289502,0.906871249312755,0.917550518863366,0.919238939425227,0.927748613923669,0.920050090897575,0.908048737528382,0.949998884739598,0.947383291316749,0.961691173960004,1
1,0.945084176846999,0.872778244291086,0.850243536819304,0.884779259130666,0.941015592281699,0.961813710830744,0.935383945979916,0.881323323462512,0.852570256515792,0.879690925066876,0.950977608571923,1
1,0.909527309521978,0.909063088745667,0.916894887987091,0.939241390284138,0.954068702214322,0.963933820380597,0.887723004057828,0.900929669444303,0.896961829813091,0.961584425071256,0.977485397310457,1
1,0.969779112344435,0.93868430039162,0.881805770172355,0.879091201892311,0.885302759142084,0.917661920903178,0.899487686435879,0.875352718995105,0.946166499938555,0.940010782188291,0.958783913803506,1
0.999999999999998,0.877979111681168,0.869620760887636,0.869677094998739,0.940806503698283,0.952153445789673,0.951853896746984,0.869277624499787,0.856348261067388,0.847909893927739,0.95959912529407,0.982330345595753,0.999999999999998
0.999999999999999,0.923433279613323,0.910198100842996,0.871928294177867,0.875160199811225,0.890942744770695,0.925955080466815,0.885934041003853,0.92083288565346,0.862189850731695,0.862320360667511,0.93159060861324,0.999999999999999
1,0.966065903522315,0.902340258396302,0.832626315474387,0.880936745168182,0.901444119530486,0.918981906314842,0.923532624399827,0.897193753386544,0.810979407997194,0.87534041502073,0.921109200883943,1
1,0.891289223896399,0.861740566593875,0.855271370847163,0.866996839099084,0.899608647016692,0.860900656357768,0.840739870242601,0.897597615852189,0.829347142277134,0.870904489676519,0.877570063918449,1
1,0.882365478120399,0.931937319094398,0.843534187781057,0.82815713590435,0.863107603175662,0.918968728190022,0.844113143074336,0.913778748021988,0.834391897275194,0.817517894457389,0.873664496162142,1
1,0.918162013464765,0.925184888037119,0.938971324205273,0.943710206114193,0.913532582205403,0.901118020355232,0.878195336681832,0.921930849061269,0.886106866556721,0.84926244734528,0.912919753765304,1
1,0.884159182596685,0.844199167570436,0.754097070733995,0.772783468387936,0.96238030781695,0.961239468580216,0.86347035688242,0.847607831706023,0.753939236103917,0.774588151632156,0.970532066656902,1
0.999999999999999,0.903208273342981,0.778833006812193,0.720901933871204,0.748823096955353,0.775624700325478,0.735551533293246,0.747206691908206,0.759626351309608,0.737775972859899,0.745464783555013,0.790515607190491,0.999999999999999
0.999999999999998,0.965938447904077,0.952367214073397,0.909337597173729,0.920451479135114,0.945812637588629,0.980423468009473,0.954419376088416,0.952661997049285,0.91302955397875,0.928258627481611,0.949154095604305,0.999999999999998
0.999999999999999,0.971565460106917,0.937123482220205,0.881443096771534,0.876424490739994,0.890854139487976,0.916683236971664,0.887107720381806,0.883296938796142,0.956577306916526,0.949094891005619,0.957244980422445,0.999999999999999
0.999999999999998,0.965767549366358,0.961322841510054,0.95542709339408,0.951489189445101,0.961089331791052,0.960166152825588,0.959738827054327,0.949850171561748,0.939701246947454,0.960044764440844,0.974211986044376,0.999999999999998
0.999999999999999,0.965272919825387,0.923904391648124,0.918170643654231,0.926916121507692,0.931442095497195,0.935476160966923,0.933297451079734,0.917942058519071,0.918891418808129,0.931445385300068,0.96934121286785,0.999999999999999
0.999999999999997,0.964412793272326,0.916135959457774,0.900581938720895,0.912578031583041,0.93321179527495,0.954674620898521,0.93631758433363,0.90370900612024,0.902396993007075,0.917531233934826,0.966232636444463,0.999999999999997
1,0.966585444622259,0.952443230554827,0.93493177821527,0.945507491265568,0.946098988304207,0.950069665049011,0.949632191622869,0.938184884513448,0.956307460496284,0.947643335049872,0.960837673272498,1
1,0.909538496314691,0.938766960287482,0.798752297128592,0.859104085771367,0.957610977382422,0.9613644840055,0.894256551766495,0.925406610779843,0.802191665736357,0.86487923511211,0.965875509662152,1
0.999999999999999,0.962983047809571,0.956106677434152,0.945982558374391,0.94425595980595,0.957854979115398,0.96139468716126,0.960022138914447,0.946441102886364,0.935743263801012,0.950215245521852,0.961352577334907,0.999999999999999
1,0.961505528624769,0.931301934465093,0.929076319994241,0.890634775241728,0.917845506783137,0.902705031819808,0.899299421403137,0.906780317231026,0.87968107685551,0.943174902586003,0.953978583619962,1
1,0.968371481705769,0.948375051413728,0.945556967374293,0.919605793814427,0.912533797245897,0.916986330901264,0.912268824396496,0.926870306437369,0.945087963995738,0.950973245734831,0.971050616522197,1
0.999999999999999,0.973119712730876,0.947343641702477,0.957009459381091,0.960310947121551,0.943551416814371,0.940375772488252,0.948275864330451,0.961512888756625,0.953919987839286,0.951265178792494,0.97387790624229,0.999999999999999
1,0.945985883118746,0.896362154484639,0.89112850061033,0.88073846613339,0.935603139252388,0.93537504251475,0.910060070405915,0.891716943866922,0.885750194446271,0.887494075144274,0.96005189110601,1
0.999999999999998,0.961245295299807,0.965436091002018,0.961021340185491,0.931409264691171,0.946089568425229,0.953817011507281,0.946452987365097,0.9378643778655,0.934759500062072,0.961419553601701,0.968400192359171,0.999999999999998
0.999999999999998,0.963005041713916,0.945422236956118,0.870476722776714,0.892945470745543,0.896242104357599,0.872318732537277,0.889463707246674,0.895392198815385,0.938068648866811,0.94189585772094,0.953230163001807,0.999999999999998
1,0.85789099754079,0.844957938003821,0.790647560540966,0.892872950997646,0.829349005278607,0.903465536112428,0.849999561323184,0.847983274061685,0.803947551960945,0.847716480916865,0.865421921608798,1
1,0.974175330070983,0.924429843381536,0.922029046581188,0.925761911539098,0.951049155585397,0.939138286536196,0.929928949461666,0.928023683240692,0.962405172773694,0.960062266540724,0.959044726179265,1
0.999999999999999,0.957478430770124,0.866458482247398,0.8733713384386,0.896492452875723,0.916278503406833,0.987072571096378,0.950707216283167,0.865983077964771,0.867147853683606,0.899638919816084,0.923389118641291,0.999999999999999
1,0.964057162955261,0.949719087009044,0.955110993047265,0.942394462195466,0.94929233535949,0.967703095421835,0.947632043744694,0.942849593835409,0.954997891945217,0.946921564616665,0.966764328675124,1
0.999999999999999,0.934960747708334,0.921343585611427,0.860136510752711,0.831776282446918,0.91144340455279,0.968806980899763,0.914404112005673,0.922787078112905,0.857593718415343,0.83525969987879,0.912407824154502,0.999999999999999
1,0.96235019185513,0.960717352166624,0.951558607750545,0.93118645506651,0.953011057486287,0.969413814992372,0.948702294516014,0.935461945689221,0.921162736718716,0.959334539010167,0.966534438937833,1
0.999999999999999,0.979790699147229,0.961444913524238,0.952521296674862,0.938986436895073,0.942505252240381,0.953319036420893,0.94865464444214,0.945608082496349,0.955224210629337,0.963626523324605,0.982989349684545,0.999999999999999
1,0.961490102767999,0.964020853969197,0.894843102577483,0.92807360724446,0.922758731278535,0.918669502430381,0.932794419289105,0.932422989953008,0.954010630863052,0.960077847773083,0.937865986838745,1
0.999999999999996,0.937528858313651,0.863294459681623,0.8776441789312,0.884939891420898,0.930200282019443,0.957392085686637,0.933029486338659,0.883296532256489,0.878525989866665,0.891356536172737,0.935458231360233,0.999999999999996
1,0.961846564990848,0.866928838948939,0.869718525895896,0.871446518701272,0.894873825829411,0.938596350487817,0.917037581282545,0.871324068346521,0.890689835713305,0.89079274784767,0.934867852999804,1
0.999999999999999,0.956451896207466,0.924973843473291,0.922547817615479,0.891993959098677,0.872768150294452,0.873511063866806,0.878819924223741,0.893328447053666,0.902961436639101,0.934555174596009,0.959605948082874,0.999999999999999
1,0.961778599197121,0.941801513694876,0.941822623951189,0.941868681987987,0.949986479629997,0.962254941181601,0.955609584782548,0.938792320477202,0.935423470152248,0.951232918327486,0.965081425461919,1
1,0.933569963359789,0.926493952384542,0.931818781163511,0.942490700724776,0.948518798438497,0.947150218560503,0.919784424176279,0.914099088882878,0.914074826773669,0.965070809564467,0.971569158856904,1
1,0.962949770044202,0.945376506253804,0.952415410431286,0.929588858473237,0.948869295910968,0.977299855534749,0.949130871933555,0.927392814131163,0.933164123815564,0.948007039218115,0.969098543475351,1
1,0.965152452576012,0.900384684409163,0.885285950162838,0.898538303671295,0.898798778673826,0.898273683476828,0.894307191278856,0.892007254883442,0.904295079402426,0.92699864018535,0.93909379036334,1
0.999999999999999,0.95089820027853,0.933149562428971,0.933656571398205,0.936881448065851,0.938965038201238,0.932023387423015,0.92455945211446,0.913510858852149,0.916656305720815,0.955759636344635,0.964354631677259,0.999999999999999
1,0.97339052130285,0.950208228552519,0.899189938831427,0.898828741087601,0.905574426960213,0.910121235845587,0.901056204594607,0.894097573257985,0.945330753795258,0.949654059149016,0.95477037452903,1
0.999999999999997,0.964489709044721,0.917657307828532,0.915814567465256,0.909917658059664,0.929658403802761,0.939170824765166,0.938702125371291,0.907324441647824,0.942440141577105,0.942852830307581,0.958352551331523,0.999999999999997
1,0.883064349365169,0.879989614340171,0.837915476135962,0.832376122654603,0.981160381265029,0.98049142542691,0.870091076764834,0.880422011720101,0.840237826610289,0.836909930249958,0.960979424253805,1
0.999999999999999,0.980209449872604,0.961603351120337,0.934215561159389,0.957547190296698,0.960328640160579,0.961204333980246,0.961793606449032,0.958282863337137,0.934551646811216,0.961456429761183,0.976428093292873,0.999999999999999
1,0.959233461430418,0.946606433200701,0.898463978832506,0.897241240202072,0.910390878045232,0.915505384230373,0.904515883491671,0.902630912452932,0.950436734099027,0.933324665798596,0.95850232381099,1
1,0.98316596908479,0.955627878946047,0.944071018157472,0.961449599457078,0.97699973417274,0.989501425071964,0.976672832253705,0.951779022994876,0.944071018157472,0.961730793889303,0.984912675212504,1
1,0.944431224154529,0.88706306374823,0.881001934397238,0.895168357806374,0.895147165498154,0.884235947916203,0.900220632764068,0.905337430608089,0.885249840373354,0.882409088931428,0.945961661705463,1
0.999999999999999,0.95983979228276,0.960531045921649,0.947820411579255,0.944722953244327,0.96445180843567,0.979659740523514,0.946685658304345,0.945262373048952,0.961016386177004,0.957742319978454,0.963916150985175,0.999999999999999
1,0.944694262687651,0.902637214596706,0.90967351779618,0.921178096173298,0.946248676498472,0.948436241866223,0.92570930330864,0.911411332274765,0.908339791081429,0.930698368142113,0.971974810909444,1
1,0.973413990075145,0.96447958065254,0.921529220752001,0.928887049808837,0.931728400705406,0.93133094095541,0.932147992780414,0.927287765521872,0.96006780657459,0.960833555154428,0.964150512287398,1
0.999999999999997,0.961567177638863,0.954669564554962,0.951399776789568,0.911331116911763,0.961712576583623,0.96903285613892,0.955042792845997,0.946643156489075,0.940357677449443,0.909276430913153,0.962499210672089,0.999999999999997
0.999999999999998,0.954194443889129,0.961233032160124,0.960008690816329,0.948985432731357,0.959803698164019,0.969088312790019,0.935933535453129,0.945250412358681,0.947417655211351,0.974098374054773,0.975187254676484,0.999999999999998
1,0.976810387451576,0.964773440031347,0.961304251020634,0.957179509501671,0.960348897874668,0.964027738849568,0.961299464299088,0.960504705374849,0.961304251020634,0.966052179500872,0.979150025854937,1
1,0.962152276556891,0.920095951250866,0.807743987501598,0.92287920767035,0.909147508740216,0.922640683498804,0.911665840145595,0.913986375495428,0.809514780213028,0.910511405599032,0.903044975559468,1
1,0.934013219232507,0.911540967237092,0.873427099302279,0.883973333821518,0.902860475030975,0.941954543764688,0.88751810536907,0.916403150932063,0.873997615663953,0.882793338511316,0.912179105861867,1
1,0.965612113628966,0.917332531241806,0.913803748579663,0.908024136584739,0.954627057829474,0.94900034792493,0.93574327313854,0.924077341067495,0.91422542954557,0.918632571136781,0.964707113985848,1
1,0.964307297366012,0.912885634307483,0.943944648765377,0.941379343833762,0.948871629420241,0.961634087610025,0.962270343820424,0.913534643269861,0.949629628135333,0.945521392006693,0.96096960133847,1
1,0.910094415028459,0.879861531038091,0.837312551318957,0.880535924384208,0.907610281258079,0.922781402090079,0.88790697622819,0.874880435309708,0.853215664518415,0.886226413448114,0.962887843055952,1
0.999999999999999,0.969448597923,0.90198624203598,0.927067936479536,0.924666111303563,0.918650177854202,0.930747601638241,0.919382856504964,0.908510594120409,0.936106604982769,0.944632968955957,0.950842198766806,0.999999999999999
0.999999999999999,0.973441796912549,0.961487815098152,0.971476837395009,0.965093598795228,0.961888947312202,0.96183123761417,0.962511584847444,0.963683471518108,0.971476837395009,0.960496887087838,0.975129365571624,0.999999999999999
0.999999999999999,0.926535842108442,0.941174508528496,0.944781036700064,0.929269227456534,0.945113624522976,0.950498961594669,0.911338121941017,0.923428331304392,0.916124406901904,0.96669914376346,0.96749269686315,0.999999999999999
0.999999999999999,0.882923871974732,0.798722783360257,0.774564896798576,0.786730074610571,0.859388362736169,0.834641364517895,0.819638820715905,0.806675510256096,0.775317871872639,0.783240829156074,0.875850339863055,0.999999999999999
1,0.958479324487475,0.901033960408046,0.865118758653472,0.891814666265439,0.887116012776314,0.888000217138994,0.903370174015694,0.863353935812094,0.925805318373297,0.928370958306302,0.918748113269575,1
1,0.958044498870939,0.900086496794986,0.889570058442902,0.936639549772866,0.917907964840738,0.92095606712426,0.914760757250602,0.885032067650255,0.891097662217394,0.929541728274178,0.963916214231241,1
0.999999999999999,0.928227090951001,0.939474458910383,0.868305443697402,0.914411746535616,0.910096535089572,0.920690746297961,0.879890583709935,0.892945083167311,0.922479210441134,0.904669101216037,0.919423378573967,0.999999999999999
1,0.978166746801496,0.953942133088179,0.947627296887709,0.947728594216755,0.956777751639704,0.961946186503601,0.954303821817702,0.941266615262025,0.9446793617714,0.955297110793769,0.975427620927263,1
1,0.948338096055513,0.960765705186736,0.954047076022311,0.936542257882063,0.93182608487896,0.917449750941175,0.930272066338667,0.934887461492527,0.923743305151673,0.970891098706796,0.962517265525982,1
1,0.926143943339177,0.917002645901723,0.874150185051256,0.891449765379663,0.916134070685395,0.922993487834469,0.916571666069659,0.915971376349161,0.858768711986152,0.899241806599604,0.936236388014069,1
0.999999999999997,0.955107590163239,0.958975505152671,0.943861354801063,0.918822404998501,0.917517974308939,0.919644420431713,0.915963730508,0.917871035336438,0.912523129773172,0.964980185935839,0.964917338254636,0.999999999999997
0.999999999999998,0.979150795787539,0.960220946938119,0.963997277471909,0.971369065044329,0.964056343968478,0.965724299955732,0.97362995852972,0.970241874150888,0.963997277471908,0.964653366119967,0.978020046882725,0.999999999999998
0.999999999999997,0.879409818739537,0.867135385709491,0.849721950944934,0.907243825986573,0.905733371297238,0.891530934851622,0.88202373526702,0.866894710715505,0.85685409286931,0.927369877886022,0.967292332810315,0.999999999999997
1,0.927357349889903,0.869429348832532,0.871876391264296,0.91334744148593,0.906875808113285,0.907089048492643,0.913943176140333,0.881969605326323,0.880072619105574,0.889857111069249,0.963080773181244,1
1,0.961182769376834,0.965820420436327,0.960417679855868,0.960139852124396,0.962457572434433,0.973637298557999,0.95585656510004,0.959325395146513,0.954773690660016,0.971667938988571,0.9618275667336,1
1,0.95037731840261,0.934859251842386,0.892967575023351,0.888149373468108,0.876402718352818,0.875663650992325,0.894031364776266,0.900955738821116,0.926810942815804,0.938958766019272,0.951423190690115,1
0.999999999999999,0.967216903739836,0.914961613698809,0.94409118068089,0.903430630857122,0.943541186446516,0.956559660160275,0.9457938622719,0.936001173849405,0.943677391789389,0.909142416992359,0.973244557645486,0.999999999999999
0.999999999999999,0.950029508124788,0.913182952389578,0.850191350368675,0.885159524240111,0.902745951098039,0.895070559822758,0.883494273559591,0.906256353251611,0.854328258486877,0.893870728746137,0.950949770504894,0.999999999999999
0.999999999999999,0.887901510116851,0.954293893751826,0.888641844841396,0.909108183162383,0.938904122901741,0.89760943147732,0.895042683105185,0.923785587510514,0.876969647734026,0.895041717886538,0.933950064467666,0.999999999999999
0.999999999999998,0.963028718983538,0.932512978352723,0.94807375452832,0.959016364504535,0.929797304310094,0.915807428742956,0.934573753771477,0.953805890316501,0.947681991775163,0.934104573077599,0.966476698203335,0.999999999999998
0.999999999999997,0.914958809103532,0.898607472425085,0.855438692340982,0.894987280504569,0.874937591360764,0.936970478326209,0.879701469326649,0.890222989121668,0.842931879569766,0.914742395404103,0.915822442948436,0.999999999999997
1,0.978062403388449,0.960921567435136,0.924736750729516,0.928561229169758,0.935400891813687,0.942898606739343,0.931714039654248,0.924105467422536,0.960320719794543,0.963692577576543,0.96713572216057,1
1,0.957174384899451,0.860057513963552,0.849370057497922,0.868620336142974,0.919067060018684,0.832148589162408,0.862363599833177,0.866377028222452,0.863602363826004,0.887784869870093,0.913380882410631,1
0.999999999999997,0.973515830123679,0.965387498308827,0.960204295758534,0.960241266914952,0.962739940552826,0.973997376088959,0.967386346788938,0.960462574218826,0.961807617651048,0.960629881952441,0.963371334799302,0.999999999999997
1,0.915380284245623,0.85137751441555,0.84659936182243,0.832771017420166,0.856800214985081,0.911874100996388,0.862429441180887,0.866842582154845,0.836703625847975,0.919583873787075,0.966917211785041,1
1,0.978044406561365,0.955810493056791,0.938809318675754,0.929252849919557,0.928896738841039,0.927140588283304,0.928890540117693,0.942930201754371,0.957878702476183,0.961515943861159,0.981054329189275,1
0.999999999999997,0.865886243254009,0.900381396829971,0.877800176277561,0.867890839815697,0.859264178794723,0.937265058720097,0.866721651338625,0.890136075956321,0.862798679299269,0.9309023498423,0.895148579492597,0.999999999999997
0.999999999999998,0.97649075593207,0.965997370728902,0.95274602154254,0.95525658044196,0.960785287848075,0.963782829956951,0.961912993832233,0.954546482111492,0.961044939744225,0.960741783580909,0.976298050144332,0.999999999999998
0.999999999999998,0.912305977910099,0.90116698408687,0.896984480327271,0.835165377274579,0.943732903613229,0.950013997884684,0.891640585950991,0.886714340188232,0.878973244963621,0.833303877589439,0.97835233554252,0.999999999999998
1,0.978257144333831,0.966792840927774,0.9585650584281,0.956334485067246,0.958772407479056,0.960269079750013,0.95385574486722,0.955747751528189,0.955794432678794,0.961237486887642,0.984537176568729,1
1,0.866250424532221,0.855266283335102,0.818334331088577,0.847617116149016,0.842524636814139,0.890835719736334,0.847491778864559,0.842964555336137,0.836459525615616,0.82168018473456,0.867045547765981,1
1,0.971738555128378,0.94547351343248,0.938263091545692,0.940950723831338,0.95313244202595,0.975493470523594,0.956099957940468,0.935615355200006,0.938595871704846,0.947549007318376,0.971655065198019,1
1,0.961179188987214,0.960135557040251,0.960749684891193,0.911787780422186,0.924186849920607,0.923665569151617,0.922569413738807,0.914185111257772,0.899384528062271,0.961203312545799,0.974425835889384,1
1,0.905352560460373,0.874069142151311,0.866770601815831,0.934876905797258,0.959886106477041,0.969529638708108,0.884070578332423,0.862835212583468,0.860570147690121,0.952778160255124,0.978664993440583,1
0.999999999999998,0.917522267718522,0.937890760264063,0.832523315287511,0.823951069761294,0.919670668124688,0.931314084941416,0.881665764196249,0.942867455508799,0.844044949824164,0.830259366538951,0.921200912688464,0.999999999999998
1,0.967688201094964,0.920760582055595,0.93950659942738,0.943519234915822,0.946593211872168,0.955406707681492,0.954071801328216,0.916955298115139,0.955992761909507,0.930958034176949,0.967375494298475,1
0.999999999999999,0.958041918464372,0.886986454390994,0.854587312705937,0.881708212943069,0.930773963767767,0.954277552445017,0.928907538573354,0.872567620189138,0.857071414942605,0.894033779407323,0.955637748964165,0.999999999999999
0.999999999999999,0.947352567336992,0.929960785102505,0.930925735166902,0.903419227296924,0.894070530141914,0.896381451766965,0.895807040428806,0.894139269393601,0.884066083990952,0.93145881198003,0.961323846534026,0.999999999999999
1,0.944796875585003,0.864251712497589,0.837771732450054,0.851507588408206,0.874573644116185,0.894898097200467,0.875674262537046,0.851990912856795,0.838905898786136,0.863037047870271,0.944651275639056,1
0.999999999999999,0.939427650829667,0.938925143410944,0.924429044909783,0.922911430624318,0.934574469098235,0.946829196127428,0.920949757548513,0.914333808593284,0.901711273625485,0.961732906122338,0.970572106822231,0.999999999999999
1,0.909924152180415,0.909078747269888,0.947062143097898,0.919176051821855,0.916725364344007,0.934087192603429,0.877738130104722,0.876201526896028,0.917152523427172,0.930904638372709,0.940413931085032,1
1,0.974941242504859,0.967503888228789,0.825191991499773,0.941904366908841,0.941773521830463,0.946705132177603,0.949333118046993,0.933774627563124,0.825441620054814,0.970209227841521,0.967084415265814,1
0.999999999999997,0.962153806263591,0.941398508102803,0.938585716335388,0.938773609423708,0.936927982014791,0.934544996893569,0.924942553883837,0.941139765446247,0.935160435795474,0.935546391868861,0.965813980233643,0.999999999999997
