r0,r30,r60,r90,r120,r150,r180,r210,r240,r270,r300,r330,r360
1,0,0,0,0,0,1,0,0,0,0,0,1
1,0,0,0,0,0,0,0,0,0,0,0,1
1,0,0,0,0,0,0,0,0,0,0,0,1
1,1,0,0,0,0,1,0,0,0,0,1,1
1,0,0,0,0,0,1,0,0,0,0,1,1
1,1,0,0,0,0,0,0,0,0,0,1,1
1,1,0,0,0,0,0,0,0,0,0,0,1
1,1,0,0,0,0,1,0,0,0,0,1,1
1,1,0,0,1,1,1,1,0,0,0,1,1
1,1,0,0,0,0,1,0,0,0,0,0,1
1,0,0,0,0,0,0,0,0,0,0,0,1
1,0,0,0,0,0,0,0,0,0,0,0,1
1,1,1,1,0,0,0,0,0,1,1,1,1
1,1,1,1,1,1,1,1,1,1,1,1,1
1,0,0,0,0,0,0,0,0,0,0,0,1
1,0,0,0,0,0,0,0,0,0,0,0,1
1,1,0,0,0,0,0,1,0,0,0,0,1
1,1,1,0,0,1,1,1,1,1,0,1,1
1,0,0,0,0,0,0,0,0,0,0,0,1
1,1,0,0,0,0,0,0,0,0,0,1,1
1,1,0,0,0,0,1,0,0,0,0,0,1
1,0,0,0,0,0,0,0,0,0,0,0,1
1,1,0,0,0,0,0,0,0,0,1,1,1
1,1,0,0,0,0,0,0,0,0,0,1,1
1,1,0,0,0,0,0,0,0,0,0,1,1
1,1,0,0,0,0,1,0,0,0,0,1,1
1,0,0,0,0,0,0,0,0,0,0,1,1
1,0,0,0,0,0,0,0,0,0,0,0,1
1,1,0,0,0,0,0,0,0,0,0,1,1
1,1,0,0,0,0,0,0,0,0,0,1,1
1,1,0,0,0,0,0,0,0,0,0,1,1
1,0,0,0,0,0,0,0,0,0,0,0,1
1,1,1,1,1,1,1,1,1,1,1,1,1
1,1,0,0,0,1,1,1,0,0,0,1,1
1,1,0,0,0,1,1,1,0,0,0,1,1
1,0,0,0,0,0,0,0,0,0,0,0,1
1,0,0,0,0,0,0,0,0,0,0,0,1
1,0,0,0,0,0,0,0,0,0,0,0,1
1,0,0,0,0,0,0,0,0,0,0,0,1
1,0,0,0,0,0,0,0,0,0,0,0,1
1,1,1,1,1,1,1,1,1,1,1,1,1
1,1,0,0,0,0,0,0,0,0,0,1,1
1,1,0,0,0,0,0,0,0,0,0,0,1
1,0,0,0,0,0,0,0,0,0,0,1,1
1,0,0,0,0,0,1,0,0,0,0,0,1
1,0,0,0,0,1,1,0,0,0,0,0,1
1,0,0,0,0,0,1,0,0,0,0,0,1
1,0,0,0,0,0,0,0,0,0,0,0,1
1,0,0,0,0,0,1,0,0,0,0,0,1
1,0,0,0,0,0,1,0,0,0,0,0,1
1,0,0,0,0,0,0,0,0,0,0,0,1
1,0,0,0,0,0,0,0,0,0,0,0,1
1,0,0,0,0,0,0,0,0,0,0,0,1
1,0,0,0,0,0,0,0,0,0,0,0,1
1,0,0,0,0,0,0,0,0,0,0,0,1
1,0,0,0,0,0,0,0,0,0,0,0,1
1,0,0,0,0,0,0,0,0,0,0,0,1
1,0,0,0,0,0,1,0,0,0,0,0,1
1,0,0,0,0,0,0,0,0,0,0,0,1
1,1,0,0,0,0,1,1,0,0,0,0,1
1,0,0,0,0,0,0,0,0,0,0,0,1
1,0,0,0,0,0,0,0,0,0,0,0,1
1,1,0,0,0,0,0,0,0,0,0,1,1
1,1,0,0,0,0,0,0,0,0,0,1,1
1,1,0,0,0,0,0,0,0,0,0,0,1
1,0,0,0,0,0,1,0,0,0,0,0,1
1,0,0,0,0,0,0,0,0,0,0,0,1
1,0,0,0,0,0,0,0,0,0,0,1,1
1,1,1,1,0,0,0,0,0,0,1,1,1
1,1,0,0,1,0,0,0,1,0,0,1,1
1,0,0,0,0,0,0,0,0,0,0,0,1
1,0,0,0,0,0,0,0,0,0,0,0,1
1,0,0,0,0,0,0,0,0,0,0,0,1
1,0,0,0,0,0,0,0,0,0,0,0,1
1,0,0,0,0,0,0,0,0,0,0,0,1
1,1,0,0,0,1,1,1,0,0,0,1,1
1,1,0,1,0,1,1,0,0,1,0,1,1
1,0,0,0,0,0,1,0,0,0,0,0,1
1,0,0,0,0,0,1,0,0,0,0,0,1
1,1,1,1,0,0,0,0,0,0,1,1,1
1,0,0,0,0,0,0,0,0,0,0,0,1
1,0,0,0,0,0,0,0,0,0,0,0,1
1,1,0,0,0,0,0,0,0,0,0,0,1
1,1,0,0,0,0,0,0,0,0,0,1,1
1,1,0,0,0,0,0,0,0,0,0,0,1
1,0,0,0,0,0,0,0,0,0,0,0,1
1,0,0,0,0,0,1,0,0,0,0,0,1
1,1,0,0,0,0,0,0,0,0,0,1,1
1,0,0,0,0,0,0,0,0,0,0,0,1
1,0,0,0,0,0,0,0,0,0,0,0,1
1,1,0,0,0,0,0,0,0,0,0,1,1
1,0,0,0,0,0,1,0,0,0,0,0,1
1,1,1,1,1,1,1,1,1,0,1,1,1
1,0,0,0,0,0,0,0,0,0,0,0,1
1,1,0,0,1,1,1,1,0,0,1,1,1
1,1,0,0,0,0,0,0,0,0,0,1,1
1,0,0,0,0,0,1,0,0,0,0,0,1
1,0,0,0,0,0,0,0,0,0,0,0,1
1,1,0,0,0,0,0,0,0,0,0,0,1
1,0,0,0,0,0,0,0,0,0,0,0,1
1,0,0,0,0,0,1,0,0,0,0,0,1
1,1,0,0,0,0,1,0,0,1,1,1,1
1,0,0,0,0,0,0,0,0,0,0,0,1
1,1,0,0,0,0,0,0,0,0,0,0,1
1,1,0,0,0,0,0,0,0,0,0,1,1
1,1,0,0,0,0,1,0,0,0,0,1,1
1,0,0,0,0,0,0,0,0,0,0,0,1
1,1,0,0,0,0,0,0,0,0,0,0,1
1,1,1,1,1,1,0,0,1,1,1,1,1
1,0,0,0,0,0,0,0,0,0,0,0,1
1,0,0,0,0,0,0,0,0,0,0,0,1
1,1,0,0,0,0,0,0,0,0,0,0,1
1,0,0,0,0,0,0,0,0,0,0,1,1
1,0,0,0,0,0,0,0,0,0,0,0,1
1,1,0,0,0,0,0,0,0,0,1,1,1
1,0,0,0,0,0,0,0,0,0,0,0,1
1,0,0,0,0,0,0,0,0,0,0,0,1
1,0,0,0,0,0,0,0,0,0,0,1,1
1,1,1,0,1,1,1,1,1,1,1,1,1
1,0,0,0,0,0,0,0,0,0,0,0,1
1,0,0,0,0,0,0,0,0,0,0,0,1
1,0,0,0,0,1,1,0,0,0,0,1,1
1,1,0,0,0,0,0,0,0,0,0,1,1
1,0,0,1,0,0,1,0,0,1,0,0,1
1,1,0,0,0,0,0,0,0,0,0,1,1
1,0,0,0,0,0,0,0,0,0,0,0,1
1,1,1,1,1,0,0,1,1,1,1,1,1
1,0,0,0,0,0,0,0,0,0,0,0,1
1,0,0,0,0,0,0,0,0,0,0,0,1
1,0,0,0,0,0,0,0,0,0,0,0,1
1,1,0,0,0,0,1,0,0,0,0,1,1
1,1,0,0,0,0,0,0,0,0,0,0,1
1,1,1,0,0,0,0,0,0,0,0,1,1
1,0,0,0,0,0,0,0,0,0,0,0,1
1,1,0,0,0,0,1,0,0,0,0,1,1
1,0,0,0,0,0,1,0,0,0,0,0,1
1,1,1,0,0,0,0,0,0,0,0,1,1
1,0,0,0,0,0,0,0,0,0,0,0,1
1,1,0,0,0,1,1,1,0,0,1,1,1
1,0,0,0,0,0,0,0,0,0,0,0,1
1,0,0,0,0,0,0,0,0,0,0,0,1
1,0,0,0,0,0,0,0,0,0,0,1,1
1,1,0,0,0,0,0,0,0,0,0,1,1
1,1,0,0,0,0,0,0,0,0,0,1,1
1,1,0,0,0,0,0,0,0,0,0,1,1
1,1,0,0,0,0,0,0,0,0,0,1,1
1,0,0,0,0,0,0,0,0,0,0,0,1
1,0,0,0,0,0,0,0,0,0,0,0,1
1,0,0,0,0,0,0,0,0,0,0,0,1
1,1,1,1,1,0,0,1,1,1,1,1,1
1,1,1,1,1,1,1,1,1,1,1,1,1
1,1,1,1,1,1,1,1,1,1,1,1,1
1,1,1,1,1,1,1,1,1,1,1,1,1
1,1,1,1,1,1,1,1,1,1,1,1,1
1,1,1,1,1,1,1,1,1,1,1,1,1
1,1,1,1,1,1,1,1,1,1,1,1,1
1,1,1,1,1,1,1,1,1,1,1,1,1
1,1,1,1,1,1,1,1,1,1,1,1,1
1,1,1,1,1,1,1,1,1,1,1,1,1
1,1,1,1,1,1,1,1,1,1,1,1,1
1,1,1,1,1,1,1,1,1,1,1,1,1
1,1,1,1,1,1,1,1,1,1,1,1,1
1,1,1,1,1,1,1,1,1,1,1,1,1
1,1,1,1,1,1,1,1,1,1,1,1,1
1,1,1,1,1,1,1,1,1,1,1,1,1
1,1,1,1,1,1,1,1,1,1,1,1,1
1,1,1,1,1,1,1,1,1,1,1,1,1
1,1,1,1,1,1,1,1,1,1,1,1,1
1,1,1,1,1,1,1,1,1,1,1,1,1
1,1,1,1,1,1,1,1,1,1,1,1,1
1,1,1,1,1,1,1,1,1,1,1,1,1
1,1,1,1,1,1,1,1,1,1,1,1,1
1,1,1,1,1,1,1,1,1,1,1,1,1
1,1,1,1,1,1,1,1,1,1,1,1,1
1,1,1,1,1,1,1,1,1,1,1,1,1
1,1,1,1,1,1,1,1,1,1,1,1,1
1,1,1,1,1,1,1,1,1,1,1,1,1
1,1,1,1,1,1,1,1,1,1,1,1,1
1,1,1,1,1,1,1,1,1,1,1,1,1
1,1,1,1,1,1,1,1,1,1,1,1,1
1,1,1,1,1,1,1,1,1,1,1,1,1
1,1,1,1,1,1,1,1,1,1,1,1,1
1,1,1,1,1,1,1,1,1,1,1,1,1
1,1,1,1,1,1,1,1,1,1,1,1,1
1,1,1,1,1,1,1,1,1,1,1,1,1
1,1,1,1,1,1,1,1,1,1,1,1,1
1,1,1,1,1,1,1,1,1,1,1,1,1
1,1,1,1,1,1,1,1,1,1,1,1,1
1,1,1,1,1,1,1,1,1,1,1,1,1
1,1,1,1,1,1,1,1,1,1,1,1,1
1,1,1,1,1,1,1,1,1,1,1,1,1
1,1,1,1,1,1,1,1,1,1,1,1,1
1,1,1,1,1,1,1,1,1,1,1,1,1
1,1,1,1,1,1,1,1,1,1,1,1,1
1,1,1,1,1,1,1,1,1,1,1,1,1
1,1,1,1,1,1,1,1,1,1,1,1,1
1,1,1,1,1,1,1,1,1,1,1,1,1
1,1,1,1,1,1,1,1,1,1,1,1,1
1,1,1,1,1,1,1,1,1,1,1,1,1
1,1,1,1,1,1,1,1,1,1,1,1,1
1,1,1,1,1,1,1,1,1,1,1,1,1
1,1,1,1,1,1,1,1,1,1,1,1,1
1,1,1,1,1,1,1,1,1,1,1,1,1
1,1,1,1,1,1,1,1,1,1,1,1,1
1,1,1,1,1,1,1,1,1,1,1,1,1
1,1,1,1,1,1,1,1,1,1,1,1,1
1,1,1,1,1,1,1,1,1,1,1,1,1
1,1,1,1,1,1,1,1,1,1,1,1,1
1,1,1,1,1,1,1,1,1,1,1,1,1
1,1,1,1,1,1,1,1,1,1,1,1,1
1,1,1,1,1,1,1,1,1,1,1,1,1
1,1,1,1,1,1,1,1,1,1,1,1,1
1,1,1,1,1,1,1,1,1,1,1,1,1
1,1,1,1,1,1,1,1,1,1,1,1,1
1,1,1,1,1,1,1,1,1,1,1,1,1
1,1,1,1,1,1,1,1,1,1,1,1,1
1,1,1,1,1,1,1,1,1,1,1,1,1
1,1,1,1,1,1,1,1,1,1,1,1,1
1,1,1,1,1,1,1,1,1,1,1,1,1
1,1,1,1,1,1,1,1,1,1,1,1,1
1,1,1,1,1,1,1,1,1,1,1,1,1
1,1,1,1,1,1,1,1,1,1,1,1,1
1,1,1,1,1,1,1,1,1,1,1,1,1
1,1,1,1,1,1,1,1,1,1,1,1,1
1,1,1,1,1,1,1,1,1,1,1,1,1
1,1,1,1,1,1,1,1,1,1,1,1,1
1,1,1,1,1,1,1,1,1,1,1,1,1
1,1,1,1,1,1,1,1,1,1,1,1,1
1,1,1,1,1,1,1,1,1,1,1,1,1
1,1,1,1,1,1,1,1,1,1,1,1,1
1,1,1,1,1,1,1,1,1,1,1,1,1
1,1,1,1,1,1,1,1,1,1,1,1,1
1,1,1,1,1,1,1,1,1,1,1,1,1
1,1,1,1,1,1,1,1,1,1,1,1,1
1,1,1,1,1,1,1,1,1,1,1,1,1
1,1,1,1,1,1,1,1,1,1,1,1,1
1,1,1,1,1,1,1,1,1,1,1,1,1
1,1,1,1,1,1,1,1,1,1,1,1,1
1,1,1,1,1,1,1,1,1,1,1,1,1
1,1,1,1,1,1,1,1,1,1,1,1,1
1,1,1,1,1,1,1,1,1,1,1,1,1
1,1,1,1,1,1,1,1,1,1,1,1,1
1,1,1,1,1,1,1,1,1,1,1,1,1
1,1,1,1,1,1,1,1,1,1,1,1,1
1,1,1,1,1,1,1,1,1,1,1,1,1
1,1,1,1,1,1,1,1,1,1,1,1,1
1,1,1,1,1,1,1,1,1,1,1,1,1
1,1,1,1,1,1,1,1,1,1,1,1,1
1,1,1,1,1,1,1,1,1,1,1,1,1
1,1,1,1,1,1,1,1,1,1,1,1,1
1,1,1,1,1,1,1,1,1,1,1,1,1
1,1,1,1,1,1,1,1,1,1,1,1,1
1,1,1,1,1,1,1,1,1,1,1,1,1
1,1,1,1,1,1,1,1,1,1,1,1,1
1,1,1,1,1,1,1,1,1,1,1,1,1
1,1,1,1,1,1,1,1,1,1,1,1,1
1,1,1,1,1,1,1,1,1,1,1,1,1
1,1,1,1,1,1,1,1,1,1,1,1,1
1,1,1,1,1,1,1,1,1,1,1,1,1
1,1,1,1,1,1,1,1,1,1,1,1,1
1,1,1,1,1,1,1,1,1,1,1,1,1
1,1,1,1,1,1,1,1,1,1,1,1,1
1,1,1,1,1,1,1,1,1,1,1,1,1
1,1,1,1,1,1,1,1,1,1,1,1,1
1,1,1,1,1,1,1,1,1,1,1,1,1
1,1,1,1,1,1,1,1,1,1,1,1,1
1,1,1,1,1,1,1,1,1,1,1,1,1
1,1,1,1,1,1,1,1,1,1,1,1,1
1,1,1,1,1,1,1,1,1,1,1,1,1
1,1,1,1,1,1,1,1,1,1,1,1,1
1,1,1,1,1,1,1,1,1,1,1,1,1
1,1,1,1,1,1,1,1,1,1,1,1,1
1,1,1,1,1,1,1,1,1,1,1,1,1
1,1,1,1,1,1,1,1,1,1,1,1,1
1,1,1,1,1,1,1,1,1,1,1,1,1
1,1,1,1,1,1,1,1,1,1,1,1,1
1,1,1,1,1,1,1,1,1,1,1,1,1
1,1,1,1,1,1,1,1,1,1,1,1,1
1,1,1,1,1,1,1,1,1,1,1,1,1
1,1,1,1,1,1,1,1,1,1,1,1,1
1,1,1,1,1,1,1,1,1,1,1,1,1
1,1,1,1,1,1,1,1,1,1,1,1,1
1,1,1,1,1,1,1,1,1,1,1,1,1
1,1,1,1,1,1,1,1,1,1,1,1,1
1,1,1,1,1,1,1,1,1,1,1,1,1
1,1,1,1,1,1,1,1,1,1,1,1,1
1,1,1,1,1,1,1,1,1,1,1,1,1
1,1,1,1,1,1,1,1,1,1,1,1,1
1,1,1,1,1,1,1,1,1,1,1,1,1
1,1,1,1,1,1,1,1,1,1,1,1,1
1,1,1,1,1,1,1,1,1,1,1,1,1
1,1,1,1,1,1,1,1,1,1,1,1,1
1,1,1,1,1,1,1,1,1,1,1,1,1
1,1,1,1,1,1,1,1,1,1,1,1,1
1,1,1,1,1,1,1,1,1,1,1,1,1
1,1,1,1,1,1,1,1,1,1,1,1,1
1,1,1,1,1,1,1,1,1,1,1,1,1
1,1,1,1,1,1,1,1,1,1,1,1,1
1,1,1,1,1,1,1,1,1,1,1,1,1
1,1,1,1,1,1,1,1,1,1,1,1,1
1,1,1,1,1,1,1,1,1,1,1,1,1
1,1,1,1,1,1,1,1,1,1,1,1,1
1,1,1,1,1,1,1,1,1,1,1,1,1
1,1,1,1,1,1,1,1,1,1,1,1,1
1,1,1,1,1,1,1,1,1,1,1,1,1
1,1,1,1,1,1,1,1,1,1,1,1,1
1,1,1,1,1,1,1,1,1,1,1,1,1
1,1,1,1,1,1,1,1,1,1,1,1,1
1,1,1,1,1,1,1,1,1,1,1,1,1
1,1,1,1,1,1,1,1,1,1,1,1,1
1,1,1,1,1,1,1,1,1,1,1,1,1
1,1,1,1,1,1,1,1,1,1,1,1,1
1,1,1,1,1,1,1,1,1,1,1,1,1
1,1,1,1,1,1,1,1,1,1,1,1,1
1,1,1,1,1,1,1,1,1,1,1,1,1
1,1,1,1,1,1,1,1,1,1,1,1,1
1,1,1,1,1,1,1,1,1,1,1,1,1
1,1,1,1,1,1,1,1,1,1,1,1,1
1,1,1,1,1,1,1,1,1,1,1,1,1
1,1,1,1,1,1,1,1,1,1,1,1,1
1,1,1,1,1,1,1,1,1,1,1,1,1
1,1,1,1,1,1,1,1,1,1,1,1,1
1,1,1,1,1,1,1,1,1,1,1,1,1
1,1,1,1,1,1,1,1,1,1,1,1,1
1,1,1,1,1,1,1,1,1,1,1,1,1
1,1,1,1,1,1,1,1,1,1,1,1,1
1,1,1,1,1,1,1,1,1,1,1,1,1
1,1,1,1,1,1,1,1,1,1,1,1,1
1,1,1,1,1,1,1,1,1,1,1,1,1
1,1,1,1,1,1,1,1,1,1,1,1,1
1,1,1,1,1,1,1,1,1,1,1,1,1
1,1,1,1,1,1,1,1,1,1,1,1,1
1,1,1,1,1,1,1,1,1,1,1,1,1
1,1,1,1,1,1,1,1,1,1,1,1,1
1,1,1,1,1,1,1,1,1,1,1,1,1
1,1,1,1,1,1,1,1,1,1,1,1,1
1,1,1,1,1,1,1,1,1,1,1,1,1
1,1,1,1,1,1,1,1,1,1,1,1,1
1,1,1,1,1,1,1,1,1,1,1,1,1
1,1,1,1,1,1,1,1,1,1,1,1,1
1,1,1,1,1,1,1,1,1,1,1,1,1
1,1,1,1,1,1,1,1,1,1,1,1,1
1,1,1,1,1,1,1,1,1,1,1,1,1
1,1,1,1,1,1,1,1,1,1,1,1,1
1,1,1,1,1,1,1,1,1,1,1,1,1
1,1,1,1,1,1,1,1,1,1,1,1,1
1,1,1,1,1,1,1,1,1,1,1,1,1
1,1,1,1,1,1,1,1,1,1,1,1,1
1,1,1,1,1,1,1,1,1,1,1,1,1
1,1,1,1,1,1,1,1,1,1,1,1,1
1,1,1,1,1,1,1,1,1,1,1,1,1
1,1,1,1,1,1,1,1,1,1,1,1,1
1,1,1,1,1,1,1,1,1,1,1,1,1
1,1,1,1,1,1,1,1,1,1,1,1,1
1,1,1,1,1,1,1,1,1,1,1,1,1
1,1,1,1,1,1,1,1,1,1,1,1,1
1,1,1,1,1,1,1,1,1,1,1,1,1
1,1,1,1,1,1,1,1,1,1,1,1,1
1,1,1,1,1,1,1,1,1,1,1,1,1
1,1,1,1,1,1,1,1,1,1,1,1,1
1,1,1,1,1,1,1,1,1,1,1,1,1
1,1,1,1,1,1,1,1,1,1,1,1,1
1,1,1,1,1,1,1,1,1,1,1,1,1
1,1,1,1,1,1,1,1,1,1,1,1,1
1,1,1,1,1,1,1,1,1,1,1,1,1
1,1,1,1,1,1,1,1,1,1,1,1,1
1,1,1,1,1,1,1,1,1,1,1,1,1
1,1,1,1,1,1,1,1,1,1,1,1,1
1,1,1,1,1,1,1,1,1,1,1,1,1
1,1,1,1,1,1,1,1,1,1,1,1,1
1,1,1,1,1,1,1,1,1,1,1,1,1
1,1,1,1,1,1,1,1,1,1,1,1,1
1,1,1,1,1,1,1,1,1,1,1,1,1
1,1,1,1,1,1,1,1,1,1,1,1,1
1,1,1,1,1,1,1,1,1,1,1,1,1
1,1,1,1,1,1,1,1,1,1,1,1,1
1,1,1,1,1,1,1,1,1,1,1,1,1
1,1,1,1,1,1,1,1,1,1,1,1,1
1,1,1,1,1,1,1,1,1,1,1,1,1
1,1,1,1,1,1,1,1,1,1,1,1,1
1,1,1,1,1,1,1,1,1,1,1,1,1
1,1,1,1,1,1,1,1,1,1,1,1,1
1,1,1,1,1,1,1,1,1,1,1,1,1
1,1,1,1,1,1,1,1,1,1,1,1,1
1,1,1,1,1,1,1,1,1,1,1,1,1
1,1,1,1,1,1,1,1,1,1,1,1,1
1,1,1,1,1,1,1,1,1,1,1,1,1
1,1,1,1,1,1,1,1,1,1,1,1,1
1,1,1,1,1,1,1,1,1,1,1,1,1
1,1,1,1,1,1,1,1,1,1,1,1,1
1,1,1,1,1,1,1,1,1,1,1,1,1
1,1,1,1,1,1,1,1,1,1,1,1,1
1,1,1,1,1,1,1,1,1,1,1,1,1
1,1,1,1,1,1,1,1,1,1,1,1,1
1,1,1,1,1,1,1,1,1,1,1,1,1
1,1,1,1,1,1,1,1,1,1,1,1,1
1,1,1,1,1,1,1,1,1,1,1,1,1
1,1,1,1,1,1,1,1,1,1,1,1,1
1,1,1,1,1,1,1,1,1,1,1,1,1
1,1,1,1,1,1,1,1,1,1,1,1,1
1,1,1,1,1,1,1,1,1,1,1,1,1
1,1,1,1,1,1,1,1,1,1,1,1,1
1,1,1,1,1,1,1,1,1,1,1,1,1
1,1,1,1,1,1,1,1,1,1,1,1,1
1,1,1,1,1,1,1,1,1,1,1,1,1
1,1,1,1,1,1,1,1,1,1,1,1,1
1,1,1,1,1,1,1,1,1,1,1,1,1
1,1,1,1,1,1,1,1,1,1,1,1,1
1,1,1,1,1,1,1,1,1,1,1,1,1
1,1,1,1,1,1,1,1,1,1,1,1,1
1,1,1,1,1,1,1,1,1,1,1,1,1
1,1,1,1,1,1,1,1,1,1,1,1,1
1,1,1,1,1,1,1,1,1,1,1,1,1
1,1,1,1,1,1,1,1,1,1,1,1,1
1,1,1,1,1,1,1,1,1,1,1,1,1
1,1,1,1,1,1,1,1,1,1,1,1,1
1,1,1,1,1,1,1,1,1,1,1,1,1
1,1,1,1,1,1,1,1,1,1,1,1,1
1,1,1,1,1,1,1,1,1,1,1,1,1
1,1,1,1,1,1,1,1,1,1,1,1,1
1,1,1,1,1,1,1,1,1,1,1,1,1
1,1,1,1,1,1,1,1,1,1,1,1,1
1,1,1,1,1,1,1,1,1,1,1,1,1
1,1,1,1,1,1,1,1,1,1,1,1,1
1,1,1,1,1,1,1,1,1,1,1,1,1
1,1,1,1,1,1,1,1,1,1,1,1,1
1,1,1,1,1,1,1,1,1,1,1,1,1
1,1,1,1,1,1,1,1,1,1,1,1,1
1,1,1,1,1,1,1,1,1,1,1,1,1
1,1,1,1,1,1,1,1,1,1,1,1,1
1,1,1,1,1,1,1,1,1,1,1,1,1
1,1,1,1,1,1,1,1,1,1,1,1,1
1,1,1,1,1,1,1,1,1,1,1,1,1
1,1,1,1,1,1,1,1,1,1,1,1,1
1,1,1,1,1,1,1,1,1,1,1,1,1
1,1,1,1,1,1,1,1,1,1,1,1,1
1,1,1,1,1,1,1,1,1,1,1,1,1
1,1,1,1,1,1,1,1,1,1,1,1,1
1,1,1,1,1,1,1,1,1,1,1,1,1
1,1,1,1,1,1,1,1,1,1,1,1,1
1,1,1,1,1,1,1,1,1,1,1,1,1
1,1,1,1,1,1,1,1,1,1,1,1,1
1,1,1,1,1,1,1,1,1,1,1,1,1
1,1,1,1,1,1,1,1,1,1,1,1,1
1,1,1,1,1,1,1,1,1,1,1,1,1
1,1,1,1,1,1,1,1,1,1,1,1,1
1,1,1,1,1,1,1,1,1,1,1,1,1
1,1,1,1,1,1,1,1,1,1,1,1,1
1,1,1,1,1,1,1,1,1,1,1,1,1
1,1,1,1,1,1,1,1,1,1,1,1,1
0.999999999999999,0.941679980284363,0.919182905830105,0.963175475845657,0.917107566872769,0.943398460791701,0.956212195085744,0.943836603555506,0.931635730265831,0.959143094020213,0.912470880776322,0.937368444980359,0.999999999999999
0.999999999999998,0.948844835159084,0.948127857438442,0.94719296038285,0.963092542570135,0.952958376975718,0.965046272175021,0.944118804331871,0.951323334806949,0.946163969731315,0.954613402506506,0.955936724272291,0.999999999999998
1,0.964585866535372,0.946813608945683,0.950148583197183,0.947016530847859,0.937709319287651,0.963412142586045,0.963535055814941,0.952841154265292,0.940888605064873,0.957698529312466,0.942787231055822,1
1,0.957897243227058,0.922069505720183,0.943318538352574,0.938568934318623,0.935183801637543,0.964750017200513,0.937110077188564,0.933207515248184,0.94668855182206,0.938342089231124,0.957720311497512,1
1,0.958854677517163,0.946388972336228,0.967271420910644,0.962673023053158,0.949614713285622,0.965162559587435,0.961285548600148,0.94848585380333,0.958522862952378,0.956420627655883,0.959616397841818,1
1,0.97282464750478,0.955997050689807,0.955675256403413,0.951515414552939,0.953863602418464,0.956336242929633,0.949922203375641,0.959413526548498,0.962312199176014,0.954627527364667,0.975103420551485,1
1,0.918249519450118,0.946820120936774,0.919227124728414,0.891428798920841,0.900794086915769,0.90249613262503,0.885395133971994,0.923560257932931,0.886813883696854,0.898727266345847,0.923534365547316,1
0.999999999999998,0.940391661450942,0.942688354964188,0.96850062923519,0.93811509949946,0.9382890856088,0.959022725361356,0.936299004848996,0.94325034791731,0.96884005583623,0.940626315727031,0.940613946122228,0.999999999999998
0.999999999999999,0.982912964385644,0.969315965231122,0.957972314512945,0.955648538710121,0.963517951550222,0.964234203751956,0.964270221118859,0.967894410812815,0.975339599881535,0.966110891095492,0.982428149165817,0.999999999999999
1,0.953201375560362,0.951216689849888,0.962312199176014,0.95310128366139,0.969900186260697,0.980095829791256,0.950423930375285,0.953804818662892,0.956421604095687,0.958985490073955,0.971933123086988,1
0.999999999999998,0.903745194981753,0.871349675633172,0.881772790029878,0.904221959312742,0.902734078509732,0.969755160862903,0.906578597715784,0.897221352026462,0.87719169170525,0.895537939290245,0.921619641441199,0.999999999999998
1,0.922584386624005,0.92332495328931,0.92046685273579,0.94001040241787,0.951112794365484,0.96033731540467,0.944619540905756,0.919595166302276,0.93724253862985,0.963480753382142,0.943896032528047,1
0.999999999999999,0.967388199703889,0.955009402669805,0.957406578494496,0.95637711673689,0.956068678555044,0.963121171305442,0.949336180895068,0.951466550746006,0.957406578494496,0.953962380573182,0.966354032820257,0.999999999999999
1,0.982567785076885,0.969075964509279,0.962440064557754,0.956370368517912,0.961554916622038,0.96494491844839,0.958383974706125,0.958198293900378,0.962440064557753,0.967160932760419,0.983196212391653,1
1,0.968745830432889,0.926515794023001,0.914486677151105,0.931580089355468,0.914129473841192,0.915874329658733,0.91959029991488,0.917017757182871,0.916797507784336,0.924267130948195,0.946395423179011,1
1,0.910276729920012,0.889187150527376,0.884860654678674,0.907788407878583,0.909682325310809,0.93387405423869,0.876930421003449,0.909801561797656,0.898905037534486,0.898923481082514,0.933530235351302,1
0.999999999999998,0.960828591393016,0.95913621891254,0.96471599913189,0.952026038280807,0.958010348295979,0.967704718085982,0.952309548062186,0.959195876323514,0.967252301131085,0.956960822968605,0.959737473601576,0.999999999999998
0.999999999999999,0.981239845518608,0.972295178844034,0.970584247233534,0.965738686541014,0.973413653667737,0.990510888111913,0.974652441963219,0.969134946740374,0.966807224659924,0.964804737289699,0.979929796869825,0.999999999999999
1,0.925855027577023,0.896362212189702,0.904595061907218,0.901700592132721,0.934298520787116,0.969755160862902,0.912891642737619,0.891585353292532,0.928034984157619,0.919071283572776,0.913478216555193,1
1,0.982957354436762,0.963910252972618,0.964016188925036,0.96247252068732,0.960059107870688,0.957049727163932,0.96086572703745,0.959941832647459,0.966447871981446,0.96636667693822,0.972841122896871,1
0.999999999999999,0.961033063023152,0.955111469927295,0.963947552286232,0.953407421935781,0.975129483256321,0.974084460748889,0.954613550461845,0.960579085827589,0.968654133685075,0.95033498370852,0.978773070126971,0.999999999999999
1,0.926210781422168,0.938307544375122,0.921944467903089,0.907935539045358,0.937058490824507,0.936444856722571,0.915126351571869,0.925873822713194,0.930311283706906,0.916411046392914,0.945056188712994,1
1,0.97182258195575,0.954376230659638,0.949709199184864,0.941287623814509,0.945621357282659,0.953876946890081,0.953253636691025,0.953797998267454,0.948062541366756,0.944836509967724,0.977151912015295,1
0.999999999999997,0.960936963494205,0.94304607654167,0.950148949229642,0.942182180805124,0.954833078020072,0.954970072709402,0.961962351473239,0.94455424919734,0.963819022416287,0.956119268542424,0.963604019705815,0.999999999999997
1,0.961029868637441,0.944389777821865,0.957058932032723,0.95394562045191,0.954443880367622,0.962817904140903,0.953577882707121,0.938061924365157,0.950143324792865,0.95290381438682,0.964169267568163,1
0.999999999999999,0.950076739716717,0.933761278598262,0.950778317402357,0.917481209497886,0.951898633198622,0.984113522543225,0.953642206641821,0.935829466858236,0.937762796787223,0.924855211457704,0.943551327260212,0.999999999999999
0.999999999999999,0.942480806152893,0.931482975147882,0.937626584906686,0.940127389752522,0.94384611533606,0.944697759531791,0.93958971424109,0.936456352315639,0.944553537287507,0.925603583079021,0.937340410349972,0.999999999999999
0.999999999999999,0.947873760711458,0.920089779523044,0.932499911737077,0.924218461071251,0.922987272424454,0.964036109052898,0.931019767207493,0.939308228504382,0.94239664670214,0.935183733695563,0.943444945786837,0.999999999999999
0.999999999999999,0.952957740414876,0.930687592834907,0.942672440904865,0.956950473833986,0.94009738939795,0.946553067128621,0.942168845538064,0.947761683001903,0.931022101346271,0.932032874383074,0.960140753453376,0.999999999999999
1,0.967441084570102,0.967929739103227,0.970638992557675,0.972667229022561,0.959335093864309,0.97551318948645,0.965699773188548,0.96081543199133,0.96349523919235,0.964076614326014,0.968626588099547,1
1,0.960198840947201,0.940950482906994,0.962734850105256,0.934875257188387,0.939007018212494,0.953787099541115,0.936999932973114,0.942522324341623,0.938645316972237,0.934997772242277,0.960695951523724,1
0.999999999999998,0.949678502863031,0.945501988760487,0.954751882903195,0.948956258162065,0.928354476142007,0.963290852501847,0.955147637259752,0.928624619006452,0.954599942319253,0.944390402808334,0.938707875542109,0.999999999999998
1,0.971064969640937,0.956162373770452,0.976920327691532,0.975479227289138,0.960619143352045,0.962290693914832,0.965457661950824,0.975383664856628,0.976920327691531,0.959522458175012,0.972056681671644,1
0.999999999999998,0.971301019751531,0.957477832798552,0.959368331675348,0.94347704537531,0.949920284443979,0.964118235799678,0.963886863458041,0.959107707521191,0.957321688656629,0.950602057809417,0.966819766463574,0.999999999999998
1,0.982039243664297,0.956616411188011,0.970525532774431,0.956478858605301,0.964115931929725,0.987214913196804,0.975463910076317,0.961979704957655,0.976645556820926,0.96007737260991,0.972688440638262,1
1,0.945125468132548,0.941701019894747,0.948388132418277,0.939708161819293,0.936254966474966,0.950194567287123,0.94768203373358,0.942078619617456,0.945979599334175,0.946542302622587,0.943376726294029,1
0.999999999999999,0.961634299425782,0.929761173587113,0.946340616326007,0.927097339680611,0.968164512795959,0.96033731540467,0.92375948349901,0.929878788244827,0.9428437375033,0.94384729675728,0.950333536465922,0.999999999999999
0.999999999999999,0.954155882184604,0.959398057817278,0.935809403532221,0.931429911479587,0.907612852294928,0.946282129682768,0.931717913107261,0.949564339217866,0.909364569615359,0.920596353663786,0.90295057222624,0.999999999999999
1,0.943674657641449,0.924100196803156,0.945667818560963,0.914827740546867,0.930224964602046,0.942612006750264,0.928007711185978,0.932924693161933,0.945479998618228,0.930869095450993,0.931050178853806,1
0.999999999999998,0.930077854662879,0.927918788568094,0.94427679962873,0.918097520894635,0.937730870637451,0.954603724456053,0.926924973554724,0.935130573637128,0.939623644856484,0.927526081063109,0.933176403957014,0.999999999999998
1,0.995682373276602,0.991765984260753,0.990955455189648,0.988938604875264,0.98681590985564,0.987993850453847,0.986185234748973,0.986031672401758,0.990955455189648,0.994641875834973,0.997092810714644,1
0.999999999999999,0.97477359673476,0.953736657015533,0.944502891208018,0.945268640652651,0.941490428892993,0.943893842726836,0.942398414846315,0.946444140973296,0.947445944389443,0.950876330528817,0.965570769556264,0.999999999999999
0.999999999999999,0.949093029404885,0.950551134223003,0.945471069216233,0.955467878054883,0.945535166043037,0.960217922309768,0.944032436750613,0.947010952653703,0.944091185546849,0.955471194154846,0.951028360837752,0.999999999999999
1,0.904912890237768,0.888974337114794,0.893694212728113,0.89335837700627,0.87533077344164,0.912712753854494,0.862825347864332,0.88013383882042,0.888209954107792,0.880960034917818,0.864178329528211,1
0.999999999999998,0.953183022886355,0.94127990800077,0.948023437018062,0.952346673178179,0.957831928659126,0.97960153210527,0.941187144174332,0.946856048500975,0.960183948025717,0.950798646474441,0.95831141274439,0.999999999999998
0.999999999999998,0.975194603632633,0.958029560097117,0.964067021327362,0.957456379952437,0.952104828185553,0.984277574582494,0.974229211803938,0.957821350245859,0.960270705319664,0.964342965060226,0.959857230926349,0.999999999999998
1,0.957237649936918,0.935815717300415,0.949733073172393,0.953778425637342,0.94544000647452,0.974350339910195,0.951887098547974,0.944519789911844,0.954751882903195,0.947628380147672,0.951326134493363,1
1,0.929081269862062,0.95338756493242,0.929072480044613,0.952459551357621,0.944278050128683,0.948788902592041,0.952619710192941,0.940923554472034,0.928607600521052,0.941145057319328,0.959529815285819,1
1,0.969902164009476,0.958811312481131,0.966280488561398,0.954359383558756,0.948038492206485,0.961813710830744,0.947266761549347,0.961944359608762,0.967271420910644,0.954099524802212,0.954003391263606,1
1,0.949819211559704,0.91632949479101,0.947434123362834,0.936808138919724,0.940019694876084,0.963933820380597,0.955903905283256,0.933620315994675,0.929085152442555,0.952847625294164,0.945522252618643,1
1,0.923729440169458,0.939195144367866,0.926176608658944,0.930822616511894,0.944897523340641,0.95618833746671,0.96467877357949,0.939785828600426,0.924689653866912,0.922349617781533,0.963461068483908,1
0.999999999999998,0.97379082627591,0.935100539625066,0.935973548823951,0.941810796901282,0.958570029043374,0.97289280550158,0.964855135109416,0.924045294505784,0.941867871143457,0.92890453078383,0.965581996903201,0.999999999999998
0.999999999999999,0.945618752740667,0.950218152274012,0.948575742043884,0.94443379312093,0.946932869646938,0.937993442322998,0.925611534986787,0.950835225449571,0.948972146303091,0.951374214110175,0.935625285502287,0.999999999999999
1,0.946731292002847,0.938094545691728,0.94770417961092,0.95230222902707,0.936120971528062,0.953719283889422,0.936949276380895,0.95565719881981,0.956182585412989,0.949464467733547,0.960110055277953,1
1,0.919204948355298,0.912715483127411,0.939207923694519,0.920744921841737,0.931490359144793,0.920607404621488,0.926895092128881,0.927125366592727,0.932499911737077,0.936776061513895,0.902109524721935,1
1,0.923927500366398,0.948319091097692,0.944175801438659,0.929093614319419,0.914959909528593,0.93708475349625,0.945015016341606,0.946537224414063,0.939027986411134,0.931639244187057,0.938436330236521,1
1,0.928069377060815,0.941250364798684,0.940607278028964,0.921006325193644,0.929445289129204,0.925029321742062,0.928471628399021,0.918928608260414,0.942672440904865,0.910263568186342,0.92645420640071,1
1,0.972085552055739,0.949079726038036,0.938907390940557,0.930876283180242,0.935532235754588,0.961239468580216,0.956321996929367,0.959295790487969,0.926390550291658,0.950792334084324,0.921643262997662,1
0.999999999999999,0.815228650372419,0.835754421779155,0.784834458546585,0.800160374284741,0.794551010649448,0.790322775532961,0.791122104321807,0.802467918757375,0.8148861742681,0.805841609378951,0.820545954920428,0.999999999999999
0.999999999999998,0.965938447904077,0.965308156479765,0.960106585959366,0.957345643272204,0.950061308340002,0.980423468009473,0.954419376088416,0.961831966364423,0.963947552286232,0.953111348435714,0.956689709635651,0.999999999999998
0.999999999999999,0.891085681936716,0.917060230618096,0.923092732810322,0.939410773030148,0.94785725932796,0.943343695557151,0.880365385654663,0.929958526559415,0.908128419729335,0.936347004943785,0.93370083812744,0.999999999999999
0.999999999999998,0.959678979737599,0.945887643452172,0.955018799271584,0.947001880865816,0.973837817723836,0.966099471436117,0.957081340155105,0.95523536764176,0.954200412586935,0.950040537865352,0.957483833443248,0.999999999999998
0.999999999999999,0.965272919825387,0.941590275422969,0.95871500714655,0.954812358025658,0.939818668955081,0.948320560394309,0.939851867018958,0.954059077421491,0.95572466526667,0.942690156577554,0.96934121286785,0.999999999999999
0.999999999999997,0.964412793272326,0.958615406671842,0.968654133685076,0.966422530915319,0.942095760597006,0.959473569858681,0.945579602378683,0.955079808022771,0.965277440943642,0.956427939553523,0.966232636444463,0.999999999999997
1,0.938841150168635,0.946285970076863,0.932394857794658,0.943938329990039,0.949036354982765,0.936446942677873,0.929066617354617,0.931299336526248,0.952784159915102,0.926423380186485,0.951945357660599,1
1,0.96738512384745,0.956182294068289,0.91728690783314,0.944519859050526,0.931454874138168,0.9613644840055,0.952936683663469,0.958589282967084,0.927909147745026,0.947119687807415,0.945725463799529,1
0.999999999999999,0.954386885803163,0.943697154697644,0.959171104438981,0.923514699491136,0.952644021815882,0.953091277336626,0.927266154711506,0.950533125839663,0.944801909475577,0.91857808895142,0.946314370244777,0.999999999999999
1,0.94588659079133,0.937352662723238,0.92503322901787,0.932360098428439,0.948751293835584,0.931479244577245,0.924838041924601,0.947168759052892,0.930586490630467,0.916331147785134,0.945797565157695,1
1,0.968371481705769,0.948375051413728,0.945087963995738,0.938082896716226,0.940775623353101,0.944159776162574,0.941658331700112,0.942439684176352,0.952156234176985,0.950620461897497,0.971050616522197,1
0.999999999999999,0.973119712730876,0.958794300423683,0.955931988136696,0.955877851384806,0.954840918072369,0.961484029048763,0.958044563800489,0.961512888756625,0.961026829213243,0.95853232640551,0.97387790624229,0.999999999999999
1,0.954796193192667,0.957862791317737,0.941749927923392,0.939020359176137,0.946075994433184,0.945586696799912,0.952309446852898,0.96206546404627,0.943795242266594,0.948183172674332,0.97574770171163,1
0.999999999999998,0.943421708871765,0.947055528979724,0.954052174304626,0.916560690374467,0.943215890775895,0.954423809136396,0.929887401478156,0.947090351525579,0.95764970873659,0.924868389016973,0.953458808964636,0.999999999999998
0.999999999999998,0.939035867355049,0.925803875859315,0.931076426880113,0.92567826168479,0.920484562615567,0.926256657131319,0.933206365379648,0.928224024310331,0.919594063942777,0.933985629522386,0.943053267715574,0.999999999999998
1,0.932034107317804,0.933282688337373,0.929350377213932,0.941616588024585,0.920125004455031,0.943469522967752,0.9335858030664,0.936556469967511,0.928184686416515,0.936766062993808,0.922797661208992,1
1,0.942376293702728,0.946867613776791,0.945304529486492,0.955883699486012,0.952084779091742,0.943589030369607,0.942411506102722,0.95016656959699,0.935458025246594,0.954387851152645,0.959044726179265,1
0.999999999999999,0.957478430770124,0.960186741764641,0.976645556820927,0.95849276970947,0.947589695968027,0.987072571096378,0.950707216283167,0.954536477780298,0.971495730453118,0.963408479848851,0.954943296105007,0.999999999999999
1,0.964057162955261,0.952001879390391,0.954997891945217,0.949525271770829,0.948617322088432,0.967703095421835,0.951473707705282,0.95033862389111,0.954997891945217,0.949183270372618,0.966764328675124,1
0.999999999999999,0.94903162643946,0.940941225172132,0.968840055836229,0.949101747680511,0.946768323383232,0.968806980899763,0.947738186115899,0.939515687986323,0.968500629235189,0.939527316109437,0.945247224655727,0.999999999999999
1,0.942410183111729,0.953933589272276,0.971495730453117,0.922861705594189,0.952642093151552,0.969413814992372,0.948772718276174,0.955683765188002,0.973671980538438,0.920754755132546,0.950279482015775,1
0.999999999999999,0.979790699147229,0.961444913524238,0.95182139577219,0.944342854338815,0.946003708716473,0.953703754428956,0.943010558013762,0.943710469356769,0.95513427472642,0.963626523324605,0.982989349684545,0.999999999999999
1,0.948074005825516,0.947499007127214,0.944477963217032,0.941461485318027,0.973951365825966,0.949416167120714,0.955295686835249,0.945731718995804,0.947443563220419,0.96095106075578,0.951761386902487,1
0.999999999999996,0.94735095788624,0.962338830093142,0.951150450153291,0.958899420755473,0.950923362293802,0.961236785278595,0.943350000886303,0.95121209470313,0.956616397491775,0.967396612156311,0.949357333443068,0.999999999999996
1,0.95114683643769,0.948483558037038,0.949903323786417,0.953908682307415,0.938099674268956,0.953719283889423,0.947779294624748,0.93825868208355,0.930723755448779,0.949601054665784,0.943980781306907,1
0.999999999999999,0.956064969938537,0.930245619308355,0.941770812016893,0.939259305058241,0.936263866973166,0.935391084409402,0.933220867974911,0.929237380912415,0.933683238850044,0.929976405726077,0.958091078689555,0.999999999999999
1,0.940535950723635,0.942404264786043,0.951602380167226,0.922056613650824,0.947742921992711,0.951903055658718,0.938250608847311,0.944003994600638,0.964316964737524,0.946823066742525,0.96458377412555,1
1,0.95520771943766,0.936533135181184,0.935774274910867,0.959117122929895,0.9553355728376,0.961260675539732,0.954514492889249,0.939690659199586,0.949512633564295,0.942117833850412,0.940238378983147,1
1,0.934002983481777,0.933078700389191,0.93926522236741,0.921299962669287,0.925181305517686,0.977299855534749,0.940453683791769,0.930343233188767,0.927919673599682,0.912634546141363,0.928940326977107,1
1,0.941267750828756,0.915390671570605,0.926622326152354,0.92544550761442,0.928889984397346,0.930369830891228,0.933201481652275,0.920509699850345,0.925596333692541,0.934874459954366,0.939943924280284,1
0.999999999999999,0.958427227581,0.935459337080165,0.94362627283553,0.964213069274251,0.940321230455434,0.958799797830571,0.965245123508197,0.937700002745788,0.933074098252858,0.947190609056334,0.94368783711808,0.999999999999999
1,0.939310576770311,0.932884272672767,0.934458762586026,0.928802368917736,0.944098320140382,0.935841673410617,0.926156215535109,0.942743190540445,0.932251399016729,0.92820138392506,0.94188889598586,1
0.999999999999997,0.958402814607024,0.941060610136549,0.930645720009536,0.936160232162272,0.944300072003931,0.945042981847164,0.940488916886906,0.937229435081115,0.949177802608256,0.94247009399105,0.958352551331523,0.999999999999997
1,0.956658173190877,0.950817252301701,0.942843737503301,0.938259497749954,0.926957097491829,0.98049142542691,0.959244980583665,0.947373226624687,0.946136223182288,0.920949813194543,0.926386867162226,1
0.999999999999999,0.980209449872604,0.946861052801161,0.933346624184049,0.943988065998383,0.953161205200432,0.961204333980246,0.956580286748633,0.940004046652737,0.941820643877075,0.946429839946646,0.976428093292873,0.999999999999999
1,0.953861170921834,0.924993251715177,0.932600125099883,0.944929949715122,0.940495703870758,0.929558684238893,0.9241569118853,0.925079353547166,0.910213896620703,0.926156085481185,0.94407426889987,1
1,0.98316596908479,0.957549732633366,0.963478518782766,0.958318554291758,0.97699973417274,0.989501425071964,0.976672832253705,0.955582079944147,0.956293223810415,0.961730793889303,0.984912675212504,1
1,0.944431224154529,0.932534716155518,0.92488264317771,0.93512390634967,0.940410500594703,0.937349845672821,0.924930726239008,0.923964430529636,0.926549021816165,0.936128693027184,0.945961661705463,1
0.999999999999999,0.922164126035514,0.927843335902187,0.917730451491819,0.944372023078067,0.96726235385019,0.979659740523514,0.92894806055807,0.939107944979456,0.906064314884614,0.94343848227049,0.970908078742595,0.999999999999999
1,0.953525268131303,0.961312995440096,0.954849408528985,0.945299867354184,0.94939920975671,0.950321414801289,0.951599007662655,0.955552554363435,0.955017808163541,0.947879397107802,0.951603988743323,1
1,0.951009221794151,0.931144764501139,0.944062480255618,0.938205540020754,0.954150161397137,0.939565870824356,0.931713447446286,0.939867340344018,0.92990008219926,0.933358324672887,0.952559074501276,1
0.999999999999997,0.967430231282832,0.95212875748679,0.967866963409759,0.95401765584223,0.961140793977705,0.975374700684071,0.965945507618415,0.953089274138644,0.97072245265982,0.955510310377439,0.967972847175844,0.999999999999997
0.999999999999998,0.944125547558385,0.9430200398203,0.943303420902154,0.950779421263172,0.931652857543948,0.969088312790019,0.938428589275145,0.932353285045632,0.94824461693664,0.950003913141885,0.928992279115162,0.999999999999998
1,0.976810387451576,0.973663003505092,0.972964039196935,0.966197433118394,0.964465486552307,0.964027738849568,0.965968346256738,0.962690332424012,0.961304251020634,0.966052179500872,0.979150025854937,1
1,0.939950387847266,0.92687993712571,0.92987374732328,0.958470377116183,0.96432950065112,0.925783755040286,0.943044607601689,0.927368869244921,0.938907390940556,0.946790281001528,0.943738712322471,1
1,0.934013219232507,0.957839854432568,0.957068279352538,0.938295025639945,0.95523938550974,0.948803938866275,0.937661993205649,0.95586638622816,0.956737449463584,0.942989728856868,0.949666853562333,1
1,0.965612113628966,0.954581411086719,0.94668855182206,0.948778884869452,0.936785077872455,0.947508147979632,0.956502693699775,0.944493623264156,0.948138633488375,0.9418396852817,0.964707113985848,1
1,0.964307297366012,0.961518075738394,0.95501780816354,0.963013785598415,0.95873885193212,0.961634087610025,0.951494599904072,0.949908967449837,0.948343195858555,0.952802814262437,0.96096960133847,1
1,0.946913812830447,0.956759040410071,0.934612341163329,0.934782175540423,0.942369948873169,0.936306294603262,0.953218395288087,0.95287380667333,0.945304529486493,0.947283899818401,0.957815725172456,1
0.999999999999999,0.951386178313468,0.958556235162856,0.948138633488375,0.957168925199722,0.957305872900907,0.960217922309768,0.942985420244362,0.950782385800863,0.954849408528986,0.950732757007343,0.951717337450987,0.999999999999999
0.999999999999999,0.973441796912549,0.961487815098152,0.971476837395009,0.965093598795228,0.954661048583639,0.963121171305442,0.959632951622671,0.963683471518108,0.971476837395009,0.960496887087838,0.975129365571624,0.999999999999999
0.999999999999999,0.937778194915371,0.933190561206699,0.946689899983729,0.955209158205277,0.947911081809072,0.963412142586046,0.953647755313629,0.944886828343767,0.947942271424704,0.93630169765575,0.942404612625213,0.999999999999999
0.999999999999999,0.919739651667983,0.924965975247279,0.928034984157618,0.909004590720749,0.924866786791129,0.93256058234782,0.914782894937286,0.922373055287786,0.935874550767857,0.923306407606518,0.924073043006679,0.999999999999999
1,0.906050053291726,0.946366016454136,0.923541605141611,0.923998895178807,0.946397804479138,0.949782155902252,0.931314973439567,0.917491276178476,0.927397610922184,0.927403749803787,0.937727751855955,1
1,0.96464585072387,0.950229539024156,0.952019068749055,0.948962232449147,0.94013001331047,0.935775760041757,0.941589692971532,0.951231555688012,0.962734850105256,0.947726478833265,0.963916214231241,1
0.999999999999999,0.933968796267133,0.937590847896566,0.94495259015232,0.929877855602882,0.945025528050886,0.9507603071222,0.93224870174585,0.935893686537817,0.944175801438658,0.921536521440654,0.952588601736321,0.999999999999999
1,0.978166746801496,0.959214984904318,0.948063014385668,0.946840212696796,0.948558190835479,0.944074716004143,0.946077946093866,0.95136230672118,0.946026152027476,0.955297110793769,0.975427620927263,1
1,0.937736785749976,0.936108044079634,0.947452476282479,0.938665342363218,0.953671582896428,0.964036109052899,0.951920536063234,0.933780380748263,0.950568437847218,0.941966865681233,0.941542648316963,1
1,0.929154923814481,0.92351510681913,0.949458276244669,0.939913970626179,0.949817113356387,0.937278030194067,0.947298996015585,0.940904602671838,0.948247804694188,0.948693521252678,0.939619892904445,1
0.999999999999997,0.943229702551847,0.950298438130488,0.937941663752648,0.935544409527299,0.941490822944052,0.948339195683109,0.969043188637104,0.941560947263438,0.947689752015313,0.935263764967919,0.93998284325862,0.999999999999997
0.999999999999998,0.979150795787539,0.95846552571193,0.964427899835974,0.971369065044329,0.964056343968478,0.965724299955732,0.97362995852972,0.970241874150888,0.963997277471908,0.964653366119967,0.978020046882725,0.999999999999998
0.999999999999997,0.938833485441918,0.916944847026512,0.931743971327576,0.928026530560061,0.943002001581889,0.947951335722756,0.94252455985105,0.927953884477107,0.947704179610921,0.930611287468622,0.948169580298063,0.999999999999997
1,0.947059314316674,0.949230139294276,0.948343195858554,0.940224962860436,0.937866549728479,0.943500832298508,0.956795051574176,0.955276186377073,0.949758305355865,0.958540053491766,0.944608902875029,1
1,0.961737388159206,0.951541615732357,0.949636759196449,0.956654214743795,0.95133107001523,0.973637298557999,0.964543290093977,0.956845819972373,0.950103874923173,0.953906189795596,0.9618275667336,1
1,0.929546441745952,0.933979148774891,0.931532425047788,0.91738404024156,0.928069920896161,0.939592951127924,0.923057896462503,0.917469303175603,0.934916527640075,0.9170807724263,0.925484810448219,1
0.999999999999999,0.931096577896354,0.934097365285804,0.943677391789389,0.94182738138583,0.935549919739507,0.956559660160275,0.929421063731561,0.925448329696259,0.943677391789389,0.928193813586045,0.932770863510709,0.999999999999999
0.999999999999999,0.950029508124788,0.938911441207,0.946326305105291,0.920161756174671,0.950259394680291,0.942305753485752,0.938622142809518,0.923680442174474,0.940681958045475,0.942137655314368,0.950949770504894,0.999999999999999
0.999999999999999,0.933336770467465,0.948449654277167,0.92498116344177,0.923919562963526,0.93294123563252,0.929585365038355,0.932417650050173,0.938896941803632,0.928523753359742,0.914960168555799,0.929617840580199,0.999999999999999
0.999999999999998,0.963028718983538,0.931246876825612,0.9469167422295,0.95651591104772,0.93805616106444,0.938131137308505,0.933008565596842,0.953805890316501,0.946916742229499,0.934104573077599,0.966476698203335,0.999999999999998
0.999999999999997,0.932761305543665,0.954735007473211,0.952784159915103,0.944754804739748,0.961206917136957,0.942902813005225,0.938369838717816,0.958013642113042,0.947250186125836,0.936691763212871,0.948191040696528,0.999999999999997
1,0.929709206842079,0.94387447917268,0.947250186125836,0.933474906895593,0.951030927087047,0.949782155902252,0.923956562766497,0.943859216953289,0.951410059111508,0.943411763713905,0.948568081011999,1
1,0.917467696650371,0.923928986533498,0.942593737894495,0.93083031791272,0.928837007985939,0.914605747150695,0.902650778846843,0.904038398627886,0.935809403532222,0.933831255805268,0.920154791672941,1
0.999999999999997,0.947234003772696,0.925410280567645,0.935613438311178,0.940242692819599,0.941974710224796,0.952034858611649,0.924094746910738,0.923549555947077,0.932792516776289,0.936360599295136,0.949025406039584,0.999999999999997
1,0.941769821051326,0.927545674486507,0.946078648008942,0.938719487637067,0.938305980639146,0.951276218129104,0.930748533019007,0.944728972975816,0.947088565382567,0.942399459458334,0.966917211785041,1
1,0.978044406561365,0.955810493056791,0.939202003938866,0.947366910444686,0.955252975645156,0.941053419397876,0.929984999271539,0.939160668891087,0.949709199184865,0.954392905287211,0.981054329189275,1
0.999999999999997,0.934570668542846,0.94074154642634,0.937982993613936,0.92042766984091,0.939983550493374,0.920879079652147,0.927811735132194,0.956288409355439,0.944062480255618,0.931878298139229,0.923543091948451,0.999999999999997
0.999999999999998,0.97649075593207,0.944243967285875,0.942232717930653,0.957132290417491,0.953472363412286,0.963782829956951,0.95891632745224,0.943664247005716,0.939490966068506,0.948750727335405,0.976298050144332,0.999999999999998
0.999999999999998,0.960487192536076,0.94937562791212,0.956182585412989,0.951394291587594,0.946185588846735,0.950013997884684,0.960494901507371,0.947532543736641,0.949903323786418,0.94936104930274,0.947949589774828,0.999999999999998
1,0.978257144333831,0.966792840927774,0.975339599881534,0.968235659808175,0.964980531270945,0.959538025971565,0.962812447383948,0.961884574387769,0.972964039196935,0.976046110189723,0.984537176568729,1
1,0.921573997227121,0.941868111812448,0.928731284737639,0.92857546394247,0.899876321022072,0.94375526418746,0.905253698594495,0.924772812614396,0.932020521000431,0.930864300818448,0.91299655618805,1
1,0.971738555128378,0.948724517054715,0.957411285499009,0.944285742885898,0.95313244202595,0.975493470523594,0.953679387403292,0.945970668725322,0.955875629195057,0.947549007318376,0.971655065198019,1
1,0.934128393172638,0.936299744200189,0.934471542444268,0.937882215894302,0.941406561241007,0.946958095179347,0.943567812099528,0.914949746034472,0.948575742043883,0.938187783045146,0.948476091620294,1
1,0.961229204287544,0.924995090355103,0.937565403897244,0.927014936278986,0.946850096203916,0.97289280550158,0.967676980170822,0.929151409808062,0.930385136507633,0.940739273287365,0.945842703733841,1
0.999999999999998,0.944117094749524,0.943756582884331,0.950103874923172,0.937274255831271,0.93813856972024,0.93771285857733,0.933670806575552,0.928929080479193,0.950778317402356,0.948674356288945,0.922672552618809,0.999999999999998
1,0.967688201094964,0.952393865207178,0.949758305355865,0.946618861514317,0.957019669501051,0.959286579994266,0.948547341073241,0.944616164471887,0.937341362161903,0.948045426789656,0.967375494298475,1
0.999999999999999,0.958041918464372,0.948695276926414,0.957321688656628,0.944260186071972,0.946163232802299,0.957728970892704,0.937099468596107,0.950902424459798,0.952185082914354,0.94384141467395,0.955637748964165,0.999999999999999
0.999999999999999,0.944984206920707,0.935226054750298,0.944022091020964,0.947430724153396,0.94845983757696,0.950558921412104,0.941764579862021,0.923601671114844,0.933728257110855,0.927324781268015,0.944977913461929,0.999999999999999
1,0.944796875585003,0.915050015214555,0.937097426441556,0.936893774091912,0.921780129954292,0.930861598337958,0.933836120422993,0.930539154612201,0.937239335332523,0.932433859097259,0.944651275639056,1
0.999999999999999,0.940058309519156,0.939200866723454,0.954203486973636,0.935564131023795,0.952813409707005,0.962886907148096,0.944613304408886,0.943931041633863,0.951097178856868,0.940648010769571,0.943169512792884,0.999999999999999
1,0.952974194463587,0.946178231577744,0.946446837739247,0.94593335819886,0.948231504559096,0.953224776496136,0.965942170133502,0.948387037691721,0.948433113300388,0.954451421603331,0.949552018852803,1
1,0.948239277317696,0.943689282418821,0.956616397491775,0.946517426821296,0.960102774310594,0.959615438458949,0.95447753465193,0.953094241879579,0.966280488561398,0.951308986722158,0.95908144186909,1
0.999999999999997,0.962153806263591,0.9385300212115,0.935160435795474,0.932340828685772,0.930771332225474,0.934038759096935,0.920362131118612,0.938409213578866,0.935160435795474,0.935546391868861,0.965813980233643,0.999999999999997
