r0,r30,r60,r90,r120,r150,r180,r210,r240,r270,r300,r330,r360
1,1,1,1,1,1,1,1,1,1,1,1,1
1,1,1,0,1,1,1,1,1,0,1,1,1
1,1,1,1,1,1,1,1,1,1,1,1,1
1,1,1,0,1,1,1,1,1,0,1,1,1
1,1,1,1,1,1,1,1,1,1,1,1,1
1,1,1,1,1,1,1,1,1,1,1,1,1
1,1,1,1,1,1,1,1,1,1,1,1,1
1,1,1,0,1,1,1,1,1,0,1,1,1
1,1,1,1,1,1,1,1,1,1,1,1,1
1,1,1,1,1,1,1,1,1,1,1,1,1
1,1,1,0,0,0,0,1,1,0,0,0,1
1,1,1,1,1,1,1,1,1,1,1,1,1
1,1,1,1,1,1,1,1,1,1,1,1,1
1,1,1,1,1,1,1,1,1,1,1,1,1
1,1,1,1,1,1,1,1,1,1,1,1,1
1,1,1,0,1,1,1,1,1,1,1,1,1
1,1,1,0,0,1,1,1,1,0,1,1,1
1,1,1,1,1,1,1,1,1,1,1,1,1
1,1,1,0,0,0,0,0,0,0,0,1,1
1,1,1,1,1,1,1,1,1,1,1,1,1
1,1,1,0,1,1,1,1,1,0,1,1,1
1,1,1,0,1,1,1,1,1,1,1,1,1
1,1,1,1,1,1,1,1,1,1,1,1,1
1,1,1,0,1,1,0,1,0,0,1,1,1
1,1,1,0,1,1,1,1,1,0,1,1,1
1,1,1,1,1,1,1,1,1,1,1,1,1
1,1,1,1,1,1,1,1,1,1,1,1,1
1,1,1,0,0,0,0,0,0,0,1,1,1
1,1,1,1,1,1,1,1,1,1,1,1,1
1,1,0,1,1,0,1,1,0,1,1,0,1
1,1,1,0,0,0,0,1,0,0,1,1,1
1,1,0,0,0,1,1,0,0,0,0,1,1
1,1,1,1,1,1,1,1,1,1,1,1,1
1,1,1,1,0,1,1,1,1,1,1,1,1
1,1,1,1,1,1,1,1,1,1,1,1,1
1,1,1,0,1,1,1,1,1,0,1,1,1
1,1,1,0,0,0,1,1,1,0,0,1,1
1,0,0,0,0,0,0,0,0,0,0,0,1
1,1,1,1,1,1,1,1,1,1,1,1,1
1,1,1,1,1,1,1,1,1,1,1,1,1
1,1,1,1,1,1,1,1,1,1,1,1,1
1,1,1,1,1,1,1,1,1,1,1,1,1
1,1,1,0,1,1,1,1,1,0,1,1,1
1,1,0,0,0,0,0,0,0,0,0,1,1
0,1,1,0,1,1,0,1,1,0,1,1,0
1,1,1,0,1,1,1,1,1,0,0,1,1
1,1,1,1,1,1,1,1,1,1,1,1,1
1,1,1,1,1,1,1,1,1,1,1,1,1
1,1,0,0,0,1,1,1,0,0,0,1,1
1,0,1,1,0,1,1,0,0,0,1,1,1
1,1,1,0,1,1,1,1,1,1,1,1,1
1,1,1,1,1,1,1,1,1,1,1,1,1
1,1,0,0,0,1,1,1,0,0,1,1,1
1,1,0,0,0,0,1,1,0,0,0,1,1
1,1,0,1,1,1,1,1,1,1,0,1,1
1,1,0,0,0,1,1,0,0,0,0,1,1
1,1,0,0,1,0,0,1,1,1,0,1,1
1,0,0,0,0,1,1,0,0,0,0,1,1
1,1,0,0,0,0,0,0,0,0,0,1,1
1,1,1,1,1,1,1,1,1,1,1,1,1
1,1,1,0,1,1,1,1,1,1,1,1,1
1,1,1,0,1,1,1,1,1,0,1,1,1
1,1,1,1,1,1,1,1,1,1,1,1,1
1,1,1,1,1,1,1,1,1,1,1,1,1
1,1,1,1,1,1,1,1,1,1,1,1,1
1,1,0,0,0,1,1,1,0,0,0,1,1
1,1,0,0,1,0,1,1,0,0,1,0,1
1,1,1,1,0,0,1,0,0,1,1,1,1
1,1,1,1,1,0,1,1,0,1,1,1,1
1,1,1,1,1,1,1,1,1,1,1,1,1
1,1,1,1,1,1,1,1,1,0,1,1,1
1,1,0,0,1,0,1,1,0,0,1,1,1
1,1,1,0,0,0,0,0,0,0,1,1,1
1,1,0,0,0,0,1,0,0,0,0,1,1
1,1,0,0,0,0,1,0,0,0,0,0,1
1,1,1,1,1,1,1,1,1,1,1,1,1
1,1,1,1,1,1,1,1,1,1,1,1,1
1,1,0,0,0,1,1,1,0,0,0,1,1
1,1,1,0,1,1,1,1,1,0,1,1,1
1,1,1,1,1,1,1,1,1,1,1,1,1
1,1,1,1,1,1,1,1,1,1,1,1,1
1,1,0,0,0,1,1,1,0,0,0,1,1
1,1,0,1,1,1,1,1,0,1,1,1,1
1,1,1,1,1,0,0,0,0,1,1,1,1
1,1,0,0,1,1,1,1,0,0,1,1,1
1,1,1,0,1,1,1,1,1,0,1,1,1
1,1,1,1,1,1,1,1,1,1,1,1,1
1,1,1,1,1,1,1,1,1,1,1,1,1
1,1,1,1,1,1,1,0,0,0,1,1,1
1,1,1,1,1,1,1,1,1,1,1,1,1
1,1,0,1,0,1,1,1,0,1,0,1,1
1,1,0,0,0,1,1,1,0,0,0,1,1
1,1,1,1,1,1,1,1,1,1,1,1,1
1,1,1,0,1,0,1,1,0,0,1,1,1
1,1,1,1,1,1,1,1,1,1,1,1,1
1,1,1,1,1,1,1,1,1,1,1,1,1
1,1,1,1,1,1,1,1,1,1,1,1,1
1,1,1,1,1,1,1,1,1,1,1,1,1
1,1,1,1,1,1,1,1,1,1,1,1,1
1,1,1,0,0,1,1,0,1,0,1,1,1
1,1,1,0,1,1,1,1,1,0,1,1,1
1,1,1,1,1,1,1,1,1,1,1,1,1
1,1,0,0,0,0,1,1,0,0,0,1,1
1,1,0,0,0,1,1,0,0,0,1,1,1
1,0,0,0,1,1,1,0,0,1,1,1,1
1,1,1,1,1,1,1,1,1,1,1,1,1
1,0,0,0,0,0,1,0,0,0,0,1,1
1,1,1,1,1,1,1,1,0,0,1,1,1
1,1,1,1,1,1,1,1,1,1,1,1,1
1,1,1,0,1,1,1,1,0,0,1,1,1
1,1,0,0,0,1,1,1,0,0,0,1,1
1,1,1,1,0,1,1,0,1,0,0,1,1
1,1,1,0,0,1,0,1,0,0,1,1,1
1,1,1,0,0,0,1,1,0,0,0,1,1
1,1,1,1,1,1,1,1,1,1,1,1,1
1,1,1,1,1,1,1,1,1,1,1,1,1
1,1,0,0,0,1,1,1,1,0,0,1,1
1,1,0,0,1,0,1,1,0,0,1,1,1
1,1,1,1,1,1,1,1,1,1,1,1,1
1,1,0,0,1,1,1,1,1,0,0,1,1
1,1,0,0,0,0,0,0,0,0,0,1,1
1,1,1,1,1,1,1,1,1,1,1,1,1
1,1,0,0,0,0,0,0,0,0,0,1,1
1,1,1,1,1,1,1,1,1,1,1,1,1
1,1,1,0,1,1,1,1,1,1,1,1,1
1,0,0,0,0,0,0,0,0,0,0,0,1
1,1,1,1,1,1,1,1,1,1,1,1,1
1,1,0,0,0,1,1,0,0,0,0,1,1
1,1,1,1,1,1,1,1,1,1,1,1,1
1,1,0,0,0,0,0,0,1,0,0,0,1
1,30,30,30,30,30,1,30,30,30,30,10,1
1,11,22,30,30,30,30,30,30,30,24,14,1
1,30,30,30,16,7,3,30,30,30,14,5,1
1,30,30,30,30,30,30,30,30,30,30,30,1
1,1,30,30,30,30,30,30,30,30,15,30,1
1,1,1,30,1,1,30,1,1,30,30,1,1
1,6,30,30,30,30,30,30,30,30,30,30,1
1,30,30,30,30,15,1,30,30,30,30,9,1
1,1,1,30,30,30,30,30,30,30,30,1,1
1,1,30,30,30,4,1,30,30,30,30,1,1
1,6,30,30,30,30,30,30,30,30,30,30,1
1,6,18,30,30,30,30,30,30,30,30,30,1
1,1,30,30,30,30,30,30,30,3,30,30,1
1,1,1,30,30,30,30,30,30,30,30,1,1
1,30,30,30,30,30,30,30,30,30,30,30,1
1,30,30,30,30,30,30,30,30,30,30,30,1
1,30,30,30,30,30,30,30,30,30,30,24,1
1,1,1,30,30,1,1,1,1,30,1,1,1
1,6,30,30,30,30,30,30,30,30,30,30,1
1,1,30,30,30,30,30,30,30,30,30,1,1
1,1,20,30,25,8,1,7,20,30,24,3,1
1,24,30,30,30,30,30,30,30,30,30,8,1
1,1,30,30,30,30,30,30,30,30,30,1,1
1,4,30,30,30,30,30,30,30,30,25,30,1
1,30,30,30,30,30,30,30,30,30,30,1,1
1,4,23,29,21,5,1,30,28,30,20,4,1
1,30,30,30,30,30,30,30,30,30,30,8,1
1,22,30,30,30,30,30,30,30,30,30,20,1
1,30,30,30,30,30,30,30,30,30,30,1,1
1,1,30,30,30,30,1,30,30,30,30,30,1
1,4,30,30,30,30,30,30,30,30,30,30,1
1,30,30,30,30,30,30,30,30,30,30,30,1
1,1,30,1,1,30,30,30,1,1,30,1,1
1,1,30,30,30,30,1,1,30,30,30,1,1
1,1,30,30,30,1,1,1,30,30,30,1,1
1,10,30,30,30,30,30,30,30,30,30,30,1
1,30,30,5,30,30,30,30,30,3,30,30,1
30,30,30,30,30,30,30,30,30,30,30,30,30
1,28,30,30,30,30,30,30,30,30,25,6,1
1,30,30,30,30,30,30,30,30,30,21,5,1
1,1,1,1,1,1,1,1,1,1,1,1,1
1,1,30,30,30,1,1,1,30,30,30,1,1
1,5,30,30,30,30,30,30,30,30,30,30,1
1,30,30,30,30,30,30,30,30,30,30,30,1
30,9,21,30,25,30,30,12,30,30,19,12,30
1,1,30,30,30,4,1,30,30,30,30,1,1
1,30,17,30,19,30,1,30,30,30,15,5,1
1,5,16,30,30,30,30,30,30,30,30,30,1
30,30,30,30,30,30,30,30,30,30,30,30,30
1,30,30,30,20,30,30,30,30,30,17,8,1
1,5,19,30,30,30,30,30,30,30,30,30,1
1,30,30,30,30,9,30,30,30,30,21,7,1
1,30,30,30,30,30,30,30,30,30,30,30,1
1,30,30,30,30,30,30,30,30,30,30,30,1
1,30,30,30,30,30,30,30,30,30,30,30,1
1,30,30,30,30,30,30,30,30,30,30,30,1
1,30,30,30,30,30,30,30,30,30,30,30,1
1,30,30,30,30,11,1,30,30,30,30,11,1
1,30,30,30,30,30,30,30,30,30,30,30,1
1,1,30,30,30,30,1,30,30,30,30,1,1
1,9,29,30,30,30,30,30,30,30,30,30,1
1,1,30,30,30,30,30,30,30,30,29,30,1
1,1,30,30,30,30,30,30,30,30,30,1,1
1,1,30,30,30,30,1,30,30,30,30,1,1
1,4,18,30,30,30,30,30,30,30,17,6,1
1,30,30,30,30,30,30,30,30,30,30,21,1
1,30,30,10,30,30,30,30,30,11,30,11,1
1,5,25,30,30,30,30,30,30,30,17,7,1
1,1,30,30,30,30,30,30,30,30,30,1,1
1,1,30,30,30,30,30,30,30,30,30,1,1
1,30,30,30,30,30,30,30,30,30,30,18,1
1,13,30,30,30,30,30,30,30,30,30,30,1
1,26,30,30,30,30,30,30,30,30,30,30,1
1,30,30,30,30,30,30,30,30,30,30,30,1
1,30,30,30,30,30,30,30,30,30,30,30,1
1,1,30,30,30,30,1,30,30,30,30,30,1
1,1,30,30,30,30,1,30,30,30,30,1,1
1,30,30,30,30,30,1,30,30,30,30,30,1
1,6,27,30,30,30,1,30,30,30,30,7,1
1,1,1,30,30,30,30,30,30,30,1,1,1
1,20,30,30,30,30,30,30,30,30,30,30,1
1,30,30,30,30,30,30,30,30,30,30,30,1
1,30,30,30,30,30,30,30,30,30,30,30,1
1,1,30,30,30,30,30,30,30,30,30,1,1
1,4,4,30,30,21,1,30,4,30,30,30,1
1,30,30,30,30,30,30,30,30,30,30,10,1
1,18,16,30,17,7,1,30,30,30,13,5,1
1,21,30,30,30,30,30,30,30,30,30,30,1
1,30,30,30,30,30,30,30,30,30,23,7,1
1,4,30,30,30,30,30,30,30,30,30,30,1
1,30,30,30,30,30,30,30,30,30,30,30,1
1,30,30,30,30,20,1,30,30,30,30,16,1
1,1,14,30,30,30,30,30,30,30,30,1,1
1,8,30,30,30,30,30,30,30,30,30,30,1
1,1,1,1,1,1,1,1,1,1,1,1,1
1,30,30,30,30,30,30,30,30,30,30,30,1
1,30,12,30,30,30,1,30,12,28,30,18,1
1,30,30,30,30,30,30,30,30,30,30,5,1
1,1,30,30,30,30,30,30,30,30,30,1,1
1,30,30,30,30,30,30,30,30,1,30,1,1
1,30,30,30,30,30,1,30,30,30,27,30,1
1,1,1,30,30,5,3,1,30,5,1,1,1
1,9,30,30,30,30,30,30,30,30,30,30,1
1,30,30,30,30,30,30,30,30,30,30,30,1
1,30,30,30,30,30,30,30,30,30,30,30,1
1,3,30,30,30,30,30,30,30,30,30,30,1
1,30,30,30,30,30,30,30,30,30,30,30,1
1,18,30,30,30,30,30,30,30,30,30,30,1
1,1,30,1,1,30,5,30,30,1,30,30,1
1,30,30,30,30,30,30,30,30,30,30,8,1
1,30,30,30,30,30,30,30,30,30,30,30,1
1,30,30,30,30,30,30,30,30,30,30,30,1
1,30,30,30,30,30,30,30,30,30,30,30,1
1,9,26,30,30,30,30,30,30,30,30,30,1
1,1,30,30,30,30,30,30,30,30,30,1,1
1,30,30,30,30,30,30,30,30,30,30,10,1
1,30,30,30,30,30,30,30,30,30,30,30,1
1,30,30,30,30,30,30,30,30,30,30,30,1
1,1,30,30,1,6,30,1,1,30,30,1,1
1,30,30,30,30,30,30,30,30,30,30,15,1
30,30,30,30,30,30,30,30,30,30,30,30,30
1,1,25,30,30,30,1,30,30,30,30,1,1
1,30,30,30,30,30,30,30,30,30,30,30,1
1,30,30,1,30,30,1,30,30,1,30,30,1
1,1,30,30,30,30,30,30,30,30,30,1,1
1,30,30,30,30,30,30,30,30,30,30,30,1
1,1,30,1,1,30,30,30,1,1,30,1,1
1,30,30,30,30,30,30,30,30,30,30,30,1
1,8,18,30,30,30,30,30,30,30,30,16,1
1,30,30,30,30,30,30,30,30,30,30,30,1
1,1,30,30,30,3,1,30,30,30,30,1,1
1,1,15,30,16,1,1,1,14,30,16,1,1
1,1,8,18,12,3,1,4,10,19,11,1,1
1,1,30,30,30,1,1,1,30,30,30,1,1
1,1,13,30,9,2,1,1,30,30,3,1,1
1,1,1,1,1,1,1,1,1,1,1,1,1
1,1,26,30,30,30,30,30,30,30,30,1,1
1,1,19,30,30,1,1,1,20,30,30,1,1
1,1,1,1,1,1,1,1,1,1,1,1,1
1,1,1,1,1,1,1,1,1,1,1,1,1
1,4,15,30,8,30,30,6,18,30,6,30,1
1,4,16,30,30,30,1,6,16,26,19,30,1
1,1,1,1,1,1,1,1,1,1,1,1,1
1,1,1,1,1,1,1,1,1,1,1,1,1
1,1,30,30,30,30,30,30,30,30,30,1,1
1,5,30,30,30,30,30,30,30,30,30,7,1
1,1,1,1,1,1,1,1,1,1,1,1,1
1,1,1,1,1,1,1,1,1,1,1,1,1
1,5,19,30,30,30,30,30,30,30,30,30,1
1,1,1,1,1,1,1,1,1,1,1,1,1
1,1,1,1,1,1,1,1,1,1,1,1,1
1,1,16,30,27,9,1,10,19,30,17,1,1
1,1,1,1,30,7,5,5,3,1,1,1,1
1,1,18,30,30,30,1,1,30,30,6,1,1
1,1,1,1,1,1,1,1,1,1,1,1,1
1,1,8,20,14,1,1,1,10,21,13,1,1
1,1,22,30,30,1,1,1,23,30,30,1,1
1,6,21,30,30,7,30,30,30,30,23,1,1
1,1,1,1,1,4,3,3,1,1,1,1,1
1,1,1,1,1,1,1,1,1,1,1,1,1
1,1,30,30,30,30,30,30,30,30,30,1,1
1,30,30,30,30,30,1,30,30,30,30,30,1
1,1,1,1,1,1,1,1,1,1,1,1,1
1,1,1,30,1,1,1,1,1,30,1,1,1
1,1,1,1,1,1,1,1,1,1,1,1,1
1,1,24,30,30,30,1,1,30,30,1,1,1
1,6,30,1,1,30,1,7,23,1,1,1,1
1,1,12,30,11,17,30,1,1,30,5,10,1
1,1,11,30,23,3,1,3,21,30,17,1,1
1,1,11,23,21,4,1,30,14,30,16,1,1
1,1,1,1,1,1,1,1,1,1,1,1,1
1,1,1,1,1,1,1,1,1,1,1,1,1
1,1,21,30,30,30,1,4,30,30,6,1,1
1,30,30,30,30,30,30,30,30,30,30,30,1
1,1,1,30,10,4,1,3,1,30,10,3,1
1,1,1,1,30,1,1,1,1,1,30,1,1
1,1,9,20,13,3,1,3,12,23,11,1,1
1,3,12,29,17,1,1,5,15,24,12,3,1
1,1,1,30,30,1,1,1,1,1,30,1,1
1,3,1,28,15,7,1,3,1,30,14,4,1
1,1,15,30,20,30,1,4,19,6,12,1,1
1,30,30,30,20,5,1,30,30,30,18,4,1
1,1,30,30,30,30,1,30,30,30,30,1,1
1,25,30,30,30,30,30,30,30,30,30,30,1
1,30,30,30,1,30,30,30,1,30,30,30,1
1,30,30,30,30,30,1,30,30,30,30,30,1
1,1,30,30,5,30,30,30,30,30,30,1,1
1,1,30,30,30,6,1,1,4,30,30,4,1
1,7,30,30,30,30,30,30,30,30,30,30,1
1,1,1,1,1,1,1,1,1,1,1,1,1
1,5,25,30,30,30,1,10,30,30,20,21,1
1,1,16,1,12,1,1,1,15,1,14,1,1
1,1,1,1,1,1,1,1,1,1,1,1,1
1,1,1,30,1,1,1,1,1,30,1,1,1
1,1,10,30,11,4,1,3,14,29,8,1,1
1,30,30,30,30,21,1,30,30,30,30,6,1
1,1,1,1,26,1,1,3,1,1,22,1,1
1,1,10,30,30,30,30,30,30,30,9,1,1
1,1,1,1,1,1,1,1,1,1,1,1,1
1,1,1,1,1,1,1,1,1,1,1,1,1
1,1,30,30,30,1,1,1,30,30,30,1,1
1,1,1,30,20,30,1,1,1,30,17,6,1
1,1,30,16,30,30,1,1,30,30,30,1,1
1,30,30,5,30,30,1,30,30,30,30,30,1
1,7,1,15,30,30,30,30,1,30,30,1,1
1,1,30,30,30,1,1,1,30,30,30,1,1
1,1,1,1,1,1,1,1,1,1,1,1,1
1,1,30,30,30,1,1,1,30,30,30,1,1
1,1,12,30,23,1,1,1,15,30,19,1,1
1,1,1,1,1,1,1,1,1,1,1,1,1
1,1,30,30,1,1,1,1,1,30,30,1,1
1,1,30,30,30,1,1,1,30,30,30,1,1
1,1,30,30,30,30,1,4,30,30,30,1,1
1,1,1,1,30,30,30,30,30,1,1,1,1
1,1,1,30,17,1,1,1,1,30,20,1,1
1,1,25,4,30,3,1,30,30,1,30,1,1
1,1,9,22,11,1,1,3,9,23,10,1,1
1,1,30,30,30,30,30,30,30,30,30,1,1
1,1,3,18,19,6,1,1,6,17,18,1,1
1,1,13,26,10,1,1,1,16,30,20,1,1
1,1,1,30,2,30,30,30,30,30,30,1,1
1,30,30,30,30,6,1,30,30,30,30,3,1
1,1,1,1,1,1,1,1,1,1,1,1,1
1,1,10,30,30,30,30,30,10,30,17,1,1
1,1,1,1,1,1,1,1,1,1,1,1,1
1,1,30,30,1,30,30,30,1,30,30,1,1
1,5,10,22,23,9,1,5,11,21,17,8,1
1,1,11,23,30,1,1,1,30,30,30,1,1
1,1,1,30,19,12,8,6,9,30,1,1,1
1,1,1,1,30,1,1,1,1,1,30,1,1
1,1,28,30,20,9,1,3,30,30,20,5,1
1,1,1,1,1,1,1,1,1,1,1,1,1
1,3,30,30,30,30,1,30,30,30,30,30,1
1,1,30,30,30,30,1,30,30,30,30,1,1
1,1,1,30,30,5,1,1,1,28,30,1,1
1,1,30,30,28,1,1,1,30,30,12,1,1
1,4,1,1,30,30,1,1,1,1,30,19,1
1,1,30,30,27,5,1,4,30,30,30,1,1
1,1,1,1,1,1,1,1,1,1,1,1,1
1,30,24,30,29,1,1,30,28,30,11,1,1
1,30,30,30,30,24,1,30,30,30,30,30,1
1,3,19,30,7,30,30,30,30,30,9,30,1
1,1,30,30,30,30,30,30,30,30,30,1,1
1,5,23,30,30,30,30,30,30,1,30,30,1
1,1,1,1,1,1,1,1,1,1,1,1,1
1,1,21,30,1,1,1,1,1,30,30,1,1
1,1,30,30,30,30,1,30,30,30,30,1,1
1,1,1,30,30,1,6,1,1,30,30,1,1
1,1,1,1,1,1,1,1,1,1,1,1,1
1,30,30,30,30,30,30,30,30,30,30,4,1
1,30,30,1,1,12,30,30,1,1,15,1,1
1,1,1,30,1,1,1,1,1,30,1,1,1
1,1,30,30,30,30,30,30,30,30,30,1,1
1,1,1,1,1,1,1,1,1,1,1,1,1
1,1,1,30,30,30,4,30,30,30,30,1,1
1,30,30,30,30,30,30,30,30,30,30,30,1
1,1,1,1,1,1,1,1,1,1,1,1,1
1,30,30,30,30,30,1,30,30,30,30,30,1
1,1,13,30,30,14,1,9,17,29,16,1,1
1,6,30,30,30,6,4,11,30,30,30,6,1
1,0.927470171198747,0.904823713961257,0.855706189656485,0.85901473250996,0.958534840283422,0.960508117822467,0.906897760710943,0.892780839237012,0.847643984986974,0.854909201288425,0.964206100589315,1
1,0.962918525015605,0.960047387284635,0.8468967509068,0.945748338251776,0.947795443118841,0.950842221142288,0.951057256658444,0.949291516302656,0.846811946629938,0.961417442872651,0.960815951038977,1
0.999999999999999,0.950840697876124,0.959857996150925,0.949533852616663,0.960435529959776,0.962076028070371,0.962082320673131,0.943447705680962,0.948250910459971,0.944481229662246,0.970405387307801,0.970239646379611,0.999999999999999
0.999999999999999,0.954333263498855,0.893725932036752,0.893482081285568,0.881553911863788,0.925971323339571,0.954380758428072,0.929255796400456,0.880638126276076,0.880684721701951,0.894827773835208,0.955020648816461,0.999999999999999
0.964913818718404,0.960112570584636,0.927668655811527,0.908946386143933,0.95006814507748,0.925915933857272,0.935775523262885,0.944496229579854,0.906818693050409,0.891031953229187,0.964640749311774,0.954448727662285,0.964913818718404
0.999999999999999,0.978218139111307,0.960805233568868,0.956785182255696,0.961534363713899,0.962660818866264,0.959971561280773,0.963617672172608,0.964327651115364,0.956785182255697,0.958702818796245,0.979555741506106,0.999999999999999
1,0.960374320375917,0.933593763558031,0.835353486145835,0.848141110513672,0.848641608296144,0.859308536712462,0.87749888947898,0.889777347626835,0.892145973096469,0.904525670986548,0.937334573182023,1
0.999999999999999,0.946380655135059,0.941465607957601,0.835283970279342,0.896706049754897,0.961151272137077,0.971293888262684,0.933141155331888,0.932423897643255,0.826456330145854,0.890719610795416,0.961315934078811,0.999999999999999
1,0.981532252014636,0.967565928395025,0.956147480612262,0.953137041835552,0.957507071544546,0.955319233679291,0.959576610698812,0.957869438365298,0.956014556767491,0.958940917432374,0.981216919438305,1
1,0.964551060337479,0.956001862220684,0.917168962345095,0.929656653489733,0.960518976746038,0.972588460278079,0.958566622691064,0.947995947862002,0.917080845171477,0.933027078254711,0.96602499114291,1
0.960637135320167,0.976840069740998,0.945221554825516,0.841514273886587,0.914324448086937,0.894495233910561,0.903176136504485,0.924543652842947,0.919507345464088,0.850497922918719,0.930519887694297,0.905459659415776,0.960637135320167
1,0.970280700455725,0.96357741536414,0.888886725797563,0.88875792519137,0.873063300560781,0.932754598654596,0.941374455652844,0.936517100817485,0.91325885682982,0.917022525992485,0.901434560037647,1
1,0.961366899423618,0.943519602282326,0.959829643623374,0.945601801702945,0.934257058444821,0.944165268394475,0.942863006660572,0.94149969307104,0.960487537446686,0.947096955508632,0.955413618314923,1
1,0.982994774429807,0.960189872595988,0.943603972144397,0.939740027816943,0.941287013539333,0.942444939609062,0.940734239251052,0.939409057800773,0.943603972144397,0.959536593229763,0.981824717820018,1
1,0.951000167562111,0.852694981648819,0.810538647891653,0.849677845687497,0.866911734217428,0.890611371475577,0.893291923228141,0.833704630411556,0.825917543238408,0.87123625827623,0.936523734069956,1
1,0.937234769772251,0.903698330761791,0.821131683698438,0.866753697115248,0.874734762691004,0.892474759629346,0.893225269777588,0.89434960331718,0.853478419464013,0.884165595406158,0.917283252025267,1
0.981077181895327,0.960661021073221,0.933172893609615,0.956735569663978,0.92546466200836,0.935828400941236,0.935784024159022,0.935591313633702,0.925079263952397,0.949257896842148,0.94428213609724,0.960085408709218,0.981077181895327
1,0.98077244685564,0.967084118162798,0.959942093960309,0.954947561461353,0.964475845735822,0.983984730563361,0.968500717245292,0.961529688647852,0.959942093960309,0.960973397975409,0.976459256342027,1
0.999999999999999,0.967495125428289,0.939347249476553,0.868411215011293,0.859510019835593,0.833152560451217,0.901109485980074,0.903010589943997,0.847949586820729,0.888822759885315,0.888807027587911,0.8707946982009,0.999999999999999
1,0.975212610221446,0.944590559460098,0.93586539059639,0.93902026138184,0.931319141701305,0.935272219775116,0.932339735011106,0.934115583750654,0.935782058620425,0.94934772921913,0.970438996484398,1
1,0.963006103494285,0.962609505527469,0.930332380706675,0.961655337383936,0.96152926741272,0.973472439889629,0.960495967561574,0.961523076797494,0.918147116059869,0.962527580873793,0.963518178146825,1
1,0.960279319521091,0.956848420426423,0.84361182059353,0.916458567019573,0.940803895843451,0.944555355977253,0.933777123832091,0.936201453785884,0.873345764154624,0.957088674820089,0.961994598891505,1
1,0.97588042505838,0.945921230206606,0.918003240642788,0.905239822438847,0.910040006993825,0.915236821319056,0.917705628217528,0.926719188348514,0.935949666879777,0.954294944995635,0.977025806895639,1
0.977050893468113,0.960143514073523,0.933067112830672,0.903079896277447,0.908342191424915,0.890456298522583,0.91218439051014,0.915235060382943,0.876468382214871,0.892336565181232,0.963462218182995,0.952236830198188,0.977050893468113
0.979761855275574,0.957917611215357,0.920664153602703,0.927668120119519,0.939846140208252,0.949922482194367,0.923632758046863,0.951278342405154,0.941070398744324,0.917174275997665,0.927307878612702,0.961688636149264,0.979761855275574
1,0.961614024899816,0.960139460957343,0.961515646067385,0.961592348607948,0.960406385226934,0.990112271216,0.958779752370838,0.96009704509178,0.957623219738175,0.963882083935213,0.962781069725356,1
1,0.942344721110197,0.927300017590589,0.86931196301889,0.873285514414978,0.926869401896705,0.930173654967684,0.923471460998459,0.913977578393961,0.886131306811243,0.852422567856706,0.961957312968157,1
0.995078233563036,0.960571778603698,0.950387110975797,0.892537851108429,0.882962663222022,0.929990202757221,0.904269183957468,0.889004225398006,0.902713682383938,0.880542980806777,0.944223423981603,0.961131725720336,0.995078233563036
1,0.959830976209488,0.934069058656837,0.942895693248801,0.946689607500983,0.933005087880472,0.933447709880304,0.94208829399218,0.947238462254336,0.949110687280353,0.941803235823908,0.965789973902007,1
1,0.968197379157255,0.953532804984311,0.932359451666101,0.941365705920824,0.948203782247039,0.961537906787631,0.958429321592399,0.958345449023502,0.934083520523118,0.941680549923151,0.939543658928679,1
1,0.960536012196605,0.903322898019947,0.9042777886149,0.891981133175316,0.900639973510196,0.908439798101978,0.879454115097619,0.870234120982439,0.886955361133489,0.90704268120703,0.951476037621352,1
0.999999999999999,0.903135232118164,0.877505783689987,0.864652692715449,0.867427824502699,0.868668945405614,0.9333604756895,0.87367058396208,0.901403854641674,0.880156234477367,0.85652111679916,0.898408650040792,0.999999999999999
0.999999999999999,0.966834391688362,0.951434277403039,0.971169099138702,0.969963827870123,0.95498992256228,0.955570966553668,0.958889353840169,0.970987324316789,0.971169099138702,0.954290031792238,0.969324140530779,0.999999999999999
0.999999999999997,0.973291283427851,0.951827617300013,0.905377446366787,0.924903636724386,0.959311054727221,0.967571261502946,0.965132692727127,0.941149428161982,0.904291409475592,0.923163206603315,0.969706613066471,0.999999999999997
0.999999999999999,0.984320483871226,0.958301439757208,0.941176495942124,0.950853526120631,0.96836353507954,0.985250478682168,0.977369904308058,0.955087983713029,0.940978609234259,0.954552056156261,0.977989953540435,0.999999999999999
0.999999999999998,0.96215704866461,0.941854810045755,0.854952410905937,0.908414575630186,0.909289494549047,0.926514455071649,0.921558276656974,0.903317825319923,0.87976438610836,0.917959929369915,0.937441142272326,0.999999999999998
1,0.955786797676737,0.881706988977361,0.961675113896562,0.922463255412846,0.907940003681739,0.953924340404358,0.926468996044572,0.933194084824777,0.966176389438346,0.930692008804913,0.919057761068385,1
0.931604746442856,0.93612420235814,0.918934430474499,0.889407997085402,0.925161458434633,0.924084807219168,0.900528417141897,0.924858717083111,0.92820439875758,0.893134642766656,0.943005071286761,0.91935343189789,0.931604746442856
0.999999999999998,0.960017619841301,0.952429430051156,0.897032977254197,0.928283278276435,0.938749167206231,0.945636960868305,0.92135600867875,0.914413280108551,0.865288472362119,0.961473443042725,0.962497155781081,0.999999999999998
1,0.930299067233712,0.959053644787347,0.942526527288281,0.928252807058149,0.935045471935914,0.937802734102155,0.906802448755915,0.919251665184755,0.910814477555381,0.967407164577541,0.96359253591318,1
1,0.992334975483371,0.988032415945244,0.990754977231299,0.989807295235748,0.989104056678602,0.991308586354267,0.98526783921616,0.983454641341478,0.990754977231298,0.993957752656849,0.995694721635314,1
0.999999999999999,0.974572754774649,0.95217283040616,0.932175177051376,0.93569085690529,0.960460303121924,0.970488624635202,0.966564188684616,0.951593314696977,0.933205498199308,0.93903931972662,0.97103987064479,0.999999999999999
0.980666273561289,0.961517616134278,0.946137301686762,0.896293682842801,0.904141618202539,0.903748400662508,0.911984341328148,0.927792632147227,0.910134950158939,0.898434634439306,0.943335608594899,0.95598543138453,0.980666273561289
0.999999999999999,0.884477129405194,0.903846233390483,0.855933012217668,0.868632260282374,0.867270724411512,0.862468770924095,0.844489284338511,0.879628878915586,0.826561671454794,0.831746865409771,0.894773782114754,0.999999999999999
0.937585155439583,0.960488108915723,0.961290309885056,0.852659853439971,0.960774388714045,0.95429560224129,0.931770980289979,0.960668480281738,0.951291720954222,0.849593520191387,0.960492618415714,0.960344863262907,0.937585155439583
1,0.961132002823296,0.933988399403815,0.944096375572805,0.90497909007939,0.961912004435742,0.982431879001314,0.95344227822257,0.922647306073643,0.942184607144645,0.909753570772766,0.961954429719926,1
1,0.946075866478525,0.960477194804378,0.958098394667819,0.960098801077485,0.959968692855232,0.965029088350903,0.92929568326979,0.938399083510942,0.936548689843684,0.967319069723889,0.964960573980136,1
0.999999999999999,0.962070281538353,0.960556119159596,0.912012599632906,0.920246687819302,0.923604713622817,0.946838020484509,0.948929769903903,0.939935274023808,0.927239487058496,0.937185252356904,0.943894586193526,0.999999999999999
0.958169373972164,0.949135143404609,0.919578888813839,0.909720159017772,0.904873860534739,0.91904387747483,0.929808466610959,0.939563300410158,0.928122534878004,0.914970593704814,0.909100527384361,0.927231144706541,0.958169373972164
0.999999999999999,0.9324635542625,0.927734902152686,0.921523562101935,0.960224593309472,0.944999795427676,0.949789873764519,0.934905207142641,0.910880723528131,0.888222334917032,0.97085137304774,0.964396983793958,0.999999999999999
1,0.967102837028894,0.965897737520336,0.904614887212058,0.911927185510609,0.905087709802091,0.953278855420673,0.94811113458288,0.934165549117952,0.928023173148393,0.944222791616571,0.931870554055328,1
1,0.878524647414011,0.905096157476475,0.899910510421982,0.955522365923076,0.96114121119272,0.955083078083896,0.865378505833068,0.888476977283505,0.880125184586046,0.965623153472217,0.975638751088223,1
1,0.930291265057344,0.85230961112287,0.887524149319045,0.849534017211502,0.897396618078617,0.924018340396131,0.889220655127462,0.860300732071913,0.896882128698048,0.84023139557067,0.93691858728974,1
1,0.925195894551527,0.870317395860739,0.874294951019424,0.866322975081658,0.880792521057159,0.902447225689576,0.893022036050224,0.877568227567862,0.877703741273,0.87747295686349,0.8993945411089,1
0.990267035919895,0.899521471291739,0.852363723438945,0.841943511001885,0.913286618456822,0.905500906457405,0.802693706397047,0.900392170951164,0.910319705587606,0.839035339993539,0.816660150239063,0.89511940695221,0.990267035919895
1,0.884254587578068,0.856944783199101,0.85349025713561,0.85331654968945,0.845747290640744,0.92438096055802,0.844396136537713,0.866858545020045,0.858347700821734,0.846108865451332,0.882782186063572,1
1,0.91765918664495,0.88666274982427,0.889739378694313,0.91883133242434,0.880444535194545,0.860578337317622,0.870940836087778,0.906951846910526,0.884253073709034,0.856224917527984,0.917214097452241,1
1,0.93155265370047,0.905058121470565,0.866193724968996,0.899219332663963,0.962165843899108,0.965558234508277,0.940433749321485,0.910582390747047,0.867244587986143,0.900967970370527,0.969134922236553,1
0.999999999999999,0.910107101053706,0.723647391319661,0.706382758204537,0.724938193451165,0.724527403706724,0.723775659018228,0.736682060725399,0.730801981002993,0.729733434676621,0.747493041957372,0.78959981721095,0.999999999999999
1,0.966836772573805,0.922635127548835,0.915121194716559,0.920921307456909,0.943394997648744,0.973568565827135,0.950611466280603,0.911300573421138,0.916057935660268,0.929694674877209,0.96398078159847,1
1,0.970293864122504,0.963452074956714,0.819131387881222,0.864923427182419,0.848632042622376,0.918508088637202,0.916380811637048,0.912917335737482,0.854476946348758,0.934483358841042,0.922092657725697,1
0.999999999999999,0.960456500939843,0.923035094948363,0.934661472596237,0.952599103739773,0.928937214702863,0.959660202104919,0.955818080997308,0.921241297301376,0.94224894666792,0.960690287852608,0.946066744103362,0.999999999999999
1,0.975343277462603,0.93857218925043,0.92911461818441,0.930968010876383,0.924509882581253,0.927199276988559,0.931588703019042,0.923481323701903,0.934503799067214,0.944879978663123,0.97061326726922,1
1,0.969361499502086,0.919842764911558,0.905059831052719,0.921232630608741,0.94546408884976,0.963244921535053,0.952418782871834,0.912148873613874,0.902859342550321,0.925357807444787,0.970653703023675,1
1,0.964390050267792,0.964093444306711,0.901608094831349,0.949602834128958,0.947983396285003,0.949079482396272,0.953813119446957,0.947021354113509,0.919461061165536,0.960503006104417,0.960269072717592,1
1,0.896754161166345,0.902842873534147,0.872554661254327,0.892313686204282,0.947769090783414,0.953529812038785,0.862804593222793,0.885865044817978,0.859287569069952,0.87725692852954,0.963472206995861,1
0.987543723863929,0.940873056697314,0.93779116404196,0.960574260410296,0.91888693016567,0.955016509044095,0.949227658049072,0.926052632952842,0.931143619469237,0.960179244840319,0.936663832657008,0.960092830851836,0.987543723863929
1,0.960453802318502,0.961711987692602,0.851928345520138,0.864729217540309,0.871636591909713,0.860300097775977,0.865787422516525,0.869282461286081,0.850397741353993,0.960249445251809,0.961843277023318,1
1,0.973217815789577,0.952744422716035,0.950318768924596,0.929201235179164,0.924591365434219,0.924553773657388,0.921492071415684,0.940759592123225,0.950318768924596,0.956301844690268,0.973009285285921,1
1,0.976250626794911,0.944067693078734,0.944911336313576,0.949075581470875,0.937224383738255,0.933764505261178,0.940607110728824,0.95120523240738,0.947269021310582,0.951601630461558,0.976149255635789,1
1,0.943129892367794,0.900156736048129,0.89569969064856,0.875803561300023,0.926903415328246,0.944590627853717,0.911209382963194,0.884246063438339,0.884446076625663,0.880711970636359,0.960891398076869,1
1,0.961142807232006,0.954088913377255,0.908404780951125,0.93333400189036,0.906012266694352,0.954732950119675,0.944128397927555,0.949439419561566,0.908173876513193,0.958785283793199,0.930407579727469,1
0.995424229572052,0.96090103886023,0.89652808683026,0.912615216607325,0.865795753653029,0.896214871093428,0.920373678085322,0.920856211958799,0.861851900008611,0.883947198980604,0.88284881496996,0.926153065122907,0.995424229572052
1,0.86097178757069,0.87151596742716,0.912563471669645,0.857866363372728,0.878230424293684,0.92382804193749,0.853117545431122,0.858764711853636,0.899811398032717,0.849729060728138,0.87699663009861,1
0.999281092459987,0.938248933888004,0.93220680433341,0.917432445958597,0.907118872322147,0.908524688626122,0.89988393057943,0.903560074660693,0.920306531368308,0.892941047748435,0.905839505388851,0.931680477431162,0.999281092459987
1,0.960194297261564,0.89882119729435,0.863645749169319,0.892815432756855,0.944246905378781,0.980596994720889,0.948169635099358,0.894561282394364,0.863645749169319,0.898091990288276,0.95571910482838,1
1,0.962914595621494,0.949619411531341,0.954232676461414,0.939198814639178,0.948748308844436,0.968038586080473,0.944521171180039,0.940614775373934,0.954232676461414,0.944398226723124,0.965316366385773,1
1,0.933073850296516,0.841874212617061,0.852068832462859,0.841160055139275,0.922284604719798,0.97535007810916,0.914159150315736,0.844242130384595,0.853209915949973,0.842424118002158,0.929995246635898,1
1,0.960152245126547,0.960315216803009,0.843126348373155,0.929645922733552,0.951494988909163,0.965472686077235,0.935329306635267,0.934420617865541,0.859363560364204,0.952196386257602,0.961548218256439,1
1,0.983155214546799,0.964298392778679,0.957578834855104,0.953040791547516,0.954937560413759,0.959180028952645,0.957669100497066,0.957008026254271,0.958634298823762,0.964929603321703,0.98038548580213,1
0.999999999999999,0.960017550352216,0.88365916444556,0.894799786305802,0.926388350217212,0.927662935568699,0.910613692812172,0.930492120208789,0.928957305352853,0.892677597362365,0.896731823824119,0.942073416311263,0.999999999999999
1,0.929269579830864,0.871948191108031,0.887826737729031,0.887572598742694,0.921166713133831,0.955713996813767,0.922052994907453,0.867340322110294,0.88200199732459,0.893738830048386,0.925860911652621,1
1,0.949142397574192,0.864656606590767,0.851525870955952,0.855122020703668,0.906801087914336,0.943084450994742,0.910119250183407,0.87382715133382,0.870806719018903,0.870948389716979,0.941759604965761,1
0.999999999999999,0.962466181101377,0.925224619249444,0.910664310598694,0.891064447745936,0.904898987287619,0.881692015484245,0.907893663552737,0.904475131871018,0.913494517295231,0.932592684215112,0.965772269579773,0.999999999999999
1,0.960449281982162,0.961769867671515,0.906545225637926,0.942354645222144,0.960047728477511,0.967648915157863,0.958456661641797,0.961528786951675,0.907610518202452,0.933032302584505,0.956904336151177,1
1,0.931211326563094,0.922020983243989,0.915507962820683,0.855088423264267,0.943726367119594,0.946856035449047,0.906850668644661,0.90469990647888,0.922285869260068,0.854919974316469,0.961135323241944,1
1,0.960198680378363,0.960621676177086,0.960735070823068,0.960206219640347,0.963044810932143,0.978855775259561,0.947949299006001,0.94672851511105,0.941519950112957,0.965164739332046,0.966707965850096,1
0.999999999999999,0.960235583854562,0.891389538326816,0.893432536146516,0.899754800736075,0.900814954178923,0.893749178134139,0.890300022957262,0.896543218478658,0.89549267872409,0.898872037320554,0.953871378631062,0.999999999999999
1,0.950873667108164,0.948049364276201,0.94435842851935,0.929723313525049,0.930461174837813,0.930655977055935,0.928487732770029,0.927948397305342,0.912243464931486,0.960356096027744,0.964228170056552,1
1,0.961833513491399,0.945770736028538,0.918503650001874,0.929704131827693,0.938508823291604,0.945052040512329,0.939353092532856,0.928647803158417,0.897897946983668,0.916737675379871,0.953811794654846,1
0.999999999999997,0.959492549824166,0.910414873406959,0.878486739336987,0.913598447978132,0.897502683414881,0.909962678386374,0.904517507304663,0.904039707438163,0.878486739336987,0.906330053081296,0.954254009897079,0.999999999999997
0.999999999999999,0.90522716815823,0.83565957445616,0.86366606885962,0.850906818372596,0.963846583031559,0.984572325784157,0.895062930171942,0.827514636240589,0.857647858031143,0.84922607005063,0.961128856936484,0.999999999999999
1,0.983282962600983,0.960331015795106,0.943902373137899,0.942781035521454,0.94192987609038,0.941002539723364,0.944201091000952,0.939708315651087,0.943902373137899,0.959922466858282,0.98241424924421,1
0.999999999999998,0.961457056362856,0.955156122572359,0.887894659190007,0.882887806614869,0.8952283826358,0.887557279717479,0.898976694507773,0.917751098852503,0.888033724565394,0.939259711201816,0.953952763701076,0.999999999999998
1,0.987521204302935,0.96637198863256,0.960401549894078,0.969599473330652,0.981766360708851,0.987996853720277,0.979607316276327,0.96329031899175,0.960401549894079,0.973400046230307,0.990352251727884,1
1,0.94446623170563,0.893337533489304,0.89804138888108,0.915549214502265,0.903424435416032,0.883047031630285,0.897411523328892,0.919486709801185,0.89821533253486,0.887463012805387,0.949147482602009,1
1,0.957903189741418,0.97428487951653,0.952888093832693,0.911350922474652,0.950782505014334,0.983606179772509,0.94744921229624,0.963980990618585,0.962118286968001,0.921619172708709,0.960126287375714,1
0.999999999999997,0.948877376661889,0.929149775933568,0.92036195554061,0.89741936681988,0.939398059398693,0.947665306874681,0.922124465501402,0.902421972604274,0.896742944851803,0.89994292520477,0.962535342208101,0.999999999999997
1,0.962777844392532,0.948963459926,0.891368038422191,0.918943121940458,0.921932197550908,0.922884598569872,0.930787654175306,0.928615916126127,0.904331406243489,0.953932498716197,0.962714024884969,1
0.987268491134455,0.949519951371967,0.943937861956132,0.959527621994537,0.895845618551354,0.955117465347421,0.953486760863675,0.942035173830622,0.928664250080229,0.960175753596191,0.897624068746632,0.964952209676724,0.987268491134455
1,0.935703144623837,0.917195868963128,0.835071457177986,0.952234428696453,0.930421844384233,0.964359381690604,0.921779365064544,0.903239515164551,0.840813326010513,0.962171485335635,0.957315113979389,1
0.999999999999999,0.976720846281562,0.962940539232698,0.959091779946578,0.955937978613047,0.960124014614002,0.960286423856669,0.960152800680579,0.959811127107616,0.96003742647468,0.965604765014772,0.978431165844656,0.999999999999999
0.999999999999998,0.961859403550209,0.86451459632353,0.864734569695405,0.884299897265335,0.890924319687821,0.920206925624457,0.908373558438651,0.86561757263801,0.856238795792568,0.879429085923291,0.907689954775885,0.999999999999998
1,0.933869938567234,0.893955072139294,0.88267824139516,0.876149576258399,0.900534391805483,0.923761756265079,0.886964754144885,0.890853900843671,0.88112466056065,0.879146366120729,0.938820553709669,1
0.995459702941461,0.934773207632583,0.923864425568542,0.905921135020404,0.857849986730634,0.92826159274903,0.954763670713808,0.945630651276995,0.916252476633464,0.91180205797709,0.865702019887189,0.94305675350307,0.995459702941461
1,0.960588758230316,0.904922910903527,0.891476905465834,0.91017317111389,0.939524909412833,0.959597599623635,0.954067161903857,0.906632893024899,0.888970198373229,0.913572941410678,0.956804963824317,1
0.998576726472338,0.918314744152339,0.92663465295072,0.92223837337356,0.888255189208622,0.90140955658121,0.922405442563088,0.928113944799131,0.917858261839053,0.936017326821303,0.906382639403553,0.916421669983058,0.998576726472338
0.999999999999997,0.960089582872163,0.893751918638622,0.899421674740116,0.910466793207409,0.918339518926486,0.925173053192727,0.92002549548711,0.9025125787483,0.899327794801437,0.899790909100937,0.945831573175128,0.999999999999997
1,0.966902594710327,0.921794611687003,0.967018855859856,0.960860001504633,0.925422523385832,0.960037410217214,0.955089295991676,0.931502989121821,0.967018855859856,0.951482389370392,0.937206603753979,1
1,0.90761492731653,0.923603110284511,0.886327455515259,0.915188691950215,0.934256047029352,0.950160284471495,0.895768130084489,0.912854412196029,0.888330079906283,0.948278496997114,0.962585593659611,1
1,0.906423353778921,0.86935019177624,0.865707024535699,0.820059105838909,0.921632915732221,0.936980313661072,0.884051014178334,0.858752977818156,0.858438411017518,0.82146055019501,0.9006433792964,1
0.99075179101601,0.958458103328947,0.919865636902691,0.882780986247028,0.923042966434383,0.875708289123261,0.899925399705337,0.906569251189803,0.885838920563006,0.884666215869319,0.922004918824335,0.887621266615849,0.99075179101601
1,0.955497750652121,0.894985141816714,0.89171210995167,0.905290468973443,0.899537889482968,0.906271413529991,0.884637837642169,0.879586029767532,0.897414929303808,0.906952878473615,0.958865692680881,1
1,0.969440286579016,0.964862116878092,0.898092413640239,0.86153824534918,0.90295641283772,0.892421170525457,0.88672126958003,0.88249827621382,0.936093267877957,0.903386253404179,0.8890980421933,1
1,0.968857817288361,0.944357804360367,0.934511136532832,0.932161444771901,0.943139769314476,0.93727348140563,0.93867480619278,0.927439694638192,0.931920035142234,0.942427991890348,0.9664098488224,1
0.999999999999999,0.947244978005105,0.930593548584664,0.904695091432276,0.937842603235577,0.939499958842903,0.926231761487061,0.932805503746707,0.936570599354404,0.906130462325564,0.898680767972924,0.960008375375816,0.999999999999999
1,0.930081811147746,0.849138396590949,0.847743081468946,0.854412923762194,0.896608010679769,0.919398580407394,0.897534310955225,0.852511542256157,0.843600028762857,0.845885807370909,0.938185183044167,1
1,0.947388664897805,0.910141769931244,0.906057723142704,0.905284021769685,0.917534537222018,0.911249333427072,0.915044387206776,0.921401929769444,0.894967782958877,0.880270199823048,0.938139548331998,1
1,0.970866506797138,0.950257906418243,0.949341122259368,0.962402926354527,0.960044251952219,0.956487568580721,0.966888947150169,0.964894073978188,0.949341122259368,0.953706188269564,0.973203030136472,1
1,0.889664654864098,0.864124792691019,0.823315493241335,0.812085901383773,0.887217894774629,0.865915939609928,0.854208603586359,0.843494963529829,0.811290331758687,0.803692636602659,0.96326015947008,1
0.956403244385365,0.908881719004998,0.897222599701055,0.94608115832924,0.926646398721858,0.933143730063161,0.88701613006864,0.906766424894004,0.919817478154002,0.942656851758548,0.925285298297919,0.9569136219465,0.956403244385365
0.999999999999999,0.965527809878069,0.961302235669,0.903235712113184,0.913059056152525,0.954326474237565,0.967808408658838,0.950242336598324,0.940600734352143,0.89756440010792,0.923495022950058,0.9655426431558,0.999999999999999
1,0.925647633775038,0.855864106608098,0.885332238297505,0.880023088604035,0.860872008980395,0.85356666314321,0.849461707516648,0.861400175554003,0.87897558153894,0.866016558602941,0.934460608225084,1
1,0.95053199809515,0.937809302249339,0.960399743586546,0.930076477870194,0.940687396592358,0.966752645080261,0.935320805321092,0.928048536241995,0.960399743586546,0.935491602842744,0.954606310422593,1
1,0.961282209567007,0.916635943814533,0.904707445733804,0.888179415499413,0.908108536623652,0.91129762623757,0.904607396777955,0.89609950366794,0.887276160745555,0.90902125301667,0.961881446582002,1
0.978293275043359,0.904314675867042,0.902283341748911,0.87151945231025,0.873524330262575,0.880334925522567,0.902894952775506,0.898132020221707,0.906785193148478,0.900137386121627,0.874431701524228,0.880416125588152,0.978293275043359
1,0.972186441765005,0.950418448076342,0.963175891920228,0.967160371610518,0.950725202713171,0.938061958197559,0.950628258460139,0.968416643749562,0.963175891920228,0.950830636960327,0.974817203382829,1
1,0.908708640027473,0.901857608525812,0.852324823290691,0.862490619522958,0.856153428312135,0.917566002753546,0.865660092872178,0.889663614743194,0.855652812832675,0.858883777955192,0.908461008628859,1
0.991299779333122,0.960420144704436,0.967274825320123,0.876238076732625,0.908133468684844,0.923218527545094,0.925779998707701,0.928794668199765,0.932187178062466,0.916125849120354,0.952167743800473,0.960367565171118,0.991299779333122
0.996915911366476,0.932912089618265,0.84706287892711,0.90920838089581,0.895551030035328,0.910146146807619,0.917043216416089,0.92745673035061,0.889589814722192,0.907442469869192,0.888934975754971,0.910879321598977,0.996915911366476
