r0,r30,r60,r90,r120,r150,r180,r210,r240,r270,r300,r330,r360
1,1,0,0,0,1,1,1,0,0,0,1,1
1,0,0,0,0,0,0,0,0,0,0,0,1
1,1,1,1,1,1,1,1,1,1,1,1,1
1,1,0,0,0,0,1,0,0,0,0,0,1
1,0,0,0,1,1,1,0,0,0,1,1,1
1,1,0,0,1,1,1,1,0,0,1,1,1
1,1,1,1,1,1,1,1,1,1,1,1,1
1,0,0,0,0,0,0,0,0,0,0,0,1
1,1,1,1,1,1,1,1,1,1,1,1,1
1,1,1,0,0,0,1,1,0,0,0,1,1
1,1,1,0,0,1,1,1,0,0,0,1,1
1,1,1,0,1,1,1,1,0,0,1,1,1
1,1,1,1,1,1,1,1,1,1,1,1,1
1,1,1,1,1,1,1,1,1,1,1,1,1
1,1,1,0,0,0,0,0,0,0,0,1,1
1,1,1,0,1,1,1,1,1,0,1,1,1
1,1,1,0,0,1,1,1,1,0,0,1,1
1,1,1,0,1,1,0,0,1,0,0,1,1
1,1,0,0,0,1,1,1,0,0,1,1,1
1,1,1,1,1,1,1,1,1,1,1,1,1
1,0,0,0,0,1,1,0,0,0,0,1,1
1,1,0,0,0,0,0,0,0,0,0,1,1
1,1,1,1,1,1,1,1,1,1,1,1,1
1,1,1,0,1,1,1,1,1,0,1,1,1
1,1,1,1,1,1,1,1,1,0,1,1,1
1,1,1,1,1,1,1,1,1,1,1,1,1
1,1,0,0,0,0,0,0,0,0,0,1,1
1,1,1,1,1,1,1,1,1,1,1,1,1
1,1,0,0,0,0,0,0,0,0,0,0,1
1,1,0,0,0,1,1,1,0,0,0,1,1
1,1,1,0,1,1,1,1,1,0,1,1,1
1,1,1,0,1,1,1,1,0,0,1,1,1
1,1,1,1,1,1,1,1,1,1,1,1,1
1,1,0,0,0,1,1,1,0,0,0,1,1
1,1,0,0,1,1,1,1,0,0,1,1,1
1,1,1,0,1,1,1,1,1,0,1,1,1
1,1,0,0,0,1,1,1,0,0,0,1,1
1,1,1,0,1,1,1,1,0,0,1,1,1
1,1,1,0,0,1,1,1,0,0,0,1,1
1,1,1,1,1,1,1,1,1,1,1,1,1
1,1,1,1,1,1,1,1,1,1,1,1,1
1,1,0,0,0,0,1,0,0,0,0,1,1
1,1,0,0,0,1,1,1,0,0,0,1,1
1,0,0,0,0,0,0,0,0,0,0,1,1
1,1,1,1,0,0,1,1,1,1,1,1,1
1,1,0,0,0,0,0,0,0,0,1,1,1
1,0,0,0,0,0,0,0,0,0,0,1,1
1,1,1,0,1,1,1,1,1,0,0,1,1
1,1,0,0,0,0,1,0,0,0,1,1,1
1,1,0,0,0,1,1,1,0,0,0,1,1
1,1,1,1,1,1,1,1,1,1,1,1,1
1,1,0,1,1,1,1,1,0,0,0,1,1
1,0,0,0,0,0,0,0,0,0,0,0,1
1,1,1,0,1,1,1,1,1,1,1,1,1
1,1,0,0,0,0,1,1,0,0,0,1,1
1,1,1,0,0,1,0,1,0,0,0,1,1
1,1,1,1,1,1,1,1,1,1,1,1,1
1,1,0,1,0,1,1,0,0,1,1,1,1
1,1,1,1,1,1,1,1,1,1,1,1,1
1,1,1,0,1,1,1,1,1,0,1,1,1
1,1,1,1,1,1,1,1,1,1,1,1,1
1,1,1,0,1,1,1,1,1,0,1,1,1
1,1,1,1,1,1,1,1,1,1,1,1,1
1,0,0,0,0,1,1,0,0,0,0,1,1
1,1,1,1,1,1,1,1,1,0,1,1,1
1,1,1,0,0,0,1,0,0,0,0,0,1
1,1,0,0,0,1,1,0,0,0,0,1,1
1,1,0,0,0,1,1,1,0,0,0,1,1
1,1,1,0,1,1,1,1,1,0,0,1,1
1,1,0,0,0,0,1,1,0,0,0,1,1
1,1,0,0,0,0,0,0,0,0,0,0,1
1,1,1,1,0,1,1,1,1,1,1,1,1
1,1,1,1,1,1,1,1,1,1,1,1,1
1,1,0,0,0,1,1,1,0,0,0,1,1
1,0,0,0,0,1,0,0,0,0,0,1,1
1,1,0,0,0,0,0,0,0,0,0,1,1
1,1,1,0,0,1,1,1,1,0,0,1,1
1,0,0,0,0,0,1,0,0,0,0,1,1
1,1,0,0,0,1,1,1,0,0,0,1,1
1,1,1,1,1,1,1,1,1,1,1,1,1
1,1,1,1,1,1,1,1,1,1,1,1,1
1,1,1,1,1,1,1,1,1,1,1,1,1
1,1,1,1,1,1,1,1,1,1,1,1,1
1,1,1,0,1,1,1,0,1,0,1,1,1
1,1,1,0,1,1,1,1,1,0,1,1,1
1,1,1,1,1,1,1,1,1,1,0,1,1
1,1,1,1,1,1,1,1,1,1,1,1,1
1,1,1,1,1,1,1,1,1,1,1,1,1
1,1,1,1,1,1,1,1,0,1,1,1,1
1,1,1,1,1,1,1,1,1,1,1,1,1
1,1,1,1,1,1,1,1,1,1,1,1,1
1,1,1,1,1,1,1,1,1,1,1,1,1
1,1,1,1,1,1,1,1,0,0,1,1,1
1,1,1,1,1,1,1,1,1,1,0,1,1
1,1,0,0,0,1,1,1,0,0,0,1,1
1,1,0,0,0,1,1,1,0,0,1,1,1
1,1,1,1,0,0,1,1,1,0,1,1,1
1,1,1,1,1,1,1,1,1,1,1,1,1
1,1,0,0,0,0,1,1,0,0,0,1,1
1,1,1,1,1,1,1,1,1,1,1,1,1
1,1,0,0,0,0,0,1,0,0,0,0,1
1,1,0,0,0,0,0,0,0,0,0,1,1
1,1,1,0,1,1,1,1,1,0,1,1,1
1,1,0,0,0,0,0,0,0,0,1,1,1
1,1,0,0,0,1,1,1,0,0,0,1,1
1,1,1,1,1,1,1,1,1,1,1,1,1
1,1,0,0,1,1,1,1,0,0,1,1,1
1,1,0,0,0,1,1,0,0,0,0,1,1
1,1,1,1,1,1,1,1,1,1,1,1,1
1,1,1,0,0,1,1,1,1,0,0,1,1
1,1,1,1,1,1,1,1,1,1,1,1,1
1,1,1,0,1,1,1,1,1,0,1,1,1
1,1,0,0,0,1,1,1,0,0,0,1,1
1,1,0,0,0,0,1,0,0,0,0,0,1
1,1,0,0,1,0,1,0,0,0,0,1,1
1,1,1,0,1,0,0,1,1,0,1,1,1
1,1,1,0,1,1,1,1,1,0,1,1,1
1,1,0,0,0,0,1,1,0,0,0,0,1
1,1,1,1,1,1,1,1,1,1,1,1,1
1,1,1,1,1,1,1,1,1,1,1,1,1
1,1,1,1,1,0,0,0,1,1,0,1,1
1,1,1,0,0,1,1,1,1,0,0,1,1
1,1,1,0,0,1,1,1,1,0,1,1,1
1,1,1,1,1,1,1,1,1,1,1,1,1
1,0,0,0,0,0,0,0,0,0,0,1,1
1,1,0,0,0,0,0,1,0,0,0,1,1
1,1,0,1,1,0,1,1,0,1,1,1,1
1,1,1,0,1,1,1,1,1,0,1,1,1
1,1,1,0,1,1,1,1,1,0,1,1,1
1,1,1,0,1,1,1,1,1,1,1,1,1
1,30,30,30,30,30,5,30,30,30,30,30,1
30,30,30,30,30,30,30,30,30,30,30,30,30
1,1,30,30,30,30,30,30,30,30,5,1,1
1,30,30,30,30,30,30,30,30,30,30,30,1
1,30,30,30,30,30,30,1,30,30,30,30,1
1,30,30,30,30,30,30,30,30,30,30,22,1
1,1,30,30,30,30,30,30,30,30,30,1,1
30,30,30,30,30,30,30,30,30,30,30,30,30
1,1,30,30,30,30,1,30,30,30,30,1,1
1,30,30,30,30,30,30,30,30,30,30,23,1
1,30,30,30,30,21,1,30,30,30,30,17,1
1,30,30,30,30,30,30,30,30,30,30,30,1
1,1,30,30,30,30,30,30,30,30,30,1,1
1,30,30,30,30,30,30,30,30,30,30,30,1
1,30,30,30,30,30,30,30,30,30,30,30,1
1,30,30,30,30,30,30,30,30,30,30,30,1
1,30,30,30,30,30,30,30,30,30,30,7,1
1,30,30,30,30,30,30,30,30,30,30,14,1
1,30,30,30,30,30,30,30,30,30,30,30,1
1,1,30,30,30,30,30,30,30,30,30,1,1
1,30,30,30,30,30,1,30,30,30,30,30,1
1,30,30,30,30,30,30,30,30,30,30,30,1
1,1,30,30,30,30,1,30,30,30,30,1,1
1,14,30,30,30,30,30,30,30,30,30,30,1
1,30,30,30,30,30,30,30,30,30,30,30,1
1,1,1,1,1,1,1,1,1,1,1,1,1
1,30,30,30,30,30,30,30,30,30,30,30,1
1,1,1,1,1,1,1,1,1,1,1,1,1
30,30,30,30,30,30,30,30,30,30,30,30,30
1,30,30,30,30,30,30,30,30,30,30,30,1
1,16,30,30,30,30,1,17,30,30,30,25,1
1,30,30,30,30,30,1,30,30,30,30,30,1
1,1,1,30,30,30,30,30,10,3,1,1,1
1,30,30,30,30,30,30,30,30,30,30,30,1
1,30,30,30,30,30,1,30,30,30,30,30,1
30,30,30,30,30,5,30,30,30,30,30,1,30
1,30,30,30,30,30,1,30,30,30,30,30,1
1,16,30,30,30,30,1,19,30,30,30,30,1
1,30,30,30,30,30,30,30,30,30,30,30,1
1,1,1,1,1,1,1,1,1,1,1,1,1
1,1,30,30,30,30,30,30,30,30,30,30,1
1,30,30,30,30,30,30,30,30,30,30,5,1
1,30,30,30,30,30,1,30,30,30,30,30,1
1,30,30,30,30,30,30,30,30,30,30,13,1
1,30,30,30,30,30,30,30,30,30,30,30,1
1,22,30,30,30,30,30,30,30,30,30,30,1
1,30,30,30,30,30,30,30,30,30,30,30,1
1,30,30,30,30,30,3,30,30,30,30,13,1
1,30,30,30,30,30,30,30,30,30,30,13,1
1,30,30,30,30,30,1,30,30,30,30,30,1
1,1,1,1,1,1,1,1,1,1,1,1,1
1,4,30,30,30,30,30,30,30,30,30,30,1
30,30,30,30,30,30,30,30,30,30,30,30,30
1,1,30,30,30,30,30,30,30,30,30,1,1
1,30,30,30,30,30,30,30,30,30,30,30,1
1,30,30,30,30,30,30,30,30,30,30,17,1
1,1,30,30,30,30,30,30,30,30,30,1,1
1,30,30,30,30,30,30,30,30,30,30,30,1
1,30,30,30,30,30,30,30,30,30,30,30,1
1,13,30,30,30,30,1,15,30,30,30,30,1
1,1,30,30,1,30,30,30,1,30,30,1,1
1,12,29,30,30,30,6,30,30,30,30,30,1
1,30,30,30,30,30,30,30,30,30,30,30,1
1,30,30,30,30,30,30,30,30,30,30,30,1
1,30,30,30,30,15,1,30,30,30,30,7,1
1,13,24,30,30,30,30,30,30,30,30,30,1
1,30,30,30,30,30,30,30,30,30,30,30,1
1,30,30,30,30,30,30,30,30,30,30,30,1
1,30,30,30,30,30,1,30,30,30,30,30,1
1,30,30,30,30,30,30,30,30,30,30,30,1
1,30,30,30,30,30,30,30,30,30,30,30,1
1,30,30,30,30,30,30,30,30,30,30,30,1
1,1,30,30,30,1,1,1,30,30,30,1,1
1,30,30,30,30,25,1,30,30,30,30,23,1
1,30,20,30,30,30,30,30,5,30,30,30,1
30,30,30,30,30,30,30,30,30,30,30,30,30
1,30,30,30,30,30,30,30,30,30,30,17,1
1,30,30,30,30,30,30,30,30,30,30,30,1
1,30,30,30,30,30,30,30,30,30,30,30,1
1,30,30,30,30,30,30,30,30,30,30,30,1
1,10,30,30,30,30,30,30,30,30,30,30,1
1,1,30,30,30,30,30,30,30,30,30,1,1
1,1,30,30,30,30,30,30,30,30,30,1,1
1,30,30,30,30,30,9,30,30,30,30,1,1
1,11,24,30,30,30,30,30,30,30,30,25,1
1,1,30,30,30,30,30,30,30,30,30,1,1
1,1,1,1,30,1,30,1,30,1,1,1,1
1,1,30,1,30,30,30,30,30,1,30,1,1
1,1,30,30,30,1,1,1,30,30,30,1,1
1,1,1,1,1,1,1,1,1,1,1,1,1
1,1,30,30,30,1,1,1,30,30,30,1,1
1,1,1,1,30,30,30,30,1,1,1,1,1
1,30,30,30,30,30,30,30,30,30,30,30,1
1,30,30,30,30,30,30,30,30,30,30,30,1
1,30,30,30,30,30,1,30,30,30,30,30,1
1,30,30,30,30,30,30,30,30,30,30,21,1
1,30,30,30,30,30,30,30,30,30,30,30,1
1,1,30,30,30,30,1,30,30,30,30,1,1
1,17,30,30,30,30,30,30,30,30,30,30,1
1,1,30,30,30,30,30,30,30,30,30,1,1
30,30,30,30,30,30,30,30,30,30,30,30,30
1,30,30,30,30,30,30,30,30,30,30,30,1
1,30,30,30,30,26,1,30,30,30,30,6,1
1,30,30,30,30,30,30,30,30,30,30,30,1
1,30,30,30,30,30,30,30,30,30,30,30,1
1,1,1,1,1,1,1,1,1,1,1,1,1
1,17,30,30,30,30,6,22,30,30,30,30,1
1,30,30,30,30,30,1,30,30,30,30,30,1
1,1,1,30,30,1,1,1,30,30,1,1,1
1,30,30,30,30,30,30,30,30,30,30,11,1
1,1,30,30,30,30,30,30,30,30,30,1,1
1,30,30,30,30,17,1,30,30,30,30,13,1
1,30,30,30,30,30,30,30,30,30,30,30,1
1,30,30,30,30,30,30,30,30,30,30,30,1
1,30,30,30,30,30,30,30,30,30,30,30,1
1,1,30,30,30,30,30,30,30,30,30,30,1
1,1,1,1,30,1,1,1,30,1,30,1,1
1,14,30,30,30,30,30,30,30,30,30,30,1
1,1,30,30,30,30,1,30,30,30,30,1,1
1,1,30,30,30,13,6,8,30,30,30,1,1
1,30,30,30,30,30,30,30,30,30,30,1,1
1,30,30,30,30,30,30,30,30,30,30,16,1
1,30,30,30,30,30,30,30,30,30,30,1,1
1,1,1,1,1,1,1,1,1,1,1,1,1
1,30,30,30,30,30,30,30,30,30,30,30,1
1,30,30,30,30,30,30,30,30,30,30,30,1
1,1,30,30,30,30,1,30,30,30,30,1,1
1,30,30,30,30,30,30,30,30,30,30,30,1
1,16,25,30,30,30,30,30,30,30,30,29,1
1,21,30,30,30,30,30,30,30,30,30,7,1
1,1,30,30,30,3,1,1,30,7,1,1,1
1,1,30,30,6,30,1,1,30,6,30,1,1
1,1,1,1,1,1,1,1,1,1,1,1,1
1,30,30,30,30,30,30,30,30,30,30,28,1
1,1,30,30,1,30,1,1,30,10,1,1,1
1,1,30,30,30,30,1,30,30,30,30,1,1
1,1,1,1,1,1,1,1,1,1,1,1,1
1,30,30,30,30,30,30,30,30,30,30,30,1
1,1,1,1,1,1,1,1,1,1,1,1,1
1,1,30,30,14,1,4,30,30,30,15,1,1
1,30,30,30,30,13,1,30,30,30,30,10,1
1,1,30,30,30,30,1,30,30,30,30,1,1
1,1,30,30,1,1,1,1,1,30,1,1,1
1,1,30,30,30,1,1,1,30,30,30,1,1
1,1,30,30,30,30,30,5,30,30,4,1,1
1,1,30,30,30,30,8,30,30,30,30,1,1
1,1,30,30,30,5,1,30,30,30,30,1,1
1,1,26,29,30,3,1,1,30,30,30,1,1
1,1,30,30,30,30,30,30,30,30,30,1,1
1,1,1,1,1,30,30,30,1,1,1,1,1
1,30,30,30,24,30,1,30,30,30,22,30,1
1,30,30,30,30,30,1,30,30,30,30,30,1
1,1,1,30,30,1,1,1,30,30,1,1,1
1,7,30,30,30,15,1,12,30,30,30,17,1
1,1,30,30,30,30,30,30,30,30,30,1,1
1,1,1,1,1,1,1,1,1,1,1,1,1
1,1,30,1,1,30,1,1,30,1,1,30,1
1,1,1,1,1,1,1,1,1,1,1,1,1
1,30,30,30,30,30,30,30,30,30,30,30,1
1,1,30,1,30,30,4,11,30,1,30,1,1
1,8,25,30,27,13,1,10,26,30,24,9,1
1,1,30,30,30,1,1,30,30,30,30,1,1
1,1,1,1,1,1,1,1,1,1,1,1,1
1,1,30,1,30,30,1,1,30,1,30,1,1
1,1,30,30,30,1,1,1,30,30,30,1,1
1,1,1,30,1,1,1,1,1,1,1,1,1
1,30,30,30,30,30,1,30,30,30,30,30,1
1,9,30,30,30,30,1,12,30,30,30,30,1
1,1,30,30,30,30,1,30,30,30,30,1,1
1,1,1,1,1,1,1,1,1,1,1,1,1
1,1,1,30,30,30,1,1,30,30,1,1,1
1,1,1,1,30,1,1,30,1,30,30,1,1
1,1,30,30,30,1,1,1,30,30,30,1,1
1,30,30,30,30,30,30,1,30,30,30,7,1
1,1,30,30,30,30,30,30,30,30,30,1,1
1,3,30,30,30,30,30,30,30,30,30,4,1
1,30,19,30,30,30,3,30,18,30,30,1,1
1,1,30,30,30,1,1,1,30,30,30,1,1
1,13,3,1,30,30,30,1,1,1,30,1,1
1,1,30,1,1,1,1,1,30,1,1,1,1
1,1,1,1,1,1,1,1,1,1,1,1,1
1,1,1,30,19,4,1,1,6,30,1,1,1
1,1,21,30,30,30,1,21,30,1,1,14,1
1,1,1,30,30,6,4,4,30,30,1,1,1
1,1,1,30,30,30,3,24,30,30,30,30,1
1,1,30,1,30,30,30,30,30,1,1,1,1
1,1,1,1,1,1,3,1,1,1,1,1,1
1,1,30,30,30,30,30,30,30,30,30,1,1
1,1,30,30,30,1,1,1,30,30,30,1,1
1,8,26,30,30,30,1,10,30,30,30,30,1
1,1,1,1,1,1,1,1,1,1,1,1,1
1,5,24,30,29,30,1,7,23,30,22,13,1
1,1,1,1,1,1,4,1,1,1,1,1,1
1,1,30,30,30,30,1,1,30,30,30,30,1
1,1,21,30,27,1,1,1,27,30,23,1,1
1,9,21,30,26,16,1,12,22,30,24,15,1
1,30,30,30,30,30,30,30,30,30,30,30,1
1,30,30,30,30,30,1,30,30,30,30,30,1
1,6,22,4,30,8,1,9,22,30,30,11,1
1,1,30,30,1,30,1,30,30,30,1,1,1
1,1,30,30,30,30,1,30,30,1,30,1,1
1,1,30,30,30,30,1,30,30,30,1,1,1
1,1,1,1,1,1,1,1,1,1,1,1,1
1,1,30,30,1,3,1,1,29,30,1,1,1
1,1,1,1,1,1,1,1,1,1,1,1,1
1,30,30,30,30,30,30,30,30,30,30,30,1
1,2,29,30,30,22,1,30,30,30,30,1,1
1,1,1,30,30,30,1,1,1,30,30,30,1
1,1,30,1,30,7,1,30,30,1,30,1,1
1,1,1,5,8,4,4,3,30,6,1,1,1
1,1,30,30,30,13,1,12,30,30,30,1,1
1,1,1,30,3,1,1,1,1,30,1,1,1
1,1,1,30,30,30,30,30,9,6,1,1,1
1,1,1,1,30,1,1,1,1,1,5,1,1
1,6,20,30,30,19,1,9,23,30,18,9,1
1,1,1,1,1,1,1,1,1,1,1,1,1
1,1,1,1,1,1,1,1,1,1,1,1,1
1,1,1,1,1,1,1,1,1,1,1,1,1
1,1,1,1,1,1,1,1,1,1,1,1,1
1,1,1,1,1,1,1,1,1,1,1,1,1
1,1,1,1,1,1,1,1,1,1,1,1,1
1,1,1,1,1,1,1,1,1,1,1,1,1
1,1,30,30,30,30,30,30,30,30,30,1,1
1,1,1,1,1,1,1,1,1,1,1,1,1
1,1,30,30,30,1,1,30,30,30,30,1,1
1,1,30,30,30,1,1,1,30,30,30,1,1
1,1,30,30,30,30,30,30,30,30,30,1,1
1,1,1,30,1,1,1,1,1,30,1,1,1
1,8,30,1,15,30,1,11,30,1,14,30,1
1,1,1,1,6,13,30,9,5,1,1,1,1
1,1,30,30,30,6,30,30,30,30,1,1,1
1,22,30,30,30,30,30,30,30,30,30,30,1
1,1,25,30,30,1,1,1,3,6,30,1,1
1,1,30,3,30,30,1,1,30,9,3,1,1
1,1,30,30,30,30,1,30,30,30,30,1,1
1,1,1,1,1,1,1,1,1,1,1,1,1
1,8,30,30,30,30,1,13,30,30,30,30,1
1,1,7,30,30,30,1,30,1,30,16,1,1
1,1,1,1,1,1,1,1,1,1,1,1,1
1,1,30,1,30,5,1,30,30,1,30,1,1
1,1,1,1,1,1,1,1,1,1,1,1,1
1,1,28,30,30,3,1,30,30,30,30,1,1
1,30,30,30,30,30,1,30,30,30,30,8,1
1,1,30,1,1,1,1,30,30,1,30,1,1
1,30,30,30,30,30,30,30,30,1,30,30,1
1,1,30,30,1,1,1,1,30,30,1,1,1
1,1,1,1,1,1,1,1,1,1,1,1,1
1,1,30,1,1,1,1,1,30,1,1,30,1
1,1,1,1,1,1,1,1,1,1,1,1,1
1,1,1,30,7,1,1,1,1,30,1,1,1
1,1,1,1,1,30,30,30,1,1,1,1,1
1,1,30,30,30,18,4,30,30,30,30,1,1
1,1,1,1,1,6,10,30,7,1,4,1,1
1,1,1,1,1,1,1,1,1,1,1,1,1
1,3,30,30,30,30,30,30,30,1,30,30,1
1,1,1,1,1,1,1,1,1,1,1,1,1
1,1,1,1,1,1,1,1,1,1,1,1,1
1,1,30,30,30,30,1,3,30,30,30,1,1
1,8,1,30,30,19,1,13,1,30,27,13,1
1,1,1,30,30,1,1,1,30,30,1,1,1
0.999999999999998,0.95760754908925,0.888271474416025,0.906033974420509,0.899731766976417,0.939888759125765,0.963132991360697,0.951364503918616,0.878906626115396,0.911343266848568,0.91672684137541,0.950460580016511,0.999999999999998
0.959487110710035,0.959198253274672,0.909295420107008,0.90439490757217,0.913449860871183,0.899395998545449,0.948958848472546,0.941645944816302,0.908196698335422,0.910541316277319,0.898887421050473,0.923726256045035,0.959487110710035
1,0.978934110805232,0.959646885742809,0.943409162325251,0.933347037794543,0.930752148907251,0.929253751640138,0.93228724172566,0.944599368383104,0.948101148459277,0.960061318825883,0.982974402859866,1
0.999999999999999,0.891619103418461,0.870432547842398,0.848276056928486,0.877676715766288,0.89900614226611,0.909766977492998,0.883458972288798,0.881334917877801,0.857261175269343,0.8891638757872,0.911600115700651,0.999999999999999
0.961961049898192,0.958847306600423,0.900779509046407,0.90766185359934,0.915948629179845,0.906375239076613,0.935122787073217,0.962810602215949,0.90138755945894,0.916323121195687,0.92701167069401,0.926148332705501,0.961961049898192
1,0.918170813499478,0.886766863086087,0.846356181836071,0.835795027524544,0.905087571278886,0.943870421209866,0.893457132713967,0.887070640155874,0.846527746059846,0.837773972274928,0.962205846357685,1
0.999999999999999,0.97950599631143,0.959388599548815,0.942062592978342,0.942212698891942,0.940390614335052,0.945453357651238,0.940997017083215,0.939363656305029,0.941961816692002,0.955596852446072,0.980056896980699,0.999999999999999
0.9434610095219,0.856296279630196,0.863685552603015,0.84060607048971,0.810949545558036,0.854539315266248,0.859508820774766,0.852412625359547,0.864608719993147,0.860577096387633,0.826838180528692,0.850128464191073,0.9434610095219
0.999999999999999,0.969000255552029,0.93266719129541,0.91667767552273,0.920867713006985,0.942315674937735,0.966726324868327,0.948163023936413,0.920238953450903,0.917479312374319,0.932638334750986,0.964922041299707,0.999999999999999
0.992631118954518,0.947542574366633,0.91143847232683,0.867037060884962,0.945485459283627,0.920315362238575,0.913657304857063,0.8939855163856,0.881444705881304,0.883744126979179,0.937192769324305,0.960668812296346,0.992631118954518
1,0.878330759007929,0.83146307408453,0.834583767678317,0.79267461187555,0.961713044173928,0.972003711890188,0.859209691950882,0.821940125215254,0.831088233879726,0.805617918860954,0.960074961324528,1
1,0.932140323307106,0.829962968631647,0.841561929950978,0.817736702830599,0.899600493450075,0.94397305021406,0.907352186841806,0.820109710333799,0.85433940940711,0.837211057094946,0.936015911161881,1
1,0.963648109568075,0.909898953025304,0.90131678789978,0.923024439809652,0.941693036057081,0.944213744167279,0.938264144465821,0.914822523848414,0.898939623807429,0.912492983274508,0.961765482920089,1
1,0.958829130891553,0.888682283081759,0.860431829467031,0.886256733229406,0.934102412563424,0.959771031712957,0.933722954784078,0.878168809386764,0.860840399528938,0.896687859897924,0.956319454676316,1
1,0.932947285390825,0.889407164761899,0.880227563656893,0.8873346406943,0.873728612859116,0.901462515819339,0.912070426381178,0.903445766828196,0.882848961124304,0.925671603162694,0.932795750566539,1
1,0.944725758536031,0.854827818995611,0.850846901379948,0.850111332183508,0.887546346942888,0.91837440477296,0.893222587767344,0.850440675295945,0.841724725507531,0.851940668952077,0.944877601007244,1
0.999999999999999,0.917536977340488,0.898669399336018,0.875293554863533,0.822226323342086,0.935131681552511,0.941520273766193,0.899509783896159,0.893675664592881,0.875544478193785,0.861048276012645,0.967199133066188,0.999999999999999
0.99814696239682,0.946385700936997,0.91588790174268,0.916045126837646,0.889349625098263,0.930980595063987,0.93607143225458,0.938830068771979,0.907344427706058,0.902855397128017,0.883870344091957,0.961620395270705,0.99814696239682
1,0.927646740085149,0.847111982711101,0.828856860222077,0.863867273229218,0.873037802981056,0.899717304601987,0.8729644418158,0.834710275240395,0.808588638485843,0.888525715927242,0.961280516072086,1
0.999999999999998,0.961584428154482,0.926373334291611,0.919395130003949,0.919058604287627,0.908887669834283,0.904895380732418,0.907196376320296,0.922460114279968,0.919306181165828,0.927431633936236,0.961199797221263,0.999999999999998
0.992838323569193,0.872379076926249,0.902229094926318,0.906165232544917,0.919451996574964,0.834055047050534,0.97711503675664,0.877692050856481,0.898201734521509,0.907438581004335,0.920304011341132,0.838980946497172,0.992838323569193
0.992021697437119,0.867276740386757,0.820614497721122,0.848092850833166,0.858977418783968,0.860154638763976,0.9360713880939,0.817562459051156,0.822500255674469,0.850199911267658,0.859131506256009,0.863427847694918,0.992021697437119
1,0.9689680658545,0.918208723430457,0.900971127371696,0.906703357806068,0.943879638339807,0.963590077125923,0.946910079304147,0.902170424995724,0.900971127371696,0.915615668585229,0.963998597191414,1
1,0.961759899434308,0.915144216635495,0.864212451573544,0.89796474251064,0.930784811556518,0.949216471537249,0.955166665378783,0.91680089087249,0.862669819327859,0.871706699276931,0.91209175353049,1
1,0.958315785711942,0.890109728119393,0.85540283025268,0.847616809709276,0.863736135977201,0.878684943516499,0.862032918246888,0.854198015441657,0.865218269314218,0.903054638319226,0.958388052483308,1
1,0.990235596315177,0.976670166827256,0.963863034562462,0.966637431442202,0.983993178977454,0.993061412029626,0.98438651279741,0.973846741803291,0.963863034562462,0.96744125320428,0.988058722806123,1
0.961274259913002,0.953563233529333,0.906261380350631,0.948439505687273,0.953975782870461,0.888965732305925,0.923848008854008,0.936514729489714,0.902612575330442,0.940718668186736,0.951515178359033,0.900782170972527,0.961274259913002
1,0.998083309742091,0.995898364916247,0.993672714349796,0.991629063773183,0.99024553267556,0.98963665198106,0.990196262266104,0.991685047353676,0.993672714349797,0.995891130151867,0.998256289826951,1
0.937103669223488,0.882938143635612,0.871532592355066,0.881975289937575,0.904519819294432,0.880455320173534,0.887553710154061,0.885587117086149,0.883920993360265,0.8890320635484,0.898838384244181,0.87127651343945,0.937103669223488
1,0.95638560607336,0.899922284430201,0.916720842391181,0.88467806674701,0.879812224382607,0.927192427745809,0.937535111340552,0.908077047494829,0.928001794720205,0.878074596800107,0.941905055789039,1
1,0.961379222860182,0.950197119180359,0.792854927514781,0.930014184044682,0.959897685012198,0.979843910191094,0.960677206070436,0.947208613998517,0.812033976606804,0.946216305130122,0.961242037382638,1
1,0.933643187715084,0.827297111272976,0.805971755466269,0.806008801860779,0.914127680621328,0.974111320732552,0.906804723166526,0.822473370387349,0.807215505057062,0.818773996341792,0.931848617093223,1
1,0.980981242155284,0.969121643253063,0.957931085453811,0.951885246813099,0.948036002169982,0.956300194600521,0.955797928705129,0.960421144633737,0.960029225433165,0.970360230394869,0.987234228858568,1
0.999860143352501,0.951255085563675,0.900689390364331,0.936057234352474,0.885037882938087,0.894594508958829,0.926183684099501,0.912711938978481,0.893048929031566,0.944400704730193,0.898753271401672,0.949561880617105,0.999860143352501
0.999999999999999,0.944577330529872,0.880697522786708,0.907730460000379,0.861172511341059,0.948412154242703,0.984910457726908,0.938033269753167,0.878876839961479,0.907338942565565,0.860494624929828,0.955020553212936,0.999999999999999
0.955324176631971,0.952185595997018,0.954421195147705,0.905945429025185,0.925201976358487,0.960467145567406,0.92528940316069,0.936906889205539,0.956776292739952,0.915013897726099,0.929113577348493,0.982932272235028,0.955324176631971
1,0.856629521822103,0.783043999569021,0.890362924067588,0.830880366997385,0.834090836180728,0.962125956538847,0.842161091014048,0.811445106977765,0.878395664999767,0.835931746389139,0.851265139272049,1
1,0.961590590989295,0.817736449103479,0.868184545340085,0.854142894973213,0.875524148991017,0.977798366462466,0.960185486323101,0.771913082241591,0.872080915327753,0.838483842956566,0.874161298649967,1
1,0.932946138234008,0.848451739881039,0.8559545639695,0.85938729488205,0.890784162977563,0.942942002899179,0.897401134218492,0.840027312072188,0.855173127422071,0.858385164585243,0.934045547344685,1
1,0.994520210626866,0.986615906108049,0.980912258923502,0.97938185762531,0.979416849739635,0.982080152390127,0.980492308200072,0.978589487040819,0.980912258923501,0.986118708059026,0.994031133715457,1
1,0.968560667174409,0.919028161873968,0.89281237940428,0.903844216935146,0.907108321837406,0.926642646317607,0.925898401059616,0.897577624645231,0.892812379404279,0.927532598722634,0.959453314836088,1
1,0.912960358508946,0.951921238707964,0.927501763713613,0.903540492058606,0.927780629943573,0.930657281015524,0.898437133511879,0.937128908810225,0.892992541825874,0.908371101779674,0.960401349102766,1
0.999999999999999,0.935853893755101,0.852323435843123,0.868710697035615,0.86443065750284,0.927515221412681,0.96707069131872,0.921493351443108,0.856129857293776,0.870317594434415,0.871730732037191,0.944716046712382,0.999999999999999
1,0.885957422707012,0.891774079445564,0.905672903595038,0.905556013972179,0.889161276342149,0.90709979141647,0.914746562005777,0.909711631502703,0.901468180420013,0.90499762985483,0.96295011102085,1
1,0.946721412373782,0.900588793568306,0.909530349877586,0.909477130229047,0.900381127357001,0.899872243302018,0.89849915177244,0.90223509088415,0.908071192356788,0.900006715931813,0.947303344226696,1
0.999999999999998,0.961250763985878,0.847593717119354,0.874854533022207,0.856398147201781,0.844331420517581,0.855051313718027,0.882113367109251,0.870206087796967,0.840194213129655,0.85014110001938,0.912015043901647,0.999999999999998
0.964016596670329,0.892484842668339,0.945967621031064,0.841753610485436,0.840836424886704,0.908277017673299,0.915377756739455,0.88802669898786,0.952338691415186,0.861140774651284,0.865758251874784,0.927105309392318,0.964016596670329
0.999999999999998,0.94827371539813,0.909777303699917,0.899800186615994,0.866286440513898,0.958725695786445,0.96126424085946,0.932813230036046,0.902030392912543,0.88563373153177,0.879284265566562,0.962074443011461,0.999999999999998
0.995371428444993,0.92085027590547,0.922379846144229,0.941771941436833,0.909525360007101,0.875611739911622,0.888838910563506,0.940990299155167,0.952578165476245,0.928209700604104,0.902352678854395,0.96080008687225,0.995371428444993
1,0.955284253812021,0.900626995630233,0.911958117783986,0.918349466336784,0.954091851234039,0.995546280712328,0.954065899079191,0.902334628334734,0.911741367223183,0.918219201620339,0.954851833993238,1
0.999999999999999,0.987475959887478,0.97370618264253,0.973677813262186,0.979068167644307,0.976888155413464,0.987370818061833,0.980741365589441,0.975503652252095,0.973677813262185,0.982268206511912,0.985885475168111,0.999999999999999
1,0.96009990104167,0.924072056680882,0.899445245204284,0.91444492360979,0.923356375253883,0.926176550502465,0.920143149255831,0.917641752922475,0.89934786612221,0.92688737644152,0.95771033458339,1
0.953890780875579,0.955269881806909,0.920335489876952,0.906852460263989,0.887812211497356,0.898488490054917,0.917536994643701,0.91638065130675,0.889104895648311,0.911025466513494,0.916680730090579,0.916741335716274,0.953890780875579
0.999999999999998,0.963155447329265,0.93085937339398,0.907740456860963,0.903678952232392,0.917162409056627,0.920021494811439,0.916838461533346,0.899670017860822,0.903287560806462,0.928578923843212,0.96317728636059,0.999999999999998
0.999999999999998,0.920168602093068,0.92797307903534,0.885633014020973,0.893080870463336,0.847230678838792,0.930616594340165,0.922496870778534,0.888099055177645,0.900793615701975,0.899427072363339,0.87526645421578,0.999999999999998
0.99492389276659,0.935374744203568,0.907115343989292,0.921943524741764,0.890266746606237,0.898546594469667,0.89607620259391,0.880762795979471,0.898050748137684,0.919876338535661,0.918961413693385,0.961314435514104,0.99492389276659
1,0.977328706409043,0.947002660525205,0.92981880932692,0.94379656176979,0.940626789472359,0.936286773609279,0.950103230633813,0.946108230047917,0.942740901213583,0.946602991004491,0.974131850911095,1
1,0.940240410043897,0.870366901826505,0.840551546235735,0.882504249403249,0.856615400185469,0.877563816029467,0.858901024826457,0.872398892188931,0.854699221950726,0.87182052553431,0.938635116019356,1
0.999999999999999,0.952947457667983,0.885354540340737,0.855110757807484,0.881719196258683,0.929433021817858,0.958617217278377,0.928698416036889,0.891181512933905,0.855106236093773,0.89000597600896,0.954161697271046,0.999999999999999
1,0.963917581188726,0.954886108383306,0.841488490164276,0.906625610930338,0.910167474750239,0.964343636661663,0.961057137363113,0.916929759082586,0.843874722466674,0.906725876442868,0.888184072877139,1
0.999999999999998,0.970027142681891,0.944639543714034,0.951271320917735,0.96440461744655,0.948593140882489,0.932315196987639,0.950471241580749,0.962526597415454,0.95080646612169,0.9427271085492,0.969935740071831,0.999999999999998
1,0.963762513629964,0.964173835920134,0.775439039052404,0.912597480175363,0.89189977537519,0.960165100969863,0.954762182771522,0.952306752523063,0.773167428795913,0.935248042033831,0.938176819149194,1
1,0.955682828599373,0.916666275524104,0.926016295847996,0.94867586358413,0.94764994891497,0.918558591941583,0.95062002758923,0.952558488277161,0.924089445927208,0.917015570914993,0.959801340676743,1
0.984610151615771,0.914454354255146,0.865558625123118,0.846616921972685,0.86082641818209,0.883359459071056,0.955228121674907,0.921604219314321,0.859999898585297,0.843132631763399,0.856643162115579,0.896754965220866,0.984610151615771
1,0.946444821840934,0.92851898779352,0.886134542703663,0.927980427570288,0.960992758200052,0.975656319440343,0.944221236238955,0.915822478884779,0.877866968440641,0.94767192788394,0.961554110952618,1
0.981110903565658,0.960010746921086,0.960783234758212,0.867721643339454,0.926271517144987,0.946718900967019,0.928229750925973,0.955910799684754,0.950436563425151,0.869110539214503,0.93884487111789,0.95143199872958,0.981110903565658
0.999999999999999,0.874140985175553,0.726654464346745,0.784748466477779,0.764342079913894,0.770316540477182,0.844574825743772,0.802535840088593,0.826400017005017,0.740874019081768,0.743558160648793,0.873693201152021,0.999999999999999
0.999999999999999,0.839697239896164,0.821274496324533,0.8579707766064,0.862967088298434,0.822784289402869,0.95076569720766,0.825515869843768,0.818011373982192,0.854804931856655,0.849692905371969,0.831295363175292,0.999999999999999
1,0.958387302564942,0.94700095071074,0.917093079784477,0.907678209870946,0.933348488678327,0.960819111400545,0.94465608598642,0.94740735462703,0.900082626706007,0.8631758136189,0.916512848810516,1
1,0.925758717525761,0.843601987276513,0.900868085798218,0.917928688195897,0.886239345529547,0.919341032948678,0.88274309121188,0.849088171558173,0.897604027859099,0.91839957446596,0.910860162015927,1
0.988512678822065,0.910379174733457,0.895039649090886,0.89455488629504,0.893509654884233,0.882429364595165,0.922573755586996,0.886451756579017,0.880675721284047,0.921818797112093,0.896447216333843,0.937120652178146,0.988512678822065
1,0.945360811462965,0.907450516287231,0.901726133888459,0.893093033146264,0.910155551485023,0.927715760288539,0.895679076044511,0.895315067600765,0.909233140481548,0.914254357876827,0.950802818365715,1
0.999999999999999,0.973014092227605,0.942029988352289,0.937237138824861,0.941673841634394,0.960268997228336,0.973830588014778,0.961912571844578,0.943826130558217,0.937237138824861,0.94395357919561,0.971092701641843,0.999999999999999
1,0.937228906787048,0.909818382237645,0.899992413290539,0.930335143797444,0.960790324870026,0.964830491910196,0.918277728463445,0.912062920783038,0.898330726249962,0.927022796827954,0.962604449478429,1
0.980127195273657,0.919575037024083,0.960099794695684,0.954559315773635,0.947783385721536,0.935002685267424,0.954877425624066,0.919962655499318,0.960455832814994,0.957513753571172,0.952361510680085,0.939167591974264,0.980127195273657
0.951224688543881,0.869770244365687,0.898300334453331,0.87821482891008,0.853175973945055,0.840624307641467,0.864570930282632,0.861258006744303,0.901495957254254,0.869568895082374,0.851601813548286,0.896354868225138,0.951224688543881
0.999999999999998,0.923421510082234,0.917070333637268,0.896489585157799,0.841969141319485,0.925232723006692,0.934760166909998,0.877996176535331,0.879574040071686,0.854770016903821,0.856288307923493,0.96200132842071,0.999999999999998
0.999999999999999,0.931135936139191,0.936842264250597,0.903293513968228,0.873363191471057,0.892574222306786,0.934157017014371,0.935841323164567,0.916036928874685,0.907172674782306,0.880296003581494,0.892080448529433,0.999999999999999
0.987917716658074,0.937318001274086,0.901796466286379,0.929810376521224,0.887261461915072,0.910447997621255,0.937933756405776,0.899111770348605,0.893535498466228,0.929999741781559,0.902580644201694,0.94175700076567,0.987917716658074
1,0.933026174050854,0.924288338380202,0.914417469595514,0.915040961473747,0.924173903327583,0.938281695110334,0.937650034304085,0.900135867897001,0.910834521480386,0.918482652865377,0.933448133304758,1
1,0.963335913643323,0.852531621740279,0.878148323591869,0.896668867688354,0.915439383212814,0.929378079152318,0.928929744487219,0.835112687559797,0.866339855560129,0.904330360549718,0.938203562818428,1
1,0.964360526438995,0.92479140848782,0.909451728850627,0.915613784636846,0.942676640464137,0.959841017975187,0.942521030647527,0.911747846942486,0.90427075078296,0.918725104321739,0.960842035210559,1
1,0.962504061538657,0.921269741375974,0.906257886289975,0.899243601104934,0.899443982306867,0.892644796767051,0.901345404670813,0.910940643753307,0.912402065451565,0.926561336033425,0.963465896025336,1
0.998127877505309,0.930809984478026,0.941489876119868,0.942425046911969,0.898060199361442,0.95478840181174,0.960597645176016,0.916896529636052,0.932655396473585,0.935385742083342,0.911654240279998,0.975229376003878,0.998127877505309
1,0.962801854763698,0.96569929515673,0.843757041714544,0.907828535637249,0.926711081533421,0.950758025796181,0.942518934520861,0.94799377222136,0.868674912413342,0.947694753782881,0.960448121197363,1
0.999999999999997,0.970129304553991,0.944644667241072,0.941830300457889,0.948342547520062,0.949235525535382,0.950664974119829,0.952360331815771,0.952999966008441,0.945124715703198,0.959147685612498,0.973073186885466,0.999999999999997
1,0.961568741477501,0.979266262382002,0.965979179028464,0.953814206980491,0.968109452766166,0.94548800331374,0.967190211867525,0.958469295550834,0.965979179028464,0.982299231834388,0.963673290679882,1
0.999999999999999,0.961449202633555,0.949151381915164,0.96695756096498,0.950901752268168,0.948132148360835,0.958261727219871,0.94608677788935,0.953539825806545,0.966957560964979,0.95025703467488,0.962739817321673,0.999999999999999
1,0.977444799368033,0.954998661135817,0.942280714618729,0.948730783589755,0.965002406769326,0.975150222838529,0.961889751702542,0.954337837484278,0.942280714618729,0.956208468066454,0.978885813638778,1
0.999999999999999,0.992785228119839,0.982903255121003,0.9799634772874,0.978662442187703,0.971416715951972,0.966843096071895,0.974487096230269,0.980538904555539,0.9799634772874,0.984923694457994,0.994343475638645,0.999999999999999
0.999999999999999,0.975626656907725,0.949532476716706,0.945795733998599,0.944599951045759,0.964951923607267,0.984470979694051,0.967605822924105,0.946096996888824,0.945795733998599,0.94748303364962,0.971672444322876,0.999999999999999
0.999999999999999,0.982664394038238,0.968450368144826,0.965666827304315,0.958698708380773,0.950931154340041,0.951614377962869,0.950238018475891,0.960213030376675,0.965666827304315,0.968803321637337,0.984673333214083,0.999999999999999
0.999999999999999,0.91610751508167,0.834452433332969,0.815411102848774,0.81265475595804,0.85767315274471,0.870986128911704,0.84397820440592,0.841323477228136,0.838802340953519,0.832874385725061,0.918349176073074,0.999999999999999
1,0.953878524941808,0.927089759453743,0.935914954854829,0.933868187170237,0.930177222306058,0.927501255724656,0.935252919383594,0.941832924951052,0.935688702566807,0.930747151364202,0.95962468042727,1
1,0.929511119407958,0.86151271718999,0.866552490153645,0.836848893492965,0.915010524220637,0.969303389916579,0.909163015022007,0.868194018121532,0.865250504880483,0.847259680310897,0.933835522279064,1
1,0.947257693488543,0.908941670317723,0.869283813359672,0.885068467315665,0.944366044507531,0.953807721313149,0.926336054389954,0.905082891632287,0.860633722622802,0.894690685374102,0.960388532642798,1
0.999999999999998,0.950032493393058,0.891395649845878,0.847455933139152,0.845202987963791,0.863078654280945,0.850715908112082,0.852076569787563,0.841784019781272,0.807664596890024,0.893465837047959,0.951170502690504,0.999999999999998
1,0.967830509286705,0.922758501942824,0.903489485554772,0.923550470067544,0.955100897247124,0.972585313462486,0.958209902161558,0.925277797245289,0.904153488663188,0.92879831339495,0.965076621391486,1
0.999999999999998,0.963748620601864,0.839416305751805,0.93777735961439,0.927372177153597,0.877346007750958,0.952012157512605,0.9525345543485,0.844252334952022,0.942352886674315,0.913203707687151,0.878369699788463,0.999999999999998
1,0.967302782362019,0.935425089286269,0.920838829385576,0.917942096381599,0.914540236046366,0.909691647123189,0.933107636386003,0.938784797494243,0.939476025296561,0.942997371669597,0.96648115250648,1
0.945446551504712,0.930172834655389,0.876141534806994,0.892070063507447,0.882460540344554,0.922061453333314,0.885865383697937,0.880198675144987,0.898759939805179,0.876702706110729,0.920211062401376,0.944146439605724,0.945446551504712
1,0.956547869878238,0.848539293592673,0.836744980405552,0.883815328527299,0.813513705097175,0.832836731607378,0.822375322975753,0.881701040797608,0.823954484555205,0.807157746844564,0.851865354900056,1
1,0.937496902791898,0.916802295966119,0.905226184250233,0.901520659773702,0.960494432018453,0.964934232167764,0.930708903425356,0.927664517677685,0.920098421066138,0.905092082682899,0.960325089357296,1
0.972632956880521,0.959342786935219,0.876470320366318,0.911759465878308,0.901530970842635,0.873866948075103,0.914770830753925,0.944967302614995,0.898615342693478,0.910410239198792,0.911244082256641,0.928203672462913,0.972632956880521
0.999999999999999,0.939221647595088,0.872406355851165,0.893348609995736,0.891413119626666,0.89425700347538,0.929793256061113,0.892224079372309,0.840265715566203,0.846348802897371,0.882735756525378,0.942428030944262,0.999999999999999
0.999999999999999,0.987582413115744,0.97042002674932,0.960340399418141,0.966509188032393,0.973099332068491,0.975418448459793,0.978458646463104,0.972693385506981,0.960340399418141,0.970525312491506,0.984834617119511,0.999999999999999
1,0.963551096324641,0.788152077312974,0.79183495428753,0.863246963023189,0.866597381130992,0.961114505638046,0.960036688757058,0.796063325002653,0.771347582460581,0.875134284142841,0.878590862562379,1
0.999999999999999,0.919632148354721,0.916532447489082,0.866128492322927,0.89872332159795,0.908685614900696,0.962666094761268,0.904434750399895,0.926299368616638,0.87873208990294,0.910866763188949,0.936401856226597,0.999999999999999
1,0.980163352296378,0.961390000224381,0.95582682828982,0.957267795842901,0.967582324027248,0.973065739356066,0.966130098831397,0.957141485878362,0.95582682828982,0.96422947923932,0.979768122129525,1
1,0.916570011754906,0.900224257177942,0.931104655165801,0.887580352450053,0.956377589827468,0.95660619188496,0.896106863894042,0.878534742193552,0.928123233092358,0.856299729629357,0.964646454752799,1
0.999999999999998,0.978880480016447,0.958566241594273,0.945957521761503,0.937789133758021,0.93304418332336,0.933496571805444,0.931607674197734,0.932408161961502,0.940427840640062,0.954302080514228,0.97805137006169,0.999999999999998
0.999999999999999,0.924908514204016,0.916928122233044,0.892106545395688,0.842398329199444,0.960179559937736,0.965729358322925,0.906617790901473,0.895563556164931,0.88671298858416,0.817815054170169,0.963350155278199,0.999999999999999
0.999999999999999,0.900829393456151,0.8537925126051,0.873148209646021,0.853666699903346,0.909521460080717,0.949610952793406,0.876007436582054,0.849217040043406,0.881810138405856,0.857392336390417,0.921741014992721,0.999999999999999
0.970354686359414,0.911102547891332,0.907051176049644,0.951410935739154,0.917286279724386,0.940561911212038,0.929863023676255,0.906991646076612,0.907727854249748,0.9519397643274,0.905611030939059,0.955643668247384,0.970354686359414
0.987063493919364,0.903733158887173,0.861957743748675,0.88627313441334,0.860483291785859,0.867851785838619,0.8598303557193,0.842604554686576,0.890384241407643,0.932519968231913,0.877176322020403,0.890538984720769,0.987063493919364
0.968298102790387,0.964816003937652,0.87949361003631,0.894005838567561,0.923215341313799,0.929516343282404,0.955498823519043,0.957722462941306,0.88030321148137,0.89248835614359,0.92401609240968,0.929472134578423,0.968298102790387
0.999999999999999,0.978241214460151,0.961630278189554,0.96278556962894,0.952934130828269,0.969389091005,0.978668367838992,0.973660811498258,0.959924678687869,0.966048859816834,0.953931419276296,0.977129219280034,0.999999999999999
0.999171484427294,0.962521497513288,0.884245916417804,0.927444867615583,0.953426257383884,0.91837738192041,0.947272254327726,0.950116132593422,0.883057890636328,0.929246244132459,0.95655384744777,0.892791615788794,0.999171484427294
1,0.968995514513089,0.94156170758981,0.942255732292928,0.937612485388587,0.949761880416061,0.969606012029503,0.952963665455985,0.939052102340214,0.942359774532975,0.939879497574332,0.96609568574898,1
1,0.968261353321995,0.946674178613802,0.902384888592396,0.930439897704548,0.960630827113464,0.961206126101964,0.96055075503354,0.946258815482426,0.909218583148303,0.934721157578971,0.967958150152761,1
1,0.958928661626553,0.92635273458525,0.923434269918734,0.916482220787582,0.909648697136959,0.904321835370567,0.897062849454233,0.923863932169533,0.923434269918734,0.931313251752592,0.961110603439077,1
1,0.912440105316358,0.88977537872427,0.861428248327625,0.863704528269975,0.917140005003245,0.9199617302924,0.863851524665157,0.841467303557644,0.840671696878656,0.883793057732564,0.96056581767918,1
0.988948185261012,0.945529090840123,0.936692305902614,0.939786484925907,0.918526665372143,0.920026326617541,0.915491749257499,0.892386473492887,0.914542269792811,0.951637731070887,0.911369382927675,0.97370262658053,0.988948185261012
1,0.998996078174869,0.997032133711648,0.994796870883584,0.993328436027655,0.992012074708513,0.991019302592475,0.991454600172893,0.993107311106276,0.994796870883584,0.996767767858801,0.998939917253888,1
0.967305847873319,0.939253307558391,0.87126929820788,0.896958409588903,0.906780625568492,0.876975343749145,0.900141761381573,0.904428446210607,0.876233546041355,0.912538584469845,0.882698453416486,0.904601804810281,0.967305847873319
0.968104668308971,0.930978733184314,0.924722192239796,0.930976861145058,0.925333345304113,0.912294238009067,0.947918497915522,0.912476319412087,0.910571053007303,0.938445087172154,0.921932962694405,0.92270196553971,0.968104668308971
0.999999999999999,0.977397644026628,0.954751850825501,0.945218698113536,0.937762655858474,0.951601788163914,0.960354820901885,0.948111173536091,0.952348376853319,0.946317866337308,0.951418181860065,0.972125420307538,0.999999999999999
1,0.939406485074268,0.839056609823702,0.838233234002996,0.848265462955931,0.903593206821056,0.948354230939442,0.923143358194371,0.846954393439524,0.853071302795573,0.842196324371361,0.935539865188311,1
0.998532068825754,0.960501606580571,0.961188837052755,0.867547667828413,0.889106005611192,0.923066161798402,0.938381059055162,0.941075685328359,0.931895020367124,0.880585502715519,0.928484076719356,0.960443147090099,0.998532068825754
1,0.960130872814558,0.921031602790344,0.903963162953311,0.89903105856747,0.920417948959615,0.935535659899728,0.924680659490921,0.906195190036178,0.906545191212783,0.951345829097258,0.960101621450129,1
