r0,r30,r60,r90,r120,r150,r180,r210,r240,r270,r300,r330,r360
1,1,0,0,0,0,1,1,0,0,0,0,1
1,0,0,0,0,0,0,0,0,0,0,0,1
1,1,0,0,0,0,0,0,0,0,1,1,1
1,0,0,0,0,0,0,0,0,0,0,0,1
1,1,0,0,0,0,1,0,0,0,0,1,1
1,0,0,0,0,0,0,0,0,0,0,1,1
1,1,0,0,0,0,0,0,0,0,0,1,1
1,0,0,0,0,0,0,0,0,0,0,0,1
1,1,0,0,0,0,1,0,0,0,0,1,1
1,1,0,0,0,0,0,0,0,0,0,0,1
1,0,0,0,0,1,1,0,0,0,0,0,1
1,0,0,0,0,0,0,0,0,0,0,0,1
1,0,0,0,0,0,0,0,0,0,0,1,1
1,1,0,0,0,0,0,0,0,0,0,0,1
1,0,0,0,0,0,0,0,0,0,0,0,1
1,1,0,0,0,0,0,0,0,0,0,1,1
1,0,0,0,0,0,0,0,0,0,0,1,1
1,0,0,0,0,0,0,0,0,0,0,1,1
1,0,0,0,0,0,0,0,0,0,0,1,1
1,1,0,0,0,0,0,0,0,0,0,1,1
1,0,0,0,0,0,1,0,0,0,0,0,1
1,0,0,0,0,0,0,0,0,0,0,0,1
1,1,0,0,0,0,1,0,0,0,0,1,1
1,1,0,0,0,0,0,0,1,0,0,0,1
1,1,0,0,0,0,0,0,0,0,0,1,1
1,1,1,0,0,1,1,1,1,0,0,1,1
1,1,0,0,0,0,0,0,0,0,0,1,1
1,1,1,1,1,1,1,1,1,1,1,1,1
1,0,0,0,0,0,0,0,0,0,0,0,1
1,0,0,0,0,0,0,0,0,0,0,0,1
1,0,0,0,0,0,1,0,0,0,0,0,1
1,1,0,0,0,0,1,0,0,0,0,0,1
1,1,1,0,0,0,0,0,1,0,1,1,1
1,0,0,0,0,0,0,0,0,0,0,1,1
1,0,0,0,0,0,1,0,0,0,0,0,1
1,1,0,0,0,0,0,0,0,0,0,1,1
1,0,0,0,0,0,0,0,0,0,0,0,1
1,1,0,0,0,0,1,1,0,0,0,0,1
1,0,0,0,0,0,0,0,0,0,0,0,1
1,1,1,1,1,1,1,1,1,1,1,1,1
1,1,0,0,0,0,0,0,0,0,0,1,1
1,0,0,0,0,0,0,0,0,0,0,0,1
1,0,0,0,0,0,0,0,0,0,0,0,1
1,0,0,0,0,0,0,0,0,0,0,1,1
1,1,0,0,0,0,0,0,0,0,0,0,1
1,1,0,0,0,0,0,0,0,0,0,0,1
1,0,0,0,0,0,0,0,0,0,0,0,1
1,1,0,0,0,1,1,0,0,0,0,1,1
1,0,0,0,0,0,0,0,0,0,1,1,1
1,0,0,0,0,1,1,0,0,0,0,0,1
1,1,1,1,1,1,1,1,1,1,1,1,1
1,0,0,0,0,0,0,0,0,0,0,0,1
1,1,1,0,0,0,0,0,0,0,0,0,1
1,1,0,0,0,0,0,0,0,0,0,1,1
1,0,0,0,0,0,0,0,0,0,0,0,1
1,0,0,0,0,0,0,0,0,0,0,0,1
1,1,0,0,0,0,0,0,0,0,0,1,1
1,0,0,0,0,0,0,0,0,0,0,0,1
1,1,0,0,0,0,1,0,0,0,0,0,1
1,0,0,0,0,0,1,0,0,0,0,0,1
1,1,0,1,1,1,0,1,1,1,0,1,1
1,1,1,0,0,0,0,0,0,0,0,1,1
1,1,0,0,1,1,0,1,1,0,0,0,1
1,0,0,0,0,0,1,0,0,0,0,0,1
1,0,0,0,0,0,1,0,0,0,1,0,1
1,1,1,0,0,0,0,0,0,0,0,0,1
1,0,0,0,0,0,0,0,0,0,0,0,1
1,0,0,0,0,0,0,0,0,0,0,0,1
1,1,0,0,0,0,0,0,0,0,0,0,1
1,0,0,0,0,0,0,0,0,0,0,0,1
1,0,0,0,0,0,0,0,0,0,0,0,1
1,0,0,0,0,0,0,0,0,0,0,1,1
1,1,0,0,0,1,1,1,0,0,0,1,1
1,0,0,0,0,1,1,0,0,0,0,1,1
1,0,0,0,0,0,0,0,0,0,0,0,1
1,0,0,0,0,0,0,0,0,0,0,0,1
1,0,0,0,0,0,0,0,0,0,0,0,1
1,0,0,0,0,0,0,0,0,0,0,0,1
1,0,0,0,0,0,1,0,0,0,0,0,1
1,0,0,0,0,0,0,0,0,0,0,0,1
1,1,0,0,0,0,0,0,0,0,0,0,1
1,1,0,0,0,0,0,0,0,0,0,1,1
1,1,0,0,0,0,0,0,0,0,0,1,1
1,1,0,0,0,0,0,0,0,0,0,1,1
1,1,1,0,0,0,0,0,0,0,1,1,1
1,1,0,0,0,0,0,0,0,0,0,1,1
1,1,1,1,1,1,0,1,0,1,1,1,1
1,1,0,1,0,0,0,0,1,1,0,1,1
1,1,1,0,0,1,1,1,0,0,0,1,1
1,1,1,1,1,1,0,1,1,1,1,1,1
1,1,0,0,0,1,1,0,0,0,0,1,1
1,1,1,1,1,1,1,1,1,1,1,1,1
1,0,0,0,0,0,0,0,0,0,0,0,1
1,1,0,0,0,0,0,0,0,0,0,1,1
1,0,0,0,0,0,1,0,0,0,0,0,1
1,0,0,0,0,0,0,0,0,0,0,0,1
1,1,0,0,0,0,0,0,0,0,0,0,1
1,1,0,0,0,0,1,0,0,0,0,1,1
1,1,0,0,0,0,0,0,0,0,0,0,1
1,1,0,0,0,0,0,0,0,0,0,1,1
1,1,0,0,0,0,0,0,0,0,0,0,1
1,1,0,0,0,0,0,0,0,0,0,0,1
1,0,0,0,0,0,0,0,0,0,0,1,1
1,1,0,0,0,0,0,0,0,0,0,1,1
1,0,0,0,0,0,0,0,0,0,0,0,1
1,1,1,0,1,1,1,1,1,0,1,1,1
1,1,0,0,0,0,1,1,0,0,0,0,1
1,0,0,0,0,0,1,0,0,0,0,0,1
1,1,1,0,1,1,1,1,0,0,1,1,1
1,0,0,0,0,0,0,0,0,0,0,1,1
1,1,1,0,0,0,0,0,0,0,0,1,1
1,0,0,0,0,0,1,0,0,0,0,0,1
1,0,0,0,0,0,1,0,0,0,0,0,1
1,0,0,0,0,0,0,0,0,0,0,0,1
1,0,0,0,0,0,0,0,0,0,0,0,1
1,1,0,0,0,0,1,0,0,0,0,1,1
1,1,0,0,0,1,1,1,0,0,0,1,1
1,1,0,0,0,0,0,0,0,0,0,0,1
1,1,0,0,0,0,1,0,0,0,0,1,1
1,1,0,0,0,1,0,1,0,0,0,1,1
1,1,0,0,0,0,0,0,0,0,0,1,1
1,0,0,0,0,0,0,0,0,0,0,1,1
1,1,0,0,0,0,0,0,0,0,0,1,1
1,1,1,1,1,1,1,1,1,1,1,1,1
1,0,0,0,0,0,0,0,0,0,0,0,1
1,0,0,0,0,0,0,0,0,0,0,0,1
1,1,0,0,0,0,0,0,0,0,0,1,1
1,0,0,0,0,0,0,0,0,0,0,0,1
1,0,0,0,0,0,0,0,0,0,0,1,1
1,1,0,0,0,0,0,0,0,0,1,0,1
1,26,30,30,30,30,4,30,30,4,1,30,1
1,1,30,1,3,30,3,30,4,1,1,30,1
1,1,1,30,30,1,1,1,30,30,4,1,1
1,30,30,30,30,30,16,30,10,30,30,30,1
1,1,1,1,1,1,1,1,1,1,1,1,1
1,30,1,1,30,30,30,30,30,30,30,17,1
1,1,1,1,1,1,1,1,1,1,1,1,1
1,30,3,30,30,30,30,30,30,30,30,30,1
1,1,30,1,8,30,1,8,30,4,1,1,1
1,30,30,30,30,30,30,30,4,30,30,8,1
1,1,11,28,30,17,1,1,23,30,30,1,1
1,30,30,30,30,30,30,30,30,30,30,30,1
1,1,30,1,3,3,30,1,10,30,1,1,1
1,30,30,1,30,30,1,30,1,1,30,30,1
1,4,30,30,30,30,30,30,16,30,1,30,1
1,30,30,30,30,30,30,30,30,30,30,30,1
1,30,30,1,30,30,2,30,30,1,30,6,1
1,30,30,30,30,30,30,30,30,30,30,11,1
1,30,1,30,30,30,30,30,1,30,30,26,1
1,1,30,30,30,30,30,30,30,30,30,1,1
1,30,1,5,22,30,1,30,1,5,22,30,1
1,30,30,30,30,30,30,30,30,30,30,30,1
1,1,30,30,1,30,1,30,30,30,30,1,1
1,12,30,8,30,30,1,30,30,11,30,30,1
1,30,30,30,30,30,30,30,30,30,30,30,1
1,1,1,1,1,1,1,1,1,1,1,1,1
1,1,15,1,1,1,1,1,30,1,30,1,1
1,1,1,1,1,1,1,1,1,1,1,1,1
1,30,30,30,30,30,6,30,30,30,30,30,1
1,1,10,1,1,30,1,30,1,3,1,10,1
1,10,24,30,1,1,1,8,26,30,1,1,1
1,30,30,1,30,30,1,30,30,25,30,30,1
1,1,1,3,1,3,1,30,8,1,1,1,1
1,30,30,30,30,30,30,30,30,30,30,19,1
1,30,1,1,1,1,1,9,30,1,30,1,1
1,1,1,1,1,1,1,1,1,1,1,1,1
1,30,30,1,15,30,1,30,30,1,16,30,1
1,14,30,1,30,30,1,17,30,1,30,30,1
1,30,6,4,30,30,4,30,3,1,30,30,1
1,1,1,1,1,1,1,1,1,1,1,1,1
1,1,30,30,30,30,30,1,30,30,30,30,1
1,3,30,5,30,30,30,30,30,1,30,3,1
1,6,30,1,5,27,1,30,1,1,1,1,1
1,1,13,30,30,30,30,30,30,30,13,12,1
1,30,30,30,30,1,30,30,30,30,30,30,1
1,18,30,16,30,30,30,30,30,30,30,30,1
1,30,30,30,30,30,30,30,30,30,30,1,1
1,30,30,1,30,30,3,30,30,30,30,11,1
1,30,30,30,30,1,30,30,30,30,30,8,1
1,1,1,3,1,30,1,1,1,1,1,30,1
1,1,1,1,1,1,1,1,1,1,1,1,1
1,1,1,1,30,12,30,7,1,5,9,30,1
1,30,30,30,30,30,30,30,1,30,4,3,1
1,1,30,30,30,30,1,30,30,1,30,1,1
1,30,30,30,30,30,30,30,20,10,30,30,1
1,30,30,30,30,30,30,16,27,30,30,13,1
1,1,30,30,30,30,30,10,6,30,27,1,1
1,30,30,30,30,30,30,30,30,30,30,30,1
1,30,1,30,1,1,30,6,1,30,2,1,1
1,10,25,30,10,30,1,11,28,23,10,1,1
1,1,30,30,1,30,30,30,1,30,30,1,1
1,10,23,30,30,30,1,13,25,30,30,30,1
1,30,5,30,30,30,30,30,30,30,5,5,1
1,30,30,1,30,30,1,30,30,30,30,30,1
1,20,30,1,28,1,1,30,3,1,28,1,1
1,13,23,30,30,30,9,14,24,30,30,28,1
1,30,30,30,1,30,30,30,30,30,30,30,1
1,30,30,1,21,30,1,30,30,1,20,30,1
1,9,30,3,30,30,1,10,24,30,30,30,1
1,30,30,30,30,30,30,30,30,18,30,30,1
1,1,1,30,30,30,30,12,6,30,30,30,1
1,30,30,30,30,30,30,30,30,30,30,30,1
1,1,30,1,1,1,1,1,30,1,1,1,1
1,1,30,13,1,21,1,1,30,30,3,20,1
1,3,1,1,30,30,1,30,1,1,1,1,1
1,30,30,30,30,30,30,30,30,30,30,30,1
1,1,30,30,30,30,30,30,30,30,16,1,1
1,1,30,30,1,30,30,4,30,30,4,30,1
1,1,1,4,1,30,30,1,30,4,30,30,1
1,30,30,30,30,30,30,30,3,30,30,30,1
1,8,30,12,4,30,30,30,30,30,4,30,1
1,1,1,30,30,30,1,30,30,1,30,1,1
1,1,30,30,30,30,30,30,30,30,30,1,1
1,1,5,1,4,4,1,1,1,1,1,1,1
1,8,21,14,30,20,1,10,24,11,29,24,1
1,1,1,1,1,1,30,1,1,30,1,1,1
1,1,1,1,30,1,30,1,1,1,1,1,1
1,1,30,1,30,30,30,30,30,1,30,1,1
1,1,30,1,30,1,1,1,30,30,30,1,1
1,1,1,1,1,1,1,1,1,1,1,1,1
1,1,1,1,1,1,1,1,1,1,1,1,1
1,1,1,1,30,30,30,30,1,1,1,1,1
1,30,30,30,30,30,29,30,30,30,30,30,1
1,30,30,1,30,30,30,30,30,30,30,30,1
1,2,25,1,8,24,1,30,1,1,30,30,1
1,1,1,6,1,1,26,30,1,30,30,6,1
1,30,30,4,30,30,30,30,30,30,30,30,1
1,1,1,1,1,10,1,1,1,1,1,1,1
1,14,30,1,30,30,1,16,30,4,30,30,1
1,1,30,30,30,30,30,30,30,8,7,1,1
1,30,1,30,1,30,30,30,30,30,30,30,1
1,30,30,30,30,30,30,30,1,30,30,30,1
1,30,30,8,30,1,1,1,9,1,15,5,1
1,30,30,30,30,30,30,30,30,30,30,30,1
1,30,30,30,30,8,30,30,1,1,1,1,1
1,1,1,1,1,1,1,1,1,1,1,1,1
1,13,30,1,30,30,5,18,30,30,30,30,1
1,30,30,30,30,1,1,30,30,30,30,30,1
1,1,1,1,30,1,1,1,1,1,1,1,1
1,4,1,30,30,1,1,1,7,1,30,10,1
1,1,30,1,1,1,1,1,1,4,1,1,1
1,9,12,1,30,6,1,10,30,1,30,1,1
1,1,1,15,30,30,30,30,30,12,30,30,1
1,30,4,1,30,11,1,8,30,1,1,1,1
1,30,30,30,30,30,30,30,30,30,30,30,1
1,1,1,1,1,1,1,30,1,1,10,1,1
1,1,1,1,1,1,1,1,1,1,1,1,1
1,13,30,30,6,30,4,21,30,1,1,30,1
1,1,1,1,1,1,1,30,1,1,30,1,1
1,1,30,30,30,10,1,6,30,8,22,1,1
1,4,28,30,30,30,1,30,30,30,30,1,1
1,30,6,30,30,17,6,30,30,5,7,14,1
1,1,30,30,30,30,10,30,30,18,30,1,1
1,1,1,1,1,1,1,1,1,1,1,1,1
1,30,30,1,30,30,30,30,30,30,30,6,1
1,30,30,30,30,30,30,30,30,30,30,30,1
1,1,30,1,30,30,1,1,30,9,30,1,1
1,30,1,30,1,30,1,30,8,1,1,30,1
1,10,20,29,30,30,4,13,29,29,30,25,1
1,17,4,30,30,3,30,30,5,30,30,1,1
1,1,1,1,1,1,1,1,1,1,1,1,1
1,1,1,1,1,1,1,1,1,1,1,1,1
1,1,1,1,1,1,1,1,1,1,1,1,1
1,1,1,1,1,1,1,1,1,1,1,1,1
1,1,1,1,1,1,1,1,1,1,1,1,1
1,1,1,1,1,1,1,1,1,1,1,1,1
1,1,1,1,1,1,1,1,1,1,1,1,1
1,5,1,1,1,1,1,1,1,1,1,1,1
1,1,1,1,1,1,1,1,1,1,1,1,1
1,1,1,1,1,1,1,1,1,1,1,1,1
1,1,1,1,1,1,1,1,1,1,1,1,1
1,1,1,1,1,1,1,1,1,1,1,1,1
1,1,1,1,1,1,1,1,1,1,1,1,1
1,1,1,1,1,1,1,1,1,1,1,1,1
1,1,1,1,1,1,1,1,1,1,1,1,1
1,1,1,1,30,30,4,30,3,1,1,1,1
1,1,1,1,1,1,1,1,1,1,1,1,1
1,1,1,1,1,1,1,1,1,1,1,1,1
1,1,1,1,1,1,1,1,1,1,1,1,1
1,1,1,1,1,1,1,1,1,1,1,1,1
1,1,1,1,1,1,1,1,1,1,1,1,1
1,1,1,1,1,30,1,1,1,1,20,30,1
1,1,1,1,1,1,1,1,1,1,1,1,1
1,7,1,1,1,1,1,9,1,1,1,1,1
1,1,1,1,1,1,1,1,1,1,1,1,1
1,1,1,1,1,1,1,1,1,1,1,1,1
1,1,1,1,1,1,1,1,1,1,1,1,1
1,1,1,1,1,1,1,1,1,1,1,1,1
1,1,1,1,1,1,1,1,1,1,1,1,1
1,1,1,1,1,1,1,1,1,1,1,1,1
1,1,1,1,1,1,1,1,1,1,1,1,1
1,1,1,1,1,1,1,1,1,1,1,1,1
1,1,1,1,1,1,1,1,1,1,1,1,1
1,1,1,1,1,1,1,1,1,1,1,1,1
1,1,1,1,1,1,1,1,1,1,1,1,1
1,1,1,1,1,1,1,1,1,1,1,1,1
1,1,1,1,1,1,1,1,1,1,1,1,1
1,1,1,1,1,1,1,1,1,1,1,1,1
1,1,1,1,1,1,1,1,1,1,1,1,1
1,1,1,1,1,1,1,1,1,1,1,1,1
1,1,1,1,1,1,1,1,1,1,1,1,1
1,1,1,1,1,1,1,1,1,1,1,1,1
1,1,1,1,1,1,1,1,1,1,1,1,1
1,1,1,1,1,1,1,1,3,1,1,1,1
1,1,1,1,1,1,1,1,1,1,1,1,1
1,1,1,1,1,1,1,1,1,1,1,1,1
1,1,1,1,1,1,1,1,1,1,1,1,1
1,1,1,1,1,1,1,1,1,1,1,1,1
1,1,1,1,1,1,1,1,1,1,1,1,1
1,1,1,1,1,1,1,1,1,1,1,1,1
1,1,1,1,1,1,1,1,1,1,1,1,1
1,1,1,1,1,1,1,1,1,1,1,1,1
1,1,1,1,1,1,1,1,1,1,1,1,1
1,1,1,1,1,1,1,1,1,1,1,1,1
1,1,1,1,1,1,1,1,1,1,1,1,1
1,1,1,1,1,1,1,1,1,1,1,1,1
1,1,1,1,1,1,1,1,1,1,1,1,1
1,1,1,1,1,1,1,1,1,1,1,1,1
1,1,1,1,1,1,1,1,1,1,1,1,1
1,1,1,1,1,1,1,1,1,1,1,1,1
1,1,1,1,1,1,1,1,1,1,1,1,1
1,1,1,2,1,1,1,1,1,8,1,1,1
1,1,1,1,1,1,1,1,1,1,1,1,1
1,1,1,1,1,1,1,1,1,1,1,1,1
1,1,1,1,1,1,1,1,1,1,1,1,1
1,5,3,1,1,1,1,5,1,4,1,1,1
1,1,1,1,1,1,1,3,1,1,1,1,1
1,1,1,1,1,1,1,1,1,1,1,1,1
1,1,1,1,1,1,1,3,1,1,1,1,1
1,1,1,1,1,1,1,1,1,1,1,1,1
1,1,1,1,1,1,1,1,1,1,1,1,1
1,1,1,1,1,1,1,1,1,1,1,1,1
1,1,1,1,1,1,1,1,1,1,1,1,1
1,1,1,1,1,1,1,1,1,1,1,1,1
1,1,1,1,1,1,1,1,1,1,1,1,1
1,1,1,1,1,1,1,1,1,1,1,1,1
1,1,1,1,1,1,1,1,1,1,1,1,1
1,1,1,1,1,1,1,1,1,1,1,1,1
1,1,1,1,1,1,1,1,1,1,1,1,1
1,1,1,1,1,1,1,1,1,1,1,1,1
1,1,1,1,1,1,1,1,1,1,1,1,1
1,1,1,1,1,1,1,1,1,1,1,1,1
1,1,1,1,1,1,1,1,1,1,1,1,1
1,1,1,1,1,1,1,1,1,1,1,1,1
1,1,1,1,1,1,1,1,1,1,1,1,1
1,1,1,1,1,1,1,1,1,1,1,1,1
1,1,1,1,1,1,1,1,1,1,1,1,1
1,1,1,1,1,1,1,1,1,1,1,1,1
1,1,1,1,1,1,1,1,1,1,1,1,1
1,1,1,1,1,1,1,1,1,1,1,1,1
1,1,1,1,1,1,1,1,1,1,1,1,1
1,1,1,1,1,1,1,1,1,1,1,1,1
1,1,1,1,1,1,1,1,1,1,1,1,1
1,1,1,1,1,1,1,1,1,1,1,1,1
1,1,1,1,1,1,1,1,1,1,1,1,1
1,1,1,1,1,1,1,1,1,1,1,1,1
1,1,1,1,1,1,1,1,1,1,1,1,1
1,1,1,1,1,1,1,1,1,1,1,1,1
1,1,1,1,1,1,1,1,1,1,1,1,1
1,1,1,1,1,1,1,1,1,1,1,1,1
1,1,1,1,1,1,1,1,1,1,1,1,1
1,15,1,6,3,1,1,20,1,1,1,4,1
1,1,1,1,1,1,1,1,1,1,1,1,1
1,1,1,1,1,1,1,1,1,1,1,1,1
1,1,1,1,1,1,1,1,1,1,1,1,1
1,1,1,1,1,1,1,1,1,1,1,1,1
1,6,1,1,1,1,1,7,1,1,1,1,1
1,1,1,1,1,1,1,1,1,1,1,1,1
1,1,1,1,1,1,1,1,1,1,1,1,1
1,1,1,1,1,1,1,1,1,1,1,1,1
1,1,1,1,1,1,1,1,1,1,1,1,1
1,1,1,1,1,1,1,1,1,1,1,1,1
1,1,1,1,1,1,1,1,1,1,1,1,1
1,1,1,1,1,1,1,1,1,1,1,1,1
1,1,1,1,1,1,1,1,1,1,1,1,1
1,1,1,1,1,1,1,1,1,1,1,1,1
1,1,1,1,1,1,1,1,1,1,1,1,1
1,1,1,1,1,1,1,1,1,1,1,1,1
1,1,1,1,1,1,1,1,1,1,1,1,1
1,1,1,1,1,1,1,1,1,1,1,1,1
1,1,1,1,1,1,1,1,1,1,1,1,1
1,1,1,1,1,1,1,1,1,1,1,1,1
1,1,1,1,1,1,1,1,1,1,1,1,1
1,1,1,1,1,1,1,1,1,1,1,1,1
1,1,1,1,1,1,1,1,1,1,1,1,1
1,1,1,1,1,1,1,1,1,1,1,1,1
1,1,1,1,1,1,1,1,1,1,1,1,1
1,1,1,1,1,1,1,1,1,1,1,1,1
1,1,1,1,1,1,1,1,1,1,1,1,1
1,1,1,1,1,1,1,1,1,1,1,1,1
0.999999999999998,0.960226138869006,0.949875796089133,0.958474838902881,0.954547614510301,0.955024550079779,0.961835154534572,0.95763592000019,0.94529310815712,0.960500575093208,0.96209260354016,0.955432692699332,0.999999999999998
1,0.965642032412756,0.95801513611452,0.960057580785094,0.960131915590344,0.950613488904304,0.962607364172768,0.949476755101259,0.96170787140852,0.968818840435691,0.962962029550675,0.956053802370969,1
1,0.978934110805232,0.970561026588149,0.952761537501784,0.956631308913602,0.966923695393604,0.967173829704201,0.963889257265649,0.956815482700633,0.950379149647458,0.960039536836923,0.982974402859866,1
0.999999999999999,0.945730410462583,0.957582272918131,0.945923645115778,0.943787555650926,0.946986401436781,0.96084975116679,0.951745374320041,0.960354841249046,0.949889274625861,0.944168769876397,0.947765372339297,0.999999999999999
1,0.978935211366756,0.964693024390046,0.963389911972692,0.967564893274763,0.96935378307151,0.971996595005041,0.968067902706822,0.966897004636921,0.964979632387612,0.967764747148398,0.979581249252469,1
1,0.957953679616126,0.960359785383668,0.963703711730905,0.94873449153436,0.941787486937342,0.952880773746119,0.957333991192906,0.933971173496445,0.947239703560532,0.941535917318573,0.961480892606786,1
0.999999999999999,0.97950599631143,0.965827603041791,0.961605504304899,0.965835668076256,0.962115848602591,0.962755927371058,0.971764137940158,0.966667659928848,0.972007617529567,0.976724385922597,0.980056896980699,0.999999999999999
1,0.928851976202483,0.960542741748607,0.95379234360003,0.932832245156312,0.935971543195357,0.959768152357855,0.921921672292901,0.948195500175373,0.950291200733999,0.933406003225212,0.937025129709198,1
0.999999999999999,0.969000255552029,0.953433291329722,0.966500947989031,0.960272680000499,0.95509590643464,0.966726324868327,0.960031969830221,0.944511682925345,0.960377936608792,0.965243723339754,0.964922041299707,0.999999999999999
1,0.9531812412836,0.942782057455516,0.941720785948058,0.957987178043762,0.957756176468272,0.950489057954667,0.950083835985298,0.961096226389058,0.956033769917585,0.956636002235227,0.960486433922978,1
1,0.963174988920594,0.960423773899601,0.962592370259288,0.926977756566497,0.961594933613576,0.972003711890188,0.967685600602995,0.960752042788238,0.951831248495581,0.935509780878057,0.961458255372184,1
1,0.955426486591857,0.949666438608147,0.954184347718049,0.937039700167643,0.956762410159504,0.955539308629413,0.945787648393888,0.947454476616993,0.945159592763022,0.943384459976005,0.941510138643809,1
1,0.96793938571856,0.955384882604254,0.960024555066217,0.961081820081084,0.960135205818596,0.955136908756355,0.96862096663402,0.960035019585158,0.956762742045279,0.960668293044816,0.961765482920089,1
1,0.958829130891553,0.95792605424338,0.963508050017029,0.95284678027604,0.950366464880144,0.964138238621535,0.949755880349645,0.965996337322986,0.967435372244918,0.952923239971355,0.958216044034776,1
1,0.960345522183083,0.949833239947233,0.954820729207199,0.957622522326038,0.957876938310083,0.95701661490218,0.959835879709201,0.961097250511046,0.947911618056241,0.961782682761687,0.959440923053587,1
1,0.944725758536031,0.913263802528006,0.918392845833955,0.908482320766214,0.907145101753427,0.921312449989677,0.903063597870234,0.916495430848174,0.926576249503845,0.916995069883201,0.944877601007244,1
0.999999999999999,0.942749209731471,0.955546989039674,0.965341091270574,0.951018859038591,0.958096699992845,0.960157939869991,0.95493865575723,0.956703754463857,0.962777805953368,0.931847537645532,0.966795583944007,0.999999999999999
0.999999999999999,0.956151132304815,0.952166483653202,0.9567157609679,0.950733244366966,0.956083498320726,0.953152698167708,0.950920893276987,0.952773423662662,0.951665584937433,0.946674530762073,0.960542247148998,0.999999999999999
1,0.943520347981501,0.960307828724559,0.93630484254706,0.950151868330872,0.940619856219129,0.956143839248626,0.946217860338322,0.971027731088766,0.952224556695396,0.951107500759804,0.960959212419581,1
0.999999999999998,0.961584428154482,0.952569442269185,0.951788482893589,0.951041970026121,0.948055133946274,0.948826923098883,0.945249858995636,0.956313451558186,0.955367631522971,0.946432749025103,0.961199797221263,0.999999999999998
1,0.950725821042021,0.964799963400575,0.9608517659961,0.961166537372911,0.91407704461817,0.984163295836498,0.95225421110045,0.962311377151381,0.960592318805669,0.962049265926392,0.914613379723185,1
1,0.934101613040065,0.92447643265321,0.947935097818384,0.940433763132094,0.891754172542946,0.955488346348414,0.930109463726311,0.92868274449081,0.942081315844995,0.93270075631829,0.897682136023663,1
1,0.9689680658545,0.950232030584934,0.945565190643924,0.961079310309313,0.954623512274983,0.963590077125923,0.955292081298611,0.94786413047224,0.948504280308897,0.953170744068845,0.963998597191414,1
1,0.961267137471988,0.939971321156931,0.960945517115486,0.945291164339773,0.95821147580358,0.968753208589324,0.959346468790311,0.947588282107856,0.960724726193943,0.93874895305768,0.956159227631097,1
1,0.958333766364311,0.958118575326946,0.947593568075792,0.935592056682417,0.949359862247416,0.945171275944664,0.95910089339963,0.950052891392654,0.949581714322151,0.952038074495006,0.958388052483308,1
1,0.990235596315177,0.976670166827256,0.981526315144566,0.973986602207249,0.983993178977454,0.993061412029626,0.98438651279741,0.973846741803291,0.978210742478834,0.969157845726948,0.988058722806123,1
1,0.967079842826513,0.960145913555496,0.968167297454339,0.963291018943817,0.963203295909439,0.961027526365745,0.960558222945401,0.957281783031803,0.961470558450418,0.956916943740483,0.965463854212857,1
1,0.998083309742091,0.995898364916247,0.993672714349796,0.991629063773183,0.99024553267556,0.98963665198106,0.990196262266104,0.991685047353676,0.993672714349797,0.995891130151867,0.998256289826951,1
1,0.934562361383653,0.93850853583803,0.945474647580799,0.947453301286772,0.928868396010825,0.960223341394859,0.936559727175762,0.945814595944124,0.943114719712688,0.954761387135388,0.938693531040557,1
1,0.962993282073222,0.961535564007447,0.965992892002285,0.972679279396155,0.958014056621647,0.960531210449432,0.959664708181392,0.9643485485923,0.962633546317769,0.966463008488187,0.961939179159631,1
1,0.964063228259758,0.96294265056034,0.91821290030244,0.961063212529986,0.966628733725836,0.979843910191094,0.962133364842967,0.960498829859824,0.934161048303066,0.964265775048492,0.962046620612548,1
1,0.940335156917389,0.955286970380538,0.963821311085344,0.944351644094456,0.942915245820231,0.974111320732552,0.951270288875619,0.956506679613871,0.96006471710534,0.958084781550487,0.953157741395707,1
1,0.980981242155284,0.969121643253063,0.961082394832934,0.964891078260862,0.960304888327603,0.961093063031691,0.95995161791093,0.960727749149768,0.96207215216703,0.970360230394869,0.987234228858568,1
1,0.952040912241272,0.95097374880193,0.953557252957999,0.947293366072863,0.956960346985185,0.951797999035013,0.948154528339722,0.952627791973641,0.958875922838314,0.946072793216105,0.96064482159301,1
0.999999999999999,0.957194551385046,0.96126465254736,0.97717786272591,0.962409868066801,0.96350644638628,0.984910457726908,0.96021073280756,0.956398933402768,0.974542185713124,0.958217527473436,0.981394865950697,0.999999999999999
0.999999999999999,0.981864762351517,0.960760601978698,0.966713253995737,0.967321691539731,0.968959212619198,0.971118406809104,0.967966240554053,0.966061810867224,0.967376065166432,0.963714820575293,0.982932272235028,0.999999999999999
1,0.952913537072214,0.931799396051569,0.9706495820021,0.963345793430929,0.915532751139113,0.975233941762664,0.955311061966355,0.943090743176339,0.967101394370131,0.960158719519951,0.925790579848878,1
1,0.961846458185945,0.926000555556542,0.963708610155242,0.944335795167406,0.947063243934033,0.977798366462466,0.963152676881532,0.925962054412451,0.970649582002101,0.946509902181611,0.953833002826069,1
1,0.959403069847882,0.961884403873025,0.960102812636274,0.958077884546393,0.959258951634389,0.962566988292506,0.950154980984902,0.960690558182674,0.966611127030183,0.958232970273817,0.95613372545283,1
1,0.994520210626866,0.986615906108049,0.980912258923502,0.97938185762531,0.979416849739635,0.982080152390127,0.980492308200072,0.978589487040819,0.980912258923501,0.986118708059026,0.994031133715457,1
1,0.968560667174409,0.951349530152604,0.944902177469372,0.945700348937625,0.944324249936484,0.953597794995423,0.9622343557839,0.950117529816907,0.957303649770175,0.959109940651423,0.959960278260572,1
1,0.960309830909864,0.959117133559316,0.960234454321266,0.958059381103057,0.953964152815676,0.957723973943691,0.958509801608702,0.952760643309238,0.963235727329043,0.949731590015685,0.960132256351059,1
0.999999999999999,0.960381998928732,0.959148568002689,0.974542185713124,0.960488367187191,0.961150416367965,0.967343905028208,0.956503129889663,0.960710656726336,0.97717786272591,0.961110315721966,0.962704127838775,0.999999999999999
1,0.962560336839828,0.960873204538477,0.955776341678783,0.954536123589522,0.940166643230975,0.934767389936849,0.95736862451562,0.957807364857145,0.949613906749334,0.960269595581625,0.968106697154127,1
1,0.946721412373782,0.951387383274859,0.950431284082272,0.952473007764182,0.965322328213879,0.95697698706138,0.942153631775434,0.955840380903402,0.954851273066074,0.940997062096887,0.95647697517263,1
0.999999999999998,0.961703114589706,0.938880246514824,0.960336995970162,0.955523147906452,0.938988001079431,0.941459978282117,0.943944266224919,0.954734726452313,0.958397553051086,0.958931574735798,0.940123168728109,0.999999999999998
0.999999999999996,0.95647041394877,0.945748274552274,0.930404636181037,0.937783091162928,0.93407103249769,0.953361481391927,0.951967217049192,0.952551127717627,0.918609167546244,0.953997886550135,0.964259704216162,0.999999999999996
0.999999999999998,0.948695596166003,0.945415476105554,0.972802507560946,0.953131129835009,0.959501199492513,0.961864840171796,0.954687602364497,0.953422692995877,0.958134434502082,0.956315916650513,0.962071336347082,0.999999999999998
0.999999999999999,0.9438252673397,0.939047161847929,0.948935101902788,0.945254269429471,0.968211349971974,0.958529078253541,0.952546214132398,0.958436726999319,0.958511783107752,0.940787114285658,0.960482660446886,0.999999999999999
1,0.962668958717091,0.966927838876764,0.960177819987422,0.972595699599388,0.954091851234039,0.995546280712328,0.963345746077956,0.9655008487564,0.968167297454338,0.973034048033556,0.955394994762216,1
0.999999999999999,0.987475959887478,0.97370618264253,0.973677813262186,0.979068167644307,0.976888155413464,0.987370818061833,0.980741365589441,0.975503652252095,0.973677813262185,0.982268206511912,0.985885475168111,0.999999999999999
1,0.963560320442486,0.968423922882801,0.960676852407336,0.957003515514856,0.960034189547663,0.954116571451434,0.960692046047501,0.965526975550225,0.960530471222835,0.960473142278002,0.959129860656682,1
1,0.959880876659365,0.956811152059856,0.949687316441703,0.943786690917765,0.956665737823823,0.959066862945166,0.950394397861374,0.967364872390935,0.950902357955128,0.960276553377777,0.961308862524236,1
0.999999999999998,0.963155447329265,0.953880346518268,0.957127620608748,0.953980298419329,0.952405665582992,0.961105617630469,0.95854248111842,0.949447883654584,0.966500947989031,0.95583927295899,0.96317728636059,0.999999999999998
0.999999999999998,0.938848824085949,0.95708796288241,0.952289311927171,0.935421721380117,0.940830410596337,0.948497425362467,0.938729057298673,0.96006352910925,0.961257559192721,0.949648545933485,0.935674758624516,0.999999999999998
1,0.953640174629738,0.957097020644201,0.956557181522742,0.950402361516963,0.953600055184365,0.956116945270617,0.960349083713023,0.960509324716187,0.956810926112246,0.947843395386235,0.960701674032208,1
1,0.977328706409043,0.958545536777701,0.959897366591618,0.957441873943695,0.959948837792414,0.957195576121972,0.96002022380928,0.960722420478134,0.95626743987477,0.960109114437059,0.974131850911095,1
1,0.943328324138232,0.943304994897265,0.952239234682085,0.9488992991618,0.950089281751142,0.94782491682441,0.949254152915737,0.952784221945276,0.95185906622419,0.94282595230328,0.94745765785277,1
0.999999999999999,0.95378792223659,0.965873932702356,0.949953371825042,0.963020598777829,0.965494852497563,0.958617217278377,0.96001051942146,0.96045817669388,0.948074178819552,0.960056044697584,0.961319374001081,0.999999999999999
1,0.960590526354401,0.964581882398349,0.958264293590395,0.962430445344256,0.948951246303051,0.964343636661663,0.960982220311563,0.960239525766151,0.960446048764523,0.963355764742069,0.963643053071905,1
0.999999999999998,0.970027142681891,0.948274797141266,0.951355077688757,0.96440461744655,0.948593140882489,0.954894464301159,0.950471241580749,0.962526597415454,0.95080646612169,0.956559219171646,0.969935740071831,0.999999999999998
1,0.965102094947957,0.961805125573364,0.946898652484197,0.946331656623486,0.937502576400018,0.963854051734958,0.961051441141501,0.960347701544511,0.941749827730871,0.944740997074398,0.946556741086422,1
1,0.955682828599373,0.960178220692981,0.950854682552913,0.949063535462184,0.948432247031674,0.953060802506574,0.951811760767224,0.953118875713443,0.937426743620404,0.962114611836842,0.962233705638497,1
1,0.948388868036051,0.952991458480191,0.961915089472054,0.944649286672424,0.946109298360431,0.965647135743577,0.943746229155799,0.959944641785391,0.958863404233406,0.94452240893188,0.9491105538069,1
1,0.960003555750315,0.954511680563951,0.968432036892097,0.960224973510563,0.964129658892728,0.975656319440343,0.955239595700068,0.961119449408205,0.970510494631026,0.963535467799384,0.965280472976711,1
1,0.969636339463063,0.966861327705591,0.930496141489438,0.958107059055976,0.957125396885975,0.960738008528899,0.960187115700883,0.960580488958307,0.923545467774513,0.954209605548659,0.960102551299858,1
0.999999999999999,0.93546568830425,0.924166292752934,0.95011456002601,0.963017253278612,0.925761225465611,0.928186451125597,0.922145236310339,0.929907924342727,0.919058872057433,0.918487090368792,0.915477583728928,0.999999999999999
0.999999999999999,0.956568826568376,0.938174181470274,0.963418393091198,0.965420277544996,0.927750110213678,0.975233941762664,0.938658715469408,0.941437667218531,0.968225748714974,0.961408177932257,0.915523683493505,0.999999999999999
1,0.962925375712754,0.960640547535422,0.962156606569309,0.952052841054695,0.947971639664674,0.969787981202859,0.963877786991363,0.961661863909485,0.958921743788812,0.941107172670483,0.956883689843138,1
1,0.957894196254073,0.941826625843846,0.952338756860199,0.954265837886739,0.93935243987279,0.940917165126243,0.941633484324043,0.948027263229392,0.960477952800094,0.957307388814041,0.946678172742441,1
0.999999999999996,0.962526698619303,0.960133430603863,0.957798886178822,0.958455550172913,0.952753179402574,0.948797964927206,0.960368804599482,0.960592695566431,0.953596859279232,0.9571494745626,0.957982968299147,0.999999999999996
1,0.955472556332622,0.959668258284695,0.948829376208882,0.952806255033289,0.956029812196059,0.949363309780499,0.949751359850259,0.953482235323213,0.955455236551349,0.948813526229786,0.953134398307024,1
0.999999999999999,0.973014092227605,0.948920767984604,0.969982044474416,0.96124981257653,0.960268997228336,0.973830588014778,0.961912571844578,0.957039596489664,0.969621161134972,0.962333669400954,0.971092701641843,0.999999999999999
1,0.982445203859552,0.959923285435266,0.96146581560357,0.966566778803022,0.960944697951717,0.964830491910196,0.969896982287841,0.960120174129423,0.958687025125512,0.96290676388143,0.962475658285218,1
0.999999999999999,0.960331921850392,0.973734113220208,0.972382096194517,0.958843998697484,0.955077211872622,0.969899530052128,0.957676132683154,0.971505948839568,0.971193353982996,0.967565297104144,0.960283600322673,0.999999999999999
1,0.956859713756142,0.959871332340814,0.956289384176247,0.950868769806364,0.939229116315543,0.950241707107648,0.945645485522113,0.954084757185925,0.949698050283848,0.951138472064846,0.945077850333768,1
0.999999999999998,0.960107944662018,0.9525801193126,0.944167858297043,0.934036229113891,0.94357159829909,0.949278383841731,0.945022228013773,0.942467688483058,0.949512612765222,0.960083290871661,0.961372333201832,0.999999999999998
0.999999999999999,0.964686686549552,0.955140805583276,0.956410209913705,0.964047241086285,0.953849789533732,0.958120625720724,0.960337340221257,0.958862092109017,0.958751304016709,0.960140112977605,0.951909927524415,0.999999999999999
0.999999999999999,0.961192374429622,0.961643724796353,0.960501612829783,0.965498790515341,0.942733384047229,0.949684546548763,0.969744758634594,0.959633546888981,0.960643031367752,0.946817054060076,0.954801044115536,0.999999999999999
1,0.948670714199046,0.948735967173727,0.946464057174196,0.954214681056092,0.947413259934048,0.93969255080829,0.943681778771779,0.96287200882382,0.954118007460715,0.952563197824874,0.953484642656698,1
1,0.961677505413979,0.93676181849886,0.962822358044557,0.960846462735973,0.95390783004538,0.950587755684152,0.949761987096528,0.930891002744974,0.957073556186882,0.961021835947761,0.94599389413546,1
1,0.964360526438995,0.961694692258699,0.958377631696738,0.952323934823369,0.958741195170013,0.963353298505509,0.959320279331172,0.956865580108231,0.965113335580141,0.955994769363584,0.960842035210559,1
1,0.962504061538657,0.954214800794386,0.957471602501292,0.958096321431546,0.956313523225956,0.9486230987695,0.951076546176819,0.947477607857166,0.954669246390248,0.949494152608982,0.963465896025336,1
0.999999999999998,0.972900388518421,0.960540139300565,0.967640618782553,0.960173283278675,0.962080825382106,0.971118406809104,0.967195365574055,0.960640078248842,0.960647223422077,0.969086178387745,0.975229376003878,0.999999999999998
1,0.963088127341276,0.965023979180215,0.961028784919976,0.957678919130507,0.960707406887007,0.969787981202859,0.965702182347048,0.961576171125194,0.962809322166545,0.960303401776117,0.960842323968849,1
0.999999999999997,0.970851209710094,0.961267492707554,0.967271867230091,0.965772025486702,0.961073877533672,0.958000569452831,0.968535784102871,0.965314336410311,0.957830990140547,0.963012024702266,0.974279291873646,0.999999999999997
1,0.961568741477501,0.979266262382002,0.965979179028464,0.954913393015762,0.968109452766166,0.957900692943498,0.967190211867525,0.962047025124918,0.965979179028464,0.982299231834388,0.963673290679882,1
0.999999999999999,0.961449202633555,0.954736611632753,0.96695756096498,0.954677980136095,0.952340875179976,0.959278702299147,0.950238306171075,0.953539825806545,0.966957560964979,0.951711401448095,0.962739817321673,0.999999999999999
1,0.977444799368033,0.954998661135817,0.965113335580141,0.957216894973794,0.965002406769326,0.975150222838529,0.961889751702542,0.956454441746686,0.958662834118829,0.959589982679285,0.978885813638778,1
0.999999999999999,0.992785228119839,0.982903255121003,0.9799634772874,0.978662442187703,0.971416715951972,0.969899319104281,0.974487096230269,0.980538904555539,0.9799634772874,0.984923694457994,0.994343475638645,0.999999999999999
0.999999999999999,0.978293115051894,0.964905081885698,0.983334498146306,0.9728483138972,0.964951923607267,0.984470979694051,0.973412582377778,0.968420778849526,0.981742186342211,0.970221972119539,0.971672444322876,0.999999999999999
0.999999999999999,0.982664394038238,0.968450368144826,0.965666827304315,0.958698708380773,0.950931154340041,0.951614377962869,0.950238018475891,0.960213030376675,0.965666827304315,0.968803321637337,0.984673333214083,0.999999999999999
0.999999999999999,0.945981429939266,0.946679654036353,0.937019863453804,0.933617970470768,0.937143777530638,0.960310517594797,0.94289929078263,0.937743159016262,0.93131056254755,0.941718405523411,0.931342262115563,0.999999999999999
1,0.953965841364868,0.94613803454933,0.961470558450418,0.950674321696512,0.951900959318403,0.957832069835143,0.95994499019887,0.949665171542443,0.954227296128758,0.956256802237842,0.959692991208621,1
1,0.960279814288204,0.960150836943434,0.966353790971771,0.960790590656667,0.961264195794182,0.969303389916579,0.939700353467613,0.962570294445197,0.965884918215657,0.950681456177379,0.950713839259854,1
1,0.96294255471261,0.963745231254448,0.960201063730287,0.960894719092743,0.964298277897531,0.9601046118127,0.957052434859766,0.960714253958146,0.958971062223694,0.948711192726036,0.960498798446124,1
0.999999999999998,0.949668096663104,0.947315023647026,0.960531507241531,0.945449901555245,0.931666473881937,0.928106893509275,0.937824037778377,0.941221688814256,0.935142861271206,0.939858885645044,0.953796985848222,0.999999999999998
1,0.967830509286705,0.967634259206853,0.971193353982995,0.968445306954369,0.960083137874923,0.972585313462486,0.961134756726965,0.963169129480014,0.972382096194518,0.969125180415038,0.965076621391486,1
0.999999999999998,0.960473282921333,0.938517521415675,0.968225748714974,0.956547217518158,0.948870394312756,0.966318110281146,0.960295141989178,0.940530816108945,0.960245627331095,0.948923832074244,0.948931541073441,0.999999999999998
1,0.967302782362019,0.94667914079862,0.9384808587381,0.945859698422419,0.956115005518177,0.95484163425035,0.951132557513909,0.951100622051845,0.960534233431417,0.961915004165837,0.96648115250648,1
1,0.954446893703809,0.964164798749121,0.954302843427691,0.969603267349836,0.947168204331105,0.955744286864685,0.947090210200236,0.951401610915101,0.94547074495903,0.95793865322954,0.951897100177706,1
1,0.959329238729496,0.940858740397763,0.934287229116507,0.927526000707169,0.943461366637711,0.935103583321251,0.919650407046766,0.964705021828317,0.951501819508307,0.930624569660989,0.934919568666416,1
1,0.95478970599766,0.958819171755688,0.960591716852158,0.960347414507285,0.963299008863888,0.967815949476697,0.963674771926197,0.960085291492206,0.967640618782552,0.96020025240409,0.960094654445422,1
1,0.959396817392842,0.937091878479296,0.950531010196248,0.941568119953362,0.940903900505422,0.950975717490207,0.948323354043888,0.950347090038445,0.947206195916415,0.944289085454108,0.95846535678131,1
0.999999999999999,0.943380847620801,0.957154755242682,0.954194239685817,0.950960859429077,0.960074640794379,0.936748764856835,0.951547290912059,0.963172113203478,0.960676852407337,0.961375719564428,0.96399627754866,0.999999999999999
0.999999999999999,0.987582413115744,0.97042002674932,0.96207215216703,0.966509188032393,0.973099332068491,0.975418448459793,0.978458646463104,0.972693385506981,0.966973798715639,0.970525312491506,0.984834617119511,0.999999999999999
1,0.961766221542671,0.915199587910066,0.961701990427853,0.932553398067551,0.921884416016571,0.961289130419517,0.963085196384654,0.914273741987518,0.944974784608339,0.932086324373281,0.927512553367206,1
0.999999999999999,0.957481152450996,0.944253826839208,0.940052956216887,0.958483448521536,0.962802772490803,0.962666094761268,0.952623600844354,0.94022316369098,0.951854723128266,0.958075382006642,0.957255494049709,0.999999999999999
1,0.980163352296378,0.961390000224381,0.962635121433605,0.957267795842901,0.967582324027248,0.973065739356066,0.966130098831397,0.96254957298996,0.9616055043049,0.96422947923932,0.979768122129525,1
1,0.960181785467325,0.967500419186771,0.952903722780079,0.929910373371254,0.968100930892735,0.964734581856279,0.963558916869463,0.960363706206251,0.965992892002285,0.951182057959501,0.965591537514016,1
0.999999999999998,0.978880480016447,0.958894513558694,0.963743171634422,0.966644065762362,0.968004458006691,0.973830787225678,0.968742715748952,0.961508298667947,0.960706987498488,0.962047614439574,0.97805137006169,0.999999999999998
0.999999999999999,0.960073181660534,0.961341636027521,0.966611127030182,0.959587401723677,0.961309240960746,0.965729358322925,0.960004808202937,0.958136035163185,0.963821311085344,0.950463022441988,0.961344684960461,0.999999999999999
0.999999999999999,0.96516029285645,0.962761538772812,0.960684920191596,0.9564521554826,0.922325532129968,0.949681424427359,0.95457371757188,0.957655411783319,0.960311099114268,0.959878724796287,0.927172884062367,0.999999999999999
1,0.959539387549359,0.960443982939452,0.973005268074056,0.948454639128604,0.96027370983001,0.969437092580497,0.960010012206373,0.95356304562561,0.970315502377767,0.961521224582979,0.963509232878175,1
0.999999999999998,0.945507153252619,0.939452420812869,0.945037970489676,0.949357289229528,0.936560473168873,0.945315507112032,0.93726322847377,0.941128266684852,0.950878845011851,0.93743770494559,0.941269938530743,0.999999999999998
1,0.964816003937652,0.961963035213268,0.970436501297753,0.960329813169269,0.964749490034033,0.978951787164737,0.959231106233804,0.965009498219133,0.967091502972324,0.960210876711043,0.96074134596488,1
0.999999999999999,0.978241214460151,0.975531836260039,0.981742186342212,0.976952370231171,0.969389091005,0.978668367838992,0.973660811498258,0.968904648957411,0.983334498146306,0.979364573449155,0.977129219280034,0.999999999999999
1,0.965124329842856,0.944001423213089,0.955843465718661,0.961123644095689,0.951460075913892,0.963740672992999,0.96253339324868,0.95581539859583,0.962562258912338,0.969014181521278,0.946697867410326,1
1,0.968995514513089,0.965817160707733,0.965368802024347,0.963802293552678,0.970382028344191,0.969606012029503,0.958935261069209,0.966668166273909,0.966713253995736,0.956064769129978,0.96609568574898,1
1,0.968261353321995,0.955956883287511,0.958157432567008,0.955598683329109,0.960918013289127,0.965608385009878,0.960497226236111,0.957954459474706,0.960100725426567,0.960045719390312,0.967958150152761,1
1,0.960187378397632,0.960123197991876,0.950014713975474,0.945695544463851,0.957570660921631,0.96110561763047,0.950538359946714,0.951732428344632,0.947493584293079,0.938090499492158,0.961110603439077,1
1,0.955430921675958,0.960372435692768,0.95570072666903,0.939713565464474,0.961431663355357,0.960372192046206,0.951902115616524,0.955725580144685,0.960134235110609,0.960256160221733,0.964169578627017,1
0.999999999999999,0.975603667864825,0.959641509395844,0.957586501799521,0.95795923261622,0.959196652956736,0.960042968364751,0.956627908512555,0.955898326283755,0.960059922362346,0.959739165494443,0.974868006877281,0.999999999999999
1,0.998996078174869,0.997032133711648,0.994796870883584,0.993328436027655,0.992012074708513,0.991019302592475,0.991454600172893,0.993107311106276,0.994796870883584,0.996767767858801,0.998939917253888,1
0.999999999999999,0.944204455766306,0.937585555511278,0.966145132029766,0.953671209254661,0.945695630572139,0.95247443019278,0.941113347923662,0.94287985829146,0.954385846087119,0.94472100796822,0.961244622398544,0.999999999999999
1,0.937376701619598,0.946075095250357,0.941967985783812,0.942267133233811,0.953755256534578,0.949936586382239,0.942213735955043,0.953328499649858,0.944038957285695,0.95814325168424,0.954694900069753,1
0.999999999999999,0.977397644026628,0.955344750329637,0.96411927146116,0.956523772710721,0.953599404325868,0.96262668152567,0.961682553452716,0.953975986799687,0.960198461152362,0.958198974476801,0.972125420307538,0.999999999999999
1,0.940168383399974,0.960014244873392,0.957535130078403,0.960164551285702,0.95688687564077,0.960531210449432,0.958790978473108,0.96276151032185,0.972802507560945,0.96665891405894,0.956110215366912,1
1,0.960106601659504,0.961415358408849,0.962848736967172,0.958951152749071,0.95948456976235,0.960830443122509,0.960253008063245,0.960103102342187,0.960172587655831,0.954190049190563,0.960106961564192,1
1,0.960145629226828,0.96027000966113,0.956695055637455,0.955723715225491,0.96023056763252,0.959092601882712,0.954009186238065,0.960119175948093,0.951339230008214,0.960903043308811,0.964205099717492,1
