r0,r30,r60,r90,r120,r150,r180,r210,r240,r270,r300,r330,r360
1,1,0,1,1,0,1,1,0,1,1,0,1
1,1,1,1,0,1,0,1,1,0,1,1,1
1,1,1,1,1,1,1,1,1,1,1,1,1
1,1,1,1,1,1,1,1,1,1,1,1,1
1,1,0,0,1,0,0,1,0,0,1,0,1
1,1,1,1,1,1,1,1,1,1,1,1,1
1,1,1,1,1,1,1,1,1,1,1,1,1
1,1,1,1,1,1,1,1,1,1,1,1,1
1,1,1,1,1,1,1,1,1,1,1,1,1
1,1,1,1,1,1,1,1,1,1,1,1,1
1,1,1,1,1,1,1,0,0,1,1,1,1
1,1,1,1,0,1,0,0,1,1,0,1,1
1,1,0,1,0,0,1,1,0,1,1,0,1
1,1,1,1,1,1,1,1,1,1,1,1,1
1,1,1,1,1,1,1,1,1,1,1,1,1
1,1,1,1,1,1,1,1,1,1,1,1,1
1,1,1,0,0,1,1,1,0,0,0,1,1
1,1,1,1,1,1,1,1,1,1,1,1,1
1,1,1,0,0,0,0,0,0,0,0,1,1
1,1,1,1,1,1,1,1,1,1,1,1,1
1,1,1,0,1,1,1,1,1,0,1,1,1
1,1,1,1,1,1,1,1,1,1,1,1,1
1,1,1,1,1,0,1,1,1,1,1,1,1
1,1,1,0,0,1,0,1,1,1,1,1,1
1,1,0,1,0,0,1,1,1,1,1,1,1
1,1,1,1,1,1,1,1,1,1,1,1,1
1,1,1,1,1,1,1,1,1,1,1,1,1
1,1,1,1,0,0,0,0,0,0,1,1,1
1,1,1,1,1,1,1,1,1,1,1,1,1
1,1,1,1,1,1,1,1,1,1,1,1,1
1,1,1,1,0,0,0,0,0,1,1,1,1
1,1,1,0,0,0,0,0,0,0,0,1,1
1,1,1,1,1,1,1,1,1,1,1,1,1
1,1,1,1,1,1,1,1,1,0,1,1,1
1,1,1,1,1,1,1,1,1,1,1,1,1
1,1,1,0,1,1,0,1,1,0,1,1,1
1,1,1,1,1,1,1,1,1,1,1,1,1
1,1,0,0,0,1,0,0,0,0,0,1,1
1,1,1,1,1,1,1,1,1,1,1,1,1
1,1,1,1,1,1,1,1,1,1,1,1,1
1,1,1,1,1,1,1,1,1,1,1,1,1
1,1,1,1,1,1,1,1,1,1,1,1,1
1,1,1,0,1,0,1,1,0,1,1,1,1
1,1,1,0,0,0,0,0,0,0,1,1,1
1,1,1,0,0,1,1,0,0,0,1,1,1
1,1,1,1,1,1,1,1,1,1,1,1,1
1,1,1,1,1,1,1,1,1,1,1,1,1
1,1,1,1,1,1,1,1,1,1,1,1,1
1,1,0,0,1,1,1,1,0,0,1,1,1
1,1,1,1,1,1,1,1,1,1,1,1,1
1,0,0,0,0,0,0,0,0,1,0,1,1
1,1,1,1,1,1,1,1,1,1,1,1,1
1,1,1,0,0,0,0,0,0,0,1,1,1
1,1,0,0,0,0,1,0,0,0,0,0,1
1,1,1,1,1,1,0,0,1,1,0,0,1
1,1,0,0,0,0,1,1,0,0,0,0,1
1,1,1,1,1,1,1,0,1,1,1,1,1
1,1,1,1,1,1,1,1,1,1,1,1,1
1,1,1,0,0,0,0,0,0,0,1,1,1
1,1,1,1,1,1,1,1,1,1,1,1,1
1,1,1,0,0,0,0,0,0,1,1,1,1
1,1,1,1,1,1,1,1,1,1,1,1,1
1,1,0,0,1,1,1,0,0,1,1,1,1
1,1,0,0,1,0,1,1,0,0,1,0,1
1,1,1,1,1,1,1,1,1,1,1,1,1
1,1,1,1,1,1,1,1,1,0,1,1,1
1,1,1,0,1,1,0,1,1,0,1,1,1
1,1,1,1,1,1,1,1,1,1,1,1,1
1,1,1,1,1,1,1,1,1,1,1,1,1
1,1,1,1,1,1,1,1,1,1,1,1,1
1,1,1,1,1,1,1,1,1,0,0,1,1
1,1,1,1,1,1,1,1,1,1,1,1,1
1,1,1,0,0,0,0,0,1,1,1,1,1
1,1,1,1,1,1,1,1,1,1,1,1,1
1,1,1,0,0,0,0,1,0,0,0,1,1
1,1,1,0,1,1,1,1,1,0,1,1,1
1,1,1,1,1,1,1,1,1,1,1,1,1
1,1,1,1,1,1,1,1,1,1,1,1,1
1,1,1,1,1,1,1,0,0,1,1,1,1
1,1,1,1,1,1,1,1,1,1,1,1,1
1,1,1,1,1,0,0,1,1,1,1,1,1
1,1,0,0,1,1,1,1,1,0,1,1,1
1,1,1,1,1,1,1,1,1,1,1,1,1
1,0,0,0,0,0,0,0,0,0,0,0,1
0,0,0,0,0,1,0,0,0,0,0,1,0
1,1,1,1,1,1,1,1,1,1,1,1,1
1,1,1,1,1,1,1,1,1,1,1,1,1
1,1,1,1,1,1,1,1,1,1,1,1,1
1,1,1,1,1,1,1,1,1,1,1,1,1
1,1,1,1,1,1,1,1,1,1,1,1,1
1,1,1,1,1,1,1,1,1,1,1,1,1
1,1,0,0,0,1,1,1,0,0,0,1,1
1,1,1,1,1,1,1,1,1,1,1,1,1
1,1,1,1,0,1,1,0,1,1,1,1,1
1,1,1,1,1,1,1,1,1,1,1,1,1
1,1,1,1,1,1,1,1,1,1,1,1,1
1,1,1,1,0,1,1,1,1,1,1,1,1
1,1,1,1,0,0,0,0,0,0,0,1,1
1,1,1,1,1,1,1,1,1,1,1,1,1
1,1,1,1,1,1,1,1,1,1,1,1,1
1,1,1,1,1,1,1,1,1,1,1,1,1
1,1,0,1,0,0,1,0,0,1,0,1,1
1,1,0,0,0,0,0,1,1,0,1,1,1
1,1,1,0,0,0,0,1,0,0,0,0,1
1,1,1,1,1,1,1,1,1,1,1,1,1
1,1,1,1,1,1,1,1,1,1,1,1,1
1,0,0,1,1,1,1,1,0,1,1,1,1
1,1,0,0,1,0,0,0,1,1,1,1,1
1,1,1,1,1,1,0,1,1,1,1,1,1
1,0,1,1,1,1,1,0,1,1,1,1,1
1,1,1,1,1,1,1,1,1,1,1,1,1
1,0,1,0,0,0,0,0,0,0,0,0,1
1,1,1,1,1,1,1,1,1,1,1,1,1
1,1,1,1,1,0,0,1,0,1,1,1,1
1,1,1,0,1,1,0,1,0,0,1,1,1
1,1,1,1,1,1,1,1,1,1,1,1,1
1,1,1,0,0,0,1,1,0,0,0,0,1
1,1,1,1,1,1,1,1,1,1,1,1,1
1,1,1,1,1,1,1,1,1,1,1,1,1
1,1,1,0,1,0,0,0,0,0,1,1,1
1,0,1,1,1,0,0,0,0,0,0,1,1
1,1,1,1,1,1,1,1,1,1,1,1,1
1,1,1,1,1,1,1,1,1,1,1,1,1
1,1,1,1,1,1,1,1,1,1,1,1,1
1,1,1,1,1,0,0,1,0,1,1,1,1
1,1,1,1,0,0,0,0,0,0,0,1,1
1,1,1,1,1,1,1,1,1,1,1,1,1
1,1,1,1,1,1,1,1,1,1,1,0,1
1,1,1,1,1,1,1,1,1,1,1,1,1
1,1,0,0,0,0,0,0,0,1,1,1,1
1,1,30,30,30,30,30,30,30,30,30,5,1
30,30,1,30,30,30,30,30,30,30,30,1,30
1,1,1,6,6,1,3,1,1,7,5,1,1
1,1,30,30,1,30,1,1,30,28,1,1,1
1,1,11,15,14,30,30,1,30,30,12,27,1
1,1,1,30,30,30,30,30,30,30,1,1,1
1,6,30,30,30,30,30,30,30,30,30,1,1
1,1,4,16,30,9,1,1,9,30,27,5,1
1,1,1,30,30,30,30,30,30,1,1,1,1
1,1,1,30,30,30,1,1,30,30,30,1,1
1,5,30,30,30,30,30,30,30,30,5,1,1
1,30,7,30,30,30,30,30,30,11,30,1,1
1,30,30,30,30,30,30,30,30,30,30,1,1
1,1,1,30,30,30,30,30,30,30,30,1,1
1,1,30,30,30,30,30,30,30,30,1,30,1
1,30,1,30,30,30,30,30,30,30,1,1,1
1,1,14,30,30,30,30,30,30,30,1,1,1
1,1,1,1,30,1,1,1,1,1,30,1,1
1,1,30,30,30,30,30,30,30,30,30,30,1
1,1,1,30,30,30,30,30,30,30,1,1,1
1,1,3,30,5,1,1,1,3,30,3,1,1
1,1,1,30,30,30,30,30,30,30,30,6,1
1,1,1,1,30,30,30,30,30,30,1,1,1
1,1,3,30,30,30,30,30,1,30,1,3,1
1,30,30,30,30,30,30,30,30,30,30,1,1
1,30,14,30,14,6,1,30,30,30,12,4,1
1,1,1,7,30,30,30,30,30,30,30,1,1
1,1,8,30,30,30,30,30,30,30,8,1,1
1,1,30,30,30,30,30,30,30,30,30,1,1
1,1,1,30,30,3,3,1,30,30,1,1,1
1,4,1,30,30,30,30,30,30,30,30,1,1
1,1,1,30,1,30,1,30,30,30,30,1,1
1,1,1,1,1,1,30,1,1,1,1,1,1
1,1,1,30,30,3,1,1,10,30,1,1,1
1,1,1,1,1,1,1,1,1,3,1,1,1
1,1,1,30,30,30,30,30,30,30,9,1,1
1,5,18,30,30,3,30,6,30,12,6,1,1
1,1,3,30,30,30,30,30,30,30,30,1,1
1,30,30,30,30,30,30,30,30,30,9,1,1
1,30,30,30,30,30,30,30,30,30,10,1,1
1,1,1,1,1,1,1,1,1,1,1,1,1
1,1,1,21,30,30,30,30,30,30,1,1,1
1,1,14,30,30,30,30,30,30,21,12,1,1
1,30,1,30,30,30,30,30,30,30,30,1,1
1,30,13,30,30,1,30,30,30,30,30,1,1
1,1,1,3,30,1,1,1,1,6,30,1,1
1,1,4,1,7,1,1,1,6,1,5,1,1
1,1,5,30,30,30,30,30,30,30,30,30,1
1,1,30,30,30,1,1,1,30,30,30,1,1
1,1,6,12,30,30,30,30,30,30,8,1,1
1,30,30,7,30,30,1,30,30,11,30,30,1
1,1,5,10,30,1,30,5,7,30,9,1,1
1,1,30,30,30,30,30,30,30,30,30,1,1
1,1,30,30,30,30,30,30,30,30,30,30,1
1,1,30,30,30,30,30,30,30,30,30,30,1
1,1,30,30,30,30,30,30,30,30,30,30,1
1,1,1,30,30,30,30,30,30,30,30,30,1
1,1,1,5,10,3,5,4,3,6,10,1,1
1,1,30,30,30,30,30,30,30,30,30,1,1
1,1,30,30,30,1,1,30,30,30,1,1,1
1,1,7,30,30,30,30,30,30,13,6,1,1
1,1,1,4,24,9,7,3,4,11,19,3,1
1,30,30,30,30,30,30,30,30,30,30,1,1
1,1,30,30,30,30,30,30,30,30,1,30,1
1,4,10,30,30,30,30,30,30,17,4,1,1
1,1,30,30,30,30,30,30,30,30,1,12,1
1,1,4,13,30,30,30,1,6,14,16,5,1
1,8,30,30,30,30,30,30,30,30,5,1,1
1,1,1,30,30,30,30,30,30,30,1,1,1
1,1,1,1,3,30,30,4,1,3,1,1,1
1,30,30,30,30,30,30,30,30,30,30,9,1
1,9,19,30,30,30,30,30,30,30,8,1,1
1,1,24,30,30,30,30,30,30,14,1,1,1
1,30,30,30,30,30,30,30,18,10,1,9,1
1,1,1,30,30,30,30,30,30,30,7,1,1
1,1,30,30,30,1,1,1,30,30,30,1,1
1,3,30,1,1,30,1,30,1,1,1,1,1
1,30,22,30,1,1,1,30,22,30,1,1,1
1,1,30,21,30,30,30,30,30,30,30,30,1
1,1,30,30,30,30,30,30,30,30,1,1,1
1,1,30,30,30,30,30,30,30,30,1,1,1
1,1,30,30,30,30,30,4,30,30,30,1,1
1,30,30,30,30,30,30,30,30,30,30,1,1
30,1,30,30,30,30,30,30,30,30,30,30,30
30,30,30,30,30,30,30,30,30,30,30,1,30
1,30,30,30,30,30,30,30,30,30,24,7,1
1,1,1,1,7,1,1,1,1,1,6,1,1
1,1,30,30,30,30,30,30,30,30,30,30,1
1,1,4,11,30,30,30,30,30,30,15,5,1
1,5,30,30,30,30,30,30,30,30,1,30,1
1,3,30,30,30,30,30,30,30,30,30,1,1
1,30,30,30,30,14,1,30,30,30,30,12,1
1,1,1,30,30,30,3,4,30,1,1,1,1
1,1,30,30,30,30,30,30,30,30,30,1,1
1,1,1,1,1,1,1,1,1,30,1,1,1
1,1,30,30,30,30,30,30,30,30,30,30,1
1,1,5,30,30,30,1,1,5,22,30,15,1
1,1,7,30,30,30,30,30,30,30,30,5,1
1,3,20,30,30,30,30,30,30,21,3,1,1
1,1,1,16,30,1,1,1,12,30,1,1,1
1,1,6,25,11,1,1,1,9,30,8,1,1
1,1,1,1,1,1,1,1,5,1,1,1,1
30,1,30,30,30,30,30,30,11,30,1,1,30
1,1,30,30,30,30,30,30,30,30,30,30,1
1,1,30,30,30,15,30,30,30,30,30,1,1
1,1,30,30,30,30,30,30,30,4,1,30,1
1,30,30,30,30,30,30,30,30,30,1,1,1
1,15,30,30,30,30,30,30,30,1,30,30,1
1,1,1,30,30,4,30,30,1,30,30,1,1
1,30,30,1,30,30,30,30,30,30,16,6,1
1,1,1,30,30,30,30,30,30,30,30,1,1
1,30,30,30,30,30,30,30,30,30,30,30,1
1,11,1,3,30,30,30,30,30,30,30,1,1
1,1,1,30,30,30,30,30,30,5,1,30,1
1,1,30,30,30,30,30,30,30,30,1,1,1
1,1,11,30,30,30,30,30,30,30,23,1,1
1,1,30,30,30,30,30,30,30,30,30,30,1
1,1,7,21,30,30,30,30,30,30,17,1,1
1,1,1,1,1,1,1,1,1,1,1,1,1
1,30,30,30,30,30,30,30,30,30,15,1,1
1,30,1,8,30,30,30,30,30,30,30,1,1
1,1,1,19,30,9,1,1,7,30,22,1,1
1,1,1,30,30,30,30,30,30,30,30,30,1
1,30,30,30,30,30,30,30,30,30,30,1,1
1,1,1,30,30,30,30,30,30,30,30,1,1
1,30,1,30,30,30,30,30,30,30,30,1,1
1,1,1,1,3,30,3,4,30,1,1,1,1
1,1,1,30,30,30,30,30,30,30,30,30,1
1,6,11,30,30,30,30,30,30,30,30,16,1
1,1,30,30,30,30,30,30,30,30,1,1,1
1,1,10,9,30,1,1,1,18,8,30,1,1
1,1,1,30,7,1,1,12,1,30,1,1,1
1,1,1,3,4,1,1,1,1,4,3,1,1
1,1,1,1,1,1,1,1,1,1,1,1,1
1,1,1,1,1,1,1,1,1,1,1,1,1
1,1,1,1,1,1,1,1,1,1,1,1,1
1,1,17,30,30,30,30,30,30,12,1,1,1
1,1,1,12,22,1,1,1,1,14,22,1,1
1,1,1,1,1,1,1,1,1,1,1,1,1
1,1,1,1,1,1,1,1,1,1,1,1,1
1,4,9,30,6,1,30,1,6,8,4,1,1
1,1,5,3,4,1,1,11,6,1,3,1,1
1,1,1,1,1,1,1,4,1,1,1,1,1
1,1,1,1,1,1,1,1,1,1,1,1,1
1,1,1,30,30,30,30,30,21,1,1,1,1
1,4,1,30,30,30,30,30,30,5,1,1,1
1,1,1,1,1,1,1,1,1,1,1,1,1
1,1,1,1,1,1,1,1,1,1,1,1,1
1,1,6,6,30,30,1,30,30,30,30,30,1
1,1,1,1,1,1,1,1,1,1,1,1,1
1,1,1,1,1,1,1,1,1,1,1,1,1
1,1,1,1,11,6,1,1,1,27,8,1,1
1,1,1,1,1,1,1,1,1,1,1,1,1
1,1,1,23,1,1,4,1,1,1,1,1,1
1,1,3,1,1,1,1,1,1,3,1,1,1
1,1,7,14,11,1,1,1,8,15,10,1,1
1,1,1,1,1,1,1,1,1,1,1,1,1
1,1,5,30,30,30,30,30,30,30,5,1,1
1,1,1,1,1,1,1,1,1,1,1,1,1
1,1,1,1,1,1,1,1,1,1,1,1,1
1,1,1,1,3,30,30,3,30,14,1,1,1
1,1,1,3,1,1,1,19,1,6,1,1,1
1,1,1,1,1,1,1,1,1,1,1,1,1
1,1,1,1,1,1,1,1,1,1,1,1,1
1,1,1,1,1,1,1,1,1,1,1,1,1
1,1,1,1,4,6,1,1,5,23,1,1,1
1,3,15,9,5,1,1,4,13,9,3,1,1
1,1,1,1,1,30,1,1,3,5,3,1,1
1,1,9,20,30,1,1,30,30,30,1,1,1
1,1,9,21,10,1,1,30,13,30,1,1,1
1,1,1,1,1,1,1,1,1,1,1,1,1
1,1,1,1,1,1,1,1,1,1,1,1,1
1,1,1,1,10,1,1,1,1,1,1,1,1
1,30,1,30,30,30,30,30,30,30,30,1,1
1,10,1,1,4,1,1,8,1,1,3,1,1
1,1,1,1,1,1,1,1,1,1,1,1,1
1,1,1,1,4,1,1,1,1,1,1,1,1
1,1,3,30,30,30,1,1,5,17,9,3,1
1,1,1,1,1,1,1,1,1,1,1,1,1
1,1,4,10,7,1,1,1,6,12,5,1,1
1,1,1,5,1,1,1,1,1,4,1,1,1
1,1,4,9,8,1,1,1,5,9,7,1,1
1,1,1,1,30,30,26,2,3,1,1,1,1
1,1,1,1,1,30,30,1,9,1,1,1,1
1,1,30,30,1,1,30,30,1,1,30,30,1
1,1,30,30,30,30,30,30,30,30,30,30,1
1,1,1,30,6,4,30,30,30,30,30,30,1
1,1,1,3,8,1,1,1,1,3,8,1,1
1,1,30,30,30,30,30,30,30,30,30,1,1
1,1,1,3,1,1,1,1,30,1,1,1,1
1,1,5,30,30,30,30,30,30,11,4,1,1
1,1,1,1,9,1,1,1,1,1,11,1,1
1,1,1,1,30,30,1,30,1,1,1,1,1
1,1,1,1,1,1,1,1,1,1,1,1,1
1,1,7,14,4,1,1,4,9,14,1,1,1
1,1,30,30,1,13,1,1,30,30,1,8,1
1,1,1,1,9,1,1,1,1,1,9,1,1
1,1,8,30,30,30,30,30,30,30,1,1,1
1,1,1,1,1,3,30,3,1,1,1,1,1
1,1,1,1,1,1,1,1,1,1,1,1,1
1,1,30,30,30,3,1,1,30,1,30,1,1
1,1,9,28,3,1,1,1,9,27,1,1,1
1,1,1,30,30,30,30,30,30,1,1,1,1
1,30,20,13,1,9,1,29,11,6,1,5,1
1,1,1,30,30,1,30,30,30,10,1,1,1
1,1,1,1,1,1,1,1,1,1,1,1,1
1,1,1,1,1,1,1,1,1,1,1,1,1
1,1,11,3,1,1,1,29,10,1,1,1,1
1,1,3,1,6,1,1,1,1,1,1,1,1
1,1,1,1,1,1,1,1,1,1,1,1,1
1,1,1,1,1,1,1,1,1,1,1,1,1
1,1,1,1,1,1,1,1,1,30,1,1,1
1,1,27,30,30,1,1,1,17,7,1,1,1
1,1,20,30,1,1,1,30,30,1,30,22,1
1,1,1,15,1,1,1,1,1,18,3,1,1
1,1,16,19,3,4,1,30,19,22,20,1,1
1,1,1,1,3,1,1,1,1,1,1,1,1
1,1,1,30,30,30,30,8,30,30,19,1,1
1,1,1,8,13,4,1,1,4,10,11,1,1
1,1,1,30,30,30,9,30,30,1,1,1,1
1,1,7,30,1,1,1,1,30,30,1,1,1
1,30,30,30,30,9,1,30,30,30,30,7,1
1,1,1,1,1,1,1,1,1,1,1,1,1
1,1,4,30,30,30,30,30,30,21,6,1,1
1,1,1,1,1,1,1,1,1,1,1,1,1
1,1,1,30,30,30,30,30,30,30,30,1,1
1,1,3,6,1,1,1,1,4,6,1,1,1
1,1,1,3,1,1,30,1,1,1,1,1,1
1,1,7,13,3,3,3,3,6,11,1,1,1
1,1,1,1,1,1,1,1,1,1,1,1,1
1,1,3,22,3,1,1,1,3,22,3,1,1
1,1,1,1,1,1,1,1,1,1,1,1,1
1,1,9,3,30,30,14,30,9,3,1,1,1
1,1,1,1,1,1,1,1,1,3,1,1,1
1,1,1,29,30,1,1,1,3,23,1,1,1
1,1,1,1,1,1,1,1,1,1,1,1,1
1,1,30,30,1,1,1,30,30,30,1,1,1
1,1,6,1,30,6,1,30,4,1,1,1,1
1,1,1,1,1,1,1,1,1,1,1,1,1
1,1,7,1,14,1,1,30,14,1,11,1,1
1,1,1,5,15,4,8,13,4,13,30,1,1
1,30,3,10,30,3,11,30,5,10,6,3,1
1,1,1,1,13,6,30,11,6,30,1,1,1
1,1,1,30,30,30,30,30,30,4,1,30,1
1,1,1,1,1,1,1,1,30,1,1,1,1
1,1,1,1,1,1,1,1,1,1,1,1,1
1,1,1,1,1,1,1,30,8,1,1,1,1
1,1,1,13,4,3,3,4,17,30,1,1,1
1,1,1,1,1,1,1,1,1,1,1,1,1
1,30,30,30,30,1,30,30,7,30,7,1,1
1,1,1,1,7,30,1,1,1,1,1,1,1
1,1,1,5,11,1,1,1,1,1,2,1,1
1,1,1,1,30,30,30,30,30,30,30,1,1
1,1,1,1,1,1,1,1,1,1,1,1,1
1,1,1,1,30,1,30,30,1,30,1,1,1
1,4,1,9,6,30,3,19,30,30,16,1,1
1,1,1,1,1,1,1,1,1,1,1,1,1
1,1,1,30,15,20,1,1,3,30,30,1,1
1,3,9,30,29,13,3,7,11,20,1,3,1
1,1,30,30,30,30,30,30,30,5,1,1,1
0.983096219224366,0.964433051485879,0.946973780296369,0.940497225602389,0.89993767129392,0.935452540349599,0.932778718033057,0.923083156008808,0.915326039683964,0.926581313512097,0.872014716505519,0.960269039788466,0.983096219224366
0.944535579072779,0.945345751325351,0.988448872433564,0.866757946528219,0.917900495261846,0.944936245714394,0.912815577671413,0.912788056321437,0.944701198989631,0.862135128761148,0.94928068853017,0.988448872433562,0.944535579072779
1,1,1,0.968596668085595,0.965501429153888,0.964081625739095,0.962160542321411,0.962388916459607,0.964081625739095,0.961531683130957,0.96904244750206,1,1
1,1,0.953328840334524,0.934504389919801,0.960811555141181,0.959497268579235,0.962321658979975,0.960811555141182,0.926185974085606,0.960290464982631,1,0.999999999999997,1
0.964321228555783,1,0.9602084210721,0.961698818332124,0.963325371824126,0.944878004942332,0.948131480165736,0.979183695881921,0.947173755233213,0.948815641365796,0.960897793719887,0.960019149734912,0.964321228555783
1,1,0.976225504428105,0.954069741366724,0.957395323053443,0.956845070322287,0.956009710977789,0.956905268832312,0.957395323053443,0.953169108905517,0.976225504428105,1,1
0.999999999999999,0.961143641397403,0.937673008397166,0.871380190993084,0.869120643968971,0.874410419871022,0.876028515371149,0.866399328769621,0.869395288852512,0.929061225717513,0.951652518021116,1,0.999999999999999
0.999999999999999,1,0.960177356997783,0.964904542589065,0.956314338119599,0.961360719058168,0.966829513554979,0.966458164384985,0.961109262256736,0.959348886588202,0.96811168373591,0.961095670398743,0.999999999999999
1,0.999999999999999,0.982507045460763,0.956754210211868,0.958268496821944,0.959748722059217,0.956961065512679,0.95696106551268,0.956932209277853,0.965529104620093,0.982507045460763,1,1
1,0.999999999999999,0.960261040542206,0.919752724058532,0.912250520385186,0.956425579638887,0.973116319813449,0.972153811990146,0.953250612125991,0.911862372525205,0.918587606570109,0.963876751608705,1
0.986035661922303,0.969833377481752,0.929610686431998,0.89845885299548,0.91560328218006,0.917947335740156,0.89123484580794,0.946593507003945,0.924959566109817,0.934002836845528,0.96329980804342,1,0.986035661922303
0.999999999999999,0.953696393312355,0.977849156904171,0.95187398416755,0.949594387455095,0.953266517460597,0.951091553535437,0.923941491831358,0.947530015054943,0.968974248306538,0.943423952541844,1,0.999999999999999
0.970822349835422,0.950322040664376,0.951160561798816,0.937708682039912,0.92085178891174,0.934827694110643,0.931010237416757,0.91480969247263,0.937884581477821,0.940635671597209,0.924093840585266,0.96087587713819,0.970822349835422
1,1,0.981672486754343,0.958024572696835,0.947351791864956,0.94476201688207,0.948805727003206,0.950541358464037,0.945396124503748,0.946207166108428,0.958000700711955,0.981330898233504,1
0.995369326449189,0.999999999999996,0.935117711130207,0.850587769897018,0.847907809136488,0.848752927245276,0.843858781984207,0.841354039590488,0.917657913169196,0.95232274857002,0.999999999999997,0.942321077474379,0.995369326449189
1,0.93641820556104,1,0.880506022069937,0.87702136801586,0.869206412668332,0.872834175799029,0.878660362598396,0.878574931237914,0.943161669481219,0.999999999999998,1,1
0.982034037310151,0.996784359738294,0.960005201277422,0.952309831369778,0.953879475251421,0.94300331088208,0.939315503309597,0.954961303351236,0.953493012149151,0.958652638005891,0.964146799192234,0.999823430157008,0.982034037310151
0.999999999999999,1,0.975043513162153,0.960095006491085,0.959944162461647,0.967941609707483,0.988319110142052,0.986833229247672,0.967197506566838,0.960095006491086,0.959944162461647,0.975989375249872,0.999999999999999
1,1,0.955377897798139,0.911684734901216,0.892188952399952,0.888606897521607,0.93642553083879,0.888990210736968,0.886107365228451,0.863269597652552,0.899479182972306,0.883962234874579,1
1,0.999999999999999,0.97284258161927,0.951180668144566,0.946096526117366,0.93705426293688,0.93523100552315,0.937038669161968,0.938967912985819,0.946955608026052,0.97284258161927,1,1
1,0.998147880841986,0.967391958726696,0.927795110526386,0.961458653502046,0.978568284931608,0.976197711906923,0.979224421961255,0.960481899308261,0.92731644225677,0.963814522489864,0.999999999999999,1
1,0.999999999999998,1,0.923149801627501,0.935445771230587,0.945136144284031,0.947984550368656,0.941767771824194,0.942407274090786,0.935615718352656,0.959615589098326,0.962250404646608,1
1,0.978845522971643,0.999999999999998,0.978922121080762,0.949942118998636,0.937718064557384,0.93773700927465,0.938436293977549,0.94468031687986,0.955635422018414,0.978845522971643,0.999999999999998,1
0.97074727122715,0.993122415478093,0.962987599775913,0.912055066638978,0.933083295951707,0.931393747996841,0.927177076427852,0.946085795170967,1,0.940647694345558,0.993122415478094,0.967227969021987,0.97074727122715
0.999999999999999,0.952253792307281,0.923748810244289,0.92675041516144,0.935366425962874,0.953531645665729,0.940180047328525,0.950708888062792,0.938497772687628,0.918342601335342,0.95407338581827,0.999871764032694,0.999999999999999
0.999999999999999,0.956208331685496,0.960453171748184,0.954317320391154,0.963083208367508,0.965670755750978,0.97293364045433,0.943383730440833,0.949953840424762,0.941469647238561,0.962656014901182,0.967334523661407,0.999999999999999
1,0.999999999999999,0.999999999999999,0.960171010116019,0.92265979345508,0.932625632819393,0.932833326106556,0.935104281966399,0.934895661965242,0.935351928080454,0.947503597814246,0.999999999999998,1
0.999999999999999,1,0.975312504783498,0.893331503454905,0.859674628674663,0.855312571648866,0.844592720868708,0.852086132662162,0.873192100132293,0.854913514299152,0.964971452641037,1,0.999999999999999
1,1,0.956503372161403,0.949595336935387,0.944704702526688,0.942919676168161,0.937635368731548,0.947027906962313,0.941372322495712,0.950086760512482,0.956708889968035,1,1
1,0.999999999999997,0.965785750667319,0.938529422955125,0.948110030122043,0.961615441536683,0.963188122220969,0.965379517321482,0.948959841454425,0.938915924799049,0.96578575066732,1,1
0.999999999999999,0.961388336567866,1,0.956041477091789,0.922144216301528,0.909210360195744,0.899257884182195,0.927847125754136,0.892549236916912,0.951237625971111,0.959762612001311,1,0.999999999999999
0.964206613902851,0.962734489538039,1,0.939389597396043,0.962942419841192,0.937834337029423,0.962298707747912,0.925729044257773,0.918470266604743,0.936395714889456,0.950820360962481,1,0.964206613902851
1,1,0.964040603960969,0.966425770302107,0.965594431245987,0.968731161527183,0.951039035138519,0.968731161527183,0.966425770302106,0.966126677500893,0.964040603960969,1,1
0.999999999999999,1,0.964024262442529,0.937096930073396,0.959724960241293,0.962706219878826,0.968928249150346,0.968928249150346,0.960087470302823,0.916777497384265,0.964024262442528,1,0.999999999999999
1,0.982691390437996,1,0.969003258639507,0.967355232877854,0.982202761061588,0.986604315166876,0.974951976263213,0.982202761061589,0.961697598266011,0.976553891797352,1,1
1,1,1,0.930571864591666,0.917529502651434,0.911306476204225,0.933586616458934,0.92173224707559,0.91721334251443,0.935861016100068,0.961286202363,1,1
0.999999999999998,0.974684635453442,0.961290604569262,0.952931377118474,0.958306738517913,0.962619427047991,0.956705040777763,0.961545508409385,0.948912584218347,0.961489413828292,0.968731091813229,1,0.999999999999998
0.999999999999998,1,0.962753541155527,0.941713541422697,0.946819962118848,0.906991234809259,0.926633621669113,0.955992394856308,0.916379852738891,0.943032596220865,0.945491356793987,0.999994151752146,0.999999999999998
0.999999999999999,0.958416139635008,0.94319087214576,0.939673277572242,0.907103838179719,0.914352861258677,0.918658153765151,0.895419457186711,0.886349742287877,0.886703900981501,0.965079118699545,0.999999999999998,0.999999999999999
1,0.928611975158961,0.955397513899949,0.941876779906372,0.927582472351184,0.930237508330354,0.933428634262646,0.909222833128581,0.915330923004965,0.907532875016759,0.967755336919735,1,1
0.999999999999998,0.995872951483097,0.992467559188022,0.991548690479126,0.989295781136604,0.989025895937332,0.988738730388004,0.98694591277441,0.989132847102007,0.992467559188022,0.99541857968321,0.999999999999999,0.999999999999998
0.999999999999999,1,0.967678132777728,0.960327018371647,0.951876982000662,0.953182527498243,0.950680984697387,0.956621710413485,0.948573377431783,0.939454225986536,0.967678132777728,0.999999999999999,0.999999999999999
0.991298259196557,0.981517283195985,0.963016986692753,0.940005736216026,0.917196339528914,0.939415989560856,0.930895023527492,0.923437315820461,0.924401030959308,0.961710401095835,0.962990582079632,0.98733562029376,0.991298259196557
0.987696621033948,0.890148069821536,0.999999999999998,0.856495757654139,0.857845040981822,0.863570431034184,0.857017923235373,0.845619704006247,0.877434510973929,0.85078050859022,0.856840694158575,0.999999999999999,0.987696621033948
0.970677684642566,0.919666889887571,0.960179351311531,0.923064347933327,0.910622224478165,0.961318460283404,0.950187099611363,0.916232661610678,0.959604549738167,0.923057378147347,0.920776036977905,0.983039468862402,0.970677684642566
0.999999999999999,0.999999999999999,1,0.960526675064634,0.950511933715856,0.983345073329944,0.976869193230289,0.976737855452982,0.983345073329944,0.960523051328626,0.9548152015788,1,0.999999999999999
0.999999999999999,1,0.966693119481289,0.968328540976899,0.967893829159657,0.961790226323108,0.9683285409769,0.971928781277481,0.967356467304314,0.999999999999998,0.961322263118892,1,0.999999999999999
0.999999999999999,1,0.969748320533148,0.897745468685587,0.908521947092068,0.906470802740379,0.931239213640818,0.934764392624111,0.931455059079093,0.919118253889945,0.927268655076363,0.936824148284388,0.999999999999999
1,1,0.953425380198499,0.932199843005102,0.946797778298935,0.965336112523186,0.96895728209862,0.971313813175572,0.957180782495741,0.932881597230598,0.954443778934482,0.99652692184919,1
0.999999999999998,1,0.971789923611978,0.962401180643967,0.944218323519208,0.945984916701903,0.954231397686914,0.944696186115046,0.940216683687922,0.937660884663592,0.973505201956796,0.999999999999999,0.999999999999998
0.990505063927857,0.934235753234995,0.936343235555493,0.968378223988856,0.946154088274645,0.936343235555492,0.96128008519959,0.946154088274645,0.922661706008245,0.96296015408506,0.934235753234995,0.949754280752541,0.990505063927857
0.999999999999999,1,0.9641792579848,0.9672738241355,0.959580313420454,0.961808139534103,0.950912214995762,0.960231525662979,0.960587026040515,0.953657342358991,0.968418797728632,1,0.999999999999999
0.998214335374462,1,0.931428082752178,0.926055276396325,0.898772212005787,0.908865559562118,0.92131994788438,0.911381964783528,0.911207722544879,0.935298234602079,0.931428082752177,1,0.998214335374462
1,0.999999999999999,0.910946150133487,0.913475037587811,0.910488026144899,0.903630078585635,0.909312407602639,0.921446827788239,0.914646756661785,0.92063510938912,0.916401607618554,0.928861702251426,1
1,1,0.874198516449238,0.837892605083844,0.917611350012845,0.910815271768568,0.864784156651014,0.868633595197721,0.91078784659323,0.914917424386055,0.857726201822441,0.885434056353721,1
1,0.976369473568176,0.874455290151057,0.867104634331515,0.835264308050498,0.872922909826466,0.900749753595808,0.867945165815676,0.885581330303327,0.871094173468291,0.831299628878299,0.877530918645824,1
0.9783787829417,0.984195765176695,1,0.887373948987925,0.919957262670191,0.931055923131296,0.909831318895376,0.87851235077133,0.906959959100875,0.891330638101802,0.896348064296657,0.905570074845687,0.9783787829417
0.999999999999999,1,1,0.971019483315053,0.968766166446122,0.966298210548522,0.965505064464363,0.960511062706934,0.968382429770276,0.970592888566142,0.964514577130226,1,0.999999999999999
1,1,0.798316132210362,0.751742918842223,0.752712301280009,0.746270354754294,0.7584191503281,0.755489525119143,0.74514722732497,0.758166246183188,0.834443765994786,0.999999999999998,1
1,0.963054007689045,0.917199503445807,0.912068473190681,0.948131287032359,0.967503335789745,0.980050367086904,0.952025620268561,0.908885803094847,0.919954067376747,0.962272451326377,0.999999999999999,1
0.999999999999999,0.999999999999999,0.963231826220674,0.899391461420878,0.885528985144541,0.88873790372015,0.864782683626326,0.864292846957865,0.876299707192972,0.969384737309565,0.974570009850866,1,0.999999999999999
1,0.999999999999999,1,0.961986218923784,0.960214929889592,0.961293473073165,0.960249290926981,0.9625767212072,0.962103367482466,0.962132557683917,0.960343143360717,0.961930025049365,1
0.999999999999998,0.940260591411607,0.923394365674773,0.924302143759005,0.907575717090154,0.903511495520291,0.936734437930544,0.909626316339277,0.929721923461413,0.938732501516306,0.939711595291524,0.971666547112915,0.999999999999998
0.967499225164453,0.964284219486593,0.942867529079365,0.936487595097503,0.94953844550624,0.941313735679126,0.941649407120044,0.945571231771748,0.937530646640984,0.931712633576112,0.966574487326854,0.936213744552505,0.967499225164453
1,0.962577730212645,0.96323957675168,0.94845613015265,0.944512553032375,0.94608645545714,0.949938788722316,0.948362763828546,0.944148426055172,0.964775195061592,0.967259779640519,0.999999999999999,1
1,1,0.89201230977326,0.899004481950695,0.933067608843406,0.944777289514052,0.948686628231515,0.933065273860585,0.860893728051358,0.884228741748715,1,0.972338017591737,1
0.967218405017934,1,0.9608654972156,0.9609587591676,0.952091565651834,0.959623291044852,0.952795954082242,0.963076048940189,0.961575637486955,0.960605119969052,0.962572196395219,0.960063411327355,0.967218405017934
0.999999999999999,0.960673666461994,0.959222475957546,0.908849991729254,0.878407269771681,0.877873394873135,0.876589981880259,0.879413913109141,0.874544729073325,0.881535245967077,0.964097461459555,0.999999999999999,0.999999999999999
1,1,0.964331811089435,0.943060653636973,0.940915524165382,0.912604134404785,0.894181652201405,0.910576246148591,0.941567008951504,0.936943920619973,0.964331811089435,1,1
1,1,0.970818806131467,0.960339380004164,0.960656296176582,0.958944604723737,0.95061101454191,0.961622350270799,0.960339380004164,0.9603709261374,0.970818806131467,1,1
1,0.9401631985264,0.886633805130529,0.908607432304846,0.89007314434081,0.92695487057814,0.94048293000437,0.913192488963542,0.878522261445524,0.911782785856503,0.892305908794259,0.960114913006913,1
1,0.960897093650218,0.960145064954773,0.929494322154711,0.942720653670076,0.947823794904061,0.956005155396139,0.945218178573186,0.937157111123169,0.923180569642441,0.962800764805142,1,1
0.999999999999999,1,0.960357242055574,0.888273140988903,0.877292853489177,0.860724564476824,0.854839469091288,0.854770473169942,0.869865969975779,0.961176440361594,1,1,0.999999999999999
1,0.891324345665087,0.916218429993761,0.919226518590619,0.923350449818009,0.922321397810441,0.922149210532296,0.929452727654602,0.96160716130167,0.961386590213366,1,0.962574049383186,1
0.966349275009096,0.978252155392493,0.984670910636454,0.905222956841252,0.902229313854889,0.91401784625103,0.876692088917134,0.87506895155763,0.904817084336438,0.951733574442845,0.960592799285044,0.984670910636456,0.966349275009096
1,0.999999999999999,0.956009888083306,0.924190799230994,0.945828302059452,0.983248661310083,0.986488935281038,0.983476065328869,0.945828302059451,0.924937783657879,0.956009888083306,1,1
1,0.960606865826848,0.948344103036282,0.969524522171527,0.967574637765067,0.948138910568822,0.969524522171527,0.953000798895464,0.962444647855387,1,1,0.962444647855388,1
1,0.929396764315594,0.960259329388569,0.953637266488551,0.96059500813286,0.979816762251171,0.971461968670038,0.927051717219251,0.960263445865802,0.954614895533381,0.999999999999999,1,1
1,0.972281173512382,0.944978246539257,0.960638829295631,0.920529356007342,0.92140617849824,0.953475494899517,0.930676865498357,0.924875538239011,0.930986931112053,0.955441881782859,0.956083281394145,1
1,0.977264375642571,0.950178880193468,0.934230308325005,0.92490759727978,0.92187847051196,0.932721569910657,0.929557975182581,0.928388498305346,0.946217418343001,0.977678229277649,1,1
1,0.999800669883162,0.941773644299754,0.921602900111804,0.923682476379758,0.931174783543536,0.947972629562613,0.930477105464669,0.920934878794811,0.941886087242219,0.999800669883164,0.999999999999998,1
0.999999999999999,1,0.931796291478201,0.918927553053324,0.92411406960317,0.957766558188694,0.95612324727587,0.960703281397135,0.924109322878099,0.888349665011412,0.921328690489324,1,0.999999999999999
1,0.958691028794448,0.912359922940967,0.90396688499762,0.908221693513443,0.943056132214574,0.938103644606414,0.910516328697789,0.955145820638544,0.949382829883659,0.950194840282551,0.999999999999999,1
0.933503303775684,0.964308039549499,0.917730720173633,0.906250143150245,0.921723012551731,0.927176159073607,0.941738155449919,0.902918150501272,0.894450765099758,0.93145306366621,0.904542971639958,0.91764183074276,0.933503303775684
0.958307712666833,0.959218428559827,0.941720596971971,0.931923979195273,0.942540341536031,0.955321296756583,0.95717369513173,0.955880334232669,0.94502877907462,0.932820370681184,0.937592440931141,0.994575933455944,0.958307712666833
1,0.924591280341237,0.940024959732874,0.944327112638499,0.937099708268272,0.946753277973074,0.948457788650737,0.904711123465019,0.921595434679457,0.925014504173286,0.964527748482396,0.967674718690043,1
1,1,0.999999999999999,0.97020777498738,0.960913868547029,0.968485914930994,0.970207774987381,0.971072996985173,0.968485914930994,1,0.968317313118005,0.999999999999998,1
0.999999999999999,1,0.949424094547009,0.891036246751488,0.899715024235293,0.905543141199221,0.909384796350407,0.912327011275611,0.903267725996064,0.89656112370954,0.919814358981654,0.950431901720027,0.999999999999999
1,1,0.964609559089985,0.968651715980283,0.945284703105144,0.946378462261204,0.949270554350576,0.954158472290535,0.953355724581296,0.947023588306467,0.968128850639357,0.968442238759366,1
0.999999999999999,0.96150377470143,0.943106050228497,0.904060492002747,0.898796138122104,0.906555848452934,0.910360159343334,0.904123842284857,0.905161861940117,0.955376036167144,1,0.949822388091082,0.999999999999999
0.999999999999997,0.961407032577417,0.910491640594368,0.901954903944597,0.929353799323678,0.939206145831953,0.947026103553493,0.938563416319124,0.895842841326824,0.909084192160204,0.957456305173896,1,0.999999999999997
1,0.890097220955351,0.842821712266018,0.852249015997966,0.846975895118249,0.966297122592956,0.978249803493929,0.876028056485388,0.847283503473888,0.858215419532096,0.849838929494361,0.969593061146291,1
1,0.999999999999999,0.980526498065211,0.955172432150583,0.957709056383659,0.956510177593452,0.960361087927229,0.960259809274594,0.959202326951912,0.982478117516456,1,0.980526498065212,1
0.999999999999999,0.960597394692998,0.955972764681141,0.888010125015589,0.886737689611963,0.881986816818795,0.897369818291735,0.883725092490538,0.888766881917791,0.955870657990777,0.930343700067463,0.979746211851206,0.999999999999999
1,0.999999999999999,0.984323887996125,0.960207477623116,0.976343846878061,0.9897970597973,0.988870944693642,0.989134423219144,0.976343846878061,0.957142916825343,0.984323887996126,1,1
1,1,0.933923998092256,0.857869086024982,0.854657024903027,0.875956740137561,0.839668078136338,0.843214596455125,0.863687842734351,0.854950669741418,0.856288566197002,0.938923159585959,1
0.999999999999999,0.999999999999999,0.978252365354511,0.956576556730503,0.932736759680073,0.959654759617671,0.986987518031437,0.983619469501291,0.96661288127548,0.961667633322026,0.937855627245986,0.961250654843116,0.999999999999999
0.966728390423719,1,0.960542771712765,0.951376069575889,0.939010999084922,0.92699082799675,0.908808235355442,0.95467248186342,0.923851891399671,0.938119448676881,0.93894827396447,0.965260274021928,0.966728390423719
1,0.960133482054579,0.961103177532362,0.930171154706149,0.937688133981698,0.937324984739645,0.936031716263316,0.93899289598436,0.933950391214347,0.960129177241521,0.964441413104635,1,1
1,0.999999999999999,0.961331479970421,0.96318980864273,0.952269048339882,0.971465510488258,0.969550265786502,0.970744155319847,0.960213680381886,0.956786578332924,0.961331479970421,0.999999999999999,1
1,1,0.968313517029788,0.961045684854215,0.961750930368847,0.965969178560511,0.963489915233775,0.962181423138544,0.961549342841815,0.950075691080504,0.964143670985112,1,1
1,0.994322513231486,0.96980393497056,0.964408745235065,0.971100726619704,0.967102050086625,0.963209501146634,0.969236351885389,0.960044151102285,0.960737107518338,0.974284114245085,0.98143633229449,1
0.947433859557019,1,0.944713454201386,0.956887298946414,0.906784022546185,0.897024885340844,0.924483684189745,0.904059229506143,0.966465479122571,0.944270010508104,0.999999999999999,0.998466766234496,0.947433859557019
0.998318334517746,0.993137673460001,0.935318833100887,0.931098745499991,0.935938211191373,0.939087462299431,0.958269184197059,0.930192803169083,0.91759328967616,0.933471151064807,0.941946619873073,0.936213266395239,0.998318334517746
1,0.965759281632638,0.917061210640512,0.910767361357279,0.906377791384305,0.960491210641214,0.954267620382091,0.944406866953555,0.934185318906885,0.917036989389251,0.915975301933649,0.964381545879424,1
1,1,0.937670556286066,0.942744452474886,0.942476775952787,0.921091113857225,0.951366635775888,0.945436915401777,0.917800375281543,0.961360967385854,1,0.943772406322135,1
0.999999999999998,0.912795387065725,0.901446887088348,0.890709605954925,0.930608380115738,0.933483089510886,0.924649977731159,0.890709605954925,0.883292158591304,0.908434848811136,1,1,0.999999999999998
0.994997414053538,0.963832070414545,0.926218602325377,0.957470919558461,0.905804703929086,0.927296509047327,0.954839655550526,0.907082591362824,0.944150358313817,0.994997414053539,0.935144578330422,0.957494556419891,0.994997414053538
0.968013501617259,0.97841321805364,0.964494571545346,0.93285338929655,0.942658976437801,0.960424839464622,0.93102724907941,0.941522690058526,0.963849813204468,0.936077562495398,0.944098590015263,1,0.968013501617259
0.999999999999999,0.921798599577265,0.940124305175254,0.999999999999999,0.941320453436206,0.951530159522571,0.959968596842305,0.897970516785695,0.927476061920937,0.959968596842305,0.963672812990404,0.969597534640713,0.999999999999999
1,1,1,0.949893970897007,0.932331984973052,0.923511228893001,0.916447912571605,0.914002004017034,0.922837931570681,0.915226123686556,0.90980974337304,1,1
0.962860908264431,0.900305147168941,0.956491462515295,0.925325459175713,0.891287587090348,0.916891476319734,0.915962365857969,0.872334911995519,0.921283779420264,0.947275611452471,0.918994109484145,0.919686304669779,0.962860908264431
0.999999999999999,0.960029264064187,1,0.960509357418614,0.951348865517398,0.919363200960467,0.907427118085202,0.914247501888337,0.917034695176108,0.90885928178553,0.952184677642103,1,0.999999999999999
0.999999999999998,0.999999999999999,1,0.856605419540525,0.870384970971511,0.867198364453395,0.855093013490063,0.87038497097151,0.891868203928715,0.964211128706947,1,0.879788683611115,0.999999999999998
0.979714325466854,0.970206506042509,0.913201668918806,0.940305373930917,0.941104945493665,0.921888186134207,0.940957286186494,0.937354195146002,0.896707878218656,0.929717056862539,0.971626083073783,0.973297976476393,0.979714325466854
1,1,0.960973807911421,0.925151856120897,0.930743585644459,0.928035966913616,0.929209320926072,0.924567480965328,0.930694728028805,0.924342253192193,0.961566539791252,1,1
0.999999999999997,0.988353593673115,0.92288142734638,0.921375392269012,0.922211646884603,0.919588981592187,0.920741009904574,0.904070997325198,0.942046517402859,0.941179639253577,0.940748900532656,0.941216402695154,0.999999999999997
0.999999999999999,0.999999999999999,0.96131211752129,0.962642346238758,0.916966538098067,0.918539036618847,0.918168469010852,0.913265296970485,0.910613808596592,0.906435859877676,0.962725218903867,1,0.999999999999999
1,0.999999999999999,0.974258571140658,0.965757830349111,0.968332488388983,0.963894983646786,0.96883516519835,0.96883516519835,0.965757830349111,0.968332488388983,0.974258571140657,1,1
0.999999999999999,0.885707940133372,0.891353189397392,0.896441215515218,0.909008936097483,0.916663495215614,0.902982418832869,0.90900115778358,0.912986049364511,0.90313878314548,0.96591858516688,1,0.999999999999999
1,0.950436227748717,0.991431789878271,0.965029202629179,0.955804451726149,0.906530817064022,0.917774185831753,0.925410844499143,0.921325273009792,0.939316064660755,0.932813404358556,0.991431789878274,1
1,1,0.966651085417289,0.961119216491433,0.959952783475372,0.960100681737031,0.974483871882347,0.9751180039617,0.960349428655793,0.956428047017966,0.966586671064369,0.962480257514737,1
0.999999999999998,0.999999999999999,0.999999999999997,0.917429682173963,0.851056742492656,0.860076951234226,0.856404869895337,0.846002618238256,0.850379258719479,0.861630909874465,0.887336565414624,0.943860030397861,0.999999999999998
0.978812812080357,0.948395731298367,0.954377901839885,0.93431049946585,0.925718633243285,0.943111303882905,0.938451474031921,0.935231006201863,0.947678431610205,0.934071568407117,0.938159802331101,1,0.978812812080357
0.999999999999999,1,0.987336404505794,0.947287542625582,0.900413457239814,0.942487688837949,0.891564165772174,0.889959077152599,0.930916976335992,0.906416210121328,0.948656058795536,0.987336404505794,0.999999999999999
0.997687923285686,0.937037160704961,0.995303328583752,0.921612100288866,0.921552145940559,0.908306761155117,0.924291453727296,0.912712289472101,0.881173320341402,0.882603885181134,0.913076538018086,0.995303328583752,0.997687923285686
0.999999999999999,0.968544201753279,1,0.969630349548243,0.960156001369079,0.944950453084245,0.960453501311437,0.960782362929637,0.95809277457248,0.968544201753279,1,1,0.999999999999999
0.999999999999999,0.999999999999999,1,0.907898877191352,0.935594745806389,0.9256796656966,0.935613582435441,0.928748171421403,0.915828870761265,0.866491275262532,0.892911781707958,0.910749242163012,0.999999999999999
0.989809525643392,0.96034578550024,0.970386503405894,0.903120763770315,0.91017521130149,0.923104220870324,0.926493945439516,0.922248720066944,0.929503139229439,0.950356927354522,0.947582839969149,0.961241605808485,0.989809525643392
0.999999999999999,0.990344474223179,0.852304686468491,0.904232293896075,0.898291937381555,0.891737386686688,0.903813761299801,0.89556410263918,0.897042026591414,0.944785455278847,0.990344474223179,1,0.999999999999999
