r0,r30,r60,r90,r120,r150,r180,r210,r240,r270,r300,r330,r360
1,1,0,0,0,0,1,1,0,0,0,0,1
1,1,1,0,0,0,0,0,1,0,0,0,1
1,1,0,0,0,0,0,0,0,0,0,1,1
1,1,1,0,0,0,1,1,0,0,0,0,1
1,1,0,0,0,1,1,1,0,0,0,1,1
1,1,0,0,0,1,0,0,0,0,0,1,1
1,0,0,0,0,0,0,0,0,0,0,0,1
1,1,0,0,0,0,1,1,0,1,0,1,1
1,1,1,0,0,0,0,0,0,0,1,1,1
1,0,0,0,0,1,1,0,0,0,1,1,1
1,1,0,0,0,0,0,0,0,0,1,0,1
1,0,1,0,0,0,0,0,0,0,0,1,1
1,1,1,1,0,0,0,0,1,1,1,1,1
1,1,1,1,1,1,1,1,1,1,1,1,1
1,1,1,0,0,0,0,0,0,0,0,0,1
1,1,0,0,0,0,0,0,0,0,1,0,1
1,0,0,0,0,0,0,0,0,0,1,1,1
1,1,1,1,0,1,1,1,1,1,1,1,1
1,1,0,0,0,0,0,0,0,0,0,0,1
1,1,1,0,0,0,0,0,0,0,0,1,1
1,1,1,0,0,0,1,1,0,0,0,0,1
1,1,1,0,0,0,0,0,0,0,0,1,1
1,1,0,0,0,0,0,0,0,0,1,1,1
1,0,0,0,0,0,0,0,0,0,0,1,1
1,1,0,0,0,0,0,0,0,0,0,1,1
1,1,0,0,1,1,1,1,0,0,1,1,1
1,0,0,0,0,0,0,0,0,0,1,1,1
1,1,0,0,0,0,0,0,0,0,0,1,1
1,1,0,0,0,0,0,0,0,0,1,1,1
1,0,1,0,0,0,0,0,0,0,1,1,1
1,1,1,0,0,0,0,0,0,0,0,1,1
1,1,0,0,0,0,0,0,0,0,1,1,1
1,1,0,1,1,0,0,0,1,1,1,1,1
1,0,0,0,1,0,1,0,0,0,1,1,1
1,1,0,0,0,1,1,1,0,0,1,1,1
1,1,0,0,0,0,0,0,0,0,0,0,1
1,1,0,0,1,0,0,1,0,0,1,1,1
1,0,0,0,0,0,0,0,0,0,0,0,1
1,1,0,0,0,0,0,0,0,0,1,0,1
1,0,0,0,0,0,0,0,0,0,0,1,1
1,1,1,1,1,1,1,1,1,1,1,1,1
1,1,0,0,0,0,0,0,0,0,1,1,1
1,1,0,0,0,0,0,0,0,0,1,1,1
1,0,0,0,0,0,0,0,0,0,0,0,1
1,1,0,0,1,0,1,0,0,0,1,0,1
1,0,0,0,0,0,1,0,0,0,0,0,1
1,1,0,0,0,0,0,1,0,0,0,1,1
1,0,0,0,0,0,0,0,0,0,0,1,1
1,0,0,0,0,0,1,0,0,0,0,0,1
1,0,1,0,0,0,0,0,0,0,0,0,1
1,1,0,0,0,0,0,0,0,0,0,1,1
1,1,0,0,0,1,0,0,0,0,0,1,1
1,1,0,0,0,0,0,0,0,0,0,1,1
1,0,0,0,0,0,0,0,0,0,0,1,1
1,1,0,0,0,0,0,0,0,0,0,0,1
1,1,0,0,0,0,0,0,0,0,0,1,1
1,0,1,0,0,0,0,0,0,0,0,1,1
1,1,0,0,0,0,0,0,0,0,0,1,1
1,1,0,0,0,0,0,0,0,0,0,1,1
1,0,0,0,1,0,1,0,0,0,1,0,1
1,1,0,0,0,0,0,0,0,0,1,0,1
1,0,0,0,0,0,0,0,0,0,0,0,1
1,1,1,0,0,0,0,0,0,0,1,1,1
1,1,1,1,0,1,0,1,1,0,1,1,1
1,1,0,0,0,0,0,0,0,0,0,1,1
1,1,1,0,0,0,0,0,0,0,1,0,1
1,0,0,0,0,0,1,0,0,0,0,0,1
1,0,0,0,0,0,0,0,0,1,1,0,1
1,1,0,0,0,0,0,0,0,0,0,1,1
1,1,1,1,1,1,0,0,1,1,1,1,1
1,1,0,0,0,0,0,0,0,0,0,0,1
1,1,0,0,0,0,0,0,0,0,0,0,1
1,1,0,0,0,0,0,0,0,0,0,1,1
1,0,0,0,0,0,0,0,0,0,1,0,1
1,0,0,0,0,0,0,0,0,0,0,1,1
1,1,0,0,0,1,1,1,0,0,0,1,1
1,1,1,1,1,1,1,1,0,0,1,1,1
1,0,1,0,0,1,0,0,1,0,0,1,1
1,1,0,0,0,0,0,0,0,1,0,1,1
1,1,1,0,0,0,0,0,0,0,1,1,1
1,1,0,0,0,0,0,0,0,0,0,1,1
1,0,0,0,0,1,1,0,0,0,0,1,1
1,1,0,0,0,0,0,0,0,0,1,1,1
1,0,0,0,0,0,0,0,0,0,1,1,1
1,0,0,0,0,0,0,0,0,0,0,1,1
1,1,0,0,0,0,0,0,0,0,0,1,1
1,1,0,0,1,0,1,1,0,0,1,0,1
1,1,1,1,0,0,0,0,0,0,1,1,1
1,0,0,0,0,0,0,0,0,0,1,1,1
1,1,1,1,0,0,0,0,0,0,1,1,1
1,1,1,0,0,0,0,0,0,0,0,1,1
1,1,1,0,0,1,1,1,1,0,0,1,1
1,1,1,1,0,1,1,1,0,1,1,1,1
1,1,0,0,0,0,0,0,0,0,1,1,1
1,1,1,1,0,1,1,1,1,1,0,1,1
1,1,0,0,0,0,0,0,0,0,1,1,1
1,0,0,0,0,1,1,0,0,0,0,1,1
1,1,0,0,0,0,0,0,0,0,0,0,1
1,1,1,1,0,0,0,0,0,0,0,1,1
1,0,0,0,0,1,0,0,0,0,0,1,1
1,1,0,0,0,1,1,1,0,0,0,1,1
1,1,1,0,0,0,0,0,0,1,1,1,1
1,1,0,1,0,0,0,0,0,0,0,0,1
1,0,0,0,0,0,0,0,0,0,0,0,1
1,1,1,0,0,0,0,0,0,0,0,1,1
1,1,0,0,0,0,0,0,0,0,0,1,1
1,0,0,0,0,0,0,0,0,0,0,0,1
1,0,0,0,0,0,0,0,0,0,1,1,1
1,1,1,1,1,0,0,0,1,1,1,1,1
1,1,1,0,0,0,0,0,0,0,0,0,1
1,0,0,0,0,0,0,0,0,0,0,1,1
1,0,0,0,0,0,0,0,0,0,0,0,1
1,1,0,0,0,0,0,0,0,0,0,1,1
1,0,0,0,0,0,0,0,0,1,1,0,1
1,1,1,1,0,0,0,0,0,0,1,1,1
1,0,0,0,0,0,0,0,0,0,0,1,1
1,1,0,0,0,0,0,0,0,0,0,0,1
1,1,0,0,0,0,0,0,0,0,1,1,1
1,1,1,1,1,1,1,1,1,1,1,1,1
1,1,0,0,0,0,0,0,0,0,0,0,1
1,1,0,0,0,0,0,0,0,0,0,1,1
1,1,1,0,0,1,1,1,0,0,0,1,1
1,1,0,0,0,0,0,0,0,1,0,1,1
1,1,1,1,1,0,1,1,0,1,1,0,1
1,1,0,0,0,0,0,0,0,0,1,1,1
1,0,0,0,0,0,0,0,0,0,1,1,1
1,1,1,0,1,1,0,1,1,1,1,1,1
1,1,0,0,0,0,0,0,0,0,0,0,1
1,0,1,0,0,0,0,0,0,0,0,0,1
1,0,0,0,0,0,0,0,0,0,0,1,1
1,1,1,1,1,1,1,1,1,1,1,1,1
1,1,1,1,1,1,1,1,1,1,1,1,1
1,1,1,1,1,1,1,1,1,1,1,1,1
1,1,1,1,1,1,1,1,1,1,1,1,1
1,1,1,1,1,1,1,1,1,1,1,1,1
1,1,1,1,1,1,1,1,1,1,1,1,1
1,1,1,1,1,1,1,1,1,1,1,1,1
1,1,1,1,1,1,1,1,1,1,1,1,1
1,1,1,1,1,1,1,1,1,1,1,1,1
1,1,1,1,1,1,1,1,1,1,1,1,1
1,1,1,1,1,1,1,1,1,1,1,1,1
1,1,1,1,1,1,1,1,1,1,1,1,1
1,1,1,1,1,1,1,1,1,1,1,1,1
1,1,1,1,1,1,1,1,1,1,1,1,1
1,1,1,1,1,1,1,1,1,1,1,1,1
1,1,1,1,1,1,1,1,1,1,1,1,1
1,1,1,1,1,1,1,1,1,1,1,1,1
1,1,1,1,1,1,1,1,1,1,1,1,1
1,1,1,1,1,1,1,1,1,1,1,1,1
1,1,1,1,1,1,1,1,1,1,1,1,1
1,1,1,1,1,1,1,1,1,1,1,1,1
1,1,1,1,1,1,1,1,1,1,1,1,1
1,1,1,1,1,1,1,1,1,1,1,1,1
1,1,1,1,1,1,1,1,1,1,1,1,1
1,1,1,1,1,1,1,1,1,1,1,1,1
1,1,1,1,1,1,1,1,1,1,1,1,1
1,1,1,1,1,1,1,1,1,1,1,1,1
1,1,1,1,1,1,1,1,1,1,1,1,1
1,1,1,1,1,1,1,1,1,1,1,1,1
1,1,1,1,1,1,1,1,1,1,1,1,1
1,1,1,1,1,1,1,1,1,1,1,1,1
1,1,1,1,1,1,1,1,1,1,1,1,1
1,1,1,1,1,1,1,1,1,1,1,1,1
1,1,1,1,1,1,1,1,1,1,1,1,1
1,1,1,1,1,1,1,1,1,1,1,1,1
1,1,1,1,1,1,1,1,1,1,1,1,1
1,1,1,1,1,1,1,1,1,1,1,1,1
1,1,1,1,1,1,1,1,1,1,1,1,1
1,1,1,1,1,1,1,1,1,1,1,1,1
1,1,1,1,1,1,1,1,1,1,1,1,1
1,1,1,1,1,1,1,1,1,1,1,1,1
1,1,1,1,1,1,1,1,1,1,1,1,1
1,1,1,1,1,1,1,1,1,1,1,1,1
1,1,1,1,1,1,1,1,1,1,1,1,1
1,1,1,1,1,1,1,1,1,1,1,1,1
1,1,1,1,1,1,1,1,1,1,1,1,1
1,1,1,1,1,1,1,1,1,1,1,1,1
1,1,1,1,1,1,1,1,1,1,1,1,1
1,1,1,1,1,1,1,1,1,1,1,1,1
1,1,1,1,1,1,1,1,1,1,1,1,1
1,1,1,1,1,1,1,1,1,1,1,1,1
1,1,1,1,1,1,1,1,1,1,1,1,1
1,1,1,1,1,1,1,1,1,1,1,1,1
1,1,1,1,1,1,1,1,1,1,1,1,1
1,1,1,1,1,1,1,1,1,1,1,1,1
1,1,1,1,1,1,1,1,1,1,1,1,1
1,1,1,1,1,1,1,1,1,1,1,1,1
1,1,1,1,1,1,1,1,1,1,1,1,1
1,1,1,1,1,1,1,1,1,1,1,1,1
1,1,1,1,1,1,1,1,1,1,1,1,1
1,1,1,1,1,1,1,1,1,1,1,1,1
1,1,1,1,1,1,1,1,1,1,1,1,1
1,1,1,1,1,1,1,1,1,1,1,1,1
1,1,1,1,1,1,1,1,1,1,1,1,1
1,1,1,1,1,1,1,1,1,1,1,1,1
1,1,1,1,1,1,1,1,1,1,1,1,1
1,1,1,1,1,1,1,1,1,1,1,1,1
1,1,1,1,1,1,1,1,1,1,1,1,1
1,1,1,1,1,1,1,1,1,1,1,1,1
1,1,1,1,1,1,1,1,1,1,1,1,1
1,1,1,1,1,1,1,1,1,1,1,1,1
1,1,1,1,1,1,1,1,1,1,1,1,1
1,1,1,1,1,1,1,1,1,1,1,1,1
1,1,1,1,1,1,1,1,1,1,1,1,1
1,1,1,1,1,1,1,1,1,1,1,1,1
1,1,1,1,1,1,1,1,1,1,1,1,1
1,1,1,1,1,1,1,1,1,1,1,1,1
1,1,1,1,1,1,1,1,1,1,1,1,1
1,1,1,1,1,1,1,1,1,1,1,1,1
1,1,1,1,1,1,1,1,1,1,1,1,1
1,1,1,1,1,1,1,1,1,1,1,1,1
1,1,1,1,1,1,1,1,1,1,1,1,1
1,1,1,1,1,1,1,1,1,1,1,1,1
1,1,1,1,1,1,1,1,1,1,1,1,1
1,1,1,1,1,1,1,1,1,1,1,1,1
1,1,1,1,1,1,1,1,1,1,1,1,1
1,1,1,1,1,1,1,1,1,1,1,1,1
1,1,1,1,1,1,1,1,1,1,1,1,1
1,1,1,1,1,1,1,1,1,1,1,1,1
1,1,1,1,1,1,1,1,1,1,1,1,1
1,1,1,1,1,1,1,1,1,1,1,1,1
1,1,1,1,1,1,1,1,1,1,1,1,1
1,1,1,1,1,1,1,1,1,1,1,1,1
1,1,1,1,1,1,1,1,1,1,1,1,1
1,1,1,1,1,1,1,1,1,1,1,1,1
1,1,1,1,1,1,1,1,1,1,1,1,1
1,1,1,1,1,1,1,1,1,1,1,1,1
1,1,1,1,1,1,1,1,1,1,1,1,1
1,1,1,1,1,1,1,1,1,1,1,1,1
1,1,1,1,1,1,1,1,1,1,1,1,1
1,1,1,1,1,1,1,1,1,1,1,1,1
1,1,1,1,1,1,1,1,1,1,1,1,1
1,1,1,1,1,1,1,1,1,1,1,1,1
1,1,1,1,1,1,1,1,1,1,1,1,1
1,1,1,1,1,1,1,1,1,1,1,1,1
1,1,1,1,1,1,1,1,1,1,1,1,1
1,1,1,1,1,1,1,1,1,1,1,1,1
1,1,1,1,1,1,1,1,1,1,1,1,1
1,1,1,1,1,1,1,1,1,1,1,1,1
1,1,1,1,1,1,1,1,1,1,1,1,1
1,1,1,1,1,1,1,1,1,1,1,1,1
1,1,1,1,1,1,1,1,1,1,1,1,1
1,1,1,1,1,1,1,1,1,1,1,1,1
1,1,1,1,1,1,1,1,1,1,1,1,1
1,1,1,1,1,1,1,1,1,1,1,1,1
1,1,1,1,1,1,1,1,1,1,1,1,1
1,1,1,1,1,1,1,1,1,1,1,1,1
1,1,1,1,1,1,1,1,1,1,1,1,1
1,1,1,1,1,1,1,1,1,1,1,1,1
1,1,1,1,1,1,1,1,1,1,1,1,1
1,1,1,1,1,1,1,1,1,1,1,1,1
1,1,1,1,1,1,1,1,1,1,1,1,1
1,1,1,1,1,1,1,1,1,1,1,1,1
1,1,1,1,1,1,1,1,1,1,1,1,1
1,1,1,1,1,1,1,1,1,1,1,1,1
1,1,1,1,1,1,1,1,1,1,1,1,1
1,1,1,1,1,1,1,1,1,1,1,1,1
1,1,1,1,1,1,1,1,1,1,1,1,1
1,1,1,1,1,1,1,1,1,1,1,1,1
1,1,1,1,1,1,1,1,1,1,1,1,1
1,1,1,1,1,1,1,1,1,1,1,1,1
1,1,1,1,1,1,1,1,1,1,1,1,1
1,1,1,1,1,1,1,1,1,1,1,1,1
1,1,1,1,1,1,1,1,1,1,1,1,1
1,1,1,1,1,1,1,1,1,1,1,1,1
1,1,1,1,1,1,1,1,1,1,1,1,1
1,1,1,1,1,1,1,1,1,1,1,1,1
1,1,1,1,1,1,1,1,1,1,1,1,1
1,1,1,1,1,1,1,1,1,1,1,1,1
1,1,1,1,1,1,1,1,1,1,1,1,1
1,1,1,1,1,1,1,1,1,1,1,1,1
1,1,1,1,1,1,1,1,1,1,1,1,1
1,1,1,1,1,1,1,1,1,1,1,1,1
1,1,1,1,1,1,1,1,1,1,1,1,1
1,1,1,1,1,1,1,1,1,1,1,1,1
1,1,1,1,1,1,1,1,1,1,1,1,1
1,1,1,1,1,1,1,1,1,1,1,1,1
1,1,1,1,1,1,1,1,1,1,1,1,1
1,1,1,1,1,1,1,1,1,1,1,1,1
1,1,1,1,1,1,1,1,1,1,1,1,1
1,1,1,1,1,1,1,1,1,1,1,1,1
1,1,1,1,1,1,1,1,1,1,1,1,1
1,1,1,1,1,1,1,1,1,1,1,1,1
1,1,1,1,1,1,1,1,1,1,1,1,1
1,1,1,1,1,1,1,1,1,1,1,1,1
1,1,1,1,1,1,1,1,1,1,1,1,1
1,1,1,1,1,1,1,1,1,1,1,1,1
1,1,1,1,1,1,1,1,1,1,1,1,1
1,1,1,1,1,1,1,1,1,1,1,1,1
1,1,1,1,1,1,1,1,1,1,1,1,1
1,1,1,1,1,1,1,1,1,1,1,1,1
1,1,1,1,1,1,1,1,1,1,1,1,1
1,1,1,1,1,1,1,1,1,1,1,1,1
1,1,1,1,1,1,1,1,1,1,1,1,1
1,1,1,1,1,1,1,1,1,1,1,1,1
1,1,1,1,1,1,1,1,1,1,1,1,1
1,1,1,1,1,1,1,1,1,1,1,1,1
1,1,1,1,1,1,1,1,1,1,1,1,1
1,1,1,1,1,1,1,1,1,1,1,1,1
1,1,1,1,1,1,1,1,1,1,1,1,1
1,1,1,1,1,1,1,1,1,1,1,1,1
1,1,1,1,1,1,1,1,1,1,1,1,1
1,1,1,1,1,1,1,1,1,1,1,1,1
1,1,1,1,1,1,1,1,1,1,1,1,1
1,1,1,1,1,1,1,1,1,1,1,1,1
1,1,1,1,1,1,1,1,1,1,1,1,1
1,1,1,1,1,1,1,1,1,1,1,1,1
1,1,1,1,1,1,1,1,1,1,1,1,1
1,1,1,1,1,1,1,1,1,1,1,1,1
1,1,1,1,1,1,1,1,1,1,1,1,1
1,1,1,1,1,1,1,1,1,1,1,1,1
1,1,1,1,1,1,1,1,1,1,1,1,1
1,1,1,1,1,1,1,1,1,1,1,1,1
1,1,1,1,1,1,1,1,1,1,1,1,1
1,1,1,1,1,1,1,1,1,1,1,1,1
1,1,1,1,1,1,1,1,1,1,1,1,1
1,1,1,1,1,1,1,1,1,1,1,1,1
1,1,1,1,1,1,1,1,1,1,1,1,1
1,1,1,1,1,1,1,1,1,1,1,1,1
1,1,1,1,1,1,1,1,1,1,1,1,1
1,1,1,1,1,1,1,1,1,1,1,1,1
1,1,1,1,1,1,1,1,1,1,1,1,1
1,1,1,1,1,1,1,1,1,1,1,1,1
1,1,1,1,1,1,1,1,1,1,1,1,1
1,1,1,1,1,1,1,1,1,1,1,1,1
1,1,1,1,1,1,1,1,1,1,1,1,1
1,1,1,1,1,1,1,1,1,1,1,1,1
1,1,1,1,1,1,1,1,1,1,1,1,1
1,1,1,1,1,1,1,1,1,1,1,1,1
1,1,1,1,1,1,1,1,1,1,1,1,1
1,1,1,1,1,1,1,1,1,1,1,1,1
1,1,1,1,1,1,1,1,1,1,1,1,1
1,1,1,1,1,1,1,1,1,1,1,1,1
1,1,1,1,1,1,1,1,1,1,1,1,1
1,1,1,1,1,1,1,1,1,1,1,1,1
1,1,1,1,1,1,1,1,1,1,1,1,1
1,1,1,1,1,1,1,1,1,1,1,1,1
1,1,1,1,1,1,1,1,1,1,1,1,1
1,1,1,1,1,1,1,1,1,1,1,1,1
1,1,1,1,1,1,1,1,1,1,1,1,1
1,1,1,1,1,1,1,1,1,1,1,1,1
1,1,1,1,1,1,1,1,1,1,1,1,1
1,1,1,1,1,1,1,1,1,1,1,1,1
1,1,1,1,1,1,1,1,1,1,1,1,1
1,1,1,1,1,1,1,1,1,1,1,1,1
1,1,1,1,1,1,1,1,1,1,1,1,1
1,1,1,1,1,1,1,1,1,1,1,1,1
1,1,1,1,1,1,1,1,1,1,1,1,1
1,1,1,1,1,1,1,1,1,1,1,1,1
1,1,1,1,1,1,1,1,1,1,1,1,1
1,1,1,1,1,1,1,1,1,1,1,1,1
1,1,1,1,1,1,1,1,1,1,1,1,1
1,1,1,1,1,1,1,1,1,1,1,1,1
1,1,1,1,1,1,1,1,1,1,1,1,1
1,1,1,1,1,1,1,1,1,1,1,1,1
1,1,1,1,1,1,1,1,1,1,1,1,1
1,1,1,1,1,1,1,1,1,1,1,1,1
1,1,1,1,1,1,1,1,1,1,1,1,1
1,1,1,1,1,1,1,1,1,1,1,1,1
1,1,1,1,1,1,1,1,1,1,1,1,1
1,1,1,1,1,1,1,1,1,1,1,1,1
1,1,1,1,1,1,1,1,1,1,1,1,1
1,1,1,1,1,1,1,1,1,1,1,1,1
1,1,1,1,1,1,1,1,1,1,1,1,1
1,1,1,1,1,1,1,1,1,1,1,1,1
1,1,1,1,1,1,1,1,1,1,1,1,1
1,1,1,1,1,1,1,1,1,1,1,1,1
1,1,1,1,1,1,1,1,1,1,1,1,1
1,1,1,1,1,1,1,1,1,1,1,1,1
1,1,1,1,1,1,1,1,1,1,1,1,1
1,1,1,1,1,1,1,1,1,1,1,1,1
1,1,1,1,1,1,1,1,1,1,1,1,1
1,1,1,1,1,1,1,1,1,1,1,1,1
1,1,1,1,1,1,1,1,1,1,1,1,1
1,1,1,1,1,1,1,1,1,1,1,1,1
1,1,1,1,1,1,1,1,1,1,1,1,1
1,1,1,1,1,1,1,1,1,1,1,1,1
1,1,1,1,1,1,1,1,1,1,1,1,1
1,1,1,1,1,1,1,1,1,1,1,1,1
1,1,1,1,1,1,1,1,1,1,1,1,1
1,1,1,1,1,1,1,1,1,1,1,1,1
1,1,1,1,1,1,1,1,1,1,1,1,1
1,1,1,1,1,1,1,1,1,1,1,1,1
1,1,1,1,1,1,1,1,1,1,1,1,1
1,1,1,1,1,1,1,1,1,1,1,1,1
1,1,1,1,1,1,1,1,1,1,1,1,1
1,1,1,1,1,1,1,1,1,1,1,1,1
1,1,1,1,1,1,1,1,1,1,1,1,1
1,1,1,1,1,1,1,1,1,1,1,1,1
1,1,1,1,1,1,1,1,1,1,1,1,1
0.999999999999999,0.999999999999999,0.959980629322628,0.960905129256672,0.957473978091493,0.942866940511102,0.944807216631692,0.950984180399422,0.95556255881405,0.961286724840533,0.960065092005512,0.962091085681726,0.999999999999999
0.999999999999999,0.999999999999998,1,0.96225419335697,0.971041849669264,0.959831670571661,0.969422729547966,0.971041849669264,0.955741086196776,0.97022154866156,0.968345247244957,0.967246046438172,0.999999999999999
1,1,0.961284043611212,0.945447312062543,0.950021457595035,0.964152584655701,0.964432121519075,0.964487081295686,0.960127496317057,0.95987812203126,0.962215543580352,1,1
1,1,0.953328840334524,0.954467737019632,0.958874604781833,0.955274849172628,0.962321658979975,0.960811555141182,0.955342516591763,0.958084166953871,0.95534639070041,0.957434415499112,1
1,1,0.956411097626186,0.967510023556809,0.966332725967656,0.979730420298756,0.979566006981083,0.979183695881921,0.958917006633902,0.966113207864314,0.963812318390982,1,1
1,0.971742500484279,0.958094665359098,0.958785764737765,0.951395726580841,0.954791723143905,0.956832794209661,0.957560503806209,0.958472142186818,0.963519055188064,0.956097546899813,0.972891144202177,1
0.999999999999999,0.94771338528763,0.931344697126798,0.922438965666955,0.912557796719971,0.912945089766594,0.920940985933907,0.907402223212279,0.920428722474087,0.929686671076926,0.94771338528763,0.924417929711008,0.999999999999999
0.999999999999999,1,0.977949541271335,0.974391763456172,0.957725270725689,0.977949541271335,0.966829513554979,0.966458164384985,0.970407747335161,0.999999999999999,0.945654336726715,0.999999999999997,0.999999999999999
1,0.999999999999999,0.982507045460763,0.961218088432395,0.96204288525003,0.965003593299202,0.967102050086625,0.96923635188539,0.971100726619703,0.96614366553506,0.982507045460763,1,1
1,0.957947820577277,0.957918484781164,0.960081960973313,0.953277520736047,0.972227261892721,0.973116319813449,0.955353009028962,0.951469779751601,0.959303356358353,0.960261040542206,0.999999999999998,1
1,1,0.917078031199598,0.905554304645024,0.928125091380695,0.945990590208604,0.977749726239596,0.978088726607514,0.945990590208604,0.937698933598656,1,0.936958369394247,1
0.999999999999999,0.949478336391595,1,0.940956650165728,0.954830823283111,0.957134458674172,0.963053677178811,0.952361315526808,0.939823398578644,0.951717797173241,0.966789874802844,1,0.999999999999999
1,0.971173828578945,0.964244842365552,0.964404348788836,0.95814212084521,0.950624075479228,0.953968293047345,0.953399098481092,0.964244842365552,0.964404348788836,0.970322055438546,0.999999999999998,1
1,0.982705809163823,0.958624295139078,0.946207166108428,0.945396124503748,0.946558920537969,0.948805727003206,0.946167254861443,0.945328306857584,0.958624295139078,0.981672486754343,1,1
0.999999999999999,0.999999999999996,0.932731644067663,0.927294882096946,0.934818354721179,0.922136367168169,0.943779096419351,0.940139114743648,0.923977977746341,0.946984606949614,0.94824016882671,0.948976789958634,0.999999999999999
1,0.999999999999998,0.917901771619745,0.908192967610276,0.913929818653678,0.925986850514128,0.94368059576769,0.932707985096354,0.90430915401683,0.9287301704142,0.999999999999998,0.934293063269319,1
0.999999999999999,0.969431304081278,0.956767343274484,0.966801097046903,0.962411815427979,0.957189649775645,0.964714699813084,0.966622041191453,0.962369457825176,0.970068500816486,1,1,0.999999999999999
0.999999999999999,1,0.999999999999998,0.975989375249872,0.968654966120787,0.986945378927557,0.988319110142052,0.986833229247672,0.986945378927557,0.967941609707483,0.975043513162153,0.999999999999998,0.999999999999999
1,1,0.928833335474412,0.958935549748569,0.978088726607514,0.937041949615281,0.977749726239596,0.978088726607515,0.931873118808889,0.934071178833473,0.918461509609652,0.928833335474412,1
1,0.999999999999999,0.97284258161927,0.962207035602973,0.959288605141603,0.951628306668122,0.956380349908965,0.955119935182881,0.957005582781322,0.957701497624317,0.959644201419089,0.969979177216765,1
1,1,0.959628543021493,0.964892173256394,0.964274166044841,0.96847176813598,0.976197711906923,0.981041427584086,0.962046658552969,0.963521653092314,0.971210804095047,0.973977984142739,1
1,0.999999999999998,1,0.933595948006793,0.94548371989479,0.926430025325062,0.932001243143889,0.930207175497768,0.925950081572966,0.94488370837064,0.934583996630524,1,1
1,0.976656372323993,0.958991175047646,0.960409107120659,0.955713024625455,0.955881129608614,0.957831516894246,0.958022709225323,0.95752996752271,0.954834397682681,0.978845522971643,0.999999999999998,1
1,0.963463471452583,0.952648980468258,0.951992982087596,0.951121685163694,0.963898875829997,0.962567176585566,0.961607208444078,0.956143313562616,0.96490148564254,0.963463471452584,1,1
0.999999999999999,1,0.962111176082974,0.965957521345029,0.964662024958036,0.961895801870859,0.965089521747104,0.966892068198281,0.951315930139901,0.953399188729171,0.968051825292279,1,0.999999999999999
0.999999999999999,1,0.943566269786267,0.952902775411739,0.975050080316622,0.969612239724382,0.97293364045433,0.975050080316621,0.947674672962446,0.955600833506972,1,1,0.999999999999999
1,0.955966805622216,0.958889713668889,0.95554055433248,0.955702273901866,0.958889713668888,0.947448504347316,0.940734438549872,0.942421568086654,0.938953616832891,0.999999999999999,0.999999999999998,1
0.999999999999999,1,0.921393544482571,0.936800718079043,0.947039253337061,0.944024604902272,0.944894007536136,0.935553805501921,0.942193953877683,0.943927923798387,0.947904312432504,1,0.999999999999999
1,0.948354923375414,0.957002836368377,0.957481894778967,0.955234626626985,0.957002836368376,0.953968293047345,0.942822138564776,0.942851726036719,0.951403138299094,1,1,1
1,0.977961337742535,1,0.968774171767891,0.971476521852372,0.975129833421612,0.970470134397023,0.976100309327176,0.975129833421612,0.962260203882489,0.96578575066732,1,1
0.999999999999999,0.952470544216288,1,0.958156671672919,0.952177856863182,0.949199860020248,0.955145209265113,0.948904327735421,0.931328342715708,0.951192050054164,0.953478091306061,0.956041477091788,0.999999999999999
0.999999999999999,1,0.952051236721868,0.948110316762132,0.951709232300614,0.956166202785168,0.962298707747912,0.963857276143864,0.964616963935816,0.956588999751394,1,1,0.999999999999999
1,0.959844346856541,0.957907665300055,0.966425770302107,0.965594431245987,0.966400597715233,0.967526558105521,0.971074645684046,0.966425770302106,0.966126677500893,0.964040603960969,1,1
0.999999999999999,0.981950252730501,0.959896844451808,0.97140787551298,0.967668522826118,0.960844053602829,0.966935611286569,0.973114990235716,0.970209282442445,0.97738034049792,1,1,0.999999999999999
1,0.982691390437996,0.963431704097055,0.967297409280222,0.967860760307758,0.982202761061588,0.986604315166876,0.974951976263213,0.970779324330203,0.973741015332892,0.976553891797352,1,1
1,1,0.958208123055831,0.950306408611475,0.953264574702422,0.955744891242139,0.951454628782162,0.953264574702422,0.944658351350875,0.950302869633448,0.964021830838936,0.958001129980996,1
0.999999999999998,1,0.959384097474431,0.952046312556789,0.960881919359154,0.960094778147596,0.960905073245773,0.960881919359154,0.95024962780615,0.950923848079572,1,1,0.999999999999998
0.999999999999998,0.959748250950648,0.95940122936411,0.951568612781226,0.959748250950648,0.959027800039238,0.958516532991683,0.961137671787777,0.960952961323113,0.950022009442326,0.933607602062981,0.957084061539462,0.999999999999998
0.999999999999999,1,0.943587688034798,0.947865105303094,0.935220830983835,0.937360892557198,0.937614877492627,0.93361733063372,0.926400373874856,0.931566175881939,0.999999999999999,0.931443034955868,0.999999999999999
1,0.955298261386517,0.951181615199836,0.949444972473647,0.945705316323648,0.951181615199836,0.942634428103468,0.940738443672699,0.954467737019632,0.958874604781833,0.940375090521239,1,1
0.999999999999998,1,0.99541857968321,0.993649687778347,0.991051544713093,0.98826620098833,0.988738730388004,0.987971462898199,0.987061053702377,0.991548690479126,0.993649687778346,0.99641885833051,0.999999999999998
0.999999999999999,0.972502778701981,0.958084166953871,0.95534639070041,0.953845116069483,0.945419228476707,0.942874544348907,0.954650183453829,0.959347028076036,0.955185591564267,0.967678132777728,0.999999999999999,0.999999999999999
1,1,0.949678601485913,0.96597848883493,0.964249421271475,0.9630029946726,0.960354702358203,0.954102702129781,0.949199860020248,0.953580914315766,1,1,1
1,0.899798094993415,0.912277888544592,0.899095594520018,0.900656850460765,0.912277888544592,0.912497538590045,0.901000236755061,0.873895535231423,0.890417079015518,0.898145952245356,0.904311077901907,1
1,0.999999999999998,0.961655338578358,0.954240084828277,0.963228353702811,0.967949653862633,0.977727370809892,0.971041849669264,0.969125689328503,0.962111245724208,0.999999999999998,0.960033210404706,1
0.999999999999999,0.969191462111668,0.978087947971276,0.962000557295819,0.964296939692297,0.976101134284767,0.976869193230289,0.968407657150033,0.973488018581654,0.965676889228312,0.966042830851979,0.977573515527515,0.999999999999999
0.999999999999999,1,0.958939720395839,0.953214465443631,0.956152602281516,0.971622161401782,0.971319099022743,0.971928781277481,0.966983513799908,0.955505206097843,0.95954142802593,1,0.999999999999999
0.999999999999999,0.958090394395853,0.942646020535958,0.956954864809774,0.960029633314268,0.958495452144867,0.95639278893696,0.958055130300479,0.957134458674171,0.955369165453714,0.959665261666612,0.999999999999997,0.999999999999999
1,0.974998953342187,0.974438498249958,0.971664664169944,0.960470482081469,0.966905397481998,0.96895728209862,0.969108389731849,0.969208890707968,0.968153148512713,0.966235870991122,0.973222666208745,1
0.999999999999998,0.967071710245228,1,0.953677384753061,0.950784067045963,0.96376953049084,0.965221444467365,0.963430480674214,0.956241557679923,0.933675394558773,0.960470295300051,0.964140579066321,0.999999999999998
0.999999999999997,0.999999999999999,0.934601756575435,0.96505452290431,0.962042137742801,0.955420824112355,0.96162246554047,0.980804545769611,0.978934035000172,0.951819451096895,0.980804545769611,0.999999999999999,0.999999999999997
0.999999999999999,1,0.960634122559147,0.953819319219825,0.952958672371048,0.961808139534103,0.96292742746044,0.969840062908671,0.955312921508461,0.949136895676342,0.963795491942212,1,0.999999999999999
0.999999999999999,1,0.932685767698674,0.945225200617467,0.946096494275924,0.939147505291279,0.946336524608242,0.938884230822483,0.932010935984171,0.943277445343362,0.938292757237565,1,0.999999999999999
1,0.948993107851734,0.952100360969534,0.955372388350556,0.954223986822134,0.959651633769187,0.95476819656132,0.945771280137372,0.953009838864202,0.966098472195192,0.962165280533884,1,1
1,1,0.942050561501924,0.941708192352935,0.932134347257692,0.931458051611752,0.930498818984095,0.929447501347479,0.940006043520798,0.936800718079044,0.947039253337062,0.930276933424098,1
1,0.999999999999999,0.954712046510575,0.947170262191906,0.939921633214724,0.954240442681529,0.954721773494465,0.953405924506955,0.959384097474431,0.95204631255679,0.953606185533812,0.999999999999999,1
0.999999999999999,0.929870867865591,1,0.951408543256573,0.932548402587367,0.927578816731286,0.946497275295948,0.954735897841911,0.957002836368376,0.957481894778966,0.944377802135245,1,0.999999999999999
0.999999999999999,1,0.963795491942211,0.949563172389989,0.951618994303507,0.965915515094375,0.965050818097913,0.965953307725368,0.965915515094375,0.967145932686837,0.959831670571661,1,0.999999999999999
1,1,0.806780100958921,0.825443004706877,0.842297799666984,0.842885210340836,0.813102066011803,0.807804174709539,0.829306416872961,0.84532167063739,0.83796722754058,0.999999999999998,1
1,0.975620406305494,0.973531645986944,0.97738034049792,0.980170014545692,0.976627621692228,0.980050367086904,0.981950252730502,0.97269352045302,0.973194111354353,1,0.975996983815512,1
0.999999999999999,0.999999999999999,0.918996206092904,0.930664455078539,0.950022009442326,0.95309749890592,0.938901328371491,0.94381562780109,0.949187449064666,0.941293962047374,0.999999999999998,0.951757644783771,0.999999999999999
1,0.966465716208539,0.96150512051076,0.961332845128123,0.962343193112141,0.973003150869559,0.970298010575818,0.970730220554911,0.959597360594256,0.952408053708844,0.95438407766115,0.961216170318574,1
0.999999999999998,0.999999999999999,0.962707519173239,0.958066439891132,0.957294918055127,0.948190828950249,0.955234626626985,0.947180871504749,0.950544068580835,0.94960535859488,0.962707519173239,1,0.999999999999998
1,0.999999999999998,0.999999999999998,0.965792470492818,0.964122611405801,0.963630085895878,0.959843207193938,0.958147424188081,0.963630085895878,0.959437022776557,0.966574487326854,1,1
1,1,0.942505387523238,0.944681727852951,0.955312921508462,0.953116281843012,0.953715438448643,0.947315432514278,0.946854848690464,0.958930567430862,0.961191605724256,0.999999999999999,1
1,1,0.999999999999999,0.946605885547298,0.944643433963838,0.940256921743614,0.957974654557788,0.953819319219825,0.956637231908909,0.957974654557788,1,0.954712046510575,1
1,0.949616058936409,0.949707499063405,0.952566291987783,0.954233516764068,0.945883758627335,0.952323653155381,0.943336758254561,0.945059201714442,0.944681998475405,0.945294251492067,0.941319400111405,1
0.999999999999999,0.948460374799969,0.950277777607398,0.933824576972127,0.932546417474129,0.945223092630849,0.93275152272624,0.936746732747182,0.941805739008977,0.943234315502456,1,0.961383906455056,0.999999999999999
1,0.961011588019927,0.947574417359751,0.945013026194466,0.948280017233144,0.96117942490514,0.965458072943403,0.953418334262016,0.955435077334414,0.953531374289095,0.95339765816946,0.964980676876142,1
1,1,0.970818806131467,0.960339380004164,0.958987948384479,0.957231791824082,0.956968343231962,0.959262699686434,0.960339380004164,0.958987948384479,0.970818806131467,1,1
1,0.999999999999999,0.958790352200273,0.95766211372252,0.947430799130077,0.948669980298761,0.963871222807677,0.955099940355346,0.961651781342913,0.963871222807678,0.954262333377535,0.976699893901401,1
1,0.999999999999999,0.947099764012478,0.961216188165342,0.953284639182529,0.945717475185766,0.957689931235329,0.953807369439933,0.963939371415782,0.964160931578764,0.965318170557169,0.954170365426555,1
0.999999999999999,1,0.931693194195149,0.943788241232322,0.930993452776787,0.929919375944346,0.931919835097393,0.933255323411791,0.930681764342198,0.946185129521188,0.948460374799968,1,0.999999999999999
1,0.930425818843486,0.963472396604934,0.956003499744361,0.95663723190891,0.936478488761824,0.931055912018356,0.929113662581117,0.944511380582171,0.942825910291608,1,0.937121727110283,1
0.999999999999998,0.962893475458738,0.9424979146308,0.952148521557853,0.950922073014916,0.953131379871557,0.954343352560583,0.957193532166695,0.952453671410596,0.943124035103329,0.963417044023857,0.999999999999999,0.999999999999998
1,0.999999999999999,0.970779324330202,0.972687846825766,0.980743100433941,0.983248661310083,0.986488935281038,0.983476065328869,0.969049009062385,0.968436409153126,0.975620406305494,1,1
1,1,1,0.962444647855387,0.967574637765067,0.968721470989835,0.969524522171527,0.967574637765067,0.972627732886498,0.966171068090777,1,1,1
1,0.94209702676675,1,0.968713793167519,0.964917264324756,0.979816762251171,0.974391763456172,0.962942419841193,0.979816762251172,0.974391763456172,0.97180921570016,1,1
1,1,0.96568803199345,0.966494441457459,0.966695213026774,0.966059548939849,0.965300373004225,0.957131585636217,0.965122642095693,1,0.967880573424513,1,1
1,0.977264375642571,0.946217418343,0.940052136647627,0.934003826383032,0.944589768813556,0.938554733138415,0.933087800746904,0.944589768813556,0.950535167901302,0.977678229277649,1,1
1,1,0.948409753921631,0.96279897145659,0.961753993366935,0.964877277024761,0.96279897145659,0.953250165369205,0.947874592128292,0.947993698196108,0.967125230716625,0.999999999999998,1
0.999999999999999,0.961066589078912,0.964264444708098,0.961365721487844,0.960871511709124,0.951920214653942,0.95061497983931,0.955088380057349,0.953296383677471,0.961332845128123,0.963260899231032,1,0.999999999999999
1,0.952860123069766,0.950071457965906,0.954262333377536,0.953630615340323,0.956392387543491,0.941838212655389,0.949037963449173,0.940291721689545,0.939829706951274,0.947599278222636,0.999999999999999,1
0.999999999999999,0.964308039549499,0.946698887028924,0.947843936846111,0.938439293316819,0.946698887028924,0.965458072943402,0.93956882414499,0.934125100406019,0.959089966358057,0.96582227776242,1,0.999999999999999
0.999999999999999,0.961772660373788,0.947821382262164,0.958440956831066,0.952329279837468,0.959140932917669,0.958300162162766,0.963323506997809,0.964450494760344,0.966695421689774,0.970004605281232,1,0.999999999999999
1,1,0.964021830838936,0.945652042872857,0.96104721523054,0.971622161401782,0.971319099022744,0.971740297370487,0.961047143963402,0.955907595958692,0.958098273935387,0.999999999999998,1
1,1,0.952223244721014,0.939839946392491,0.971072996985172,0.945061226318901,0.970207774987381,0.971072996985173,0.951932584083126,0.934059932750957,1,0.94710093643242,1
0.999999999999999,0.949317859646692,0.999999999999999,0.947536354277438,0.947138427582055,0.950500309267738,0.947937228750866,0.94092812555074,0.942552420237421,0.949375541446198,0.949317859646692,0.999999999999999,0.999999999999999
1,0.97022154866156,0.968345247244957,0.966694203943051,0.965392323129234,0.958917585487099,0.959031198708359,0.960428757582196,0.950754124377318,0.955500757081,1,1,1
0.999999999999999,1,0.999999999999999,0.939685945046446,0.94175637378773,0.948111791235709,0.941667557130906,0.936765814130675,0.942568488366071,0.938294682612634,1,1,0.999999999999999
0.999999999999997,0.999999999999999,0.951044669755076,0.953475198651247,0.958917006633903,0.954724067891757,0.957489469327351,0.954830168965137,0.952957534680039,0.954960962979754,0.951045665127943,1,0.999999999999997
1,0.999999999999999,1,0.953258695851426,0.951542752927411,0.980611911211986,0.978249803493929,0.979703617273499,0.980611911211986,0.949006853308491,0.949129260518315,1,1
1,0.999999999999999,0.980526498065211,0.951165414160489,0.951412690347163,0.956111816971152,0.959597317581757,0.957340578640537,0.952801624839828,0.953061042210553,0.980526498065212,1,1
0.999999999999999,0.999999999999999,0.946130654506738,0.947940385041535,0.939602474736748,0.941326053611244,0.932588201044636,0.932032385414291,0.921879365061285,0.939688088923974,0.999999999999997,0.999999999999999,0.999999999999999
1,0.984323887996125,1,0.984503588255497,0.973601061944326,0.977265680872892,0.988870944693642,0.976343846878061,0.989797059797299,0.97726568087289,0.969916734870256,0.984503588255497,1
1,0.936204570790849,0.924021583242559,0.920540802240061,0.939146175698668,0.938210595118763,0.939019831613148,0.928715986767948,0.919250860607136,0.918151879054808,0.933923998092256,1,1
0.999999999999999,0.957585529450137,0.948938717146256,0.944692617699146,0.9658140123174,0.986866458593169,0.986987518031437,0.950508088677352,0.937814957123166,0.95065432505747,0.972729775799963,1,0.999999999999999
1,1,0.969324913679401,0.967125230716625,0.94978965866357,0.950655936282582,0.962186370410591,0.962328532249402,0.960869827540312,0.962186370410591,0.950113658906705,0.953213074674113,1
1,1,1,0.952389933290246,0.938041343161591,0.935502619256326,0.934396711150198,0.932859166451799,0.936113917189117,0.93232393357199,0.953405969570205,0.952389933290246,1
1,0.973031526351524,0.971210804095047,0.973194111354352,0.970006553134706,0.971465510488258,0.97284524951868,0.969288171555198,0.969451112388938,0.971115952158154,0.970508770178207,0.999999999999999,1
1,1,0.954801444322505,0.95211595178174,0.946588462288202,0.965969178560511,0.963489915233775,0.962181423138544,0.954396206527213,0.958917744132104,0.941461114816,1,1
1,1,0.976827975083575,0.96997043900489,0.971100726619704,0.972627732886498,0.970458214904012,0.97553584909515,0.970936918998951,0.960737107518338,0.976827975083575,1,1
1,1,0.950649741760347,1,0.978934035000171,0.976463841672206,0.980804545769611,0.94021762556401,0.951079717923423,0.952803676403063,0.949825770434392,0.951079717923423,1
1,0.956214451688639,0.962471967443203,0.958688712862526,0.959887949553262,0.955371137119415,0.961966949530013,0.946406207156652,0.953484758396352,0.946826096274597,0.938643704134977,0.962471967443204,1
1,0.999999999999999,0.967477529973677,0.949348446048444,0.945033088124005,0.94646137193643,0.959014725663279,0.962567176585565,0.95399979015533,0.954270588869669,0.950945791103707,0.964381545879424,1
1,1,0.963647509086391,0.965880828614961,0.971115952158153,0.960986259795262,0.9577965523005,0.955129288641112,0.960615969955072,0.959803878221629,0.96200055729582,1,1
0.999999999999998,0.973575231458937,0.960651082586384,0.952349164735242,0.944689142790543,0.950116208115693,0.948535440297334,0.950588272732339,0.954142785212751,0.954352453306526,0.955055028008704,0.974111224508321,0.999999999999998
0.999999999999999,0.952728080379426,0.95214748472345,0.954635288235468,0.962688454266082,0.957235181444526,0.960354702358203,0.962688454266082,0.948475134328204,0.956876504637755,1,1,0.999999999999999
1,1,1,0.966900505012287,0.962545986589726,0.966400597715233,0.967526558105521,0.961016365235274,0.963849813204468,0.963111124342654,0.964494571545346,1,1
0.999999999999999,1,1,0.950370775632126,0.960168589185268,0.966983513799908,0.966662598374851,0.965741192252828,0.959870795460786,0.945981894623118,0.951120036087269,0.958685160354106,0.999999999999999
1,0.945749549669934,0.949860258288262,0.948809487222663,0.945749549669934,0.950646180882932,0.950465568683549,0.951513364960672,0.950646180882931,0.952100360969534,0.946646985804333,1,1
1,0.946803285630136,0.931410073397639,0.921777491451462,0.950668636350124,0.946405640757237,0.94368059576769,0.950668636350124,0.938251070574394,0.927870750775236,0.942945956625047,0.948136339524361,1
0.999999999999999,1,0.95443852535856,0.951166345726075,0.953535048549709,0.947661757424327,0.941081522610501,0.942080394836326,0.94691546181176,0.95815667167292,0.961728261370996,1,0.999999999999999
0.999999999999998,0.954313414883863,0.934620323837899,0.937885946561593,0.949630650752334,0.942522341746992,0.958935549748569,0.956095420408029,0.946629774576868,1,1,0.955499486382687,0.999999999999998
1,0.971626083073783,1,0.967469820516104,0.952938262706243,0.963034459679754,0.953731784783717,0.950421313974471,0.953788181214299,0.954320301539955,0.971626083073783,1,1
1,0.950879429380241,0.943724286120886,0.941361738562282,0.95370527995285,0.954792316789978,0.951924771114148,0.951468455559683,0.935535601140336,0.941708192352935,0.956273743822204,1,1
0.999999999999997,0.999999999999998,0.954512839977425,0.954355812566099,0.957343929100354,0.94280365311217,0.948096794753441,0.946336524608242,0.950859975926523,0.954801444322505,0.95211595178174,0.949040140301725,0.999999999999997
0.999999999999999,0.999999999999999,0.949160972337883,0.951983741252591,0.951811309484095,0.955379619655046,0.96487727702476,0.96279897145659,0.961753993366934,0.954355812566098,1,1,0.999999999999999
1,0.999999999999999,0.974258571140658,0.965757830349111,0.968332488388983,0.963894983646786,0.96883516519835,0.96883516519835,0.965757830349111,0.968332488388983,0.974258571140657,1,1
0.999999999999999,1,0.945749402693057,0.937889549911092,0.954445161472303,0.953780718150598,0.948787556985995,0.954445161472304,0.959165121249592,0.955372388350557,0.942264237877686,0.954620226906106,0.999999999999999
1,0.999999999999999,0.95693973382814,0.951939365637129,0.944533505531023,0.951811309484095,0.964249421271475,0.9630029946726,0.965978488834931,0.964249421271475,0.961365721487844,0.999999999999999,1
1,1,0.966651085417289,0.968737632042617,0.967520915514052,0.977526813361733,0.974483871882347,0.9751180039617,0.964891215705262,0.972389442940003,0.971664664169944,1,1
0.999999999999998,0.999999999999999,0.948296064681836,0.946497275295948,0.93095175818155,0.948296064681835,0.94483236824219,0.926774148865285,0.919978083828391,0.999999999999999,0.948311933764333,0.999999999999998,0.999999999999998
1,1,0.936657624650885,0.95429029624352,0.952447114402599,0.943002111554367,0.958594995399081,0.955680709657066,0.939726869912814,0.954290296243521,0.952447114402598,0.943480307015275,1
0.999999999999999,1,0.949074991127492,0.94148229118595,0.95031482057431,0.944412630161682,0.948538460684803,0.939338930021433,0.942150999584758,0.946150953079142,0.948636662119842,1,0.999999999999999
1,0.934168751155532,0.938610634038924,0.940731579173397,0.941667557130906,0.936765814130674,0.93877815372939,0.939635632719743,0.934285499996028,0.938361397184154,1,1,1
0.999999999999999,0.999999999999999,0.967617962301624,0.957529967522709,0.958441288424241,0.957746172433227,0.952803984046158,0.957746172433226,0.953853058139744,0.958441288424241,0.967617962301624,1,0.999999999999999
0.999999999999999,0.999999999999999,0.957026388041419,0.963857276143864,0.964616963935816,0.965593257704365,0.963857276143864,0.962248601767751,0.960251147943748,0.965054522904311,0.962042137742802,0.945079094184902,0.999999999999999
0.999999999999999,0.941518226628294,1,0.943436103024256,0.946020780175324,0.939675248765941,0.946174105268227,0.939761527737299,0.928649805842699,0.942884553337895,0.948479172767289,0.945652042872857,0.999999999999999
0.999999999999999,0.937200362366032,0.94505835214189,0.94710566080096,0.948797314524207,0.936679136408659,0.919239775564121,0.924682384345338,0.943250461328769,0.948138201681645,0.951319193194374,1,0.999999999999999
1,1,0,0,0,0,0,1,0,0,0,1,1
1,1,0,0,0,0,0,0,0,0,0,1,1
1,1,1,1,0,0,0,0,0,1,1,1,1
1,0,1,0,0,0,0,0,0,0,0,1,1
1,1,1,1,0,0,1,1,1,1,1,1,1
1,0,0,0,0,0,0,0,0,0,0,0,1
1,1,0,0,0,0,0,0,0,0,1,1,1
1,0,0,0,0,0,0,0,0,0,0,1,1
1,1,1,0,0,1,1,1,0,0,1,1,1
1,1,1,0,0,0,0,0,0,0,0,1,1
1,1,0,0,1,1,1,1,0,0,1,1,1
1,0,0,0,0,0,0,0,0,0,0,1,1
1,1,1,1,0,0,0,0,0,0,0,1,1
1,1,0,0,0,0,0,0,0,0,0,1,1
1,0,0,0,0,0,0,0,0,0,0,1,1
1,1,0,0,0,0,0,0,0,0,0,1,1
1,0,0,0,0,0,0,0,0,0,0,0,1
1,1,0,0,0,0,0,0,0,0,0,1,1
1,1,0,0,0,0,0,0,0,0,0,1,1
1,1,1,1,0,0,0,0,0,1,1,1,1
1,1,0,0,0,0,1,1,0,0,0,0,1
1,0,0,0,0,0,0,0,0,0,1,1,1
1,1,0,1,1,1,1,0,0,0,1,1,1
1,0,0,0,0,0,0,0,0,0,0,1,1
1,1,1,1,1,0,0,0,0,1,1,1,1
1,1,1,0,0,1,1,1,1,0,0,1,1
1,0,1,0,0,0,0,0,0,1,1,1,1
1,1,1,1,1,1,1,1,1,1,1,1,1
1,1,0,0,0,0,0,0,0,0,0,0,1
1,1,0,0,0,0,0,0,0,0,0,1,1
1,0,0,0,0,1,1,0,0,0,0,1,1
1,1,0,0,0,1,1,1,0,0,0,1,1
1,1,1,1,0,0,0,0,0,0,1,1,1
1,0,0,0,0,0,0,0,0,0,1,1,1
1,1,1,0,1,1,1,1,1,0,1,1,1
1,1,1,0,0,0,0,0,0,0,1,1,1
1,0,1,0,0,0,0,0,0,0,0,1,1
1,1,0,0,1,0,1,1,0,0,1,0,1
1,1,0,0,0,0,0,0,0,0,0,1,1
1,1,1,1,1,1,1,1,1,1,1,1,1
1,1,1,0,0,0,0,0,0,0,1,1,1
1,1,0,0,0,0,0,0,0,0,0,1,1
1,1,0,0,0,0,0,0,0,1,0,0,1
1,0,0,0,0,0,0,0,0,0,0,1,1
1,1,1,0,0,0,0,0,0,0,0,1,1
1,1,0,0,0,0,0,0,0,0,0,0,1
1,1,0,0,0,0,0,0,0,0,0,0,1
1,1,0,0,0,1,1,1,0,0,0,1,1
1,1,0,0,0,0,0,0,0,0,1,1,1
1,0,0,0,0,0,1,0,0,0,0,0,1
1,1,1,1,1,1,1,1,1,1,1,1,1
1,1,1,0,0,0,0,0,0,1,0,0,1
1,0,0,0,0,0,0,0,0,0,0,1,1
1,1,1,0,0,0,0,0,0,0,0,1,1
1,1,0,0,0,0,0,0,0,0,0,1,1
1,1,0,0,0,0,0,0,0,0,0,1,1
1,1,1,0,0,0,0,0,0,1,1,1,1
1,1,1,0,0,0,0,0,0,0,1,1,1
1,1,0,0,0,0,0,1,0,0,0,0,1
1,1,0,0,0,0,1,0,0,0,0,0,1
1,1,0,1,1,0,0,1,1,1,1,1,1
1,1,1,0,0,0,0,0,1,0,0,0,1
1,1,1,1,0,0,0,0,0,0,1,1,1
1,1,0,0,1,0,1,1,0,0,1,0,1
1,0,0,0,0,1,1,0,0,0,0,1,1
1,1,0,0,0,0,0,0,0,0,0,1,1
1,1,0,0,0,0,0,0,0,0,1,0,1
1,0,1,1,0,0,0,0,0,0,0,1,1
1,0,0,0,0,0,0,0,0,0,0,0,1
1,1,0,0,0,0,0,0,0,0,0,1,1
1,1,0,0,0,0,0,0,0,0,0,0,1
1,1,0,0,0,0,0,0,0,0,0,1,1
1,1,1,0,0,1,1,1,1,0,0,1,1
1,1,0,0,0,0,0,0,0,0,0,1,1
1,1,1,0,0,1,0,0,1,0,0,1,1
1,1,0,0,0,0,0,0,0,0,0,1,1
1,1,1,0,0,0,0,0,0,0,0,0,1
1,1,0,0,0,0,0,0,0,0,0,0,1
1,1,0,0,0,0,0,0,0,0,0,1,1
1,1,0,0,0,0,0,0,0,0,0,1,1
1,0,0,0,0,0,0,0,0,0,0,1,1
1,1,1,0,0,0,0,0,0,0,0,1,1
1,1,0,0,0,0,0,0,0,0,0,1,1
1,1,1,0,0,0,0,0,0,1,1,1,1
1,1,0,0,0,0,0,0,0,0,1,0,1
1,1,1,0,0,0,0,0,0,0,1,1,1
1,1,1,1,1,1,1,1,1,1,1,1,1
1,1,1,1,1,0,0,0,1,1,1,1,1
1,1,1,0,0,1,1,1,0,0,1,1,1
1,1,1,1,1,1,1,1,1,1,1,1,1
1,1,0,0,1,0,1,0,0,0,1,0,1
1,1,1,1,1,1,1,1,1,1,1,1,1
1,0,0,0,0,0,0,0,0,0,0,1,1
1,1,1,0,0,0,0,0,0,0,1,1,1
1,0,1,0,0,1,1,0,1,0,1,1,1
1,0,1,0,0,0,0,0,0,0,0,0,1
1,1,1,0,0,0,0,0,0,0,0,0,1
1,1,1,0,0,0,1,1,1,0,0,0,1
1,1,0,0,0,0,0,0,0,0,1,0,1
1,1,0,0,0,0,0,0,0,0,1,1,1
1,1,0,0,0,0,0,0,0,0,0,0,1
1,0,0,0,0,0,0,0,0,0,0,1,1
1,0,0,0,0,0,0,0,0,0,0,1,1
1,1,1,0,0,0,0,0,0,0,0,1,1
1,1,0,0,0,0,0,0,0,0,0,1,1
1,1,1,1,1,1,1,1,1,1,1,1,1
1,0,1,0,0,0,1,0,1,0,0,1,1
1,0,1,0,1,0,0,0,1,0,1,1,1
1,1,1,0,0,1,1,1,0,0,1,1,1
1,1,0,0,0,0,0,0,0,0,1,1,1
1,1,1,1,0,0,0,0,0,0,0,1,1
1,0,1,0,0,1,1,0,1,0,0,1,1
1,1,0,0,0,0,0,0,0,0,0,0,1
1,1,0,0,0,0,0,0,0,0,0,1,1
1,1,0,0,0,0,0,0,0,0,0,1,1
1,1,0,0,0,0,1,1,0,0,0,0,1
1,0,1,0,0,1,1,0,1,0,0,1,1
1,0,0,0,0,0,0,0,0,0,0,0,1
1,1,0,0,0,0,1,1,0,0,0,1,1
1,1,0,0,0,0,0,0,0,0,0,0,1
1,1,0,0,0,0,0,0,0,0,0,1,1
1,1,0,0,0,0,0,0,0,0,0,1,1
1,1,1,0,0,0,0,0,0,0,1,1,1
1,1,1,1,1,1,1,1,1,1,1,1,1
1,1,0,0,0,0,0,0,0,0,1,1,1
1,1,0,0,0,0,0,0,0,0,0,0,1
1,1,1,1,0,0,0,0,0,0,1,1,1
1,1,0,0,0,0,0,0,0,0,0,1,1
1,1,0,0,0,0,0,0,0,0,0,0,1
1,1,0,0,0,0,0,0,0,0,0,1,1
1,1,1,1,1,1,1,1,1,1,1,1,1
1,1,1,1,1,1,1,1,1,1,1,1,1
1,1,1,1,1,1,1,1,1,1,1,1,1
1,1,1,1,1,1,1,1,1,1,1,1,1
1,1,1,1,1,1,1,1,1,1,1,1,1
1,1,1,1,1,1,1,1,1,1,1,1,1
1,1,1,1,1,1,1,1,1,1,1,1,1
1,1,1,1,1,1,1,1,1,1,1,1,1
1,1,1,1,1,1,1,1,1,1,1,1,1
1,1,1,1,1,1,1,1,1,1,1,1,1
1,1,1,1,1,1,1,1,1,1,1,1,1
1,1,1,1,1,1,1,1,1,1,1,1,1
1,1,1,1,1,1,1,1,1,1,1,1,1
1,1,1,1,1,1,1,1,1,1,1,1,1
1,1,1,1,1,1,1,1,1,1,1,1,1
1,1,1,1,1,1,1,1,1,1,1,1,1
1,1,1,1,1,1,1,1,1,1,1,1,1
1,1,1,1,1,1,1,1,1,1,1,1,1
1,1,1,1,1,1,1,1,1,1,1,1,1
1,1,1,1,1,1,1,1,1,1,1,1,1
1,1,1,1,1,1,1,1,1,1,1,1,1
1,1,1,1,1,1,1,1,1,1,1,1,1
1,1,1,1,1,1,1,1,1,1,1,1,1
1,1,1,1,1,1,1,1,1,1,1,1,1
1,1,1,1,1,1,1,1,1,1,1,1,1
1,1,1,1,1,1,1,1,1,1,1,1,1
1,1,1,1,1,1,1,1,1,1,1,1,1
1,1,1,1,1,1,1,1,1,1,1,1,1
1,1,1,1,1,1,1,1,1,1,1,1,1
1,1,1,1,1,1,1,1,1,1,1,1,1
1,1,1,1,1,1,1,1,1,1,1,1,1
1,1,1,1,1,1,1,1,1,1,1,1,1
1,1,1,1,1,1,1,1,1,1,1,1,1
1,1,1,1,1,1,1,1,1,1,1,1,1
1,1,1,1,1,1,1,1,1,1,1,1,1
1,1,1,1,1,1,1,1,1,1,1,1,1
1,1,1,1,1,1,1,1,1,1,1,1,1
1,1,1,1,1,1,1,1,1,1,1,1,1
1,1,1,1,1,1,1,1,1,1,1,1,1
1,1,1,1,1,1,1,1,1,1,1,1,1
1,1,1,1,1,1,1,1,1,1,1,1,1
1,1,1,1,1,1,1,1,1,1,1,1,1
1,1,1,1,1,1,1,1,1,1,1,1,1
1,1,1,1,1,1,1,1,1,1,1,1,1
1,1,1,1,1,1,1,1,1,1,1,1,1
1,1,1,1,1,1,1,1,1,1,1,1,1
1,1,1,1,1,1,1,1,1,1,1,1,1
1,1,1,1,1,1,1,1,1,1,1,1,1
1,1,1,1,1,1,1,1,1,1,1,1,1
1,1,1,1,1,1,1,1,1,1,1,1,1
1,1,1,1,1,1,1,1,1,1,1,1,1
1,1,1,1,1,1,1,1,1,1,1,1,1
1,1,1,1,1,1,1,1,1,1,1,1,1
1,1,1,1,1,1,1,1,1,1,1,1,1
1,1,1,1,1,1,1,1,1,1,1,1,1
1,1,1,1,1,1,1,1,1,1,1,1,1
1,1,1,1,1,1,1,1,1,1,1,1,1
1,1,1,1,1,1,1,1,1,1,1,1,1
1,1,1,1,1,1,1,1,1,1,1,1,1
1,1,1,1,1,1,1,1,1,1,1,1,1
1,1,1,1,1,1,1,1,1,1,1,1,1
1,1,1,1,1,1,1,1,1,1,1,1,1
1,1,1,1,1,1,1,1,1,1,1,1,1
1,1,1,1,1,1,1,1,1,1,1,1,1
1,1,1,1,1,1,1,1,1,1,1,1,1
1,1,1,1,1,1,1,1,1,1,1,1,1
1,1,1,1,1,1,1,1,1,1,1,1,1
1,1,1,1,1,1,1,1,1,1,1,1,1
1,1,1,1,1,1,1,1,1,1,1,1,1
1,1,1,1,1,1,1,1,1,1,1,1,1
1,1,1,1,1,1,1,1,1,1,1,1,1
1,1,1,1,1,1,1,1,1,1,1,1,1
1,1,1,1,1,1,1,1,1,1,1,1,1
1,1,1,1,1,1,1,1,1,1,1,1,1
1,1,1,1,1,1,1,1,1,1,1,1,1
1,1,1,1,1,1,1,1,1,1,1,1,1
1,1,1,1,1,1,1,1,1,1,1,1,1
1,1,1,1,1,1,1,1,1,1,1,1,1
1,1,1,1,1,1,1,1,1,1,1,1,1
1,1,1,1,1,1,1,1,1,1,1,1,1
1,1,1,1,1,1,1,1,1,1,1,1,1
1,1,1,1,1,1,1,1,1,1,1,1,1
1,1,1,1,1,1,1,1,1,1,1,1,1
1,1,1,1,1,1,1,1,1,1,1,1,1
1,1,1,1,1,1,1,1,1,1,1,1,1
1,1,1,1,1,1,1,1,1,1,1,1,1
1,1,1,1,1,1,1,1,1,1,1,1,1
1,1,1,1,1,1,1,1,1,1,1,1,1
1,1,1,1,1,1,1,1,1,1,1,1,1
1,1,1,1,1,1,1,1,1,1,1,1,1
1,1,1,1,1,1,1,1,1,1,1,1,1
1,1,1,1,1,1,1,1,1,1,1,1,1
1,1,1,1,1,1,1,1,1,1,1,1,1
1,1,1,1,1,1,1,1,1,1,1,1,1
1,1,1,1,1,1,1,1,1,1,1,1,1
1,1,1,1,1,1,1,1,1,1,1,1,1
1,1,1,1,1,1,1,1,1,1,1,1,1
1,1,1,1,1,1,1,1,1,1,1,1,1
1,1,1,1,1,1,1,1,1,1,1,1,1
1,1,1,1,1,1,1,1,1,1,1,1,1
1,1,1,1,1,1,1,1,1,1,1,1,1
1,1,1,1,1,1,1,1,1,1,1,1,1
1,1,1,1,1,1,1,1,1,1,1,1,1
1,1,1,1,1,1,1,1,1,1,1,1,1
1,1,1,1,1,1,1,1,1,1,1,1,1
1,1,1,1,1,1,1,1,1,1,1,1,1
1,1,1,1,1,1,1,1,1,1,1,1,1
1,1,1,1,1,1,1,1,1,1,1,1,1
1,1,1,1,1,1,1,1,1,1,1,1,1
1,1,1,1,1,1,1,1,1,1,1,1,1
1,1,1,1,1,1,1,1,1,1,1,1,1
1,1,1,1,1,1,1,1,1,1,1,1,1
1,1,1,1,1,1,1,1,1,1,1,1,1
1,1,1,1,1,1,1,1,1,1,1,1,1
1,1,1,1,1,1,1,1,1,1,1,1,1
1,1,1,1,1,1,1,1,1,1,1,1,1
1,1,1,1,1,1,1,1,1,1,1,1,1
1,1,1,1,1,1,1,1,1,1,1,1,1
1,1,1,1,1,1,1,1,1,1,1,1,1
1,1,1,1,1,1,1,1,1,1,1,1,1
1,1,1,1,1,1,1,1,1,1,1,1,1
1,1,1,1,1,1,1,1,1,1,1,1,1
1,1,1,1,1,1,1,1,1,1,1,1,1
1,1,1,1,1,1,1,1,1,1,1,1,1
1,1,1,1,1,1,1,1,1,1,1,1,1
1,1,1,1,1,1,1,1,1,1,1,1,1
1,1,1,1,1,1,1,1,1,1,1,1,1
1,1,1,1,1,1,1,1,1,1,1,1,1
1,1,1,1,1,1,1,1,1,1,1,1,1
1,1,1,1,1,1,1,1,1,1,1,1,1
1,1,1,1,1,1,1,1,1,1,1,1,1
1,1,1,1,1,1,1,1,1,1,1,1,1
1,1,1,1,1,1,1,1,1,1,1,1,1
1,1,1,1,1,1,1,1,1,1,1,1,1
1,1,1,1,1,1,1,1,1,1,1,1,1
1,1,1,1,1,1,1,1,1,1,1,1,1
1,1,1,1,1,1,1,1,1,1,1,1,1
1,1,1,1,1,1,1,1,1,1,1,1,1
1,1,1,1,1,1,1,1,1,1,1,1,1
1,1,1,1,1,1,1,1,1,1,1,1,1
1,1,1,1,1,1,1,1,1,1,1,1,1
1,1,1,1,1,1,1,1,1,1,1,1,1
1,1,1,1,1,1,1,1,1,1,1,1,1
1,1,1,1,1,1,1,1,1,1,1,1,1
1,1,1,1,1,1,1,1,1,1,1,1,1
1,1,1,1,1,1,1,1,1,1,1,1,1
1,1,1,1,1,1,1,1,1,1,1,1,1
1,1,1,1,1,1,1,1,1,1,1,1,1
1,1,1,1,1,1,1,1,1,1,1,1,1
1,1,1,1,1,1,1,1,1,1,1,1,1
1,1,1,1,1,1,1,1,1,1,1,1,1
1,1,1,1,1,1,1,1,1,1,1,1,1
1,1,1,1,1,1,1,1,1,1,1,1,1
1,1,1,1,1,1,1,1,1,1,1,1,1
1,1,1,1,1,1,1,1,1,1,1,1,1
1,1,1,1,1,1,1,1,1,1,1,1,1
1,1,1,1,1,1,1,1,1,1,1,1,1
1,1,1,1,1,1,1,1,1,1,1,1,1
1,1,1,1,1,1,1,1,1,1,1,1,1
1,1,1,1,1,1,1,1,1,1,1,1,1
1,1,1,1,1,1,1,1,1,1,1,1,1
1,1,1,1,1,1,1,1,1,1,1,1,1
1,1,1,1,1,1,1,1,1,1,1,1,1
1,1,1,1,1,1,1,1,1,1,1,1,1
1,1,1,1,1,1,1,1,1,1,1,1,1
1,1,1,1,1,1,1,1,1,1,1,1,1
1,1,1,1,1,1,1,1,1,1,1,1,1
1,1,1,1,1,1,1,1,1,1,1,1,1
1,1,1,1,1,1,1,1,1,1,1,1,1
1,1,1,1,1,1,1,1,1,1,1,1,1
1,1,1,1,1,1,1,1,1,1,1,1,1
1,1,1,1,1,1,1,1,1,1,1,1,1
1,1,1,1,1,1,1,1,1,1,1,1,1
1,1,1,1,1,1,1,1,1,1,1,1,1
1,1,1,1,1,1,1,1,1,1,1,1,1
1,1,1,1,1,1,1,1,1,1,1,1,1
1,1,1,1,1,1,1,1,1,1,1,1,1
1,1,1,1,1,1,1,1,1,1,1,1,1
1,1,1,1,1,1,1,1,1,1,1,1,1
1,1,1,1,1,1,1,1,1,1,1,1,1
1,1,1,1,1,1,1,1,1,1,1,1,1
1,1,1,1,1,1,1,1,1,1,1,1,1
1,1,1,1,1,1,1,1,1,1,1,1,1
1,1,1,1,1,1,1,1,1,1,1,1,1
1,1,1,1,1,1,1,1,1,1,1,1,1
1,1,1,1,1,1,1,1,1,1,1,1,1
1,1,1,1,1,1,1,1,1,1,1,1,1
1,1,1,1,1,1,1,1,1,1,1,1,1
1,1,1,1,1,1,1,1,1,1,1,1,1
1,1,1,1,1,1,1,1,1,1,1,1,1
1,1,1,1,1,1,1,1,1,1,1,1,1
1,1,1,1,1,1,1,1,1,1,1,1,1
1,1,1,1,1,1,1,1,1,1,1,1,1
1,1,1,1,1,1,1,1,1,1,1,1,1
1,1,1,1,1,1,1,1,1,1,1,1,1
1,1,1,1,1,1,1,1,1,1,1,1,1
1,1,1,1,1,1,1,1,1,1,1,1,1
1,1,1,1,1,1,1,1,1,1,1,1,1
1,1,1,1,1,1,1,1,1,1,1,1,1
1,1,1,1,1,1,1,1,1,1,1,1,1
1,1,1,1,1,1,1,1,1,1,1,1,1
1,1,1,1,1,1,1,1,1,1,1,1,1
1,1,1,1,1,1,1,1,1,1,1,1,1
1,1,1,1,1,1,1,1,1,1,1,1,1
1,1,1,1,1,1,1,1,1,1,1,1,1
1,1,1,1,1,1,1,1,1,1,1,1,1
1,1,1,1,1,1,1,1,1,1,1,1,1
1,1,1,1,1,1,1,1,1,1,1,1,1
1,1,1,1,1,1,1,1,1,1,1,1,1
1,1,1,1,1,1,1,1,1,1,1,1,1
1,1,1,1,1,1,1,1,1,1,1,1,1
1,1,1,1,1,1,1,1,1,1,1,1,1
1,1,1,1,1,1,1,1,1,1,1,1,1
1,1,1,1,1,1,1,1,1,1,1,1,1
1,1,1,1,1,1,1,1,1,1,1,1,1
1,1,1,1,1,1,1,1,1,1,1,1,1
1,1,1,1,1,1,1,1,1,1,1,1,1
1,1,1,1,1,1,1,1,1,1,1,1,1
1,1,1,1,1,1,1,1,1,1,1,1,1
1,1,1,1,1,1,1,1,1,1,1,1,1
1,1,1,1,1,1,1,1,1,1,1,1,1
1,1,1,1,1,1,1,1,1,1,1,1,1
1,1,1,1,1,1,1,1,1,1,1,1,1
1,1,1,1,1,1,1,1,1,1,1,1,1
1,1,1,1,1,1,1,1,1,1,1,1,1
1,1,1,1,1,1,1,1,1,1,1,1,1
1,1,1,1,1,1,1,1,1,1,1,1,1
1,1,1,1,1,1,1,1,1,1,1,1,1
1,1,1,1,1,1,1,1,1,1,1,1,1
1,1,1,1,1,1,1,1,1,1,1,1,1
1,1,1,1,1,1,1,1,1,1,1,1,1
1,1,1,1,1,1,1,1,1,1,1,1,1
1,1,1,1,1,1,1,1,1,1,1,1,1
1,1,1,1,1,1,1,1,1,1,1,1,1
1,1,1,1,1,1,1,1,1,1,1,1,1
1,1,1,1,1,1,1,1,1,1,1,1,1
1,1,1,1,1,1,1,1,1,1,1,1,1
1,1,1,1,1,1,1,1,1,1,1,1,1
1,1,1,1,1,1,1,1,1,1,1,1,1
1,1,1,1,1,1,1,1,1,1,1,1,1
1,1,1,1,1,1,1,1,1,1,1,1,1
1,1,1,1,1,1,1,1,1,1,1,1,1
1,1,1,1,1,1,1,1,1,1,1,1,1
1,1,1,1,1,1,1,1,1,1,1,1,1
1,1,1,1,1,1,1,1,1,1,1,1,1
1,1,1,1,1,1,1,1,1,1,1,1,1
1,1,1,1,1,1,1,1,1,1,1,1,1
1,1,1,1,1,1,1,1,1,1,1,1,1
1,1,1,1,1,1,1,1,1,1,1,1,1
1,1,1,1,1,1,1,1,1,1,1,1,1
1,1,1,1,1,1,1,1,1,1,1,1,1
1,1,1,1,1,1,1,1,1,1,1,1,1
1,1,1,1,1,1,1,1,1,1,1,1,1
1,1,1,1,1,1,1,1,1,1,1,1,1
1,1,1,1,1,1,1,1,1,1,1,1,1
1,1,1,1,1,1,1,1,1,1,1,1,1
1,1,1,1,1,1,1,1,1,1,1,1,1
1,1,1,1,1,1,1,1,1,1,1,1,1
1,1,1,1,1,1,1,1,1,1,1,1,1
1,1,1,1,1,1,1,1,1,1,1,1,1
0.999999999999998,1,0.957010360406108,0.955794114056379,0.954031939460671,0.954946276893835,0.953728239218786,0.954222408625509,0.955316070747001,0.961046873488957,0.96209260354016,0.999999999999999,0.999999999999998
1,1,0.963224430835413,0.960057580785094,0.959641362924819,0.957867980739238,0.957917103002672,0.973514339266224,0.968987403516749,0.968818840435691,0.973514339266224,1,1
1,0.999999999999999,0.999999999999999,0.982974402859866,0.965567111748423,0.968862605333265,0.967173829704201,0.964965263506415,0.96432990510024,0.959221777502207,0.982214331389521,0.999999999999999,1
0.999999999999999,0.925812087686388,1,0.939329513238661,0.935099733500187,0.943400243699034,0.946847629424125,0.934442920290348,0.936988098924792,0.944167858297043,0.936061437726723,1,0.999999999999999
1,0.999999999999999,0.979212890534729,0.971996595005041,0.968655059326272,0.96935378307151,0.971996595005041,0.969883587054297,0.97958124925247,1,0.978935211366757,0.979581249252469,1
1,0.962412475326873,0.960359785383668,0.963703711730905,0.963144765972774,0.956896032237732,0.9592313179144,0.957333991192906,0.956896032237732,0.95240278168751,0.947096170219518,0.960490965336453,1
0.999999999999999,0.97950599631143,0.969909717797054,0.966203292444806,0.965835668076256,0.963357368736698,0.966203292444806,0.971764137940158,0.972322782405489,0.975531836260039,0.982380269450867,1,0.999999999999999
1,0.958242807730712,0.960702182751101,0.954848608437934,0.955960503183216,0.943212526615791,0.959653593141114,0.955960503183216,0.943212526615791,0.940516122458859,0.938120843856186,0.999999999999999,1
0.999999999999999,1,0.965361424011824,0.966500947989031,0.967984088027427,0.964325115045818,0.966726324868327,0.967462925248923,0.954883389817429,0.957154976882193,0.965361424011824,0.999999999999998,0.999999999999999
1,0.999999999999999,1,0.934839317019544,0.94206696757524,0.953309635541882,0.95677400307023,0.958577651952818,0.956832594115636,0.950744640118178,0.958577651952818,1,1
1,1,0.956642416140582,0.935001552240405,0.971202188393838,0.97446246868799,0.972003711890188,0.971202188393839,0.947680393612901,0.935093116582012,1,1,1
1,0.955426486591857,0.950094543522502,0.946656566895259,0.951631656623716,0.954043632051756,0.952344890296273,0.95515751192123,0.947223306891632,0.945086565586456,0.943230878566308,1,1
1,1,0.999999999999999,0.961765482920089,0.964596506262877,0.959531544527686,0.955928314804719,0.96862096663402,0.964551665071776,0.962396718078818,0.970577878362938,0.961765482920089,1
1,0.999999999999997,0.963330656215483,0.963508050017029,0.957848762794544,0.959542832076615,0.964138238621535,0.964876286491211,0.965996337322986,0.967435372244918,0.964876286491211,1,1
1,0.959845249703972,0.952868394789686,0.941128266684853,0.946372452896677,0.955053683681829,0.955995968071114,0.954014896527527,0.945322852855721,0.946321244492098,0.961782682761687,1,1
1,0.944725758536031,0.916329558025176,0.918392845833955,0.907238770050196,0.906232768665797,0.919480818343785,0.908819916749264,0.91042962802463,0.919480818343784,0.914378214633523,0.944877601007244,1
0.999999999999999,0.956344849588403,0.955270468214169,0.965341091270574,0.961947479378256,0.957811389944085,0.959853882822484,0.96049872030785,0.956353821725291,0.962777805953368,0.960498720307849,0.959796620401273,0.999999999999999
0.999999999999999,0.999999999999999,0.952166483653202,0.9567157609679,0.954066187948634,0.957215511230486,0.951992000361966,0.949149132578411,0.948222595558864,0.948622375659206,0.958287169337958,1,0.999999999999999
1,1,0.960307828724559,0.96665891405894,0.949682671914316,0.958469998489431,0.956143839248626,0.968555504677744,0.971027731088766,0.972679279396156,0.949989385086387,0.999999999999998,1
0.999999999999998,1,1,0.961199797221263,0.947013830726309,0.950968040951405,0.947882315662071,0.94867650390937,0.949665613142741,0.961584428154483,1,0.961199797221263,0.999999999999998
1,0.999999999999999,0.964799963400575,0.949901782502622,0.95336012680028,0.962650797722269,0.984163295836498,0.985567296540094,0.962650797722269,0.958948458615791,0.945981427914832,0.962203874543912,1
1,0.956325320235448,0.95119024939731,0.941720313488914,0.932828702273121,0.931997743839602,0.954262025324084,0.95336012680028,0.931997743839602,0.92784686851012,1,0.999999999999999,1
1,0.9689680658545,0.956713630800067,0.968968065854501,0.999999999999997,0.963517489478849,0.963590077125923,0.955292081298611,0.953221252141409,0.951789224966688,0.966666276143655,0.963998597191414,1
1,0.955011201840809,0.928040490623022,0.922421093268443,0.941585425491727,0.967959778248741,0.968753208589324,0.941585425491727,0.932617480961416,0.937282879196928,0.955011201840809,1,1
1,0.958170360839089,0.958388052483308,1,0.958170360839089,0.963211254841533,0.947114085719531,0.95910089339963,0.963211254841533,0.95817036083909,1,1,1
1,1,0.98446206162288,0.981526315144566,0.977255085152599,0.983993178977454,0.993061412029626,0.988959884750649,0.978402728576162,0.978210742478834,0.975530804725177,0.988058722806123,1
1,0.970577878362938,1,0.968167297454339,0.963291018943817,0.963203295909439,0.961633614020947,0.963253157454011,0.96243052404056,0.967079842826513,0.999999999999999,0.967808667800751,1
1,1,1,0.998256289826951,0.995878292215647,0.993738275172378,0.991685047353676,0.991646535427317,0.993738275172378,0.995898364916248,0.998404201596696,1,1
1,1,0.932732162027098,0.943016126689916,0.947453301286772,0.938426725497687,0.955744286864685,0.955462744182481,0.93799649862147,0.951772416984838,0.947361447568442,0.950165110212238,1
1,1,0.967171895761987,0.971027731088766,0.972679279396155,0.968555504677744,0.960531210449432,0.966357211395715,0.9643485485923,0.965498790515341,0.966463008488187,0.999999999999998,1
1,0.961313664138127,0.936653641774802,0.967685600602995,0.964467487805508,0.97791346603286,0.979843910191094,0.958418223972627,0.929565272187623,0.963174988920593,0.964265775048492,1,1
1,1,0.959500714650034,0.963821311085344,0.960214486306735,0.972373593764857,0.974111320732552,0.971637419324,0.950412504621891,0.956667762722162,0.955282400839525,1,1
1,1,0.981149548091175,0.970360230394869,0.964891078260862,0.959095639585264,0.962136923984135,0.96505661760882,0.964851374141849,0.969653460822343,0.981149548091175,0.999999999999999,1
1,0.953798938794809,0.957419366096606,0.950404568657792,0.957653094877964,0.95563352835955,0.956823777521674,0.954428093724839,0.960593514543028,0.958875922838314,0.999999999999998,1,1
0.999999999999999,1,1,0.97717786272591,0.983176148822735,0.979149900346254,0.984910457726908,0.983176148822735,0.979149900346255,0.974542185713124,1,1,0.999999999999999
0.999999999999999,1,0.982880236827551,0.967195365574055,0.968437213318195,0.969271612259306,0.971118406809104,0.969663852895922,0.968322823741791,0.968054982143974,0.98288023682755,0.999999999999999,0.999999999999999
1,0.971670323600093,0.999999999999999,0.9706495820021,0.971670323600093,0.974009866406372,0.975233941762664,0.966739738706657,0.974009866406372,0.975233941762664,0.966739738706657,0.999999999999999,1
1,1,0.969055676297342,0.963708610155242,0.979459248229296,0.969055676297342,0.977798366462466,0.979459248229296,0.971605071672433,0.970649582002101,1,0.971605071672433,1
1,1,0.951181160369717,0.948703502843055,0.949187904026672,0.952444667433895,0.953512083688193,0.960157891255979,0.962721973360045,0.966611127030183,0.954878133107689,1,1
1,0.994520210626866,0.986615906108049,0.980912258923502,0.97938185762531,0.979416849739635,0.982080152390127,0.980492308200072,0.978589487040819,0.980912258923501,0.986118708059026,0.994031133715457,1
1,1,0.964359418239008,0.960283600322673,0.952474331463541,0.95491566823962,0.953599404325869,0.9622343557839,0.95051055679509,0.959117133559316,0.964359418239008,0.999999999999999,1
1,1,0.959117133559316,0.958641467344265,0.963831188464746,0.959060374997646,0.954140226394907,0.957893382484118,0.958885474056193,0.963235727329043,0.962235869508574,1,1
0.999999999999999,0.999999999999998,0.970012339906539,0.974542185713124,0.978520779341797,0.969856202980374,0.967343905028208,0.980127563263858,0.975729406073665,0.999999999999999,0.980127563263857,0.975729406073666,0.999999999999999
1,0.962560336839828,0.96236308369874,0.928981873779288,0.940214315080013,0.954679637972907,0.954397265796027,0.953528905998182,0.954679637972907,0.938426178934072,0.948795565089266,0.999999999999999,1
1,0.999999999999999,1,0.95994499019887,0.962028094970976,0.965322328213879,0.95994499019887,0.956487744515198,0.955413771391267,0.954851273066074,0.951867861558053,0.947303344226696,1
0.999999999999998,0.999999999999999,0.937271859325471,0.939635316419355,0.941568432953427,0.933216006841355,0.943969544862074,0.946192353163294,0.947593467204909,0.938743135445002,0.943103123452456,0.945058430569202,0.999999999999998
0.999999999999996,0.999999999999998,0.939350168336016,0.941205764932606,0.933833763776995,0.948281505810204,0.946290405327358,0.944717733616292,0.930190548723874,0.931792949702096,0.96236308369874,0.964259704216162,0.999999999999996
0.999999999999998,0.999999999999999,0.974355832104903,0.972802507560946,0.971006330696893,0.950623455230149,0.957754449547665,0.960010499008784,0.956570900525207,0.951068906422669,0.956315916650513,0.999999999999999,0.999999999999998
0.999999999999999,1,0.945386836660183,0.945576864354145,0.967544669131814,0.968211349971974,0.969849722499797,0.957667827292145,0.956999270461751,0.95848793742911,0.999999999999999,0.999999999999998,0.999999999999999
1,0.962668958717091,0.966927838876764,0.971505948839568,0.972595699599388,0.972330667135507,0.995546280712328,0.963345746077956,0.9655008487564,0.973734113220207,0.973034048033556,0.971176878494227,1
0.999999999999999,1,0.984468194640608,0.982268206511912,0.979712172548927,0.976888155413464,0.987370818061833,0.986020501783943,0.979712172548927,0.979068167644307,0.984468194640607,1,0.999999999999999
1,0.999999999999999,1,0.969086178387744,0.958120115910974,0.957294038315577,0.955992900830152,0.962486084752221,0.965526975550225,1,0.961201156452421,0.960407645035691,1
1,0.958638396211597,0.957901100312036,0.949541629718398,0.948130640445724,0.950007583122765,0.951251083989193,0.959599933113285,0.967364872390935,0.965536846779576,0.961413123900323,1,1
0.999999999999998,0.999999999999999,0.967404471040489,0.954722654966609,0.955331216720222,0.957566643113476,0.961105617630469,0.957194801148929,0.962156892761398,0.966500947989031,0.967984088027428,0.96317728636059,0.999999999999998
0.999999999999998,1,0.955878065743822,0.952289311927171,0.9542958915677,0.945065487605288,0.948020194935226,0.950321489996319,0.945065487605289,0.949892294646662,0.945426332202849,1,0.999999999999998
1,1,0.950275360732274,0.949249728927599,0.952013556659328,0.943830104837887,0.940780513846642,0.947272041364004,0.955028976337236,0.956651548177113,0.953799408476845,1,1
1,1,0.977033692120775,0.948819677649071,0.950130947811249,0.947609435368668,0.949706535350069,0.948727991417175,0.952820980124877,0.977328706409044,1,1,1
1,0.999999999999999,0.943946491904955,0.944743571380885,0.946926910118,0.9444267093997,0.944743571380885,0.946926910118,0.946267516733468,0.943361219678052,0.999999999999999,0.999999999999999,1
0.999999999999999,0.999999999999999,0.965873932702356,0.966463008488187,0.963020598777829,0.965494852497563,0.963558916869463,0.961602323484309,0.96045817669388,0.961643724796353,0.959663157527335,0.963781227028658,0.999999999999999
1,1,0.942783424528269,0.945093602821596,0.952011229253735,0.959234148836172,0.964343636661663,0.971592398283133,0.965214100660654,0.958719613334528,0.965223618372168,0.963643053071905,1
0.999999999999998,0.970027142681891,0.95194934261533,0.962526597415453,0.96440461744655,0.952475521008238,0.954894464301159,0.963059546778321,0.962526597415454,0.95080646612169,0.971289009991903,1,0.999999999999998
1,1,0.999999999999998,0.930116726024677,0.944975065909049,0.935093116582012,0.963854051734958,0.971592398283133,0.952792766233268,0.920158553750551,0.935978612949982,0.928285665814427,1
1,0.999999999999999,1,0.959316434309216,0.942311508098954,0.948579226991626,0.946123872241561,0.937853221032687,0.936341206304968,0.94790639858044,0.96051483025453,1,1
1,1,0.958867489759129,0.961915089472054,0.976864367549397,0.960620626930156,0.965647135743577,0.976864367549397,0.946129181143958,0.953800875289726,1,0.955888450807968,1
1,0.973804314876367,0.967608874627075,0.968432036892097,0.973979693805596,0.975115001167408,0.975656319440343,0.973979693805596,0.966933924776252,0.970510494631026,0.976406268831966,1,1
1,1,0.925814312026041,0.951649274657137,0.947680393612901,0.953408983703855,0.955648196463538,0.950732489652707,0.923753378535637,0.943690134257677,0.9465074227011,0.999999999999998,1
0.999999999999999,1,0.923891149758242,0.964705021828317,0.963017253278612,0.924091876799165,0.923481498625152,0.917382712619613,0.928833894351054,0.929633195171297,1,0.928492286021602,0.999999999999999
0.999999999999999,0.965780028811642,0.999999999999999,1,0.965780028811642,0.974009866406372,0.975233941762664,0.970692878581745,0.974009866406372,0.968225748714974,0.970692878581745,1,0.999999999999999
1,0.972361614434503,0.95913483793108,0.95414701263055,0.971216811295411,0.965284590156992,0.969787981202859,0.971216811295412,0.952581404877717,0.951108294664156,0.972361614434503,0.971035863208068,1
1,1,0.961834381744089,0.958354494360164,0.954265837886739,0.950714747207302,0.946598629244289,0.939810001244306,0.952809346027156,0.95124148131374,0.957527998561919,0.999999999999999,1
0.999999999999996,1,0.962286231986199,0.967685776459015,0.958377766115928,0.958154417404344,0.952138654702485,0.955014981041357,0.957271352137377,0.963020598777828,0.960605739413372,0.962286231986198,0.999999999999996
1,0.999999999999999,0.957109007638592,0.959198647418427,0.952806255033289,0.95454391005659,0.952574651094192,0.945458223474381,0.955112389485645,0.955455236551349,0.957718890800759,1,1
0.999999999999999,1,0.968056055823135,0.969982044474416,0.967082409101399,0.972423281421364,0.973830588014778,0.972137710674425,0.95939584702819,0.969621161134972,0.969717509646054,1,0.999999999999999
1,1,0.981047919941212,0.981394865950698,0.966566778803022,0.967544669131815,0.968211349971974,0.969896982287841,0.967544669131815,0.964298277897531,0.959128976209718,1,1
0.999999999999999,0.999999999999998,1,0.972382096194517,0.966821874899272,0.971983380757742,0.969899530052128,0.969082744098517,0.971983380757742,0.971193353982996,0.970610499427091,1,0.999999999999999
1,1,0.959871332340814,0.956443449737519,0.950806349520961,0.946517999607061,0.938192407492532,0.942478087372012,0.950034446039511,0.957004611535494,0.951138472064846,1,1
0.999999999999998,1,0.999999999999999,0.944167858297043,0.948459080393796,0.948290051591243,0.949278383841731,0.948459080393797,0.948167962364572,0.947857678104076,0.948927966488844,0.961372333201832,0.999999999999998
0.999999999999999,1,0.962413723351814,0.962570294445197,0.964047241086285,0.967564604076088,0.9633275935051,0.959298202512715,0.957935855912189,0.960014244873392,0.95738961511943,0.95908404133066,0.999999999999999
0.999999999999999,1,0.961643724796353,0.964348548592299,0.965498790515341,0.9670693389807,0.968100930892735,0.969744758634594,0.967069338980699,0.958901600349803,0.956325320235448,0.999999999999998,0.999999999999999
1,1,0.941801009292389,0.941476738870797,0.940768879863807,0.944454530631248,0.940586093864513,0.954438721566235,0.959198647418427,0.952806255033289,0.953690931602593,0.999999999999999,1
1,0.950242734310165,0.954878133107688,0.947299520127909,0.948160849947641,0.948463194260475,0.955319190390363,0.949492845299963,0.947314225618303,0.953289687789082,0.953943291994704,0.999999999999999,1
1,0.999999999999999,1,0.962962029550675,0.956498530819238,0.961124051573669,0.963353298505509,0.960062243936578,0.963310025520603,0.965113335580141,0.964091428802624,1,1
1,0.962504061538657,0.948094550865642,0.944056633042788,0.951529120966207,0.955400622915595,0.946247625135302,0.956438155195438,0.951714291165557,0.954669246390248,0.956438155195438,0.963465896025336,1
0.999999999999998,0.999999999999999,0.975343592124283,0.967640618782553,0.963211254841533,0.965754648960711,0.971118406809104,0.969086178387745,0.969448348752284,0.97290038851842,0.999999999999999,0.975343592124284,0.999999999999998
1,0.999999999999998,0.956896913269496,0.948511196539603,0.951283281858747,0.952656791253485,0.969787981202859,0.951283281858747,0.94527482788922,0.946427229056382,0.999999999999998,0.963529251321109,1
0.999999999999997,0.999999999999997,0.972488969505588,0.967271867230091,0.96794165161087,0.967974866924037,0.959854589635872,0.968535784102871,0.969979063338464,0.963802293552678,0.972488969505588,0.999999999999999,0.999999999999997
1,0.979109121576341,0.979266262382002,0.965979179028464,0.96753206193804,0.968109452766166,0.968109452766166,0.967190211867525,0.967112062857447,0.979266262382002,0.982299231834388,1,1
0.999999999999999,0.999999999999996,0.963081857060281,0.96695756096498,0.961149476139953,0.958919028571712,0.959278702299147,0.963866451510511,0.963081857060281,0.966957560964979,0.962203449280044,1,0.999999999999999
1,1,0.978647597953651,0.965113335580141,0.964439758043315,0.97844436994242,0.975150222838529,0.974398668408974,0.964700689719901,0.958377631696739,0.97864759795365,1,1
0.999999999999999,0.999999999999999,0.992751508790863,0.984923694457994,0.982457963467675,0.979865882811539,0.974487096230269,0.979865882811539,0.982143231017501,0.982903255121003,0.992751508790863,1,0.999999999999999
0.999999999999999,0.978293115051894,0.981968055406438,0.983334498146306,0.985016493425826,0.981968055406437,0.984470979694051,0.973912320069052,0.982870483442315,0.981742186342211,1,0.982870483442315,0.999999999999999
0.999999999999999,0.999999999999999,0.999999999999999,0.984673333214083,0.968589762245902,0.966342590199552,0.960213030376674,0.950243573967063,0.960213030376675,0.965666827304315,0.968803321637337,0.984673333214083,0.999999999999999
0.999999999999999,0.94143959118473,0.943699363391851,0.934508960686839,0.93810911972385,0.944187481860117,0.944866785279212,0.944790955251794,0.93484629497557,0.937695798202205,0.939182062790151,0.999999999999998,0.999999999999999
1,1,0.957837891844584,0.961470558450418,0.950890615605809,0.957480412179288,0.955953701774006,0.95994499019887,0.962028094970977,0.96532232821388,1,1,1
1,0.97544333678294,1,0.966353790971771,0.968328196103953,0.964821834453851,0.969303389916579,0.965938725055891,0.96482183445385,0.976191569160057,0.999999999999998,1,1
1,0.967489118102346,1,0.965243723339754,0.960894719092743,0.964298277897531,0.959358294890152,0.955109475525559,0.960714253958146,0.957948417478842,0.955097298470381,0.955325140456834,1
0.999999999999998,1,0.944011382979052,0.947009774224891,0.94834241445252,0.950701016816703,0.925748458834967,0.932791337774146,0.941221688814256,0.935149369975493,0.945895020489705,0.945105478155426,0.999999999999998
1,1,1,0.971193353982995,0.970610499427091,0.968582120309223,0.972585313462486,0.975184353706127,0.973194513610137,0.972382096194518,0.969125180415038,0.970902507149185,1
0.999999999999998,0.999999999999998,0.962483258292493,0.968225748714974,0.966168983666572,0.962483258292493,0.968225748714974,0.966168983666572,0.955954237513879,0.955964868980916,0.999999999999999,0.955954237513878,0.999999999999998
1,0.967302782362019,0.961274602658981,0.960178495417468,0.944506953265496,0.948181801489506,0.948215862738694,0.950858902541878,0.949778400477682,0.945860290468942,0.968012715246958,0.999999999999997,1
1,1,0.964164798749121,0.969181438813611,0.969603267349836,0.965736152393245,0.955744286864685,0.95793865322954,0.945024330531283,0.949782474858373,0.95793865322954,0.957553495338282,1
1,0.918117566674877,0.914097376120481,0.91346878299455,0.918117566674876,0.933294790415642,0.963017253278611,0.927981645121939,0.964705021828317,0.963017253278611,0.916558701305463,1,1
1,0.960490948234589,0.959486376215149,0.959557635170821,0.9625301250742,0.971142041604404,0.967815949476697,0.971153857534698,0.96630874708048,0.967640618782552,0.971153857534697,0.999999999999999,1
1,1,0.958705244808321,0.927414828657388,0.938672164156853,0.94851632594636,0.950348684302129,0.953467678595469,0.94152829906853,0.942181396008415,0.940716578048143,0.958209452215228,1
0.999999999999999,0.999999999999998,0.954284261593908,0.96152122458298,0.960006536114922,0.957242892215598,0.962409868066802,0.965236024957992,0.963172113203478,0.962409868066802,0.965236024957992,1,0.999999999999999
0.999999999999999,1,0.986163321838031,0.978458646463105,0.980924669404898,0.975617257308992,0.978458646463104,0.980924669404898,0.97657382360748,0.987582413115745,1,0.999999999999998,0.999999999999999
1,0.960373959209849,0.999999999999999,0.961701990427853,0.94110237806835,0.964616685306601,0.953348854289152,0.94110237806835,0.953779710380616,0.931897065704144,0.960373959209849,0.999999999999999,1
0.999999999999999,0.957481152450996,1,0.956832594115636,0.963214586487229,0.962802772490803,0.962810602215948,0.953070697488102,0.959736606729472,0.95078515744843,1,1,0.999999999999999
1,0.980163352296378,0.961390000224381,0.962635121433605,0.960773084887509,0.967582324027248,0.973065739356066,0.966130098831397,0.967085291319544,0.9616055043049,0.96422947923932,0.979768122129525,1
1,0.999999999999997,0.967500419186771,0.951980742769791,0.967069338980699,0.968100930892735,0.969744758634594,0.963558916869463,0.967171895761987,0.965992892002285,0.999999999999997,0.999999999999999,1
0.999999999999998,0.999999999999998,1,0.97805137006169,0.966644065762362,0.968004458006691,0.973830787225678,0.968742715748952,0.961508298667947,0.970561026588149,0.972718444753326,0.97805137006169,0.999999999999998
0.999999999999999,0.964725266087516,1,0.966611127030182,0.968526023992772,0.963736777682974,0.965729358322925,0.960715383675328,0.963736777682974,0.963821311085344,0.968967113119116,1,0.999999999999999
0.999999999999999,1,0.967070102659815,0.961372333201832,0.945086565586455,0.951070868406006,0.949458766719804,0.955894985139449,0.957427556014117,0.945644072019676,0.942613617955397,0.967070102659815,0.999999999999999
1,1,0.963440924389139,0.973005268074056,0.974702739900704,0.965626548503438,0.970315502377766,0.972181455979392,0.965626548503439,0.970315502377767,0.974081070711908,1,1
0.999999999999998,1,0.93798857695809,0.935910459532155,0.939294346726434,0.944187481860117,0.944866785279212,0.944281195134115,0.941128266684852,0.939724722311166,0.932447224488403,1,0.999999999999998
1,0.999999999999999,0.969404320840144,0.970436501297753,0.97095123741068,0.97374495765538,0.978951787164737,0.976149777126985,0.97374495765538,0.967091502972324,0.971722645432414,0.965465046908148,1
0.999999999999999,0.983917787091341,1,0.981742186342212,0.979470316047623,0.98169620369668,0.978668367838992,0.984583575362655,0.98169620369668,0.983334498146306,0.983049855096833,1,0.999999999999999
1,0.959903900390734,0.958319331481546,0.952597041707186,0.956968076204178,0.951460075913892,0.95614684354923,0.955699580735784,0.970192582018676,0.967500419186771,0.969014181521278,0.970192582018676,1
1,1,0.965817160707733,0.965368802024347,0.969979063338464,0.970382028344191,0.969606012029503,0.966931282694472,0.966668166273909,0.967321691539731,0.968437213318195,0.96609568574898,1
1,0.968261353321995,0.958713717795035,0.957154976882193,0.958071073938558,0.966403932078493,0.965608385009878,0.964079225164669,0.958003359521147,0.957457200192624,0.964079225164669,0.969162732065457,1
1,1,0.961034337630724,0.959521825875885,0.945695544463851,0.95505368368183,0.96110561763047,0.955839301501923,0.951817069855997,0.947493584293079,0.961194138443412,1,1
1,0.999999999999999,0.954377882701783,0.949457613162263,0.952201956916235,0.950803926501439,0.951133836472717,0.954377015688411,0.959193065752962,0.957452191307167,0.953489744927736,0.999999999999999,1
0.999999999999999,1,0.97694601741715,0.959008632231586,0.954109747374863,0.951587622408751,0.952959396627324,0.953514629420863,0.951557857529411,0.964088290350947,0.97694601741715,0.999999999999998,0.999999999999999
1,0.998996078174869,0.997032133711648,0.994796870883584,0.993328436027655,0.992181557382255,0.992012074708514,0.993140205958883,0.995290363388695,0.997032133711648,0.998884680010966,1,1
0.999999999999999,0.999999999999998,0.959981879748103,0.966145132029766,0.966818519863163,0.959981879748103,0.937206964606472,0.947203223938755,0.960702182751101,0.95379234360003,0.999999999999998,0.999999999999999,0.999999999999999
1,1,0.940862382098165,0.941112499514971,0.951165443012312,0.949065964528242,0.954201629045492,0.9507862354189,0.945966958487072,0.951120909494759,0.95814325168424,0.956681812093519,1
0.999999999999999,1,1,0.972125420307538,0.964843376769708,0.964700689719902,0.96262668152567,0.964513563238457,0.964439758043315,0.958989425250319,0.97298170570822,1,0.999999999999999
1,1,0.960014244873392,0.959957195107396,0.960164551285702,0.962629503349992,0.960531210449432,0.966357211395715,0.974355832104904,0.972802507560945,0.971006330696893,1,1
1,0.999999999999998,0.948112797843964,0.936738435386851,0.958948458615792,0.9585953987636,0.948696771094038,0.938397750601051,0.932248872944709,0.95284508160004,0.96988719286955,0.956823993621907,1
1,1,0.957157713181527,0.959046356439296,0.957859892707719,0.958832072270892,0.959307479607544,0.960062243936577,0.959293384426167,0.957521783628725,0.959734560102013,1,1
