r0,r30,r60,r90,r120,r150,r180,r210,r240,r270,r300,r330,r360
1,0,0,0,0,0,1,0,0,0,0,1,1
1,1,0,0,0,0,0,0,0,0,1,0,1
1,1,0,0,0,1,0,1,0,0,1,0,1
1,1,0,0,1,0,1,1,0,0,1,0,1
1,0,1,0,1,0,1,0,1,0,1,0,1
1,1,1,0,1,1,0,1,0,0,1,1,1
1,1,1,0,0,0,0,0,0,0,0,1,1
1,0,1,0,0,1,1,0,0,0,0,1,1
1,1,1,0,0,0,0,0,0,0,0,1,1
1,0,0,0,0,1,1,0,0,0,1,1,1
1,1,0,0,0,0,0,0,0,0,0,0,1
1,0,1,0,0,0,0,0,0,0,0,0,1
1,1,1,1,1,0,1,0,1,1,1,1,1
1,1,1,1,1,1,1,1,1,1,1,1,1
1,1,1,0,0,0,0,0,0,0,0,1,1
1,0,0,0,0,0,0,0,0,0,0,1,1
1,0,0,0,0,0,0,0,0,0,0,0,1
1,1,1,0,0,0,1,1,1,0,0,1,1
1,1,1,0,0,0,0,0,0,0,0,1,1
1,1,1,0,0,0,0,0,0,0,0,1,1
1,0,0,0,0,1,1,0,0,0,0,1,1
1,1,1,0,0,0,1,0,0,1,1,1,1
1,1,0,0,0,0,0,0,0,0,0,1,1
1,1,1,0,0,0,0,0,0,0,0,1,1
1,0,0,0,0,0,0,0,0,0,0,1,1
1,1,1,1,1,1,1,1,1,1,1,1,1
1,1,1,0,0,0,0,0,0,0,1,0,1
1,1,1,0,0,0,0,0,0,0,1,1,1
1,1,0,0,0,0,0,0,0,0,1,1,1
1,1,0,0,0,0,0,0,0,0,1,1,1
1,1,0,0,0,0,0,0,0,0,0,1,1
1,0,0,0,0,0,0,0,0,0,0,1,1
1,1,1,1,1,0,0,0,1,1,1,1,1
1,1,1,0,0,0,1,1,0,0,0,1,1
1,1,0,0,0,1,1,1,0,0,1,1,1
1,0,1,0,0,0,0,0,0,0,1,1,1
1,1,1,0,0,0,0,1,1,0,0,0,1
1,1,0,0,0,0,0,0,0,0,0,1,1
1,1,1,1,0,0,0,0,0,0,1,1,1
1,0,1,1,0,0,0,0,0,0,1,1,1
1,1,1,1,1,1,1,1,1,1,1,1,1
1,1,1,0,0,0,0,1,0,0,1,1,1
1,1,1,0,0,0,0,0,0,0,0,1,1
1,1,1,0,0,0,0,0,0,0,0,0,1
1,1,0,0,0,0,1,0,0,0,1,0,1
1,0,0,0,0,1,1,0,0,0,0,1,1
1,0,1,0,0,0,0,0,0,0,0,1,1
1,1,0,0,0,0,0,0,0,0,1,1,1
1,0,0,0,0,1,1,0,0,0,0,1,1
1,1,0,0,0,0,0,0,0,0,1,1,1
1,1,0,0,0,0,0,0,0,0,1,1,1
1,1,0,0,0,1,0,0,0,0,0,1,1
1,1,1,0,0,0,0,0,0,0,0,1,1
1,0,1,0,0,0,0,0,0,0,0,0,1
1,1,0,0,0,0,0,0,0,0,0,0,1
1,0,0,0,0,0,0,0,0,0,0,0,1
1,1,1,0,0,0,0,0,0,0,0,1,1
1,1,0,0,0,0,0,1,0,0,0,1,1
1,0,1,0,0,0,0,0,0,0,0,0,1
1,0,0,0,0,0,1,0,0,0,0,0,1
1,1,1,0,0,0,0,0,0,0,0,0,1
1,1,0,0,0,0,0,0,0,0,0,1,1
1,1,1,0,0,0,0,0,0,0,1,1,1
1,1,0,0,0,1,1,0,1,1,1,1,1
1,1,1,0,0,0,0,0,0,1,0,1,1
1,1,1,1,0,0,0,0,0,0,0,0,1
1,1,1,0,1,1,1,1,1,0,1,1,1
1,1,1,0,0,0,0,0,0,0,1,1,1
1,1,0,0,0,0,0,0,0,0,1,1,1
1,1,0,1,1,0,0,1,1,1,1,1,1
1,0,0,0,0,0,0,0,0,0,1,0,1
1,1,0,0,0,0,0,0,0,0,0,1,1
1,1,1,0,0,0,0,0,0,1,1,1,1
1,1,0,0,0,0,0,0,0,0,0,0,1
1,1,0,0,0,0,0,0,0,0,0,1,1
1,1,0,0,0,1,1,1,0,0,0,1,1
1,1,0,0,1,1,1,1,0,0,1,1,1
1,1,0,0,0,0,1,1,0,0,0,0,1
1,1,0,0,0,0,0,0,0,0,0,0,1
1,1,1,1,0,0,0,0,0,0,1,1,1
1,1,0,0,0,0,0,0,0,0,1,0,1
1,0,0,0,1,0,0,0,0,0,1,1,1
1,1,1,0,0,0,0,0,0,0,0,0,1
1,1,1,1,0,0,0,0,0,1,1,1,1
1,1,0,0,0,0,0,0,0,0,0,1,1
1,0,0,0,0,0,0,0,0,0,0,1,1
1,0,1,0,1,1,1,0,0,0,1,1,1
1,1,1,0,0,0,0,0,1,1,1,1,1
1,0,1,0,0,0,0,0,0,0,0,1,1
1,1,1,0,0,0,0,0,0,0,1,1,1
1,0,0,0,0,0,0,0,0,0,0,1,1
1,0,0,0,0,1,1,0,0,0,0,1,1
1,1,1,1,0,1,1,1,1,1,1,1,1
1,1,0,0,0,0,0,0,0,0,1,1,1
1,1,1,1,1,1,1,1,1,1,1,1,1
1,1,1,0,0,0,0,0,0,0,0,1,1
1,1,0,0,0,1,1,1,0,0,0,1,1
1,1,0,0,0,0,0,0,0,0,0,1,1
1,1,1,0,0,0,0,0,0,1,1,1,1
1,0,0,0,0,0,0,0,0,0,0,0,1
1,0,1,0,1,1,1,0,1,0,1,1,1
1,0,0,0,0,1,0,0,0,1,1,1,1
1,1,0,0,0,0,0,0,0,1,1,1,1
1,1,0,0,0,0,0,0,0,0,0,0,1
1,1,1,1,0,0,0,0,0,0,0,1,1
1,1,0,0,0,0,0,0,0,0,0,0,1
1,0,0,0,0,0,0,0,0,0,1,0,1
1,1,1,0,0,0,0,0,0,0,0,1,1
1,1,1,1,1,0,0,1,0,1,1,1,1
1,0,1,0,0,0,0,0,0,0,0,0,1
1,0,0,0,0,0,0,0,0,0,0,1,1
1,1,0,0,0,0,0,0,0,0,0,0,1
1,1,0,0,0,0,0,0,0,0,0,1,1
1,1,1,0,0,0,0,0,0,0,0,1,1
1,1,0,0,0,0,0,0,0,0,0,1,1
1,1,1,0,0,0,0,0,0,0,0,1,1
1,1,0,0,0,0,0,0,1,0,1,1,1
1,1,1,1,0,0,0,0,0,0,1,1,1
1,1,1,1,1,1,1,1,1,1,1,1,1
1,0,0,0,0,0,0,0,0,0,0,1,1
1,0,0,0,0,0,0,0,0,0,0,1,1
1,1,0,0,1,0,1,1,0,0,1,1,1
1,1,0,0,0,0,0,0,0,0,0,0,1
1,1,1,1,1,0,1,1,0,1,0,1,1
1,0,0,0,0,0,0,0,0,0,1,1,1
1,0,0,0,0,0,0,0,0,0,0,1,1
1,1,1,1,1,1,1,1,1,1,1,1,1
1,1,0,1,0,0,0,0,0,0,0,1,1
1,1,1,0,0,0,0,0,0,1,1,1,1
1,0,0,0,0,0,0,0,0,0,0,0,1
1,1,7,1,30,30,30,30,30,30,1,1,1
1,1,4,1,1,2,1,1,1,1,1,1,1
1,1,1,13,1,6,1,1,1,3,1,4,1
1,1,30,30,1,22,1,1,30,30,1,3,1
1,1,1,1,1,1,1,1,1,1,1,1,1
1,1,1,30,30,30,30,30,30,1,1,1,1
1,1,1,30,30,30,30,30,30,30,30,1,1
1,30,28,1,1,15,1,30,30,1,1,9,1
1,1,1,7,1,1,1,1,1,1,1,1,1
1,2,1,1,5,1,1,30,13,4,1,1,1
1,5,30,30,30,1,1,1,1,30,30,30,1
1,3,30,4,1,3,1,9,30,5,1,30,1
1,1,1,1,1,30,30,30,30,1,1,1,1
1,1,1,30,30,30,30,30,30,30,1,1,1
1,1,1,30,30,30,30,30,30,30,30,1,1
1,30,30,11,11,4,5,30,8,30,30,1,1
1,1,1,1,1,14,1,1,1,1,1,1,1
1,1,1,1,1,1,1,1,1,1,1,1,1
1,1,1,4,6,4,1,6,30,5,5,1,1
1,1,1,1,30,30,30,30,30,5,3,1,1
1,1,3,1,1,1,1,1,1,1,1,1,1
1,9,30,30,30,30,30,30,30,30,5,1,1
1,1,1,1,5,4,3,3,3,4,1,1,1
1,1,3,30,1,11,11,2,1,1,1,1,1
1,21,1,1,1,1,1,1,4,4,1,1,1
1,1,4,1,10,1,1,1,7,1,6,1,1
1,1,14,30,30,11,30,30,30,30,1,3,1
1,1,10,30,30,30,30,30,30,30,25,24,1
1,1,15,5,3,30,30,30,30,18,1,1,1
1,1,1,1,1,1,1,1,1,1,1,1,1
1,1,5,24,4,4,3,3,4,5,6,1,1
1,8,30,19,30,30,1,1,1,3,1,1,1
1,3,30,1,1,30,1,1,1,1,1,1,1
1,1,1,1,1,1,1,1,1,1,1,1,1
1,1,1,1,1,1,1,1,1,1,1,1,1
1,1,26,30,30,30,30,30,5,30,12,1,1
1,1,21,1,7,1,1,1,30,3,10,30,1
1,1,6,5,30,3,1,1,1,30,30,1,1
1,1,1,7,30,30,30,30,30,30,21,6,1
1,30,1,19,30,30,30,30,30,30,19,5,1
1,1,1,1,1,1,1,1,1,1,1,1,1
1,1,1,23,30,30,30,30,3,30,1,1,1
1,1,1,1,1,30,1,1,30,5,4,1,1
1,1,1,30,30,30,30,30,30,30,30,30,1
1,1,1,30,1,5,1,1,1,1,1,8,1
1,1,1,1,1,1,1,1,1,1,1,1,1
1,1,1,3,1,1,1,1,1,8,1,5,1
1,5,30,1,1,1,30,5,30,3,1,1,1
1,1,1,1,1,1,1,1,1,1,1,1,1
1,1,1,7,18,8,1,1,1,9,1,1,1
1,5,1,1,1,1,1,1,1,1,6,1,1
1,1,1,8,8,1,1,1,1,30,1,1,1
1,1,1,30,30,30,30,30,30,30,30,1,1
1,30,1,7,4,18,3,10,7,9,4,1,1
1,1,30,30,30,30,30,30,30,30,30,30,1
1,7,30,3,11,16,3,3,30,30,30,9,1
1,1,1,30,30,30,30,30,30,30,30,1,1
1,1,1,5,30,1,1,3,1,1,30,1,1
1,30,1,30,30,30,30,30,30,30,30,30,1
1,1,1,1,1,1,1,1,1,1,1,1,1
1,1,10,30,30,30,30,30,30,30,30,7,1
1,1,1,1,1,1,1,2,1,7,1,1,1
1,1,1,12,30,30,22,30,11,9,1,1,1
1,1,1,1,1,1,3,3,1,1,1,1,1
1,1,5,11,30,30,30,30,30,20,1,1,1
1,1,1,8,6,4,28,3,3,3,7,10,1
1,16,30,17,10,1,5,30,30,19,6,1,1
1,1,1,30,30,30,30,30,30,30,6,1,1
1,1,30,30,1,30,1,1,1,30,1,1,1
1,1,30,1,3,30,30,3,1,30,1,1,1
1,30,30,30,30,8,30,30,1,1,1,1,1
1,1,4,1,14,5,30,30,1,1,1,1,1
1,1,1,30,30,30,30,30,30,20,1,1,1
1,1,1,30,30,30,30,30,30,30,30,30,1
1,1,1,30,30,30,30,3,30,16,1,1,1
1,1,1,1,1,1,1,1,1,1,1,1,1
1,1,1,11,1,1,1,1,1,1,1,1,1
1,1,10,1,30,30,1,1,9,1,30,30,1
1,1,1,1,1,1,1,1,1,1,1,1,1
1,1,1,30,30,30,30,30,30,30,30,1,1
1,1,3,30,1,1,1,30,30,1,1,1,1
1,1,1,3,3,5,30,1,1,1,1,1,1
1,1,1,30,30,14,30,30,30,30,30,30,1
1,1,1,1,30,1,1,30,30,30,1,1,1
1,1,1,3,5,4,3,1,1,1,1,1,1
1,1,5,9,1,1,1,1,1,1,1,9,1
1,30,16,30,8,1,1,30,30,12,7,1,1
1,17,1,30,30,30,30,30,30,5,1,1,1
1,1,1,1,1,30,3,30,30,30,1,1,1
1,1,30,30,30,30,30,30,30,30,30,1,1
1,1,30,14,30,13,30,3,30,30,30,1,1
1,30,30,30,4,1,1,1,30,4,4,1,1
1,1,1,30,30,30,3,3,14,30,1,1,1
1,9,30,9,5,30,30,6,18,30,11,1,1
1,1,1,1,1,1,1,1,1,1,1,1,1
1,1,30,30,30,30,30,30,30,30,30,30,1
1,1,5,1,1,1,1,1,5,1,1,1,1
1,1,1,1,1,18,1,1,1,1,20,1,1
1,6,23,30,30,30,30,30,30,12,1,1,1
1,1,1,1,1,1,1,1,1,1,1,1,1
1,30,1,30,1,13,1,30,1,30,1,11,1
1,1,1,1,1,1,1,1,1,1,1,1,1
1,1,15,9,1,1,6,28,4,1,1,1,1
1,1,1,3,8,6,1,7,3,30,30,1,1
1,1,1,1,21,3,30,1,4,3,6,1,1
1,1,1,1,1,1,1,30,30,30,1,1,1
1,30,1,30,30,14,17,30,21,26,1,1,1
1,1,1,5,5,21,1,1,3,1,1,1,1
1,1,1,1,1,1,1,4,4,1,1,1,1
1,1,1,17,1,1,1,1,1,20,1,1,1
1,30,30,30,30,30,30,30,30,30,30,1,1
1,1,7,5,6,30,5,30,6,15,9,3,1
1,1,5,6,5,8,6,7,6,7,9,1,1
1,6,23,30,10,30,30,30,30,3,6,1,1
1,1,1,1,1,1,4,5,5,6,3,1,1
1,1,18,30,30,30,30,30,30,30,30,1,1
1,1,30,30,30,30,30,30,23,26,1,1,1
1,1,8,26,30,1,30,1,1,4,18,1,1
1,1,1,1,1,1,1,1,1,1,1,1,1
1,10,4,7,8,9,9,30,6,3,12,1,1
1,9,30,30,30,30,1,1,1,1,1,1,1
1,1,1,1,1,20,1,1,1,1,1,1,1
1,1,30,30,30,30,30,30,30,30,1,30,1
1,1,13,30,30,30,30,30,30,30,30,1,1
1,30,30,30,30,30,30,30,30,30,30,1,1
1,30,7,30,30,30,30,30,30,30,30,1,1
1,1,1,30,3,3,3,3,30,1,1,1,1
1,1,5,1,1,1,4,11,1,1,1,1,1
1,6,13,30,30,30,30,30,30,17,6,1,1
1,30,4,30,30,30,30,30,30,3,3,30,1
1,1,1,1,1,1,1,1,1,1,1,1,1
1,1,1,1,1,1,1,1,1,1,1,1,1
1,1,1,1,1,1,1,1,1,1,1,1,1
1,1,1,1,1,1,1,1,1,1,1,1,1
1,1,1,1,1,1,1,1,1,1,1,1,1
1,1,1,1,1,1,1,1,1,1,1,1,1
1,1,1,1,1,1,1,1,1,1,1,1,1
1,1,1,1,1,1,1,1,1,1,1,1,1
1,1,1,1,1,1,1,1,1,1,1,1,1
1,1,1,1,1,1,1,1,1,1,1,1,1
1,1,1,1,1,1,1,1,1,1,1,1,1
1,1,1,1,1,1,1,1,1,1,1,1,1
1,1,1,1,1,1,1,1,1,1,1,1,1
1,1,1,1,1,1,1,1,1,1,1,1,1
1,1,1,1,1,1,1,1,1,1,1,1,1
1,1,1,1,1,1,1,1,3,3,1,1,1
1,1,1,1,1,1,1,1,1,1,1,1,1
1,1,1,1,1,1,1,1,1,1,1,1,1
1,1,1,1,1,1,1,1,1,1,1,1,1
1,1,1,1,1,1,1,1,1,1,1,1,1
1,1,1,1,1,1,1,1,1,1,1,1,1
1,1,1,1,1,1,1,1,1,1,1,1,1
1,1,1,1,1,1,1,1,1,1,1,1,1
1,1,1,1,1,1,1,1,1,1,1,1,1
1,1,1,1,1,1,1,1,1,1,1,1,1
1,1,1,1,1,1,1,1,1,1,1,1,1
1,1,1,1,1,1,1,1,1,1,1,1,1
1,1,1,1,1,1,1,1,1,1,1,1,1
1,1,1,1,1,1,1,1,1,1,1,1,1
1,1,1,1,1,1,1,1,1,1,1,1,1
1,1,1,1,1,1,1,1,1,1,1,1,1
1,1,1,1,1,1,1,1,1,1,1,1,1
1,1,1,1,1,1,1,1,1,1,1,1,1
1,1,1,1,1,1,1,1,1,1,1,1,1
1,1,1,1,1,1,1,1,1,1,1,1,1
1,1,1,1,1,1,1,1,1,1,1,1,1
1,1,1,1,1,1,1,1,1,1,1,1,1
1,1,1,1,1,1,1,1,1,1,1,1,1
1,1,1,1,1,1,1,1,1,1,1,1,1
1,1,1,1,1,1,1,1,1,1,1,1,1
1,1,1,1,1,1,1,1,1,1,1,1,1
1,1,1,1,1,1,1,1,1,1,1,1,1
1,1,1,1,1,1,1,1,1,1,1,1,1
1,1,1,3,3,1,1,1,3,3,3,3,1
1,1,1,1,1,1,1,1,1,1,1,1,1
1,1,1,1,1,1,1,1,1,1,1,1,1
1,1,1,1,1,1,1,1,1,1,1,1,1
1,1,1,1,1,1,1,1,1,1,1,1,1
1,1,1,1,1,1,1,1,1,1,1,1,1
1,1,1,1,1,1,1,1,1,1,1,1,1
1,1,1,1,1,1,1,1,1,1,1,1,1
1,1,1,1,1,1,1,1,1,1,1,1,1
1,1,1,1,1,1,1,1,1,1,1,1,1
1,1,1,1,1,1,1,1,1,1,1,1,1
1,1,1,1,1,1,1,1,1,1,1,1,1
1,1,1,1,1,1,1,1,1,1,1,1,1
1,1,1,1,1,1,1,1,1,1,1,1,1
1,1,1,1,1,1,1,1,1,1,1,1,1
1,6,1,30,8,5,30,7,30,7,6,5,1
1,1,1,1,1,1,1,1,1,1,1,1,1
1,1,1,1,1,1,1,1,1,3,1,1,1
1,1,1,1,1,1,1,1,1,1,1,1,1
1,1,1,1,1,1,1,1,1,1,1,1,1
1,1,1,1,1,1,1,1,1,1,1,1,1
1,1,1,1,1,1,1,1,1,1,1,1,1
1,1,1,1,1,1,1,1,1,1,1,1,1
1,1,1,1,1,1,1,1,1,1,1,1,1
1,1,1,1,1,1,1,1,1,1,1,1,1
1,1,1,1,1,1,1,1,1,1,1,1,1
1,1,1,1,1,1,1,1,1,1,1,1,1
1,1,1,1,1,1,1,1,1,1,1,1,1
1,1,1,1,1,1,1,1,1,1,1,1,1
1,1,1,1,1,1,1,1,1,1,1,1,1
1,1,1,1,1,1,1,1,1,1,1,1,1
1,1,1,1,1,1,1,1,1,1,1,1,1
1,1,1,1,1,1,1,1,1,1,1,1,1
1,1,1,1,1,1,1,1,1,1,1,1,1
1,1,1,1,1,1,1,1,1,1,1,1,1
1,1,1,1,1,1,1,1,1,1,1,1,1
1,1,1,1,1,1,1,1,1,1,1,1,1
1,1,1,1,1,1,1,1,1,1,1,1,1
1,1,1,1,1,1,1,1,1,1,1,1,1
1,1,1,1,1,1,1,1,1,1,1,1,1
1,1,1,1,1,1,1,1,1,1,1,1,1
1,1,1,1,1,1,1,1,1,1,1,1,1
1,1,1,1,1,1,1,1,1,1,1,1,1
1,1,1,1,1,1,1,1,1,1,1,1,1
1,1,1,1,1,1,1,1,1,1,1,1,1
1,1,1,1,1,1,1,1,1,1,1,1,1
1,1,1,1,1,1,1,1,1,1,1,1,1
1,1,1,1,1,1,1,1,1,1,1,1,1
1,1,1,1,1,1,1,1,1,1,1,1,1
1,1,1,1,1,1,1,1,1,1,1,1,1
1,1,1,1,1,1,1,1,1,1,1,1,1
1,1,1,1,1,1,1,1,1,1,1,1,1
1,1,1,1,1,1,1,1,1,1,1,1,1
1,1,1,1,1,1,1,1,1,1,1,1,1
1,1,1,1,1,1,1,1,1,1,1,1,1
1,1,1,1,1,1,1,1,1,1,1,1,1
1,1,1,1,1,1,1,1,1,1,1,1,1
1,1,1,1,1,1,1,1,1,1,1,1,1
1,1,1,1,1,1,1,1,1,1,1,1,1
1,1,1,1,1,1,1,1,1,1,1,1,1
1,1,1,1,1,1,1,1,1,1,1,1,1
1,1,1,1,1,1,1,1,1,1,1,1,1
1,1,1,1,1,1,1,1,1,1,1,1,1
1,1,1,1,1,1,1,1,1,1,1,1,1
1,1,1,1,1,1,1,1,1,1,1,1,1
1,1,1,1,1,1,1,1,1,1,1,1,1
1,1,1,1,1,1,1,1,1,1,1,1,1
1,1,1,1,1,1,1,1,1,1,1,1,1
1,1,1,1,1,1,1,1,1,1,1,1,1
1,1,1,1,1,1,1,1,1,1,1,1,1
1,1,1,1,1,1,1,1,1,1,1,1,1
1,1,1,1,1,1,1,1,1,1,1,1,1
1,1,1,1,1,1,1,1,1,1,1,1,1
1,1,1,1,1,1,1,1,1,1,1,1,1
1,1,1,1,1,1,1,1,1,1,1,1,1
1,1,1,1,1,1,1,1,1,1,1,1,1
1,1,1,1,1,1,1,1,1,1,1,1,1
1,1,1,1,1,1,1,1,1,1,1,1,1
1,1,1,1,1,1,1,1,1,1,1,1,1
1,1,1,1,1,1,1,1,1,1,1,1,1
1,1,1,1,1,1,1,1,1,1,1,1,1
1,1,1,1,1,1,1,1,1,1,1,1,1
1,1,1,1,1,1,1,1,1,1,1,1,1
1,1,1,1,1,1,1,1,1,1,1,1,1
1,1,1,1,1,1,1,1,1,1,1,1,1
1,1,1,1,1,1,1,1,1,1,1,1,1
1,1,1,1,1,1,1,1,1,1,1,1,1
0.999999999999999,0.962267064681489,0.960810753359267,0.960905129256672,0.957473978091493,0.956786704976077,0.951844954084056,0.945491912245988,0.959782770712455,0.958688712862527,0.960065092005512,1,0.999999999999999
0.999999999999999,0.999999999999998,0.961773250759284,0.96225419335697,0.971041849669264,0.960234633924764,0.969422729547966,0.971041849669264,0.961184104404752,0.963503293434007,0.999999999999999,0.967246046438172,0.999999999999999
1,1,0.969634158126467,0.961306251152607,0.964151431595188,0.968966639041523,0.964432121519075,0.962388916459607,0.964152584655701,0.961075946329595,1,0.961309290618797,1
1,1,0.957889847856308,0.958850102619894,0.960811555141181,0.960030995160147,0.962321658979975,0.960811555141182,0.957026638145085,0.958084166953871,1,0.960002785634803,1
1,0.98126719723388,1,0.967871490187533,0.979183695881921,0.963898875829998,0.979566006981083,0.969771607846622,0.979730420298756,0.968557643537044,1,0.965167860034206,1
1,1,0.976225504428105,0.959161613159327,0.957395323053443,0.956845070322287,0.959262639449988,0.956905213821604,0.958872808088214,0.963519055188064,0.976225504428105,1,1
0.999999999999999,1,1,0.951194083769355,0.945494716937284,0.94268618888319,0.944698088638907,0.940378735239693,0.948416548092632,0.957638275614437,0.95620897277867,1,0.999999999999999
0.999999999999999,0.945759391716625,0.960072013634549,0.974391763456172,0.97180921570016,0.962191057484009,0.966829513554979,0.945560575669321,0.949981941670244,0.968713793167519,0.964917264324756,0.960062595415831,0.999999999999999
1,0.999999999999999,0.982507045460763,0.960240689102352,0.960265973936935,0.965003593299202,0.967102050086625,0.96917104341105,0.96997043900489,0.964696194003275,0.96980393497056,0.979331096167631,1
1,0.960178029268333,0.961395716993672,0.960081960973313,0.961031100866441,0.972227261892721,0.973116319813449,0.959134702664807,0.96025951926767,0.960028997757711,0.960261040542206,0.999999999999998,1
1,0.967600149460446,0.946298989826661,0.947629817000752,0.955582806545976,0.978264278454265,0.977749726239596,0.978088726607514,0.978264278454265,0.953808372152155,0.955965107199689,0.948229577851358,1
0.999999999999999,0.963027577951156,0.959589845583375,0.968099409670675,0.960728309888179,0.964745889931088,0.963053677178811,0.963398546727125,0.950950251211774,0.964683459393201,0.966789874802844,0.959748250950648,0.999999999999999
1,0.999999999999998,0.970322055438545,0.964404348788836,0.96254663432919,0.957261028832044,0.954452864569,0.957685000093723,0.959482502039528,0.964404348788836,0.962546634329191,0.970152170747549,1
1,1,0.981672486754343,0.958024876011573,0.947351791864956,0.946558920537969,0.948805727003206,0.950541358464037,0.945409035794386,0.958879536689122,0.981672486754343,1,1
0.999999999999999,0.999999999999996,1,0.948806197001989,0.9522140702361,0.951189443666096,0.956803483109899,0.95509370453281,0.943373427280678,0.945930733407811,0.957287996465914,1,0.999999999999999
1,0.949588226622242,0.955678019087965,0.960998051006971,0.961352952052769,0.961526592955019,0.960999458519897,0.953476565620383,0.964680307574529,0.95061349974669,0.954541313756663,1,1
0.999999999999999,0.97111309625308,0.972852238133874,0.966801097046903,0.962411815427979,0.96021687858912,0.963169783578093,0.962142353348048,0.962369457825176,0.970068500816486,0.96916694387185,0.972852238133874,0.999999999999999
0.999999999999999,1,0.975043513162153,0.973741015332892,0.968654966120787,0.975129833421613,0.988319110142052,0.986833229247672,0.967197506566838,0.967297409280222,0.962883439576647,0.975989375249872,0.999999999999999
1,1,1,0.961512858473312,0.964800445885199,0.962650517988132,0.977749726239596,0.964093323749679,0.942713543746101,0.964130696962444,0.964259906459808,1,1
1,0.999999999999999,0.97284258161927,0.962207035602973,0.959084159904869,0.95900680394918,0.957333068099761,0.957039565738805,0.957336185172374,0.960291852972781,0.96193190264107,0.969979177216765,1
1,0.966465716208539,0.960607797545409,0.964892173256394,0.973488018581655,0.978568284931608,0.976197711906923,0.970730220554912,0.962046658552969,0.962333708442832,0.978087947971278,0.999999999999999,1
1,0.960157555464999,0.955651874076979,0.949718417344524,0.952510291337569,0.950066349798685,0.949921128103529,0.943584985309187,0.944266051413915,0.950570415591801,0.96610424167445,1,1
1,0.976656372323993,0.963697734257765,0.961034307783087,0.960782417803774,0.96000141545087,0.960158684853545,0.962063788970158,0.962236056552974,0.961556276511284,0.963432338902809,0.978922121080762,1
1,0.999999999999999,0.961402705559602,0.952701790002846,0.961607208444078,0.960130439145732,0.960247454845374,0.960090441288743,0.973915717583069,0.96490148564254,0.961927584118218,1,1
0.999999999999999,0.960292333036335,0.962111176082974,0.965957521345029,0.963192323448854,0.962111176082974,0.965089521747104,0.966892068198281,0.960452844149603,0.96228066699919,0.961452319227614,1,0.999999999999999
0.999999999999999,1,0.966085172031444,0.999999999999999,0.962394167802202,0.969612239724382,0.97293364045433,0.975050080316621,0.963002241760167,0.97293364045433,0.960408454776537,1,0.999999999999999
1,0.999999999999999,0.96023705388271,0.95554055433248,0.955407701400962,0.960238102433743,0.955392548257864,0.950891979630756,0.956411572897352,0.958447367651122,0.999999999999999,0.961861646793524,1
0.999999999999999,1,0.97086850653796,0.94138780287632,0.948208516110598,0.946821321180068,0.948155950205631,0.950427594912231,0.94781098986298,0.948151748328778,0.960428637033261,0.961057605371584,0.999999999999999
1,1,0.96042490226132,0.960312560516028,0.963532327965843,0.959774824481739,0.958846944614296,0.958281474726312,0.959686853946423,0.960284538099318,1,1,1
1,0.999999999999997,0.968105004888727,0.968774171767891,0.971476521852372,0.970564098509188,0.970470134397023,0.976100309327176,0.963367960830301,0.962260203882489,0.96578575066732,1,1
0.999999999999999,1,0.961095624721526,0.960128630305971,0.962707558115335,0.96337149560592,0.964859051726024,0.960709644923719,0.963196776414834,0.961039160389301,0.961081285805549,1,0.999999999999999
0.999999999999999,0.960622157740246,0.957351560950262,0.960241840919055,0.958451239077895,0.957092914330815,0.965593257704366,0.963857276143864,0.964616963935816,0.960246729610084,0.963857276143864,1,0.999999999999999
1,0.961229675771884,0.957787610058265,0.966425770302107,0.965594431245987,0.955237340964939,0.967526558105521,0.971074645684046,0.966425770302106,0.966126677500893,0.964040603960969,1,1
0.999999999999999,1,1,0.97140787551298,0.961896887036988,0.96336260158097,0.968928249150346,0.968928249150346,0.970209282442445,0.97738034049792,0.974428411124749,1,0.999999999999999
1,0.982691390437996,0.977116241317067,0.967297409280222,0.969799815464861,0.982202761061588,0.986604315166876,0.974951976263213,0.970779324330203,0.973741015332892,0.976553891797352,1,1
1,0.962506247754281,0.9637268706002,0.958753330710542,0.957672170282764,0.956156016093175,0.958383766057326,0.959965859768328,0.960582077884401,0.957639282757285,0.96128720227669,1,1
0.999999999999998,1,0.962602097825322,0.965487207569834,0.960093445489018,0.960094778147596,0.960905073245773,0.960881919359154,0.955911887962896,0.965758880059222,0.960472364085639,0.959999808580238,0.999999999999998
0.999999999999998,1,0.960567929707014,0.961145128541152,0.958955587635297,0.961578807073441,0.960029633314269,0.961137671787777,0.960952961323113,0.959371130705191,0.953300783129906,0.999999999999999,0.999999999999998
0.999999999999999,1,0.999999999999998,0.961940998266862,0.937504385537692,0.942559508939784,0.946091859633788,0.941241064273899,0.944096340886102,0.944825204631465,0.960708679169503,0.966506476503817,0.999999999999999
1,0.944978002376697,1,0.962746671808965,0.945705316323648,0.950529588617857,0.959483832754572,0.951625620838596,0.954699577282196,0.958874604781833,0.960668021773091,0.964830283467365,1
0.999999999999998,1,0.99541857968321,0.993649687778347,0.991051544713093,0.98826620098833,0.988738730388004,0.987971462898199,0.987061053702377,0.991548690479126,0.993649687778346,0.99641885833051,0.999999999999998
0.999999999999999,1,0.967678132777728,0.960403393161283,0.954232785833692,0.954865379714257,0.956686934933293,0.956847965027301,0.961936072551035,0.957213486216341,0.967678132777728,0.999999999999999,0.999999999999999
1,1,1,0.96597848883493,0.964249421271475,0.958932648125027,0.960354702358203,0.962688454266081,0.9585951583302,0.960231049345807,0.960159218587409,1,1
1,1,0.999999999999998,0.940438796922501,0.939494863895616,0.945684047939036,0.939368129704208,0.936844251737147,0.940159395264128,0.930842589482793,0.925633242257527,0.928322797561423,1
1,0.999999999999998,0.960033210404707,0.959073569147994,0.971041849669264,0.960807545790588,0.977727370809892,0.971041849669264,0.967949653862634,0.962111245724208,0.999999999999998,0.960853140816661,1
0.999999999999999,0.969191462111668,0.963064313271402,0.968822097958091,0.963167389261325,0.983345073329944,0.976869193230289,0.968407657150033,0.969691398851571,0.965676889228312,0.966042830851979,1,0.999999999999999
0.999999999999999,0.968022519843005,1,0.960431847173258,0.961135260648042,0.96376953049084,0.971319099022743,0.961135260648041,0.966983513799908,0.961230150936573,0.968022519843005,0.96707462851887,0.999999999999999
0.999999999999999,0.9710863095178,0.95405914062375,0.960952961323112,0.960029633314268,0.961137671787777,0.958141074654589,0.965169544023894,0.958748415919196,0.962994245410829,1,0.999999999999997,0.999999999999999
1,0.971301847404135,0.974438498249958,0.971664664169944,0.966164083029721,0.968700485012363,0.96895728209862,0.966235870991122,0.973222666208745,0.968153148512713,0.969130545419613,1,1
0.999999999999998,1,0.968851183279309,0.965875943268326,0.961393296104705,0.960909050502446,0.965221444467365,0.963430480674214,0.96376953049084,0.961487894667372,1,0.999999999999999,0.999999999999998
0.999999999999997,0.974796542960348,0.960251147943749,0.96505452290431,0.98080454576961,0.978934035000172,0.976463841672205,0.980804545769611,0.978934035000172,0.960383145677192,0.960640498363217,0.999999999999999,0.999999999999997
0.999999999999999,1,0.972729775799964,0.962900447467234,0.960996668404908,0.961808139534103,0.96292742746044,0.969840062908671,0.965814012317399,0.956187686341668,0.963795491942212,1,0.999999999999999
0.999999999999999,1,1,0.94665114599804,0.950497185040666,0.949540928728226,0.946651201587871,0.950751821311079,0.942934260092794,0.950445241967477,0.948065997637465,1,0.999999999999999
1,0.955771797513965,1,0.960338402935443,0.961599645265031,0.960899849768843,0.961115166711508,0.960189737724865,0.961381115968112,0.960255181733313,0.960986598822663,0.965487207569835,1
1,1,0.94267027012387,0.944665440868923,0.946577536582418,0.932306755447504,0.930611800762871,0.926231545703533,0.927511034553371,0.936920980537754,0.952157382496655,0.930276933424098,1
1,0.961968138620446,0.954712046510575,0.962426246827021,0.961700621986015,0.960178295683952,0.964488487717034,0.963560964359483,0.950355129858675,0.955784480107411,0.95825327722615,0.96033963222846,1
0.999999999999999,1,1,0.951492630102012,0.951446556044273,0.942237568966907,0.937872629283445,0.954735897841911,0.957002836368376,0.957481894778966,0.954735897841911,1,0.999999999999999
0.999999999999999,1,0.963795491942211,0.963817809741629,0.954837939088471,0.965915515094375,0.967145932686837,0.963144664386163,0.96225419335697,0.967145932686837,0.957939485402256,1,0.999999999999999
1,0.925296256049534,0.999999999999999,0.898168939533768,0.916218543436735,0.92837555850608,0.907087508554757,0.915030510069382,0.906320161258545,0.926832925030961,0.925025606588288,0.928700163650428,1
1,0.975620406305494,0.973531645986944,0.97738034049792,0.973114990235717,0.976627621692228,0.980050367086904,0.980743100433941,0.97269352045302,0.973194111354353,0.981950252730502,0.975996983815512,1
0.999999999999999,0.999999999999999,0.965466386732351,0.957468488418687,0.954110957182527,0.957985632125737,0.958994266474344,0.954376414289898,0.958759275401161,0.954086951011574,0.954776939549277,0.960183857771971,0.999999999999999
1,0.999999999999999,0.96150512051076,0.961332845128123,0.969691398851571,0.972125727302743,0.970298010575818,0.960100770365884,0.96336260158097,0.961046527107444,0.96107270004672,1,1
0.999999999999998,0.999999999999999,0.962707519173239,0.960246153023669,0.958218006013058,0.959312903383065,0.960192617258337,0.954545681601191,0.961759025968344,0.960449190766757,0.962707519173239,1,0.999999999999998
1,0.964284219486593,0.962046658552969,0.962333708442832,0.963521653092313,0.963630085895878,0.963165030213645,0.963482596765996,0.965792470492818,1,0.966574487326854,1,1
1,1,0.966986344868898,0.962106682220203,0.955312921508462,0.953116281843012,0.957160731725824,0.9591096932727,0.957358724852229,0.96694884174004,0.961191605724256,0.999999999999999,1
1,1,0.999999999999999,0.969171072085803,0.963338572821163,0.961611358451036,0.960257554255819,0.960787929394539,0.961986362903509,0.963250316717982,0.963260151538299,0.960334661396118,1
1,0.960811551108924,0.959644881543327,0.960402642771791,0.963738864295549,0.961089193458638,0.96080582813735,0.959902369027425,0.952412117197585,0.960123081272734,0.960843039893775,1,1
0.999999999999999,1,0.999999999999998,0.953897539989913,0.95143549508251,0.952962181970498,0.948581660664964,0.946278907003758,0.957187250387607,0.947691702518994,0.960845569846491,0.999999999999999,0.999999999999999
1,0.961011588019927,0.951420904863725,0.946014278010462,0.965104955867371,0.955327773101939,0.965458072943403,0.965104955867371,0.96117942490514,0.953531374289095,0.964331811089435,1,1
1,0.975369290917035,0.958097540663789,0.960339380004164,0.960983187721163,0.955872471982758,0.957233278901743,0.960086344452023,0.960339380004164,0.95813702001627,0.970818806131467,1,1
1,0.955054209979364,0.95994159679336,0.957986675003761,0.951974591941819,0.960436262486404,0.958814151406395,0.955751047695583,0.961651781342913,0.963871222807678,0.999999999999999,0.976699893901401,1
1,0.999999999999999,0.961155103741898,0.961216188165342,0.962882594485373,0.960514415762439,0.959241565156467,0.95818578160231,0.963939371415782,0.964160931578764,0.965318170557169,1,1
0.999999999999999,1,1,0.951017920904469,0.953553117693664,0.950791020085144,0.952347692569683,0.950017984619793,0.945941642557332,0.960432358280372,1,1,0.999999999999999
1,1,0.963472396604934,0.95673501555396,0.95825740428778,0.956919478304773,0.958143895808247,0.953400448137651,0.95685506009429,0.955779105290973,0.946908530528634,0.951443826316371,1
0.999999999999998,0.999999999999999,0.966719714010997,0.957245094902827,0.951349120175274,0.948373187208067,0.945788028739315,0.960260947343863,0.956136150426475,0.960362672276116,0.962893475458739,0.999999999999999,0.999999999999998
1,0.999999999999999,0.970779324330202,0.972687846825766,0.97442841112475,0.983248661310083,0.986488935281038,0.983476065328869,0.963431704097055,0.968436409153126,0.966695213026774,1,1
1,1,0.964171045459759,0.960069537152121,0.967574637765067,0.968721470989835,0.969524522171527,0.967574637765067,0.972627732886498,0.966171068090777,1,1,1
1,0.999999999999999,0.964960283892939,0.968713793167519,0.949797378927852,0.956274391796201,0.971461968670038,0.96059500813286,0.963610227143782,0.974391763456172,0.95441621022153,0.955324000292507,1
1,1,0.96568803199345,0.966494441457459,0.966695213026774,0.966059548939849,0.965300373004225,0.963323506997809,0.965122642095693,0.968297932050618,0.967880573424513,0.968009797192305,1
1,0.999999999999999,0.977678229277649,0.957628315996,0.94208111126373,0.947260230478313,0.945933951262844,0.940804837792719,0.937759234111283,0.950535167901302,0.956794484488476,0.979333017522487,1
1,1,0.960173708629335,0.956149914701168,0.961753993366935,0.964877277024761,0.96279897145659,0.957142568210762,0.952582355787036,0.969324913679401,1,0.969073178599927,1
0.999999999999999,0.967298234243656,0.964264444708098,0.961312933996941,0.960677400276535,0.960497593201851,0.957711059303578,0.961742325782957,0.961505120510759,0.961332845128123,1,1,0.999999999999999
1,0.999999999999999,0.999999999999999,0.955460234469213,0.954079503030655,0.960013790104855,0.957499138874807,0.949401393432394,0.949762559249373,0.951586047930804,0.94700805303638,0.949534463840845,1
0.999999999999999,0.999999999999999,1,0.960161173534925,0.945925115371451,0.96117942490514,0.965458072943402,0.951307285928795,0.948777770635101,0.953992892006984,1,0.96582227776242,0.999999999999999
0.999999999999999,0.999999999999999,0.972777322143764,0.96270640437923,0.961762742061611,0.9609751858306,0.962133771500077,0.963323506997809,0.964450494760344,0.966695421689774,0.969747290992646,1,0.999999999999999
1,0.962976219742594,0.961888450367389,0.961728091544248,0.96104721523054,0.962248601767752,0.971319099022744,0.96104721523054,0.971622161401782,0.965818676690181,0.962976219742594,0.965459250300599,1
1,0.95561455044421,0.960003322463224,0.959219705961479,0.963362187507896,0.968485914930994,0.970207774987381,0.951377765118051,0.957460892426284,0.96213504116918,0.971757758521781,0.999999999999998,1
0.999999999999999,0.962153479964062,0.999999999999999,0.948940028344341,0.952520802557564,0.951821847136212,0.950436382365606,0.949578862908638,0.956609378149001,0.960246319855557,1,0.999999999999999,0.999999999999999
1,0.97022154866156,1,0.96637395688251,0.965392323129234,0.959960590668402,0.960443343884045,0.959233362877806,0.959236473779393,0.958864684118748,0.962215543580352,1,1
0.999999999999999,1,0.953462019610601,0.952497820960437,0.947772439535113,0.953365052111138,0.951250694627957,0.954013569380081,0.953876671070229,0.953293632713801,0.958197986812792,1,0.999999999999999
0.999999999999997,0.960018492355671,0.952768358058063,0.960013784135466,0.95886448568891,0.960035107423714,0.958844219790369,0.961438342047759,0.959039513304821,0.95797076231622,0.959074285789032,1,0.999999999999997
1,0.954876114302541,0.952204951845023,0.959238713522833,0.962205763271895,0.980611911211986,0.978249803493929,0.965953307725368,0.94690436980075,0.962970600677264,0.962344454736797,1,1
1,0.999999999999999,0.980526498065211,0.951165414160489,0.951412690347163,0.956507701434776,0.960901346206781,0.960246850897126,0.960041241502624,0.953061042210553,0.980526498065212,1,1
0.999999999999999,0.96106312049797,0.959900202840613,0.960949473325197,0.961242434522583,0.959172839453366,0.959863292992415,0.962160266530409,0.962367284529804,0.950088090824085,0.961186162831342,0.999999999999999,0.999999999999999
1,0.999999999999999,1,0.984503588255497,0.976343846878061,0.9897970597973,0.988870944693642,0.989134423219144,0.989797059797299,0.97726568087289,0.984323887996126,1,1
1,1,0.933923998092256,0.923773858221728,0.939146175698668,0.938210595118763,0.937419583850503,0.924864678582647,0.919870269602266,0.92877856120008,0.925263247023223,0.940430037440836,1
0.999999999999999,0.999999999999999,0.967741510719234,0.963430480674215,0.9658140123174,0.986866458593169,0.986987518031437,0.983619469501291,0.961441980298023,0.960337060363631,0.972729775799963,1,0.999999999999999
1,1,0.969324913679401,0.967125230716625,0.962430032543543,0.960091576850383,0.960258408415658,0.962328532249402,0.960869827540312,0.962186370410591,0.960074501104497,1,1
1,0.961421233127246,0.960162799953293,0.951792362451912,0.954276872269052,0.955308424268318,0.951427264986332,0.955203808098024,0.954945324311649,0.961156389797583,1,1,1
1,0.970508770178208,0.969279030840521,0.973194111354352,0.970006553134706,0.976101134284767,0.97284524951868,0.972280873508772,0.969451112388938,0.971115952158154,0.970168106111749,0.977573515527515,1
1,0.951702848081243,0.999999999999999,0.95211595178174,0.962181423138544,0.961644181315998,0.963489915233775,0.956070788596034,0.965969178560512,0.958917744132104,1,0.960338439570008,1
1,0.978839843277315,0.972627732886498,0.966171068090777,0.967903854986292,0.970592593793762,0.970458214904012,0.97553584909515,0.96417104545976,0.960737107518338,0.976827975083575,1,1
1,1,0.962618792263761,0.966506523272262,0.978934035000171,0.976463841672206,0.964157335775416,0.963050945874709,0.961121022972864,0.999999999999999,0.999999999999999,1,1
1,1,0.960152463413957,0.961505072438187,0.960702584952128,0.961380626758698,0.961966949530013,0.960619187109001,0.961205982216115,0.959756088200563,0.956287579438595,0.962471967443204,1
1,0.967477529973677,1,0.964381545879424,0.960192796457083,0.962035832131745,0.959855533615196,0.962567176585565,0.960816333690227,0.960591439289838,0.961173613982261,0.964381545879424,1
1,1,0.960056485525636,0.963020784900158,0.971115952158153,0.963647509086391,0.963020784900159,0.959492309454685,0.955123741619121,0.95901037791414,0.96200055729582,0.960615969955072,1
0.999999999999998,0.956195365818956,0.960651082586384,0.953344156475836,0.955923355807024,0.960539073442798,0.961193288478214,0.960032875511685,0.960022000525115,0.960084783240485,1,0.974111224508321,0.999999999999998
0.999999999999999,1,1,0.960027398655413,0.961328621037242,0.960094078396385,0.960354702358203,0.962688454266082,0.961771524800873,0.961391403343498,0.962430032543543,1,0.999999999999999
1,1,0.964494571545346,0.963111124342654,0.962545986589726,0.966400597715233,0.967526558105521,0.960615091843829,0.96037400451213,0.963111124342654,0.962545986589727,0.966900505012287,1
0.999999999999999,0.967071710245228,1,0.962451949010629,0.964487081295686,0.961894912286834,0.966662598374851,0.964487081295686,0.966983513799908,0.960131633374619,0.967071710245228,0.968851183279309,0.999999999999999
1,0.957321240032396,0.953482776620857,0.95033570647175,0.949708278848184,0.95998725710294,0.959338095717576,0.94213285646191,0.94793110602189,0.952854462190234,0.951880188550464,1,1
1,0.999999999999999,0.967354569786483,0.963710156900383,0.961765516334553,0.959090312613238,0.961847649553463,0.958242199082977,0.960917423866508,0.960879113593772,0.962895826172442,0.963429239594781,1
0.999999999999999,1,0.960186979884696,0.961136580720244,0.961006761735534,0.96100113009167,0.960578715826645,0.961919562332053,0.961520477039389,0.960897775035046,0.960113492847613,1,0.999999999999999
0.999999999999998,0.974984741764318,0.965503369078783,0.959920778303284,0.960804465002597,0.952929310486205,0.958935549748569,0.957916403316452,0.956131694140687,0.964454612680065,0.963395799644693,1,0.999999999999998
1,0.970206506042509,0.965835107503997,0.969619523815164,0.969609612456668,0.963034459679754,0.961009873699374,0.961720752292915,0.961188882499629,0.960524064613148,0.960608324910701,0.967469820516104,1
1,1,0.961190188837316,0.949814893718656,0.955617137933733,0.956233024436029,0.953517234440701,0.951326804729009,0.953268440861468,0.941708192352935,0.956273743822204,1,1
0.999999999999997,0.999999999999998,0.957409755753433,0.957404163641789,0.9579450895424,0.956393587925454,0.959295931512701,0.956141045946327,0.962203602629061,0.960160912646535,0.999999999999998,1,0.999999999999997
0.999999999999999,0.999999999999999,0.961167871684592,0.963225572408875,0.95901062262822,0.961753993366935,0.958688374807682,0.96279897145659,0.961753993366934,0.960378080363506,0.960891181189971,1,0.999999999999999
1,0.999999999999999,0.974258571140658,0.96883516519835,0.968332488388983,0.963894983646786,0.96883516519835,0.96883516519835,0.965757830349111,0.974856767355108,0.999999999999999,1,1
0.999999999999999,0.960613137105952,0.961852434571527,0.960642997825399,0.960012690722188,0.960759734949631,0.960048884949577,0.954445161472304,0.960492338621948,0.963618424557057,0.960003265774438,1,0.999999999999999
1,0.960064409415059,0.957079526121227,0.958351513401629,0.957019663961722,0.960818324789547,0.962885976682404,0.9630029946726,0.965978488834931,0.964249421271475,0.973575231458937,0.999999999999999,1
1,1,0.977823900851398,0.969208890707968,0.9751180039617,0.96018919454968,0.974483871882347,0.9751180039617,0.973601061944326,0.974438498249958,1,0.966651085417289,1
0.999999999999998,0.999999999999999,0.957655833967197,0.946497275295948,0.941191087952491,0.948296064681835,0.94483236824219,0.945331117423384,0.945443225699895,0.945805972735968,0.964308039549499,0.958194125051677,0.999999999999998
1,1,0.961888629622069,0.954399404944043,0.952634721033565,0.950716039182199,0.958788475686783,0.95661131868755,0.95281412742254,0.954290296243521,0.952828419385525,1,1
0.999999999999999,0.947132774222792,0.948826973409694,0.94739227965811,0.948556154135136,0.947264031811599,0.948538460684803,0.9541592003354,0.957100273331457,0.948830925348802,0.948652808935326,1,0.999999999999999
1,0.957570694037136,0.960407863024398,0.956561826244903,0.95937381153973,0.949468713757313,0.95389421680015,0.956951949426969,0.949356244762404,0.95717599253329,0.951691285962559,1,1
0.999999999999999,0.999999999999999,0.967617962301624,0.958921202677605,0.960512961541846,0.960220506407592,0.961020425006508,0.960283978819895,0.958068948151214,0.968544201753279,1,1,0.999999999999999
0.999999999999999,0.999999999999999,0.961785230335323,1,0.964616963935816,0.965593257704365,0.962211293331805,0.962981624436145,0.960251147943748,0.965054522904311,0.961894912286833,1,0.999999999999999
0.999999999999999,0.965586914322563,0.967273339296724,0.957256921212288,0.954151889065699,0.952420709063922,0.945852851016608,0.955274597302729,0.949925903814179,0.962976864883565,0.962324530161815,1,0.999999999999999
0.999999999999999,0.953175800830857,0.963110591351377,0.95504648875644,0.954071628857984,0.947190767474467,0.942367039366206,0.950753632485251,0.952517330439515,0.963581964255547,0.966478705851649,0.946389342895166,0.999999999999999
1,0,0,0,0,1,1,0,0,0,0,1,1
1,1,1,0,0,0,0,0,0,0,0,1,1
1,1,1,0,0,0,0,0,0,0,1,1,1
1,0,0,0,0,0,0,0,0,0,0,1,1
1,1,1,0,0,1,1,1,0,0,1,1,1
1,0,1,0,0,0,0,0,0,0,1,1,1
1,1,1,0,0,0,0,0,0,0,0,1,1
1,1,0,0,0,0,0,0,0,0,1,1,1
1,1,1,0,0,1,1,1,0,0,1,1,1
1,0,0,0,0,0,0,0,0,0,0,1,1
1,0,0,0,0,1,1,0,0,0,0,1,1
1,0,0,0,0,0,0,0,0,0,0,1,1
1,1,0,0,0,0,0,0,0,0,0,0,1
1,1,0,0,0,0,0,0,0,0,0,1,1
1,0,1,0,0,0,0,0,0,0,0,1,1
1,1,1,0,0,0,1,1,0,0,0,1,1
1,1,0,0,0,0,0,0,0,0,0,1,1
1,1,1,0,0,0,0,0,0,0,0,1,1
1,1,0,0,0,0,0,0,0,0,0,1,1
1,1,1,0,0,0,0,0,0,0,0,1,1
1,1,1,0,0,0,1,1,1,0,0,0,1
1,1,0,0,0,0,0,0,0,0,0,1,1
1,1,1,0,0,1,1,1,0,0,1,1,1
1,0,1,0,0,0,0,0,1,0,0,0,1
1,0,0,0,0,0,0,0,0,0,0,1,1
1,1,1,0,1,1,1,1,1,0,1,1,1
1,1,1,0,0,0,0,0,0,0,1,1,1
1,1,1,1,1,1,1,1,1,1,1,1,1
1,0,0,0,0,0,0,0,0,0,0,1,1
1,0,0,0,0,0,0,0,0,0,0,0,1
1,1,0,0,1,1,1,1,0,0,1,1,1
1,1,1,0,0,0,1,1,1,0,0,0,1
1,1,1,1,0,0,0,0,0,0,1,1,1
1,0,1,0,0,0,0,0,0,0,0,1,1
1,1,0,0,0,0,1,1,0,0,0,0,1
1,1,0,0,0,0,0,0,0,0,1,1,1
1,0,0,0,0,1,0,0,0,0,0,1,1
1,1,0,0,0,1,1,1,0,0,0,1,1
1,0,0,0,0,0,0,0,0,0,0,1,1
1,1,1,1,1,1,1,1,1,1,1,1,1
1,1,1,0,0,0,0,0,0,0,1,1,1
1,0,1,0,0,0,0,0,0,0,0,0,1
1,1,0,0,0,0,0,1,0,0,0,1,1
1,1,0,1,0,0,0,0,0,0,0,1,1
1,1,1,0,0,0,0,0,0,0,0,0,1
1,1,1,0,0,0,0,0,0,1,1,1,1
1,1,0,0,0,0,0,0,0,0,1,0,1
1,0,0,0,0,1,1,0,0,0,0,1,1
1,1,1,1,0,0,0,0,0,0,1,1,1
1,1,0,0,0,0,1,1,0,0,0,0,1
1,1,1,1,1,1,1,1,1,1,1,1,1
1,1,0,0,0,0,0,0,0,0,1,0,1
1,1,1,1,0,0,0,0,0,0,1,1,1
1,1,1,1,0,0,0,0,0,0,0,1,1
1,0,0,0,0,0,0,0,0,0,0,0,1
1,1,0,1,0,0,0,0,0,0,0,1,1
1,1,1,0,0,0,0,0,0,0,1,1,1
1,1,1,0,0,0,0,0,0,0,1,1,1
1,0,1,0,0,0,0,0,1,0,0,0,1
1,0,0,0,0,1,1,0,0,0,0,1,1
1,1,1,1,1,1,0,1,1,1,0,1,1
1,1,1,0,0,0,0,0,0,0,1,0,1
1,1,1,0,0,1,0,1,1,1,1,1,1
1,0,0,0,0,1,1,0,0,0,0,1,1
1,1,0,0,0,1,1,1,0,0,0,1,1
1,1,1,0,0,0,0,0,0,0,0,0,1
1,0,0,0,0,0,0,0,0,0,1,0,1
1,1,0,0,0,0,0,0,0,0,1,0,1
1,1,1,0,0,0,0,0,1,0,0,1,1
1,1,0,0,0,0,0,0,0,0,0,1,1
1,1,0,0,0,0,0,0,0,0,0,1,1
1,1,0,0,0,0,0,0,0,0,0,1,1
1,1,1,1,1,1,1,0,1,1,1,1,1
1,1,0,0,0,0,0,0,0,0,0,1,1
1,1,0,0,0,0,0,0,0,0,0,1,1
1,1,0,0,0,0,0,0,0,0,0,1,1
1,1,0,0,0,0,0,0,0,0,0,0,1
1,1,1,0,0,0,0,0,0,0,0,1,1
1,1,0,0,0,1,0,0,0,0,0,1,1
1,1,0,0,0,0,1,0,0,0,1,1,1
1,1,1,0,0,0,0,0,0,0,0,0,1
1,1,1,0,0,0,0,0,0,0,0,1,1
1,1,0,0,0,0,0,0,0,0,0,1,1
1,1,1,0,0,0,0,0,0,0,0,1,1
1,1,0,0,0,0,0,0,0,0,0,0,1
1,1,1,0,0,0,0,0,0,0,0,1,1
1,1,1,1,1,1,1,1,1,1,1,1,1
1,1,1,1,0,0,0,1,1,1,1,1,1
1,1,1,0,0,1,1,1,1,0,1,1,1
1,1,1,1,1,1,1,1,1,1,1,1,1
1,1,0,0,1,1,1,1,0,0,1,1,1
1,1,1,1,1,1,1,1,1,1,1,1,1
1,1,1,0,0,0,0,0,0,0,0,0,1
1,1,0,0,0,0,0,0,0,0,0,1,1
1,1,1,0,0,1,1,1,1,0,1,1,1
1,1,0,0,0,0,0,0,0,0,0,1,1
1,0,0,0,0,0,0,0,0,0,0,1,1
1,0,0,0,1,0,1,0,0,0,1,1,1
1,1,0,0,0,0,0,0,0,0,0,1,1
1,1,0,0,0,0,0,0,0,0,1,1,1
1,1,0,0,0,0,0,0,0,1,1,1,1
1,1,1,0,0,0,0,0,0,0,0,1,1
1,1,0,0,1,0,0,0,0,0,1,0,1
1,1,1,0,0,0,0,0,0,0,0,1,1
1,1,0,0,0,0,0,0,0,0,0,0,1
1,1,1,1,1,1,1,1,1,1,1,1,1
1,1,0,0,0,0,1,1,1,0,0,0,1
1,1,0,0,0,0,0,1,0,0,1,0,1
1,1,1,1,0,1,1,1,1,0,1,1,1
1,1,0,0,0,0,0,0,0,0,0,1,1
1,1,1,0,0,0,0,0,0,1,1,1,1
1,1,0,0,0,1,1,1,1,0,0,1,1
1,0,0,0,0,1,0,0,0,0,0,1,1
1,0,0,0,0,0,0,0,0,0,0,1,1
1,1,0,0,0,0,0,0,0,0,0,1,1
1,1,0,1,1,1,1,1,0,1,1,1,1
1,0,0,0,0,1,1,0,0,0,0,1,1
1,0,0,0,0,0,0,0,0,0,0,1,1
1,1,0,0,0,0,1,0,0,0,1,1,1
1,1,0,0,0,0,0,0,0,0,0,1,1
1,0,0,0,0,0,0,0,0,0,1,1,1
1,1,0,0,0,0,0,0,0,0,0,1,1
1,1,0,0,0,0,0,0,0,0,1,1,1
1,1,1,1,1,1,1,1,1,1,1,1,1
1,0,1,0,0,0,0,0,0,0,0,0,1
1,0,0,0,0,0,0,0,0,0,0,1,1
1,1,0,0,1,0,0,0,0,1,1,1,1
1,1,0,0,0,0,0,0,0,0,0,1,1
1,1,0,0,0,0,0,0,0,0,0,1,1
1,1,0,0,0,0,0,0,0,1,0,1,1
1,30,30,6,4,3,3,30,3,1,1,1,1
1,1,1,1,1,3,3,1,1,1,1,1,1
1,1,1,1,1,1,1,1,30,30,3,1,1
1,30,30,30,30,5,8,30,7,30,30,1,1
1,1,1,1,1,1,1,1,1,1,1,1,1
1,1,1,1,1,30,30,30,30,30,1,1,1
1,1,1,1,1,1,1,1,1,1,1,1,1
1,1,30,30,30,1,30,30,30,30,1,1,1
1,1,1,1,1,1,1,1,5,1,1,1,1
1,2,10,29,4,30,30,4,3,3,2,1,1
1,1,1,9,30,1,1,1,1,12,1,1,1
1,30,30,30,30,30,30,30,30,30,30,1,1
1,1,1,1,3,1,1,1,1,16,1,1,1
1,1,1,1,1,1,1,1,1,1,1,1,1
1,2,1,30,25,11,30,6,9,1,1,1,1
1,1,30,30,30,30,30,30,30,30,30,30,1
1,1,1,1,1,3,2,30,9,1,30,1,1
1,1,6,4,30,30,30,30,30,30,3,1,1
1,1,1,1,30,30,1,1,1,1,30,1,1
1,1,30,30,30,30,30,30,30,30,7,1,1
1,1,1,1,3,1,1,1,1,1,3,1,1
1,1,30,30,30,30,30,30,30,30,30,1,1
1,1,1,30,1,1,1,1,30,30,1,1,1
1,1,1,6,1,1,1,1,30,8,6,1,1
1,29,30,30,30,30,30,30,1,30,30,30,1
1,1,1,1,1,1,1,1,1,1,1,1,1
1,1,1,1,1,1,1,1,30,1,1,1,1
1,1,1,1,1,1,1,1,1,1,1,1,1
1,30,30,30,3,3,3,4,30,30,30,1,1
1,1,1,1,1,1,1,1,1,1,1,1,1
1,1,7,30,1,1,1,1,1,1,1,1,1
1,1,1,1,1,30,1,1,1,29,7,30,1
1,1,1,1,1,3,1,3,1,1,1,1,1
1,30,1,30,30,30,30,30,1,30,30,1,1
1,1,1,1,1,1,1,1,1,1,1,1,1
1,1,1,1,1,1,1,1,1,1,1,1,1
1,3,1,1,1,1,1,1,1,1,1,1,1
1,1,1,1,4,1,1,1,1,1,1,1,1
1,20,8,3,3,30,3,1,1,1,1,1,1
1,1,1,1,1,1,1,1,1,1,1,1,1
1,1,1,30,30,30,30,1,30,4,1,1,1
1,1,1,4,1,3,30,1,1,1,1,1,1
1,1,1,1,1,1,1,1,1,1,1,1,1
1,1,1,19,30,30,3,3,30,30,10,1,1
1,30,1,30,1,1,2,30,30,30,30,30,1
1,1,24,11,7,30,30,6,30,14,1,1,1
1,1,30,30,30,30,30,30,30,30,1,1,1
1,30,1,1,1,3,3,30,30,4,30,1,1
1,1,13,29,1,1,1,30,30,30,10,1,1
1,1,1,1,1,1,1,1,1,1,1,1,1
1,1,1,1,1,1,1,1,1,1,1,1,1
1,1,1,1,1,5,1,1,1,1,1,6,1
1,1,1,8,30,30,30,30,1,2,1,1,1
1,1,1,26,6,30,1,30,1,1,1,1,1
1,30,30,30,30,30,30,30,5,5,30,30,1
1,1,1,27,4,22,28,15,18,30,20,1,1
1,1,1,30,30,6,30,5,4,16,1,1,1
1,9,1,30,30,30,30,30,30,30,1,1,1
1,1,1,1,1,1,1,1,1,1,2,1,1
1,1,1,14,5,1,1,1,3,17,3,1,1
1,1,1,30,1,1,30,30,1,1,30,1,1
1,1,10,30,10,1,1,11,18,30,30,30,1
1,1,1,5,10,30,30,30,30,30,1,1,1
1,1,30,1,1,1,1,3,5,4,1,1,1
1,1,1,1,1,1,1,1,1,1,1,1,1
1,1,1,30,12,3,4,14,12,30,11,1,1
1,30,30,1,1,1,1,30,30,30,1,30,1
1,1,3,1,1,1,1,3,1,1,1,4,1
1,1,1,3,1,1,1,1,3,18,4,1,1
1,1,1,30,30,1,30,30,30,30,30,1,1
1,1,1,1,1,30,4,1,4,1,3,1,1
1,1,30,30,30,30,30,30,30,30,30,1,1
1,1,1,1,1,1,1,1,1,1,1,1,1
1,1,1,1,1,1,1,1,1,3,1,1,1
1,1,1,1,1,1,1,1,1,1,1,1,1
1,1,30,30,1,30,30,30,30,30,30,1,1
1,1,1,30,30,30,30,30,30,30,30,1,1
1,1,1,1,1,1,1,3,1,1,20,1,1
1,1,1,3,1,30,1,1,1,3,30,1,1
1,1,30,30,30,30,30,3,3,30,1,1,1
1,1,16,3,3,3,12,24,30,3,3,3,1
1,1,1,1,1,1,1,1,1,1,1,1,1
1,1,30,30,30,30,30,30,30,30,30,1,1
1,1,1,1,1,1,1,1,1,1,1,1,1
1,1,1,30,3,1,1,1,1,11,3,1,1
1,1,1,1,1,1,1,1,1,1,1,1,1
1,1,1,1,1,1,1,1,1,1,1,1,1
1,1,1,1,1,4,4,30,30,1,1,1,1
1,1,1,1,1,1,1,1,1,1,1,1,1
1,1,1,1,1,1,1,1,1,1,1,1,1
1,1,1,1,1,1,1,1,1,1,1,1,1
1,1,1,1,1,30,30,30,1,1,1,1,1
1,1,1,30,30,30,18,14,30,10,30,30,1
1,1,3,1,1,3,30,3,4,1,1,1,1
1,1,1,1,1,1,1,1,1,1,1,1,1
1,1,1,1,1,1,3,30,1,15,1,1,1
1,3,3,3,3,30,30,30,30,30,30,1,1
1,1,1,1,1,1,1,1,1,1,1,1,1
1,1,1,1,1,2,1,1,2,3,3,1,1
1,1,1,30,30,30,30,4,30,4,1,1,1
1,1,1,1,1,1,30,30,30,15,1,1,1
1,1,1,30,30,30,1,15,1,30,30,1,1
1,1,4,3,1,1,1,1,1,1,1,1,1
1,1,30,30,30,30,30,30,30,30,6,30,1
1,1,30,30,1,30,30,30,1,1,1,1,1
1,1,1,1,1,1,1,1,1,1,1,1,1
1,1,1,1,30,30,3,4,27,30,30,30,1
1,1,30,3,1,1,1,1,30,30,1,30,1
1,1,1,1,1,1,1,1,1,1,1,1,1
1,1,1,1,1,1,1,1,4,1,3,1,1
1,1,1,1,1,1,1,1,1,1,1,1,1
1,1,1,1,1,1,1,1,17,1,1,1,1
1,1,1,5,9,30,17,7,30,10,19,1,1
1,1,1,1,1,1,1,1,1,1,1,1,1
1,1,30,30,30,30,30,30,30,30,30,1,1
1,1,1,1,1,1,1,1,1,1,1,1,1
1,1,1,1,1,1,1,1,1,1,1,1,1
1,3,19,8,4,30,3,1,1,1,1,1,1
1,1,1,1,1,1,1,1,1,1,1,1,1
1,1,3,19,3,1,1,1,5,4,1,1,1
1,1,20,30,30,30,1,30,30,30,30,1,1
1,1,3,3,30,4,3,30,3,3,4,1,1
1,1,3,3,4,5,14,7,7,5,1,1,1
1,1,1,1,1,1,1,1,1,1,1,1,1
1,9,1,1,1,30,30,3,1,30,3,5,1
1,30,30,30,30,30,30,30,30,30,30,1,1
1,1,7,1,1,1,1,1,1,1,1,1,1
1,1,1,30,1,1,1,30,1,1,1,1,1
1,1,1,30,6,3,3,3,9,30,5,1,1
1,1,3,30,30,3,30,1,4,1,1,1,1
1,1,1,1,1,1,1,1,1,1,1,1,1
1,1,1,1,1,1,1,1,1,1,1,1,1
1,1,1,1,1,1,1,1,1,1,1,1,1
1,1,1,1,1,1,1,1,1,1,1,1,1
1,1,1,1,1,1,1,1,1,1,1,1,1
1,1,1,1,1,1,1,1,1,1,1,1,1
1,1,1,1,1,1,1,1,1,1,1,1,1
1,1,1,1,1,1,1,1,1,1,1,1,1
1,1,1,1,1,1,1,1,1,1,1,1,1
1,1,1,1,1,1,1,1,1,1,1,1,1
1,1,1,1,1,1,1,1,1,1,1,1,1
1,1,1,1,1,1,1,1,1,1,1,1,1
1,1,1,1,1,1,1,1,1,1,1,1,1
1,1,1,1,1,1,1,1,1,1,1,1,1
1,1,1,1,1,1,1,1,1,1,1,1,1
1,1,1,1,1,1,3,4,1,1,1,1,1
1,1,1,1,1,1,1,1,1,1,1,1,1
1,1,1,1,1,1,1,1,1,1,1,1,1
1,1,1,1,1,1,1,1,1,1,1,1,1
1,1,1,1,1,1,1,1,1,1,1,1,1
1,1,1,1,1,1,1,1,1,1,1,1,1
1,1,1,1,1,1,1,1,1,1,1,1,1
1,1,1,1,1,1,1,1,1,1,1,1,1
1,1,1,1,1,1,1,1,1,1,1,1,1
1,1,1,1,1,1,1,1,1,1,1,1,1
1,1,1,1,1,1,1,1,1,1,1,1,1
1,1,1,1,1,1,1,1,1,1,1,1,1
1,1,1,1,1,1,1,1,1,1,1,1,1
1,1,1,1,1,1,1,1,1,1,1,1,1
1,1,1,1,1,1,1,1,1,1,1,1,1
1,1,1,1,1,1,1,1,1,1,1,1,1
1,1,1,1,1,1,1,1,1,1,1,1,1
1,1,1,1,1,1,1,1,1,1,1,1,1
1,1,1,1,1,1,1,1,1,1,1,1,1
1,1,1,1,1,1,1,1,1,1,1,1,1
1,1,1,1,1,1,1,1,1,1,1,1,1
1,1,1,1,1,1,1,1,1,1,1,1,1
1,1,1,1,1,1,1,1,1,1,1,1,1
1,1,1,1,1,1,1,1,1,1,1,1,1
1,1,1,1,1,1,1,1,1,1,1,1,1
1,1,1,1,1,1,1,1,1,1,1,1,1
1,1,1,1,1,1,1,1,1,1,1,1,1
1,1,1,1,1,1,1,1,1,1,1,1,1
1,1,1,1,1,1,1,1,1,1,1,1,1
1,1,1,1,1,1,1,1,1,1,1,1,1
1,1,1,1,1,1,1,1,1,1,1,1,1
1,1,1,1,1,1,1,1,1,1,1,1,1
1,1,1,1,1,1,1,1,1,1,1,1,1
1,1,1,1,1,1,1,1,1,1,1,1,1
1,1,1,1,1,1,1,1,1,1,1,1,1
1,1,1,1,1,1,1,1,1,1,1,1,1
1,1,1,1,1,1,1,1,1,1,1,1,1
1,1,1,1,1,1,1,1,1,1,1,1,1
1,1,1,1,1,1,1,1,1,1,1,1,1
1,1,1,1,1,1,1,1,1,1,1,1,1
1,1,1,1,1,1,1,1,1,1,1,1,1
1,1,1,1,1,1,1,1,1,1,1,1,1
1,1,1,1,1,1,1,1,1,1,1,1,1
1,1,1,1,1,1,1,1,1,1,1,1,1
1,1,1,1,1,1,1,1,1,1,1,1,1
1,1,1,1,1,1,1,1,1,1,1,1,1
1,1,1,1,1,1,1,1,1,1,1,1,1
1,1,1,1,1,1,1,1,1,1,1,1,1
1,1,1,1,1,1,1,1,1,1,1,1,1
1,1,1,1,1,1,1,1,1,1,1,1,1
1,1,1,1,1,1,1,1,1,1,1,1,1
1,1,1,1,1,1,1,1,1,1,1,1,1
1,1,1,1,1,1,1,1,1,1,1,1,1
1,1,1,1,1,1,1,1,1,1,1,1,1
1,1,1,1,1,1,1,1,1,1,1,1,1
1,1,1,1,1,1,1,1,1,1,1,1,1
1,1,1,1,1,1,1,1,1,1,1,1,1
1,1,1,1,1,1,1,1,1,1,1,1,1
1,1,1,1,1,1,1,1,1,1,1,1,1
1,1,1,1,1,1,1,1,1,1,1,1,1
1,1,1,1,1,1,1,1,1,1,1,1,1
1,1,1,1,1,1,1,1,1,1,1,1,1
1,1,1,1,1,1,1,1,1,1,1,1,1
1,1,1,1,1,1,1,1,1,1,1,1,1
1,1,1,1,1,1,1,1,1,1,1,1,1
1,1,1,1,1,1,1,1,1,1,1,1,1
1,1,1,1,1,1,1,1,1,1,1,1,1
1,1,1,1,1,1,1,1,1,1,1,1,1
1,1,1,1,1,1,1,1,1,1,1,1,1
1,1,1,1,1,1,1,1,1,1,1,1,1
1,1,1,1,1,1,1,1,1,1,1,1,1
1,1,1,1,1,1,1,1,1,1,1,1,1
1,1,1,1,1,1,1,1,1,1,1,1,1
1,1,1,1,1,1,1,1,1,1,1,1,1
1,1,1,1,1,1,1,1,1,1,1,1,1
1,1,1,1,1,1,1,1,1,1,1,1,1
1,1,1,1,1,1,1,1,1,1,1,1,1
1,1,1,1,1,1,1,1,1,1,1,1,1
1,1,1,1,1,1,1,1,1,1,1,1,1
1,1,1,1,1,1,1,1,1,1,1,1,1
1,1,1,1,1,1,1,1,1,1,1,1,1
1,1,1,1,1,1,1,1,1,1,1,1,1
1,1,1,1,1,1,1,1,1,1,1,1,1
1,1,1,1,1,1,1,1,1,1,1,1,1
1,1,1,1,1,1,1,1,1,1,1,1,1
1,1,1,1,1,1,1,1,1,1,1,1,1
1,1,1,1,1,1,1,1,1,1,1,1,1
1,1,1,1,1,1,1,1,1,1,1,1,1
1,1,1,1,1,1,1,1,1,1,1,1,1
1,1,1,1,1,1,1,1,1,1,1,1,1
1,1,1,1,1,1,1,1,1,1,1,1,1
1,1,1,1,1,1,1,1,1,1,1,1,1
1,1,1,1,1,1,1,1,1,1,1,1,1
1,1,1,1,1,1,1,1,1,1,1,1,1
1,1,1,1,1,1,1,1,1,1,1,1,1
1,1,1,1,1,1,1,1,1,1,1,1,1
1,1,1,1,1,1,1,1,1,1,1,1,1
1,1,1,1,1,1,1,1,1,1,1,1,1
1,1,1,1,1,1,1,1,1,1,1,1,1
1,1,1,1,1,1,1,1,1,1,1,1,1
1,1,1,1,1,1,1,1,1,1,1,1,1
1,1,1,1,1,1,1,1,1,1,1,1,1
1,1,1,1,1,1,1,1,1,1,1,1,1
1,1,1,1,1,1,1,1,1,1,1,1,1
1,1,1,1,1,1,1,1,1,1,1,1,1
1,1,1,1,1,1,1,1,1,1,1,1,1
1,1,1,1,1,1,1,1,1,1,1,1,1
1,1,1,1,1,1,1,1,1,1,1,1,1
1,1,1,1,1,1,1,1,1,1,1,1,1
1,1,1,1,1,1,1,1,1,1,1,1,1
1,1,1,1,1,1,1,1,1,1,1,1,1
1,1,1,1,1,1,1,1,1,1,1,1,1
1,1,1,1,1,1,1,1,1,1,1,1,1
1,1,1,1,1,1,1,1,1,1,1,1,1
1,1,1,1,1,1,1,1,1,1,1,1,1
0.999999999999998,0.949581948681784,0.957010360406108,0.960138038210863,0.960802078021379,0.973672533937979,0.968095656485988,0.957837991239183,0.963856386267669,0.961046873488957,0.96209260354016,0.999999999999999,0.999999999999998
1,1,0.999999999999999,0.960057580785094,0.961602901043231,0.962828765164758,0.968150885907836,0.963605152548872,0.96269397018741,0.968818840435691,0.973514339266224,1,1
1,0.999999999999999,0.982214331389521,0.962047614439574,0.961471941972536,0.968862605333265,0.967173829704201,0.963889257265649,0.958882402616433,0.953448848453611,0.961132776380787,0.982974402859866,1
0.999999999999999,0.95109462047248,0.959961209399223,0.949267200683064,0.949630042072233,0.961213593150365,0.960698588434153,0.953090758053832,0.962633824896239,0.958093283327067,0.952241093992267,1,0.999999999999999
1,0.999999999999999,0.979212890534729,0.965895334352027,0.968655059326272,0.973487891997759,0.971996595005041,0.969883587054297,0.968084801410806,0.967570293184373,0.97921289053473,1,1
1,0.962412475326873,1,0.963703711730905,0.963144765972774,0.954833183710981,0.9592313179144,0.957333991192906,0.958924717917148,0.948413066851447,1,1,1
0.999999999999999,1,0.982380269450867,0.966203292444806,0.965835668076256,0.964230788765608,0.965549816108116,0.971764137940158,0.972322782405489,0.975531836260039,0.976724385922597,0.980056896980699,0.999999999999999
1,1,0.959464814229229,0.958014166868063,0.955104916020079,0.960702182751101,0.959799793146561,0.954658923741481,0.948197928700219,0.9517725005234,0.999999999999999,0.999999999999999,1
0.999999999999999,1,0.965361424011824,0.966500947989031,0.967984088027427,0.964325115045818,0.966726324868327,0.967462925248923,0.960527343758519,0.963745231254448,0.965361424011824,0.999999999999998,0.999999999999999
1,0.960187366268987,0.960126753569801,0.960203934994309,0.960448573775564,0.958123437633909,0.956965118748852,0.960791461197003,0.961551783763535,0.96064048750947,0.960194744018493,1,1
1,0.963174988920594,0.962296863935696,0.962201680139011,0.951522424051346,0.97446246868799,0.972003711890188,0.967685600602995,0.964467487805508,0.961257917017168,0.967070102659815,1,1
1,0.955426486591857,0.950871615469806,0.954426604181103,0.955585489336804,0.958876309034007,0.956386369037573,0.95056394535493,0.947661579255641,0.946975829208926,0.943958197586807,1,1
1,1,0.970059284853025,0.963674771926196,0.962707439655207,0.964551665071774,0.964749490034033,0.96862096663402,0.964551665071776,0.960249133668483,0.96862096663402,0.970059284853026,1
1,0.999999999999997,0.963330656215483,0.968169373568953,0.960835089683272,0.964340843061767,0.964138238621535,0.960835089683272,0.965996337322986,0.967435372244918,0.964876286491211,1,1
1,0.960072443476206,1,0.95653366606886,0.960182060781436,0.960002538739414,0.956943462728695,0.960815370752132,0.962185972024085,0.960133430603863,0.961782682761687,1,1
1,0.999999999999999,0.940964370752635,0.918392845833955,0.91396124512779,0.915578113736262,0.924349254036756,0.91996502397595,0.923054973780219,0.92660423418403,0.918313680393619,0.944877601007244,1
0.999999999999999,1,0.962108883813419,0.965341091270574,0.961947479378256,0.964470209786275,0.960112680243199,0.959883296679265,0.961062627535191,0.962777805953368,0.95887895569779,1,0.999999999999999
0.999999999999999,0.999999999999999,0.961464210962888,0.960790621577311,0.954066187948634,0.957327215719522,0.954314322468671,0.953589839709703,0.959526542517159,0.952959618411839,0.960300873137589,1,0.999999999999999
1,1,0.960307828724559,0.96665891405894,0.950391437712612,0.954028646968274,0.969603267349837,0.965736152393245,0.971027731088766,0.969603267349837,0.952225628395128,0.999999999999998,1
0.999999999999998,1,0.958765318045316,0.953293220775785,0.952132388608532,0.954363177673985,0.948758584064661,0.950308469487327,0.956403779798619,0.956958832810074,0.960032002909487,0.999999999999999,0.999999999999998
1,0.999999999999999,1,0.964265775048491,0.962836371509606,0.962650797722269,0.984163295836498,0.985567296540094,0.986811553745348,0.961063212529986,0.960616677466803,0.962203874543912,1
1,1,0.950863099632329,0.947040946329112,0.949149811898022,0.936503641259453,0.954582802339768,0.95336012680028,0.958458599672984,0.941120460662741,0.942894100443832,0.999999999999999,1
1,0.999999999999997,0.963517489478848,0.95254336483384,0.961079310309313,0.965318733533407,0.963590077125923,0.966666276143654,0.953922932326431,0.95452234636705,0.963517489478849,1,1
1,0.965906120602574,1,0.961152337588936,0.966644260640352,0.967959778248741,0.968753208589324,0.966644260640352,0.959442503886494,0.963658458050954,0.964084853327439,0.971035863208067,1
1,0.960010522065073,0.95839782711801,0.954001143215444,0.947755872122219,0.949368999909838,0.94649175308096,0.95910089339963,0.963211254841533,0.951695490709265,0.953148678561185,0.959313447219387,1
1,1,0.98446206162288,0.981526315144566,0.978402728576162,0.991050256081146,0.993061412029626,0.988959884750649,0.978402728576162,0.978210742478834,0.98446206162288,0.999999999999999,1
1,0.999999999999998,1,0.968167297454339,0.963291018943817,0.963203295909439,0.961512429564007,0.962415426142934,0.959782615424824,0.961470558450418,0.96780866780075,1,1
1,1,0.998404201596695,0.995891130151866,0.993779990769324,0.991646535427317,0.99024553267556,0.991646535427317,0.993738275172378,0.995898364916248,0.998404201596696,1,1
1,0.945601749983871,0.946042474566987,0.957909587884438,0.961321505982357,0.962309723634998,0.960362776874544,0.961349949368915,0.949115056019915,0.958794103843705,0.956100732116495,1,1
1,0.962993282073222,0.967171895761987,0.971027731088766,0.972679279396155,0.968555504677744,0.967364872390935,0.966357211395715,0.9643485485923,0.965498790515341,0.966463008488187,0.964157963254161,1
1,1,0.961832007329141,0.958677452201739,0.974715338615131,0.97791346603286,0.979843910191094,0.97471533861513,0.967959778248741,0.962761538772812,1,1,1
1,1,1,0.963821311085344,0.963177738202579,0.952440669409007,0.974111320732552,0.971637419324,0.972373593764858,0.960016464011466,0.960158940532267,0.952746562388125,1
1,1,0.981149548091175,0.970360230394869,0.964891078260862,0.962152435867451,0.961093063031691,0.962589414084895,0.961107542864251,0.969653460822343,0.981149548091175,0.999999999999999,1
1,0.954661062493979,1,0.954427623539269,0.958824054269143,0.957431371483234,0.958080537300293,0.955301542465789,0.960593514543028,0.958925766614122,0.956813647857872,1,1
0.999999999999999,1,0.975729406073665,0.97717786272591,0.980127563263857,0.968987403516748,0.984910457726908,0.983176148822735,0.969856202980374,0.974542185713124,0.981047919941212,0.981394865950697,0.999999999999999
0.999999999999999,0.981864762351517,0.965704791700431,0.966713253995737,0.967321691539731,0.969271612259306,0.971118406809104,0.967966240554053,0.967670205399339,0.967936736073514,0.98288023682755,0.999999999999999,0.999999999999999
1,0.970587761058919,0.971605071672433,0.9706495820021,0.97275159674475,0.964765369622976,0.975233941762664,0.97275159674475,0.969055676297342,0.967101394370131,0.966739738706657,0.999999999999999,1
1,1,0.974896839356619,0.963708610155242,0.961034233482268,0.978046573084709,0.977798366462466,0.979459248229296,0.971605071672433,0.970649582002101,0.965780028811642,0.999999999999997,1
1,0.963232867351557,0.961831143881771,0.964503515816274,0.961266996121734,0.958327985132799,0.962608021680241,0.960157891255979,0.962721973360045,0.966611127030183,0.968526023992773,1,1
1,1,0.995206634519373,1,0.994520210626867,0.986615906108049,0.982080152390127,0.9829859305078,0.981681669517372,0.982080152390127,0.986118708059026,0.994031133715457,1
1,1,0.964359418239008,0.953795542463105,0.958768422160233,0.957668644798187,0.954739804246027,0.9622343557839,0.952424418328467,0.960007293196735,0.964359418239008,0.999999999999999,1
1,0.962539639678693,0.999999999999999,0.960259111557014,0.963831188464746,0.961463698276795,0.958267433143777,0.962235869508574,0.963126399322093,0.963235727329043,0.962235869508574,0.96797800366209,1
0.999999999999999,0.999999999999998,0.970012339906539,0.974542185713124,0.978520779341797,0.966249969469427,0.967343905028208,0.969854231429301,0.96850946418334,0.97717786272591,0.980127563263857,1,0.999999999999999
1,1,0.96236308369874,0.963476021121427,0.955311921245325,0.954970624080204,0.960877466371889,0.961948437839537,0.957752243577015,0.957055218983744,0.961223034057477,0.999999999999999,1
1,0.953164627975534,1,0.951286904374648,0.962028094970976,0.965322328213879,0.960159541351707,0.95471175177413,0.957090495781071,0.955516303698371,0.957704360701457,0.9563405819651,1
0.999999999999998,0.999999999999999,0.96014243940204,0.960243627159775,0.960106496663781,0.948462020685412,0.952202379303209,0.96074785803397,0.959120809018423,0.966218207842796,0.999999999999999,0.999999999999999,0.999999999999998
0.999999999999996,0.999999999999998,0.953900658398232,0.941866418127018,0.952037246817538,0.953650410423869,0.953875709442074,0.952948992919101,0.95292178396262,0.957698544608218,0.999999999999998,0.964259704216162,0.999999999999996
0.999999999999998,0.950058512791177,0.974355832104903,0.972802507560946,0.971006330696893,0.960209132457812,0.965751636835209,0.954687602364497,0.959345154847457,0.960262023796414,0.959316183905256,0.999999999999999,0.999999999999998
0.999999999999999,1,0.960884365910087,0.96034802828394,0.967544669131814,0.968211349971974,0.969849722499797,0.957762123137301,0.956999270461751,0.958513368908473,0.962648591271028,0.999999999999998,0.999999999999999
1,0.999999999999999,0.966927838876764,0.971505948839568,0.972595699599388,0.972330667135507,0.995546280712328,0.996537070363935,0.9655008487564,0.973734113220207,0.973034048033556,0.971176878494227,1
0.999999999999999,0.987475959887478,0.974044521715568,0.980741365589441,0.986020501783943,0.979712172548928,0.987370818061833,0.980741365589441,0.978445829538862,0.987475959887477,1,1,0.999999999999999
1,0.999999999999999,0.968423922882801,0.969086178387744,0.96269397018741,0.960924120629129,0.96008770071104,0.962486084752221,0.965526975550225,0.960087700711041,0.999999999999999,0.960078802720465,1
1,1,1,0.961441274697757,0.953201226647839,0.956969199410641,0.958082540021529,0.953162109199859,0.967364872390935,0.960613432895211,1,1,1
0.999999999999998,0.999999999999999,0.967404471040489,0.960678800705241,0.960207365724105,0.958740552491761,0.961105617630469,0.958670731932623,0.962156892761398,0.966500947989031,0.967984088027428,1,0.999999999999998
0.999999999999998,0.958242807730712,0.954324982236008,0.952289311927171,0.954901606673306,0.955878065743822,0.949892294646663,0.952832247208266,0.961981502649239,0.960119115705612,0.958242807730712,0.95870065259061,0.999999999999998
1,1,0.964256866275871,0.960934512112125,0.961010361891482,0.960751702657788,0.960193903063876,0.960222635628904,0.960406611044281,0.958675549001292,0.96010298800381,1,1
1,1,0.977033692120775,0.95790051279919,0.959076733584444,0.960038414774937,0.958401453101458,0.960573599901035,0.961480129176876,0.960292112938339,0.977033692120775,1,1
1,0.960190263285635,0.999999999999998,0.953603461608714,0.951814916195714,0.951077562508014,0.951548742480644,0.950979550430073,0.95279206880526,0.95213718267785,0.999999999999999,0.999999999999999,1
0.999999999999999,0.96242370537071,0.999999999999999,0.961110315721967,0.963020598777829,0.965494852497563,0.963558916869463,0.960529643414592,0.96133591511429,0.961643724796353,0.960069890097529,0.962888696205638,0.999999999999999
1,0.965223618372167,0.962369544700439,0.961037399750616,0.963302803458975,0.962710441609411,0.964343636661663,0.971592398283133,0.967855296146241,0.960242660491997,0.96585569564189,0.999999999999999,1
0.999999999999998,0.999999999999998,0.971289009991904,0.951821027910637,0.96440461744655,0.963059546778322,0.954894464301159,0.950471241580749,0.962526597415454,0.96440461744655,0.956559219171646,0.969935740071831,0.999999999999998
1,1,0.96732552593948,0.933594469766364,0.9618291567676,0.965214100660654,0.963854051734958,0.9612387288054,0.96089864194578,0.94474538534353,0.957843803159554,0.950523046645123,1
1,0.999999999999999,0.96051483025453,0.960661656184872,0.960612763143416,0.951001420853883,0.952319977602268,0.956871627701945,0.956240565352841,0.955187380187438,0.96051483025453,1,1
1,0.965282987282292,0.959245783054439,0.961915089472054,0.96049872030785,0.963529112189884,0.965647135743577,0.96196951977658,0.960237948608868,0.962622295321986,0.965282987282291,1,1
1,0.999999999999999,0.963622903478982,0.968432036892097,0.97302303772388,0.975115001167408,0.975656319440343,0.976668034080733,0.970012339906538,0.970510494631026,0.976406268831966,1,1
1,1,0.999999999999999,0.924739185122509,0.960401618336214,0.962572812113128,0.96020147866257,0.961190751728653,0.96218685643539,0.928185945930931,0.966749510552012,0.96236954470044,1
0.999999999999999,0.934971065520343,0.932852975851173,0.964705021828317,0.963017253278612,0.964351579738079,0.964705021828318,0.921484511012451,0.929220570901168,0.931355678769285,1,0.946325235075921,0.999999999999999
0.999999999999999,1,0.961027709000482,0.963418393091198,0.965780028811642,0.974009866406372,0.975233941762664,0.968450898160706,0.960910305743146,0.968225748714974,1,0.963778173799341,0.999999999999999
1,1,1,0.966409744730854,0.964811036126109,0.965284590156992,0.969787981202859,0.971216811295412,0.965475011312174,0.960694516296746,0.961761231889763,1,1
1,1,0.961834381744089,0.958354494360164,0.954265837886739,0.960253104158648,0.945448046716193,0.942041887231161,0.952809346027156,0.955270468214169,0.957307388814041,0.999999999999999,1
0.999999999999996,1,0.962286231986199,0.962158750528173,0.960190862791261,0.959819459545942,0.960528869497451,0.960605739413373,0.96015408418304,0.960894719092743,0.961464296128251,0.999999999999999,0.999999999999996
1,0.999999999999999,0.95920501138063,0.959661325871175,0.952992988985186,0.9568369674609,0.955299384710405,0.950903849666852,0.955112389485645,0.955455236551349,0.957718890800759,1,1
0.999999999999999,0.973014092227605,1,0.971092701641842,0.972137710674425,0.960268997228336,0.973830588014778,0.969717509646054,0.972423281421364,0.973014092227604,1,0.971092701641843,0.999999999999999
1,1,0.981047919941212,0.965996337322985,0.966566778803022,0.966544659747165,0.968211349971974,0.969896982287841,0.967544669131815,0.966110183331061,0.962412475326874,1,1
0.999999999999999,0.999999999999998,0.973734113220208,0.973034048033555,0.969082744098516,0.97374495765538,0.969899530052128,0.970610499427091,0.971505948839568,0.972595699599388,0.967565297104144,1,0.999999999999999
1,1,0.959871332340814,0.957977971004307,0.961173196922573,0.948157182716126,0.954458119171057,0.952962920412063,0.954697599789939,0.955289705140357,0.957630559904559,1,1
0.999999999999998,1,0.961313664138127,0.947875311707235,0.943774949046434,0.948290051591243,0.949278383841731,0.944402678331572,0.950347162724997,0.948554554516492,0.957975503894877,0.961372333201832,0.999999999999998
0.999999999999999,1,1,0.962570294445197,0.964047241086285,0.967564604076088,0.9633275935051,0.961095757127251,0.961509550686575,0.960014244873392,0.960651437628119,1,0.999999999999999
0.999999999999999,1,0.961643724796353,0.961637896953782,0.965498790515341,0.958765506751513,0.968100930892735,0.969744758634594,0.967069338980699,0.96147824544967,0.959979717406592,0.999999999999998,0.999999999999999
1,1,0.949788950378337,0.952922533472881,0.952885843054016,0.954494558721078,0.946383403537533,0.960837633639868,0.964203827279255,0.958648297699186,0.999999999999999,0.999999999999999,1
1,0.999999999999998,0.960666138025181,0.962251966377656,0.964559718052151,0.965944170810911,0.960630807171377,0.960129471653612,0.948784846615781,0.960566374236496,0.961897576010329,0.96111495066031,1
1,0.999999999999999,0.963566252762525,0.962962029550675,0.96319304604734,0.960737767237044,0.963353298505509,0.962396813384336,0.963310025520603,0.965113335580141,0.964091428802624,0.960842035210559,1
1,0.962504061538657,0.954689507834206,0.956918109114708,0.958246026103152,0.956520838746841,0.950617175198117,0.950600759317444,0.953347301972442,0.955600042980501,0.956438155195438,0.963465896025336,1
0.999999999999998,0.999999999999999,0.975343592124283,0.967640618782553,0.971153857534697,0.965754648960711,0.971118406809104,0.967195365574055,0.969015354615686,0.965817160707733,0.969086178387745,0.975229376003878,0.999999999999998
1,0.999999999999998,0.971463820291174,0.948751088396446,0.960520047327899,0.967781056879128,0.969787981202859,0.971216811295411,0.967781056879127,0.965456487843544,0.965701408568663,0.971463820291175,1
0.999999999999997,0.999999999999997,0.972488969505588,0.967271867230091,0.965772025486702,0.961073877533672,0.970382028344191,0.968535784102871,0.965314336410311,0.960760601978698,0.963012024702266,0.974279291873646,0.999999999999997
1,1,0.979266262382002,0.982299231834388,0.96753206193804,0.968109452766166,0.968109452766166,0.967190211867525,0.967532061938041,0.979266262382002,0.982299231834388,1,1
0.999999999999999,0.999999999999996,0.962203449280044,0.96695756096498,0.963866451510511,0.960194474964622,0.960248224019246,0.9550334817756,0.953633722746059,0.966957560964979,0.961149476139954,0.962739817321673,0.999999999999999
1,1,0.978647597953651,0.965113335580141,0.964513563238457,0.97844436994242,0.975150222838529,0.974398668408974,0.963750333710283,0.961589711796025,0.97864759795365,1,1
0.999999999999999,0.992785228119839,0.982903255121003,0.980538904555539,0.978662442187703,0.971416715951972,0.971416715951972,0.979865882811539,0.982143231017501,0.982903255121003,0.992751508790863,1,0.999999999999999
0.999999999999999,1,0.981968055406438,0.983334498146306,0.985016493425826,0.98113707218395,0.984470979694051,0.985016493425825,0.982870483442315,0.981742186342211,1,1,0.999999999999999
0.999999999999999,0.999999999999999,0.982629836022351,0.968803321637337,0.965537017934362,0.957194342623239,0.951614377962869,0.957194342623239,0.966342590199552,0.968450368144826,0.982629836022352,0.999999999999999,0.999999999999999
0.999999999999999,1,0.999999999999997,0.945465659480022,0.945805350261154,0.944187481860117,0.960564533964028,0.960926214869167,0.950523902474736,0.960392165205454,0.959022821520022,0.941510342073851,0.999999999999999
1,1,0.960940202616073,0.961470558450418,0.960831868757263,0.960858990780432,0.957557204979502,0.960676342627021,0.960576856705258,0.96532232821388,0.96143373510462,1,1
1,0.999999999999999,1,0.966353790971771,0.966422959392963,0.964821834453851,0.969303389916579,0.965745457247427,0.96482183445385,0.965884918215657,0.999999999999998,1,1
1,1,0.963745231254448,0.965243723339754,0.960894719092743,0.964298277897531,0.960581605643725,0.959130035406118,0.960714253958146,0.96012752569751,0.96294255471261,1,1
0.999999999999998,0.963292629689738,0.962298690673977,0.960313139438458,0.962796373021381,0.949624387686803,0.938318350063973,0.937766490463527,0.941791273146123,0.936283538425965,0.952763984196092,1,0.999999999999998
1,0.969717509646053,0.968582120309224,0.971193353982995,0.975184353706126,0.967170985975721,0.972585313462486,0.967082409101399,0.970902507149185,0.972382096194518,1,0.972829857232734,1
0.999999999999998,0.999999999999998,0.963150546613046,0.968225748714974,0.970692878581745,0.960127760021223,0.966318110281146,0.966168983666572,0.960035182828849,0.960940797775595,0.967776618133751,1,0.999999999999998
1,0.967302782362019,0.961274602658981,0.947712477934684,0.948688618583038,0.957143587494878,0.956540387557264,0.961241267806138,0.957244950332561,0.962990678481035,0.968012715246958,0.999999999999997,1
1,1,0.964164798749121,0.969181438813611,0.969603267349836,0.965736152393245,0.955744286864685,0.953614625629359,0.957553495338282,0.960099624516289,1,0.999999999999998,1
1,1,1,0.939858661797536,0.934148207027531,0.94657900339196,0.963017253278611,0.964839519830585,0.964705021828317,0.948735754758468,0.949368068063068,1,1
1,0.999999999999999,0.961040118615903,0.960019344610892,0.963673909299829,0.971142041604404,0.967815949476697,0.966086556581118,0.964596506262876,0.967640618782552,0.999999999999999,0.966034425151742,1
1,1,0.958705244808321,0.954182684162601,0.95999127597115,0.950780029641841,0.951144824672377,0.955534495187156,0.956603146277722,0.953431944318155,0.960173133855966,0.958473837120058,1
0.999999999999999,0.999999999999998,0.956880974226644,0.956569278269722,0.960006536114922,0.959826303824225,0.959009803901552,0.958202298248908,0.963172113203478,0.964164798749122,0.963224430835414,0.96399627754866,0.999999999999999
0.999999999999999,1,0.986163321838031,0.972693385506982,0.975212496248963,0.975617257308992,0.978458646463104,0.980924669404898,0.975212496248963,0.97042002674932,0.986163321838031,0.999999999999998,0.999999999999999
1,1,0.964616685306601,0.961701990427853,0.957320940394229,0.949541202982401,0.962970718337238,0.960628379853379,0.960512276956294,0.941383645053952,0.959518468213877,0.950003089820232,1
0.999999999999999,1,0.952992031840799,0.960002398763,0.968084801410807,0.962802772490803,0.962810602215948,0.963214586487229,0.952035938624886,0.952027519986782,1,0.957255494049709,0.999999999999999
1,1,0.979975638340792,0.96422947923932,0.960773084887509,0.967582324027248,0.973065739356066,0.975154272556161,0.968205747468047,0.9616055043049,0.96422947923932,0.979768122129525,1
1,0.999999999999997,0.967500419186771,0.961319374001081,0.967069338980699,0.968100930892735,0.969744758634594,0.963558916869463,0.960771242233234,0.965992892002285,0.96129426346242,0.999999999999999,1
0.999999999999998,0.999999999999998,0.980781421812813,0.966187368239145,0.966644065762362,0.968004458006691,0.973830787225678,0.970825371862633,0.968004458006691,0.978880480016448,0.999999999999997,1,0.999999999999998
0.999999999999999,0.999999999999998,0.962721973360045,0.966611127030182,0.965115054348987,0.963736777682974,0.965729358322925,0.968578230868422,0.960436241328257,0.963821311085344,0.968967113119116,1,0.999999999999999
0.999999999999999,0.96516029285645,0.962761538772812,0.96191716069502,0.963543070717929,0.953181967317472,0.962223440944173,0.960630233475887,0.958414811231916,0.960536113271526,0.960624324907465,1,0.999999999999999
1,0.974081070711908,0.96850946418334,0.973005268074056,0.974702739900704,0.962055717614651,0.969437092580497,0.972181455979392,0.96898055303318,0.970315502377767,0.972493281619612,1,1
0.999999999999998,1,0.945406480351377,0.953452953209895,0.952455883454173,0.944990512956101,0.944979267195717,0.94584051760291,0.944187481860117,0.951101232889072,0.951201672728423,1,0.999999999999998
1,0.999999999999999,0.964772639678525,1,0.976149777126985,0.973799981107874,0.978951787164737,0.976149777126985,0.968174942105136,0.978951787164736,0.999999999999998,0.999999999999998,1
0.999999999999999,0.983917787091341,0.982870483442315,0.981742186342212,0.98391778709134,0.98169620369668,0.978668367838992,0.984583575362655,0.981968055406437,0.983334498146306,0.984583575362655,1,0.999999999999999
1,0.965164484992694,0.960049732861155,0.960120250011202,0.962148823224804,0.95493631972481,0.965532952278067,0.964141269151103,0.96005877472438,0.967500419186771,0.969014181521278,1,1
1,0.968995514513089,0.965817160707733,0.965368802024347,0.966310220830014,0.970382028344191,0.969606012029503,0.965209867859254,0.966668166273909,0.966713253995736,0.965616710061781,1,1
1,0.968261353321995,0.961630621114639,0.960029378078678,0.964757910773638,0.966403932078493,0.965608385009878,0.965527786741761,0.962972237375892,0.960196280533773,0.966008669398765,0.967958150152761,1
1,0.961194138443411,0.960146096242755,0.95414048740553,0.949287381963777,0.95905641315196,0.96110561763047,0.955839301501923,0.95505368368183,0.947493584293079,0.959272151334315,1,1
1,0.999999999999999,0.963853230825699,0.963062521411706,0.958391808810901,0.960878311211023,0.960271043770628,0.959103858134365,0.960542122270782,0.961405571055639,0.960110068560963,0.999999999999999,1
0.999999999999999,0.975603667864825,0.960214503019427,0.961435458558624,0.960257091368359,0.960366224128136,0.960082198101212,0.9601227243631,0.960152894956784,0.960941481632807,0.97694601741715,0.999999999999998,0.999999999999999
1,0.998996078174869,0.997032133711648,0.994796870883584,0.993328436027655,0.992181557382255,0.992012074708514,0.993140205958883,0.995290363388695,0.997032133711648,0.998884680010966,1,1
0.999999999999999,0.960127236147478,0.999999999999999,0.966145132029766,0.966818519863163,0.953397379153791,0.948844778395139,0.962928411573069,0.960702182751101,0.957035241236814,0.961819277839648,0.960958246426601,0.999999999999999
1,0.958975146546658,0.945103865986809,0.948968544595414,0.955169748794934,0.954836390594426,0.957478584621497,0.951463404006699,0.952782015328735,0.951120909494759,0.95814325168424,1,1
0.999999999999999,0.977397644026628,0.960294738437775,0.96411927146116,0.963407224705039,0.964700689719902,0.96262668152567,0.964513563238457,0.964439758043315,0.977397644026628,1,1,0.999999999999999
1,1,0.960014244873392,0.959845289985347,0.960164551285702,0.962629503349992,0.960531210449432,0.958790978473108,0.974355832104904,0.972802507560945,0.96665891405894,1,1
1,0.999999999999998,0.96064689671142,0.949112911652427,0.963520117532589,0.961176300858589,0.965899392345297,0.962284767802078,0.961039522433889,0.945360517695075,0.960935139817443,0.999999999999999,1
1,1,0.96017282611437,0.959046356439296,0.959071648292536,0.960356073393462,0.959307479607544,0.960062243936577,0.960110268130518,1,0.962902940266495,1,1
