ItemID,Orient,Steps,Rad
1,r000,1,0
1,r060,10,1.0471975511966
1,r180,1,3.14159265358979
1,r330,1,5.75958653158129
2,r000,1,0
2,r030,9,0.523598775598299
2,r060,30,1.0471975511966
2,r090,30,1.5707963267949
2,r180,30,3.14159265358979
2,r210,30,3.66519142918809
2,r270,20,4.71238898038469
2,r300,15,5.23598775598299
2,r330,7,5.75958653158129
3,r000,1,0
3,r030,4,0.523598775598299
3,r060,11,1.0471975511966
3,r090,20,1.5707963267949
3,r120,17,2.0943951023932
3,r150,1,2.61799387799149
3,r180,1,3.14159265358979
3,r210,1,3.66519142918809
3,r240,11,4.18879020478639
3,r270,19,4.71238898038469
3,r300,17,5.23598775598299
3,r330,1,5.75958653158129
4,r000,1,0
4,r030,1,0.523598775598299
4,r330,1,5.75958653158129
5,r000,1,0
5,r030,1,0.523598775598299
5,r060,12,1.0471975511966
5,r090,19,1.5707963267949
5,r120,30,2.0943951023932
5,r180,30,3.14159265358979
5,r300,30,5.23598775598299
5,r330,12,5.75958653158129
6,r000,1,0
6,r030,30,0.523598775598299
6,r300,30,5.23598775598299
6,r330,30,5.75958653158129
7,r000,1,0
8,r000,1,0
8,r030,1,0.523598775598299
8,r060,10,1.0471975511966
8,r090,17,1.5707963267949
8,r120,3,2.0943951023932
8,r180,1,3.14159265358979
8,r210,1,3.66519142918809
8,r240,10,4.18879020478639
8,r270,17,4.71238898038469
8,r300,1,5.23598775598299
9,r000,1,0
9,r030,1,0.523598775598299
9,r180,1,3.14159265358979
9,r210,1,3.66519142918809
10,r000,1,0
10,r060,1,1.0471975511966
10,r090,1,1.5707963267949
10,r150,1,2.61799387799149
10,r180,1,3.14159265358979
10,r270,1,4.71238898038469
10,r330,1,5.75958653158129
11,r000,1,0
12,r000,1,0
12,r030,11,0.523598775598299
12,r060,19,1.0471975511966
12,r270,19,4.71238898038469
12,r300,13,5.23598775598299
12,r330,6,5.75958653158129
13,r000,1,0
13,r030,30,0.523598775598299
14,r000,1,0
14,r030,1,0.523598775598299
14,r060,1,1.0471975511966
14,r090,1,1.5707963267949
14,r120,1,2.0943951023932
14,r150,1,2.61799387799149
14,r180,1,3.14159265358979
14,r210,1,3.66519142918809
14,r240,1,4.18879020478639
14,r270,1,4.71238898038469
14,r300,1,5.23598775598299
14,r330,1,5.75958653158129
15,r000,1,0
15,r030,1,0.523598775598299
15,r060,30,1.0471975511966
15,r120,30,2.0943951023932
15,r180,30,3.14159265358979
15,r270,30,4.71238898038469
15,r300,30,5.23598775598299
15,r330,1,5.75958653158129
16,r000,1,0
16,r270,18,4.71238898038469
17,r000,1,0
17,r030,1,0.523598775598299
17,r060,3,1.0471975511966
17,r090,1,1.5707963267949
17,r120,12,2.0943951023932
17,r150,30,2.61799387799149
17,r210,10,3.66519142918809
17,r270,16,4.71238898038469
17,r300,12,5.23598775598299
17,r330,1,5.75958653158129
18,r000,1,0
18,r030,1,0.523598775598299
18,r180,1,3.14159265358979
18,r210,1,3.66519142918809
19,r000,1,0
19,r030,30,0.523598775598299
19,r060,30,1.0471975511966
19,r090,30,1.5707963267949
19,r180,1,3.14159265358979
19,r240,20,4.18879020478639
19,r270,30,4.71238898038469
20,r000,1,0
20,r030,1,0.523598775598299
20,r330,1,5.75958653158129
21,r000,1,0
21,r090,23,1.5707963267949
21,r180,1,3.14159265358979
21,r270,24,4.71238898038469
22,r000,1,0
22,r030,30,0.523598775598299
22,r090,30,1.5707963267949
22,r270,30,4.71238898038469
23,r000,1,0
23,r030,1,0.523598775598299
23,r330,1,5.75958653158129
24,r000,1,0
24,r030,1,0.523598775598299
24,r060,13,1.0471975511966
24,r090,18,1.5707963267949
24,r300,1,5.23598775598299
25,r000,1,0
26,r000,1,0
26,r030,1,0.523598775598299
26,r060,10,1.0471975511966
26,r090,22,1.5707963267949
26,r120,30,2.0943951023932
26,r150,12,2.61799387799149
26,r180,1,3.14159265358979
26,r210,4,3.66519142918809
26,r240,11,4.18879020478639
26,r270,18,4.71238898038469
26,r300,18,5.23598775598299
26,r330,12,5.75958653158129
27,r000,1,0
27,r030,30,0.523598775598299
27,r060,30,1.0471975511966
27,r090,30,1.5707963267949
27,r120,30,2.0943951023932
27,r150,30,2.61799387799149
27,r180,30,3.14159265358979
27,r210,30,3.66519142918809
27,r240,30,4.18879020478639
27,r270,30,4.71238898038469
27,r300,30,5.23598775598299
27,r330,4,5.75958653158129
28,r000,1,0
28,r030,9,0.523598775598299
28,r060,14,1.0471975511966
28,r090,30,1.5707963267949
28,r150,30,2.61799387799149
28,r270,19,4.71238898038469
28,r300,13,5.23598775598299
28,r330,1,5.75958653158129
29,r000,1,0
29,r060,30,1.0471975511966
29,r090,21,1.5707963267949
29,r270,30,4.71238898038469
29,r330,1,5.75958653158129
30,r000,1,0
30,r030,1,0.523598775598299
30,r150,1,2.61799387799149
30,r330,1,5.75958653158129
31,r000,1,0
31,r030,1,0.523598775598299
31,r090,1,1.5707963267949
31,r120,9,2.0943951023932
31,r180,9,3.14159265358979
32,r000,1,0
33,r000,1,0
33,r030,11,0.523598775598299
33,r060,14,1.0471975511966
33,r090,1,1.5707963267949
33,r120,30,2.0943951023932
33,r240,30,4.18879020478639
33,r300,30,5.23598775598299
33,r330,10,5.75958653158129
35,r000,1,0
35,r030,1,0.523598775598299
35,r060,1,1.0471975511966
35,r090,1,1.5707963267949
35,r120,1,2.0943951023932
35,r150,1,2.61799387799149
35,r180,1,3.14159265358979
35,r210,1,3.66519142918809
35,r240,1,4.18879020478639
35,r270,1,4.71238898038469
35,r300,1,5.23598775598299
35,r330,1,5.75958653158129
36,r000,1,0
37,r000,1,0
38,r000,1,0
39,r000,1,0
39,r120,30,2.0943951023932
40,r000,1,0
40,r030,6,0.523598775598299
40,r060,14,1.0471975511966
40,r090,30,1.5707963267949
40,r120,30,2.0943951023932
40,r180,1,3.14159265358979
40,r210,30,3.66519142918809
40,r270,30,4.71238898038469
40,r300,18,5.23598775598299
40,r330,11,5.75958653158129
41,r000,1,0
41,r030,1,0.523598775598299
41,r060,1,1.0471975511966
41,r090,1,1.5707963267949
41,r120,1,2.0943951023932
41,r150,1,2.61799387799149
41,r180,1,3.14159265358979
41,r210,1,3.66519142918809
41,r240,1,4.18879020478639
41,r270,1,4.71238898038469
41,r300,1,5.23598775598299
41,r330,1,5.75958653158129
42,r000,1,0
42,r030,1,0.523598775598299
42,r060,1,1.0471975511966
42,r090,1,1.5707963267949
42,r120,1,2.0943951023932
42,r150,1,2.61799387799149
42,r210,1,3.66519142918809
42,r240,1,4.18879020478639
42,r270,1,4.71238898038469
42,r300,1,5.23598775598299
42,r330,1,5.75958653158129
43,r000,1,0
43,r030,1,0.523598775598299
43,r060,17,1.0471975511966
43,r090,30,1.5707963267949
43,r120,30,2.0943951023932
43,r150,30,2.61799387799149
43,r180,30,3.14159265358979
43,r210,30,3.66519142918809
43,r240,30,4.18879020478639
43,r270,30,4.71238898038469
43,r300,30,5.23598775598299
43,r330,1,5.75958653158129
44,r000,1,0
45,r000,1,0
45,r030,11,0.523598775598299
45,r060,14,1.0471975511966
45,r090,30,1.5707963267949
45,r120,30,2.0943951023932
45,r180,30,3.14159265358979
45,r210,30,3.66519142918809
45,r270,20,4.71238898038469
45,r300,14,5.23598775598299
45,r330,9,5.75958653158129
46,r000,1,0
46,r180,1,3.14159265358979
47,r000,1,0
47,r150,1,2.61799387799149
47,r180,1,3.14159265358979
47,r330,1,5.75958653158129
48,r000,1,0
49,r000,1,0
50,r000,1,0
50,r090,16,1.5707963267949
50,r120,17,2.0943951023932
50,r180,1,3.14159265358979
50,r270,1,4.71238898038469
51,r000,1,0
51,r030,30,0.523598775598299
51,r060,30,1.0471975511966
51,r300,30,5.23598775598299
52,r000,1,0
52,r090,30,1.5707963267949
52,r180,1,3.14159265358979
52,r270,30,4.71238898038469
53,r000,1,0
54,r000,1,0
54,r330,30,5.75958653158129
55,r000,1,0
55,r090,30,1.5707963267949
55,r120,1,2.0943951023932
55,r150,30,2.61799387799149
55,r180,30,3.14159265358979
56,r000,1,0
57,r000,1,0
58,r000,1,0
58,r150,30,2.61799387799149
58,r180,1,3.14159265358979
58,r330,30,5.75958653158129
59,r000,1,0
60,r000,1,0
60,r030,1,0.523598775598299
60,r120,1,2.0943951023932
60,r150,1,2.61799387799149
60,r180,1,3.14159265358979
60,r210,1,3.66519142918809
60,r300,1,5.23598775598299
60,r330,1,5.75958653158129
61,r000,1,0
62,r000,1,0
63,r000,1,0
63,r030,1,0.523598775598299
63,r120,30,2.0943951023932
63,r150,1,2.61799387799149
63,r180,1,3.14159265358979
63,r210,1,3.66519142918809
63,r330,1,5.75958653158129
64,r000,1,0
65,r000,1,0
65,r030,10,0.523598775598299
65,r060,16,1.0471975511966
65,r090,17,1.5707963267949
65,r120,1,2.0943951023932
65,r150,1,2.61799387799149
65,r180,1,3.14159265358979
65,r210,10,3.66519142918809
65,r240,16,4.18879020478639
65,r270,17,4.71238898038469
65,r300,1,5.23598775598299
65,r330,1,5.75958653158129
66,r000,1,0
66,r180,1,3.14159265358979
68,r000,1,0
68,r030,30,0.523598775598299
68,r090,30,1.5707963267949
68,r180,30,3.14159265358979
68,r300,30,5.23598775598299
70,r000,1,0
70,r030,30,0.523598775598299
70,r060,30,1.0471975511966
70,r330,30,5.75958653158129
71,r000,1,0
72,r000,1,0
72,r030,1,0.523598775598299
73,r000,1,0
73,r030,1,0.523598775598299
73,r060,16,1.0471975511966
73,r090,30,1.5707963267949
73,r150,30,2.61799387799149
73,r180,1,3.14159265358979
73,r240,20,4.18879020478639
73,r270,15,4.71238898038469
73,r300,9,5.23598775598299
73,r330,1,5.75958653158129
74,r000,1,0
74,r180,1,3.14159265358979
75,r000,1,0
75,r030,8,0.523598775598299
75,r060,15,1.0471975511966
75,r090,30,1.5707963267949
75,r120,30,2.0943951023932
75,r150,30,2.61799387799149
75,r180,30,3.14159265358979
75,r210,30,3.66519142918809
75,r270,21,4.71238898038469
75,r300,14,5.23598775598299
75,r330,8,5.75958653158129
76,r000,1,0
76,r180,1,3.14159265358979
76,r330,1,5.75958653158129
77,r000,1,0
77,r030,30,0.523598775598299
77,r300,30,5.23598775598299
77,r330,30,5.75958653158129
78,r000,1,0
78,r030,1,0.523598775598299
78,r150,30,2.61799387799149
78,r180,1,3.14159265358979
78,r210,30,3.66519142918809
78,r330,1,5.75958653158129
79,r000,1,0
79,r030,1,0.523598775598299
79,r120,1,2.0943951023932
79,r180,1,3.14159265358979
79,r210,1,3.66519142918809
79,r300,1,5.23598775598299
80,r000,1,0
80,r030,1,0.523598775598299
80,r270,30,4.71238898038469
80,r300,1,5.23598775598299
81,r000,1,0
81,r060,12,1.0471975511966
81,r270,9,4.71238898038469
81,r330,1,5.75958653158129
82,r000,1,0
82,r030,1,0.523598775598299
82,r060,1,1.0471975511966
82,r150,1,2.61799387799149
82,r180,1,3.14159265358979
82,r210,1,3.66519142918809
82,r240,1,4.18879020478639
82,r330,1,5.75958653158129
83,r000,1,0
84,r000,1,0
84,r030,1,0.523598775598299
84,r060,1,1.0471975511966
84,r090,12,1.5707963267949
84,r120,16,2.0943951023932
84,r270,30,4.71238898038469
84,r300,1,5.23598775598299
84,r330,1,5.75958653158129
85,r000,1,0
85,r030,30,0.523598775598299
85,r090,22,1.5707963267949
86,r000,1,0
86,r030,1,0.523598775598299
86,r060,1,1.0471975511966
86,r090,1,1.5707963267949
86,r120,1,2.0943951023932
86,r150,1,2.61799387799149
86,r180,1,3.14159265358979
86,r210,1,3.66519142918809
86,r240,1,4.18879020478639
86,r270,1,4.71238898038469
86,r300,1,5.23598775598299
86,r330,1,5.75958653158129
87,r000,1,0
87,r030,4,0.523598775598299
87,r060,12,1.0471975511966
87,r090,26,1.5707963267949
87,r120,17,2.0943951023932
87,r150,10,2.61799387799149
87,r180,1,3.14159265358979
87,r210,4,3.66519142918809
87,r240,12,4.18879020478639
87,r270,19,4.71238898038469
87,r300,18,5.23598775598299
87,r330,11,5.75958653158129
88,r000,1,0
88,r030,1,0.523598775598299
88,r180,30,3.14159265358979
88,r240,30,4.18879020478639
88,r330,1,5.75958653158129
89,r000,1,0
89,r030,1,0.523598775598299
89,r060,10,1.0471975511966
89,r090,30,1.5707963267949
89,r330,1,5.75958653158129
90,r000,1,0
90,r030,1,0.523598775598299
90,r330,1,5.75958653158129
91,r000,1,0
91,r030,1,0.523598775598299
91,r060,30,1.0471975511966
91,r090,15,1.5707963267949
91,r180,30,3.14159265358979
91,r210,30,3.66519142918809
91,r240,30,4.18879020478639
91,r270,15,4.71238898038469
91,r300,30,5.23598775598299
92,r000,1,0
92,r150,30,2.61799387799149
92,r180,1,3.14159265358979
92,r330,5,5.75958653158129
93,r000,1,0
93,r030,1,0.523598775598299
93,r060,15,1.0471975511966
93,r300,15,5.23598775598299
93,r330,1,5.75958653158129
94,r000,1,0
94,r180,1,3.14159265358979
94,r270,3,4.71238898038469
95,r000,1,0
95,r030,1,0.523598775598299
95,r090,1,1.5707963267949
95,r270,1,4.71238898038469
96,r000,1,0
96,r330,1,5.75958653158129
97,r000,1,0
97,r030,9,0.523598775598299
97,r060,21,1.0471975511966
97,r120,30,2.0943951023932
