r0,r30,r60,r90,r120,r150,r180,r210,r240,r270,r300,r330,r360
1,1,1,1,1,1,1,1,1,1,1,1,1
1,1,1,1,1,1,1,1,1,1,1,1,1
1,1,1,1,1,1,1,1,1,1,1,1,1
1,1,1,1,1,1,1,1,1,1,1,1,1
0,1,0,0,1,0,0,1,0,0,1,0,0
1,1,1,1,1,1,1,1,1,1,1,1,1
1,1,1,1,1,1,1,1,1,1,1,1,1
1,1,1,1,1,1,1,1,1,1,1,1,1
1,1,1,1,1,1,1,1,1,1,1,1,1
1,1,1,1,1,1,1,1,1,1,1,1,1
0,1,1,0,1,1,0,1,1,0,1,1,0
1,1,1,1,1,1,1,1,1,1,1,1,1
1,0,0,1,0,0,1,0,0,1,0,0,1
1,1,1,1,1,1,1,1,1,1,1,1,1
1,1,1,1,1,1,1,1,1,1,1,1,1
1,1,1,1,1,1,1,1,1,1,1,1,1
0,0,1,0,0,1,0,0,1,0,0,1,0
1,1,1,1,1,1,1,1,1,1,1,1,1
1,1,0,1,1,0,1,1,0,1,1,0,1
1,1,1,1,1,1,1,1,1,1,1,1,1
1,1,1,1,1,1,1,1,1,1,1,1,1
1,1,1,1,1,1,1,1,1,1,1,1,1
1,1,1,1,1,1,1,1,1,1,1,1,1
0,1,0,0,1,0,0,1,0,0,1,0,0
0,1,1,0,1,1,0,1,1,0,1,1,0
1,1,1,1,1,1,1,1,1,1,1,1,1
1,1,1,1,1,1,1,1,1,1,1,1,1
0,0,0,0,0,0,0,0,0,0,0,0,0
1,1,1,1,1,1,1,1,1,1,1,1,1
1,1,0,1,1,0,1,1,0,1,1,0,1
1,1,1,1,1,1,1,1,1,1,1,1,1
1,1,1,1,1,1,1,1,1,1,1,1,1
1,1,1,1,1,1,1,1,1,1,1,1,1
1,0,1,1,0,1,1,0,1,1,0,1,1
1,1,1,1,1,1,1,1,1,1,1,1,1
1,1,1,1,1,1,1,1,1,1,1,1,1
1,0,1,1,0,1,1,0,1,1,0,1,1
0,0,0,0,0,0,0,0,0,0,0,0,0
1,1,1,1,1,1,1,1,1,1,1,1,1
1,1,1,1,1,1,1,1,1,1,1,1,1
1,1,1,1,1,1,1,1,1,1,1,1,1
1,1,1,1,1,1,1,1,1,1,1,1,1
0,1,1,0,1,1,0,1,1,0,1,1,0
1,1,1,1,1,1,1,1,1,1,1,1,1
0,0,0,0,0,0,0,0,0,0,0,0,0
1,1,1,1,1,1,1,1,1,1,1,1,1
1,1,1,1,1,1,1,1,1,1,1,1,1
1,1,1,1,1,1,1,1,1,1,1,1,1
0,0,0,0,0,0,0,0,0,0,0,0,0
1,1,1,1,1,1,1,1,1,1,1,1,1
1,1,1,1,1,1,1,1,1,1,1,1,1
1,1,1,1,1,1,1,1,1,1,1,1,1
1,1,1,1,1,1,1,1,1,1,1,1,1
1,1,1,1,1,1,1,1,1,1,1,1,1
0,1,1,0,1,1,0,1,1,0,1,1,0
1,1,1,1,1,1,1,1,1,1,1,1,1
1,1,1,1,1,1,1,1,1,1,1,1,1
1,1,1,1,1,1,1,1,1,1,1,1,1
1,1,1,1,1,1,1,1,1,1,1,1,1
1,1,1,1,1,1,1,1,1,1,1,1,1
1,1,1,1,1,1,1,1,1,1,1,1,1
1,1,0,1,1,0,1,1,0,1,1,0,1
1,1,1,1,1,1,1,1,1,1,1,1,1
1,1,1,1,1,1,1,1,1,1,1,1,1
1,1,1,1,1,1,1,1,1,1,1,1,1
1,1,1,1,1,1,1,1,1,1,1,1,1
0,0,0,0,0,0,0,0,0,0,0,0,0
1,1,1,1,1,1,1,1,1,1,1,1,1
1,1,1,1,1,1,1,1,1,1,1,1,1
1,1,1,1,1,1,1,1,1,1,1,1,1
1,1,1,1,1,1,1,1,1,1,1,1,1
1,1,0,1,1,0,1,1,0,1,1,0,1
0,1,1,0,1,1,0,1,1,0,1,1,0
1,1,1,1,1,1,1,1,1,1,1,1,1
0,0,0,0,0,0,0,0,0,0,0,0,0
1,1,1,1,1,1,1,1,1,1,1,1,1
1,1,1,1,1,1,1,1,1,1,1,1,1
1,1,1,1,1,1,1,1,1,1,1,1,1
1,1,1,1,1,1,1,1,1,1,1,1,1
1,1,1,1,1,1,1,1,1,1,1,1,1
1,1,1,1,1,1,1,1,1,1,1,1,1
1,1,1,1,1,1,1,1,1,1,1,1,1
1,1,1,1,1,1,1,1,1,1,1,1,1
1,1,1,1,1,1,1,1,1,1,1,1,1
1,1,0,1,1,0,1,1,0,1,1,0,1
1,1,1,1,1,1,1,1,1,1,1,1,1
1,1,1,1,1,1,1,1,1,1,1,1,1
1,1,1,1,1,1,1,1,1,1,1,1,1
1,0,1,1,0,1,1,0,1,1,0,1,1
1,1,1,1,1,1,1,1,1,1,1,1,1
1,1,1,1,1,1,1,1,1,1,1,1,1
1,1,1,1,1,1,1,1,1,1,1,1,1
1,1,1,1,1,1,1,1,1,1,1,1,1
1,1,1,1,1,1,1,1,1,1,1,1,1
1,1,1,1,1,1,1,1,1,1,1,1,1
1,1,1,1,1,1,1,1,1,1,1,1,1
1,0,1,1,0,1,1,0,1,1,0,1,1
1,1,1,1,1,1,1,1,1,1,1,1,1
1,1,1,1,1,1,1,1,1,1,1,1,1
0,0,1,0,0,1,0,0,1,0,0,1,0
1,0,0,1,0,0,1,0,0,1,0,0,1
1,1,1,1,1,1,1,1,1,1,1,1,1
1,1,1,1,1,1,1,1,1,1,1,1,1
1,1,0,1,1,0,1,1,0,1,1,0,1
0,0,0,0,0,0,0,0,0,0,0,0,0
1,1,1,1,1,1,1,1,1,1,1,1,1
0,0,0,0,0,0,0,0,0,0,0,0,0
1,1,1,1,1,1,1,1,1,1,1,1,1
1,1,0,1,1,0,1,1,0,1,1,0,1
1,1,1,1,1,1,1,1,1,1,1,1,1
1,1,1,1,1,1,1,1,1,1,1,1,1
0,0,0,0,0,0,0,0,0,0,0,0,0
1,1,1,1,1,1,1,1,1,1,1,1,1
1,0,1,1,0,1,1,0,1,1,0,1,1
1,1,1,1,1,1,1,1,1,1,1,1,1
1,1,1,1,1,1,1,1,1,1,1,1,1
1,1,1,1,1,1,1,1,1,1,1,1,1
1,1,0,1,1,0,1,1,0,1,1,0,1
1,1,1,1,1,1,1,1,1,1,1,1,1
1,1,1,1,1,1,1,1,1,1,1,1,1
0,0,0,0,0,0,0,0,0,0,0,0,0
1,1,1,1,1,1,1,1,1,1,1,1,1
1,1,1,1,1,1,1,1,1,1,1,1,1
1,1,1,1,1,1,1,1,1,1,1,1,1
1,1,1,1,1,1,1,1,1,1,1,1,1
0,0,0,0,0,0,0,0,0,0,0,0,0
1,1,1,1,1,1,1,1,1,1,1,1,1
1,1,1,1,1,1,1,1,1,1,1,1,1
0,0,1,0,0,1,0,0,1,0,0,1,0
0,0,0,0,0,0,0,0,0,0,0,0,0
1,1,1,1,1,1,1,1,1,1,1,1,1
1,1,1,1,1,1,1,1,1,1,1,1,1
1,1,1,1,1,1,1,1,1,1,1,1,1
1,1,1,1,1,1,1,1,1,1,1,1,1
1,1,1,1,1,1,1,1,1,1,1,1,1
1,1,1,1,1,1,1,1,1,1,1,1,1
1,1,1,1,1,1,1,1,1,1,1,1,1
1,1,1,1,1,1,1,1,1,1,1,1,1
1,1,1,1,1,1,1,1,1,1,1,1,1
1,1,1,1,1,1,1,1,1,1,1,1,1
1,1,1,1,1,1,1,1,1,1,1,1,1
1,1,1,1,1,1,1,1,1,1,1,1,1
1,1,1,1,1,1,1,1,1,1,1,1,1
1,1,1,1,1,1,1,1,1,1,1,1,1
1,1,1,1,1,1,1,1,1,1,1,1,1
1,1,1,1,1,1,1,1,1,1,1,1,1
1,1,1,1,1,1,1,1,1,1,1,1,1
1,1,1,1,1,1,1,1,1,1,1,1,1
1,1,1,1,1,1,1,1,1,1,1,1,1
1,1,1,1,1,1,1,1,1,1,1,1,1
1,1,1,1,1,1,1,1,1,1,1,1,1
1,1,1,1,1,1,1,1,1,1,1,1,1
1,1,1,1,1,1,1,1,1,1,1,1,1
1,1,1,1,1,1,1,1,1,1,1,1,1
1,1,1,1,1,1,1,1,1,1,1,1,1
1,1,1,1,1,1,1,1,1,1,1,1,1
1,1,1,1,1,1,1,1,1,1,1,1,1
1,1,1,1,1,1,1,1,1,1,1,1,1
1,1,1,1,1,1,1,1,1,1,1,1,1
1,1,1,1,1,1,1,1,1,1,1,1,1
1,1,1,1,1,1,1,1,1,1,1,1,1
1,1,1,1,1,1,1,1,1,1,1,1,1
1,1,1,1,1,1,1,1,1,1,1,1,1
1,1,1,1,1,1,1,1,1,1,1,1,1
1,1,1,1,1,1,1,1,1,1,1,1,1
1,1,1,1,1,1,1,1,1,1,1,1,1
1,1,1,1,1,1,1,1,1,1,1,1,1
1,1,1,1,1,1,1,1,1,1,1,1,1
1,1,1,1,1,1,1,1,1,1,1,1,1
1,1,1,1,1,1,1,1,1,1,1,1,1
1,1,1,1,1,1,1,1,1,1,1,1,1
1,1,1,1,1,1,1,1,1,1,1,1,1
1,1,1,1,1,1,1,1,1,1,1,1,1
1,1,1,1,1,1,1,1,1,1,1,1,1
1,1,1,1,1,1,1,1,1,1,1,1,1
1,1,1,1,1,1,1,1,1,1,1,1,1
1,1,1,1,1,1,1,1,1,1,1,1,1
1,1,1,1,1,1,1,1,1,1,1,1,1
1,1,1,1,1,1,1,1,1,1,1,1,1
1,1,1,1,1,1,1,1,1,1,1,1,1
1,1,1,1,1,1,1,1,1,1,1,1,1
1,1,1,1,1,1,1,1,1,1,1,1,1
1,1,1,1,1,1,1,1,1,1,1,1,1
1,1,1,1,1,1,1,1,1,1,1,1,1
1,1,1,1,1,1,1,1,1,1,1,1,1
1,1,1,1,1,1,1,1,1,1,1,1,1
1,1,1,1,1,1,1,1,1,1,1,1,1
1,1,1,1,1,1,1,1,1,1,1,1,1
1,1,1,1,1,1,1,1,1,1,1,1,1
1,1,1,1,1,1,1,1,1,1,1,1,1
1,1,1,1,1,1,1,1,1,1,1,1,1
1,1,1,1,1,1,1,1,1,1,1,1,1
1,1,1,1,1,1,1,1,1,1,1,1,1
1,1,1,1,1,1,1,1,1,1,1,1,1
1,1,1,1,1,1,1,1,1,1,1,1,1
1,1,1,1,1,1,1,1,1,1,1,1,1
1,1,1,1,1,1,1,1,1,1,1,1,1
1,1,1,1,1,1,1,1,1,1,1,1,1
1,1,1,1,1,1,1,1,1,1,1,1,1
1,1,1,1,1,1,1,1,1,1,1,1,1
1,1,1,1,1,1,1,1,1,1,1,1,1
1,1,1,1,1,1,1,1,1,1,1,1,1
1,1,1,1,1,1,1,1,1,1,1,1,1
1,1,1,1,1,1,1,1,1,1,1,1,1
1,1,1,1,1,1,1,1,1,1,1,1,1
1,1,1,1,1,1,1,1,1,1,1,1,1
1,1,1,1,1,1,1,1,1,1,1,1,1
1,1,1,1,1,1,1,1,1,1,1,1,1
1,1,1,1,1,1,1,1,1,1,1,1,1
1,1,1,1,1,1,1,1,1,1,1,1,1
1,1,1,1,1,1,1,1,1,1,1,1,1
1,1,1,1,1,1,1,1,1,1,1,1,1
1,1,1,1,1,1,1,1,1,1,1,1,1
1,1,1,1,1,1,1,1,1,1,1,1,1
1,1,1,1,1,1,1,1,1,1,1,1,1
1,1,1,1,1,1,1,1,1,1,1,1,1
1,1,1,1,1,1,1,1,1,1,1,1,1
1,1,1,1,1,1,1,1,1,1,1,1,1
1,1,1,1,1,1,1,1,1,1,1,1,1
1,1,1,1,1,1,1,1,1,1,1,1,1
1,1,1,1,1,1,1,1,1,1,1,1,1
1,1,1,1,1,1,1,1,1,1,1,1,1
1,1,1,1,1,1,1,1,1,1,1,1,1
1,1,1,1,1,1,1,1,1,1,1,1,1
1,1,1,1,1,1,1,1,1,1,1,1,1
1,1,1,1,1,1,1,1,1,1,1,1,1
1,1,1,1,1,1,1,1,1,1,1,1,1
1,1,1,1,1,1,1,1,1,1,1,1,1
1,1,1,1,1,1,1,1,1,1,1,1,1
1,1,1,1,1,1,1,1,1,1,1,1,1
1,1,1,1,1,1,1,1,1,1,1,1,1
1,1,1,1,1,1,1,1,1,1,1,1,1
1,1,1,1,1,1,1,1,1,1,1,1,1
1,1,1,1,1,1,1,1,1,1,1,1,1
1,1,1,1,1,1,1,1,1,1,1,1,1
1,1,1,1,1,1,1,1,1,1,1,1,1
1,1,1,1,1,1,1,1,1,1,1,1,1
1,1,1,1,1,1,1,1,1,1,1,1,1
1,1,1,1,1,1,1,1,1,1,1,1,1
1,1,1,1,1,1,1,1,1,1,1,1,1
1,1,1,1,1,1,1,1,1,1,1,1,1
1,1,1,1,1,1,1,1,1,1,1,1,1
1,1,1,1,1,1,1,1,1,1,1,1,1
1,1,1,1,1,1,1,1,1,1,1,1,1
1,1,1,1,1,1,1,1,1,1,1,1,1
1,1,1,1,1,1,1,1,1,1,1,1,1
1,1,1,1,1,1,1,1,1,1,1,1,1
1,1,1,1,1,1,1,1,1,1,1,1,1
1,1,1,1,1,1,1,1,1,1,1,1,1
1,1,1,1,1,1,1,1,1,1,1,1,1
1,1,1,1,1,1,1,1,1,1,1,1,1
1,1,1,1,1,1,1,1,1,1,1,1,1
1,1,1,1,1,1,1,1,1,1,1,1,1
1,1,1,1,1,1,1,1,1,1,1,1,1
1,1,1,1,1,1,1,1,1,1,1,1,1
1,1,1,1,1,1,1,1,1,1,1,1,1
1,1,1,1,1,1,1,1,1,1,1,1,1
1,1,1,1,1,1,1,1,1,1,1,1,1
1,1,1,1,1,1,1,1,1,1,1,1,1
1,1,1,1,1,1,1,1,1,1,1,1,1
1,1,1,1,1,1,1,1,1,1,1,1,1
1,1,1,1,1,1,1,1,1,1,1,1,1
1,1,1,1,1,1,1,1,1,1,1,1,1
1,1,1,1,1,1,1,1,1,1,1,1,1
1,1,1,1,1,1,1,1,1,1,1,1,1
1,1,1,1,1,1,1,1,1,1,1,1,1
1,1,1,1,1,1,1,1,1,1,1,1,1
1,1,1,1,1,1,1,1,1,1,1,1,1
1,1,1,1,1,1,1,1,1,1,1,1,1
1,1,1,1,1,1,1,1,1,1,1,1,1
1,1,1,1,1,1,1,1,1,1,1,1,1
1,1,1,1,1,1,1,1,1,1,1,1,1
1,1,1,1,1,1,1,1,1,1,1,1,1
1,1,1,1,1,1,1,1,1,1,1,1,1
1,1,1,1,1,1,1,1,1,1,1,1,1
1,1,1,1,1,1,1,1,1,1,1,1,1
1,1,1,1,1,1,1,1,1,1,1,1,1
1,1,1,1,1,1,1,1,1,1,1,1,1
1,1,1,1,1,1,1,1,1,1,1,1,1
1,1,1,1,1,1,1,1,1,1,1,1,1
1,1,1,1,1,1,1,1,1,1,1,1,1
1,1,1,1,1,1,1,1,1,1,1,1,1
1,1,1,1,1,1,1,1,1,1,1,1,1
1,1,1,1,1,1,1,1,1,1,1,1,1
1,1,1,1,1,1,1,1,1,1,1,1,1
1,1,1,1,1,1,1,1,1,1,1,1,1
1,1,1,1,1,1,1,1,1,1,1,1,1
1,1,1,1,1,1,1,1,1,1,1,1,1
1,1,1,1,1,1,1,1,1,1,1,1,1
1,1,1,1,1,1,1,1,1,1,1,1,1
1,1,1,1,1,1,1,1,1,1,1,1,1
1,1,1,1,1,1,1,1,1,1,1,1,1
1,1,1,1,1,1,1,1,1,1,1,1,1
1,1,1,1,1,1,1,1,1,1,1,1,1
1,1,1,1,1,1,1,1,1,1,1,1,1
1,1,1,1,1,1,1,1,1,1,1,1,1
1,1,1,1,1,1,1,1,1,1,1,1,1
1,1,1,1,1,1,1,1,1,1,1,1,1
1,1,1,1,1,1,1,1,1,1,1,1,1
1,1,1,1,1,1,1,1,1,1,1,1,1
1,1,1,1,1,1,1,1,1,1,1,1,1
1,1,1,1,1,1,1,1,1,1,1,1,1
1,1,1,1,1,1,1,1,1,1,1,1,1
1,1,1,1,1,1,1,1,1,1,1,1,1
1,1,1,1,1,1,1,1,1,1,1,1,1
1,1,1,1,1,1,1,1,1,1,1,1,1
1,1,1,1,1,1,1,1,1,1,1,1,1
1,1,1,1,1,1,1,1,1,1,1,1,1
1,1,1,1,1,1,1,1,1,1,1,1,1
1,1,1,1,1,1,1,1,1,1,1,1,1
1,1,1,1,1,1,1,1,1,1,1,1,1
1,1,1,1,1,1,1,1,1,1,1,1,1
1,1,1,1,1,1,1,1,1,1,1,1,1
1,1,1,1,1,1,1,1,1,1,1,1,1
1,1,1,1,1,1,1,1,1,1,1,1,1
1,1,1,1,1,1,1,1,1,1,1,1,1
1,1,1,1,1,1,1,1,1,1,1,1,1
1,1,1,1,1,1,1,1,1,1,1,1,1
1,1,1,1,1,1,1,1,1,1,1,1,1
1,1,1,1,1,1,1,1,1,1,1,1,1
1,1,1,1,1,1,1,1,1,1,1,1,1
1,1,1,1,1,1,1,1,1,1,1,1,1
1,1,1,1,1,1,1,1,1,1,1,1,1
1,1,1,1,1,1,1,1,1,1,1,1,1
1,1,1,1,1,1,1,1,1,1,1,1,1
1,1,1,1,1,1,1,1,1,1,1,1,1
1,1,1,1,1,1,1,1,1,1,1,1,1
1,1,1,1,1,1,1,1,1,1,1,1,1
1,1,1,1,1,1,1,1,1,1,1,1,1
1,1,1,1,1,1,1,1,1,1,1,1,1
1,1,1,1,1,1,1,1,1,1,1,1,1
1,1,1,1,1,1,1,1,1,1,1,1,1
1,1,1,1,1,1,1,1,1,1,1,1,1
1,1,1,1,1,1,1,1,1,1,1,1,1
1,1,1,1,1,1,1,1,1,1,1,1,1
1,1,1,1,1,1,1,1,1,1,1,1,1
1,1,1,1,1,1,1,1,1,1,1,1,1
1,1,1,1,1,1,1,1,1,1,1,1,1
1,1,1,1,1,1,1,1,1,1,1,1,1
1,1,1,1,1,1,1,1,1,1,1,1,1
1,1,1,1,1,1,1,1,1,1,1,1,1
1,1,1,1,1,1,1,1,1,1,1,1,1
1,1,1,1,1,1,1,1,1,1,1,1,1
1,1,1,1,1,1,1,1,1,1,1,1,1
1,1,1,1,1,1,1,1,1,1,1,1,1
1,1,1,1,1,1,1,1,1,1,1,1,1
1,1,1,1,1,1,1,1,1,1,1,1,1
1,1,1,1,1,1,1,1,1,1,1,1,1
1,1,1,1,1,1,1,1,1,1,1,1,1
1,1,1,1,1,1,1,1,1,1,1,1,1
1,1,1,1,1,1,1,1,1,1,1,1,1
1,1,1,1,1,1,1,1,1,1,1,1,1
1,1,1,1,1,1,1,1,1,1,1,1,1
1,1,1,1,1,1,1,1,1,1,1,1,1
1,1,1,1,1,1,1,1,1,1,1,1,1
1,1,1,1,1,1,1,1,1,1,1,1,1
1,1,1,1,1,1,1,1,1,1,1,1,1
1,1,1,1,1,1,1,1,1,1,1,1,1
1,1,1,1,1,1,1,1,1,1,1,1,1
1,1,1,1,1,1,1,1,1,1,1,1,1
1,1,1,1,1,1,1,1,1,1,1,1,1
1,1,1,1,1,1,1,1,1,1,1,1,1
1,1,1,1,1,1,1,1,1,1,1,1,1
1,1,1,1,1,1,1,1,1,1,1,1,1
1,1,1,1,1,1,1,1,1,1,1,1,1
1,1,1,1,1,1,1,1,1,1,1,1,1
1,1,1,1,1,1,1,1,1,1,1,1,1
1,1,1,1,1,1,1,1,1,1,1,1,1
1,1,1,1,1,1,1,1,1,1,1,1,1
1,1,1,1,1,1,1,1,1,1,1,1,1
1,1,1,1,1,1,1,1,1,1,1,1,1
1,1,1,1,1,1,1,1,1,1,1,1,1
1,1,1,1,1,1,1,1,1,1,1,1,1
1,1,1,1,1,1,1,1,1,1,1,1,1
1,1,1,1,1,1,1,1,1,1,1,1,1
1,1,1,1,1,1,1,1,1,1,1,1,1
1,1,1,1,1,1,1,1,1,1,1,1,1
1,1,1,1,1,1,1,1,1,1,1,1,1
1,1,1,1,1,1,1,1,1,1,1,1,1
1,1,1,1,1,1,1,1,1,1,1,1,1
1,1,1,1,1,1,1,1,1,1,1,1,1
1,1,1,1,1,1,1,1,1,1,1,1,1
1,1,1,1,1,1,1,1,1,1,1,1,1
1,1,1,1,1,1,1,1,1,1,1,1,1
1,1,1,1,1,1,1,1,1,1,1,1,1
1,1,1,1,1,1,1,1,1,1,1,1,1
1,1,1,1,1,1,1,1,1,1,1,1,1
1,1,1,1,1,1,1,1,1,1,1,1,1
1,1,1,1,1,1,1,1,1,1,1,1,1
1,1,1,1,1,1,1,1,1,1,1,1,1
0.547898546971631,0.556823371448647,0.517336386336453,0.547898546971633,0.556823371448649,0.517336386336454,0.547898546971629,0.556823371448651,0.517336386336456,0.547898546971631,0.556823371448649,0.517336386336457,0.547898546971631
0.447591896730125,0.397544823423166,0.545548426507502,0.447591896730126,0.397544823423167,0.545548426507502,0.447591896730125,0.397544823423165,0.545548426507492,0.447591896730122,0.397544823423166,0.545548426507502,0.447591896730125
0.908570056164828,0.751285021446876,0.742154690403793,0.908570056164823,0.751285021446874,0.742154690403789,0.908570056164818,0.75128502144688,0.742154690403789,0.908570056164826,0.751285021446882,0.742154690403797,0.908570056164828
0.855142047538297,0.858586192304708,0.61364299225696,0.855142047538288,0.858586192304711,0.61364299225696,0.855142047538297,0.858586192304712,0.613642992256957,0.855142047538304,0.858586192304704,0.613642992256965,0.855142047538297
0.578085307800514,0.297737069153849,0.620148661240069,0.578085307800517,0.297737069153845,0.620148661240044,0.578085307800521,0.297737069153852,0.620148661240066,0.578085307800499,0.297737069153849,0.620148661240098,0.578085307800514
1.11641689857427,1.44669198471422,1.32661388619655,1.11641689857427,1.44669198471422,1.32661388619655,1.11641689857428,1.44669198471422,1.32661388619655,1.11641689857427,1.44669198471421,1.32661388619654,1.11641689857427
0.94501974515531,1.33651727870573,1.17604826295622,0.945019745155316,1.33651727870574,1.17604826295622,0.945019745155305,1.33651727870574,1.17604826295621,0.94501974515531,1.33651727870574,1.17604826295621,0.94501974515531
1.43361734603108,1.50870920410172,1.55710821348492,1.43361734603108,1.50870920410172,1.55710821348493,1.43361734603108,1.50870920410171,1.55710821348492,1.43361734603107,1.50870920410172,1.55710821348493,1.43361734603108
1.26851178124567,1.46833860326834,1.07119532875351,1.26851178124567,1.46833860326833,1.0711953287535,1.26851178124567,1.46833860326833,1.0711953287535,1.26851178124567,1.46833860326833,1.07119532875351,1.26851178124567
1.26384893972738,1.23232926123826,1.3044506758093,1.26384893972739,1.23232926123826,1.30445067580931,1.26384893972739,1.23232926123825,1.3044506758093,1.26384893972739,1.23232926123825,1.3044506758093,1.26384893972738
0.296291804988166,0.290452499018155,0.304212171745247,0.296291804988168,0.290452499018154,0.304212171745249,0.296291804988167,0.290452499018154,0.304212171745249,0.296291804988167,0.290452499018155,0.304212171745246,0.296291804988166
0.915828028362211,0.525536130971056,0.696343916350101,0.915828028362212,0.525536130971048,0.696343916350097,0.915828028362214,0.525536130971045,0.696343916350107,0.915828028362204,0.525536130971057,0.6963439163501,0.915828028362211
0.41239507264765,0.499715716425421,0.56802083952453,0.412395072647654,0.499715716425415,0.568020839524529,0.412395072647649,0.499715716425428,0.568020839524531,0.412395072647646,0.49971571642542,0.568020839524536,0.41239507264765
1.27069457558188,1.5599458099486,1.4359684625561,1.27069457558188,1.55994580994861,1.43596846255611,1.27069457558188,1.55994580994861,1.43596846255611,1.27069457558188,1.5599458099486,1.43596846255611,1.27069457558188
0.837281323179325,0.818992092751602,1.2266428029353,0.83728132317932,0.818992092751601,1.22664280293531,0.837281323179319,0.818992092751602,1.22664280293531,0.83728132317932,0.818992092751599,1.2266428029353,0.837281323179325
0.976996113415843,0.815889839110087,0.980937574154665,0.976996113415844,0.815889839110088,0.980937574154674,0.976996113415844,0.81588983911009,0.98093757415467,0.97699611341584,0.815889839110095,0.980937574154663,0.976996113415843
0.551400740464102,0.58966390838967,0.66603433220078,0.551400740464098,0.589663908389645,0.666034332200781,0.5514007404641,0.589663908389657,0.666034332200782,0.551400740464103,0.589663908389669,0.666034332200788,0.551400740464102
0.838164291550615,0.846561657173829,0.719354793071557,0.838164291550619,0.84656165717383,0.719354793071565,0.838164291550621,0.846561657173827,0.719354793071564,0.838164291550616,0.846561657173824,0.71935479307156,0.838164291550615
0.246622784467437,0.296987697822073,0.353510916018448,0.246622784467442,0.296987697822075,0.353510916018447,0.24662278446744,0.296987697822074,0.353510916018447,0.246622784467436,0.296987697822074,0.35351091601845,0.246622784467437
1.02716327359097,0.891534011798525,0.668743125745002,1.02716327359096,0.891534011798523,0.668743125745005,1.02716327359097,0.891534011798522,0.668743125745007,1.02716327359097,0.891534011798529,0.668743125745004,1.02716327359097
0.920147641905649,0.767409613508285,0.838880703846069,0.920147641905645,0.767409613508288,0.838880703846062,0.920147641905647,0.767409613508292,0.83888070384608,0.920147641905654,0.767409613508281,0.83888070384608,0.920147641905649
1.17729717109686,1.11075965181148,0.873737503508735,1.17729717109686,1.11075965181148,0.873737503508741,1.17729717109686,1.11075965181149,0.873737503508739,1.17729717109685,1.11075965181149,0.873737503508735,1.17729717109686
0.374693330837012,0.55651528386167,0.573495414603453,0.374693330837011,0.556515283861668,0.573495414603459,0.37469333083701,0.556515283861668,0.573495414603459,0.374693330837014,0.556515283861665,0.57349541460345,0.374693330837012
0.528637811211696,0.507771188655766,0.535710851467938,0.528637811211696,0.507771188655759,0.535710851467938,0.528637811211704,0.507771188655758,0.535710851467945,0.528637811211702,0.507771188655766,0.535710851467941,0.528637811211696
0.4746279708829,0.398797479923778,0.58448492116581,0.474627970882886,0.39879747992378,0.584484921165807,0.474627970882892,0.398797479923773,0.584484921165798,0.474627970882899,0.398797479923772,0.584484921165805,0.4746279708829
2.43334127233265,2.54354814965392,2.12211021593349,2.43334127233265,2.54354814965392,2.12211021593349,2.43334127233265,2.54354814965392,2.12211021593349,2.43334127233265,2.54354814965392,2.12211021593348,2.43334127233265
1.96695917714884,1.1432107536223,1.26864805968077,1.96695917714885,1.14321075362231,1.26864805968076,1.96695917714885,1.14321075362231,1.26864805968076,1.96695917714884,1.14321075362232,1.26864805968077,1.96695917714884
0.243286139579056,0.243539872167558,0.23420289287871,0.243286139579056,0.243539872167554,0.234202892878705,0.243286139579056,0.243539872167549,0.234202892878713,0.243286139579055,0.243539872167553,0.23420289287871,0.243286139579056
0.836831002182105,0.748990175043744,0.642131987796201,0.836831002182111,0.748990175043753,0.642131987796201,0.836831002182111,0.748990175043755,0.642131987796196,0.836831002182111,0.748990175043753,0.642131987796205,0.836831002182105
1.29164567808249,0.915731095643324,1.231176619132,1.29164567808249,0.915731095643322,1.23117661913199,1.29164567808249,0.915731095643309,1.23117661913198,1.29164567808248,0.915731095643311,1.23117661913199,1.29164567808249
0.684940423503941,0.677138935949591,0.735233771496808,0.684940423503947,0.677138935949593,0.735233771496805,0.684940423503942,0.677138935949594,0.735233771496805,0.684940423503939,0.677138935949593,0.73523377149681,0.684940423503941
0.716680821138781,0.87723209862183,0.654587372640523,0.716680821138775,0.877232098621829,0.654587372640526,0.716680821138779,0.877232098621827,0.654587372640526,0.71668082113878,0.877232098621825,0.654587372640524,0.716680821138781
0.869559198517639,0.939063180464454,1.141007613605,0.869559198517651,0.939063180464451,1.141007613605,0.869559198517651,0.939063180464436,1.141007613605,0.869559198517631,0.939063180464438,1.141007613605,0.869559198517639
1.53093340396856,1.45910098918945,1.74444805232798,1.53093340396855,1.45910098918945,1.74444805232798,1.53093340396857,1.45910098918946,1.74444805232799,1.53093340396858,1.45910098918945,1.74444805232799,1.53093340396856
2.2167344994464,2.27048482457928,2.41020823803013,2.21673449944641,2.27048482457927,2.41020823803012,2.21673449944641,2.27048482457929,2.41020823803012,2.2167344994464,2.27048482457927,2.41020823803012,2.2167344994464
0.781880101404205,0.793750380630478,0.876512490349445,0.781880101404206,0.793750380630479,0.876512490349443,0.781880101404202,0.793750380630478,0.876512490349447,0.781880101404204,0.793750380630482,0.876512490349445,0.781880101404205
0.406590628008168,0.608623947491865,0.417446571576127,0.406590628008174,0.608623947491869,0.417446571576126,0.40659062800817,0.60862394749187,0.417446571576126,0.406590628008168,0.608623947491867,0.417446571576128,0.406590628008168
0.23218665627306,0.190354748090337,0.27908387904073,0.232186656273056,0.190354748090344,0.279083879040726,0.232186656273062,0.19035474809035,0.279083879040727,0.232186656273058,0.190354748090343,0.279083879040729,0.23218665627306
1.70364475874252,1.56967116944398,1.67924202241987,1.70364475874253,1.56967116944398,1.67924202241988,1.70364475874253,1.56967116944399,1.6792420224199,1.70364475874253,1.56967116944398,1.67924202241989,1.70364475874252
1.20577584482411,1.15930763361641,1.75585649819348,1.20577584482411,1.1593076336164,1.75585649819347,1.20577584482411,1.1593076336164,1.75585649819348,1.20577584482411,1.1593076336164,1.75585649819349,1.20577584482411
3.20023487065459,3.385447489121,2.91322434878988,3.2002348706546,3.38544748912101,2.91322434878987,3.20023487065459,3.38544748912099,2.91322434878987,3.20023487065459,3.38544748912099,2.91322434878989,3.20023487065459
0.901082327448818,0.754941393781092,0.93480657258495,0.901082327448819,0.754941393781089,0.934806572584953,0.901082327448822,0.75494139378109,0.934806572584952,0.901082327448817,0.75494139378109,0.934806572584951,0.901082327448818
0.415307350884039,0.367365645641486,0.44257504925372,0.415307350884033,0.367365645641483,0.442575049253719,0.415307350884037,0.367365645641481,0.442575049253722,0.415307350884037,0.367365645641483,0.442575049253721,0.415307350884039
0.460030443455364,0.64016892652543,0.924814479537239,0.460030443455361,0.640168926525424,0.924814479537233,0.46003044345537,0.640168926525423,0.924814479537235,0.460030443455369,0.640168926525426,0.924814479537227,0.460030443455364
0.311958261459787,0.299687247927432,0.287820083705744,0.311958261459776,0.299687247927436,0.287820083705734,0.31195826145978,0.299687247927424,0.287820083705732,0.311958261459786,0.299687247927421,0.287820083705737,0.311958261459787
0.725165389450127,0.852032909014578,0.749064728122748,0.725165389450127,0.852032909014572,0.749064728122747,0.725165389450125,0.85203290901458,0.749064728122745,0.725165389450134,0.85203290901458,0.749064728122741,0.725165389450127
1.18935886940202,0.966279990741335,1.14456828430076,1.18935886940202,0.966279990741329,1.14456828430076,1.18935886940202,0.96627999074133,1.14456828430077,1.18935886940202,0.966279990741329,1.14456828430077,1.18935886940202
0.488907499097012,0.642369683682063,0.364955664585408,0.488907499097019,0.642369683682066,0.364955664585411,0.48890749909702,0.642369683682074,0.364955664585417,0.488907499097009,0.642369683682061,0.364955664585416,0.488907499097012
0.37060415055954,0.306938074759719,0.32847490904237,0.370604150559529,0.306938074759699,0.32847490904236,0.370604150559529,0.306938074759703,0.32847490904236,0.370604150559533,0.30693807475972,0.328474909042356,0.37060415055954
0.586906342621639,0.484440773945634,0.431246238189575,0.58690634262164,0.484440773945632,0.431246238189577,0.58690634262164,0.484440773945637,0.431246238189578,0.586906342621637,0.484440773945636,0.431246238189574,0.586906342621639
0.499331740467288,0.647199296821794,0.438411765019358,0.499331740467285,0.647199296821796,0.438411765019361,0.499331740467284,0.647199296821794,0.438411765019358,0.499331740467286,0.647199296821794,0.438411765019361,0.499331740467288
0.614367548997138,0.773133536438237,0.656722261705573,0.614367548997127,0.773133536438229,0.656722261705569,0.614367548997131,0.773133536438238,0.65672226170557,0.614367548997134,0.77313353643823,0.656722261705579,0.614367548997138
0.910546167890581,0.948798763269471,1.05413173693148,0.910546167890582,0.948798763269472,1.05413173693148,0.910546167890591,0.948798763269476,1.05413173693148,0.910546167890579,0.948798763269477,1.05413173693148,0.910546167890581
0.327145319316875,0.368630974393248,0.316774794800959,0.327145319316873,0.368630974393249,0.316774794800957,0.327145319316872,0.368630974393249,0.316774794800956,0.327145319316876,0.36863097439325,0.316774794800955,0.327145319316875
0.425676264638719,0.4609734662982,0.382163832967542,0.425676264638719,0.460973466298199,0.38216383296754,0.42567626463872,0.460973466298201,0.382163832967543,0.425676264638722,0.460973466298198,0.382163832967543,0.425676264638719
0.79864310491916,0.838276565668733,0.616355252471648,0.798643104919164,0.838276565668747,0.616355252471652,0.798643104919168,0.838276565668743,0.61635525247166,0.798643104919169,0.838276565668733,0.616355252471656,0.79864310491916
0.504508210978706,0.597920802795821,0.709184474202635,0.504508210978701,0.597920802795819,0.709184474202642,0.504508210978706,0.597920802795821,0.709184474202635,0.504508210978708,0.597920802795819,0.709184474202642,0.504508210978706
0.888771197663985,0.773358536937474,0.707745681832498,0.88877119766398,0.773358536937476,0.707745681832503,0.888771197663985,0.77335853693747,0.707745681832498,0.888771197663989,0.773358536937474,0.7077456818325,0.888771197663985
0.882628449758394,1.13282887745366,1.16672812430374,0.882628449758388,1.13282887745366,1.16672812430373,0.882628449758383,1.13282887745366,1.16672812430374,0.882628449758386,1.13282887745366,1.16672812430374,0.882628449758394
1.23736848419629,1.36081578310305,0.982738596774924,1.23736848419628,1.36081578310305,0.98273859677493,1.23736848419628,1.36081578310307,0.982738596774931,1.23736848419628,1.36081578310306,0.982738596774932,1.23736848419629
0.8615727379779,1.18508881531039,0.758393630530223,0.861572737977912,1.18508881531039,0.758393630530209,0.861572737977915,1.1850888153104,0.758393630530207,0.861572737977915,1.18508881531039,0.758393630530216,0.8615727379779
0.516505467721892,0.667898211559811,0.616914856250615,0.51650546772189,0.667898211559812,0.616914856250613,0.51650546772189,0.667898211559815,0.616914856250609,0.516505467721889,0.667898211559817,0.616914856250615,0.516505467721892
1.58223352277603,1.09128268625828,1.04481572085976,1.58223352277603,1.09128268625827,1.04481572085976,1.58223352277603,1.09128268625828,1.04481572085977,1.58223352277604,1.09128268625827,1.04481572085977,1.58223352277603
1.01929510390921,1.35598412835734,1.60428154679753,1.01929510390921,1.35598412835735,1.60428154679752,1.01929510390922,1.35598412835735,1.6042815467975,1.01929510390922,1.35598412835734,1.60428154679753,1.01929510390921
0.709714008496859,1.40253712266413,0.614225396167213,0.709714008496858,1.40253712266413,0.61422539616722,0.709714008496854,1.40253712266414,0.614225396167217,0.709714008496855,1.40253712266414,0.614225396167217,0.709714008496859
0.537980001224217,0.597605242723684,0.631460519553517,0.537980001224221,0.597605242723689,0.631460519553513,0.537980001224217,0.597605242723686,0.631460519553513,0.537980001224214,0.597605242723688,0.631460519553516,0.537980001224217
0.818641906150328,0.679867976771957,1.00786398438286,0.818641906150325,0.67986797677196,1.00786398438285,0.81864190615033,0.679867976771966,1.00786398438286,0.818641906150329,0.679867976771958,1.00786398438285,0.818641906150328
0.57229168976352,0.500054410728432,0.422780087043424,0.572291689763523,0.500054410728433,0.422780087043424,0.572291689763524,0.500054410728432,0.422780087043428,0.572291689763522,0.500054410728432,0.422780087043426,0.57229168976352
0.878937979190065,0.697193464253321,0.445947726453071,0.87893797919006,0.697193464253327,0.44594772645307,0.878937979190065,0.69719346425332,0.445947726453076,0.878937979190064,0.697193464253314,0.445947726453074,0.878937979190065
0.846303520005638,0.830540925260883,0.79740771682184,0.846303520005636,0.830540925260885,0.797407716821845,0.84630352000564,0.830540925260883,0.79740771682184,0.846303520005642,0.83054092526088,0.797407716821832,0.846303520005638
0.765769695681714,0.447869010977543,0.715441665336366,0.765769695681715,0.447869010977541,0.715441665336375,0.765769695681717,0.447869010977538,0.715441665336373,0.765769695681724,0.447869010977534,0.71544166533636,0.765769695681714
0.433839532863428,0.333756080669458,0.537264580946214,0.433839532863431,0.33375608066946,0.537264580946217,0.433839532863432,0.333756080669456,0.537264580946221,0.433839532863435,0.333756080669457,0.53726458094622,0.433839532863428
0.29978483951983,0.340058643986883,0.302368374690389,0.299784839519829,0.340058643986881,0.302368374690389,0.299784839519817,0.34005864398688,0.302368374690392,0.299784839519824,0.340058643986884,0.302368374690391,0.29978483951983
0.331393716081778,0.321889078455274,0.376098343911688,0.331393716081779,0.321889078455273,0.376098343911688,0.331393716081781,0.321889078455269,0.376098343911686,0.331393716081779,0.321889078455273,0.376098343911687,0.331393716081778
0.300316432239781,0.349669363148141,0.260052698695462,0.30031643223978,0.349669363148124,0.260052698695467,0.30031643223978,0.349669363148138,0.260052698695471,0.30031643223978,0.349669363148145,0.260052698695465,0.300316432239781
1.45106034890534,1.44970435256218,1.74118785667201,1.45106034890531,1.44970435256218,1.74118785667201,1.45106034890531,1.44970435256218,1.74118785667201,1.45106034890532,1.44970435256219,1.741187856672,1.45106034890534
1.55032111904438,1.37423440919379,1.19994308471196,1.55032111904439,1.3742344091938,1.19994308471195,1.55032111904438,1.3742344091938,1.19994308471196,1.55032111904437,1.3742344091938,1.19994308471195,1.55032111904438
1.1750039106546,1.19423439078204,1.25822487709969,1.1750039106546,1.19423439078205,1.25822487709969,1.1750039106546,1.19423439078205,1.2582248770997,1.1750039106546,1.19423439078204,1.25822487709969,1.1750039106546
1.08877247096315,1.1039820830334,1.70289712324715,1.08877247096314,1.1039820830334,1.70289712324715,1.08877247096313,1.10398208303341,1.70289712324715,1.08877247096314,1.1039820830334,1.70289712324715,1.08877247096315
2.26695855608906,2.04520365755605,3.29541157004011,2.26695855608906,2.04520365755604,3.29541157004009,2.26695855608905,2.04520365755605,3.29541157004007,2.26695855608904,2.04520365755605,3.29541157004009,2.26695855608906
0.72241534445517,0.505148658808797,0.683774984067192,0.722415344455172,0.505148658808796,0.683774984067181,0.72241534445518,0.505148658808794,0.683774984067188,0.72241534445518,0.505148658808798,0.683774984067192,0.72241534445517
0.555060836397886,0.511551806599909,0.473816259425069,0.555060836397887,0.511551806599914,0.47381625942507,0.555060836397888,0.511551806599912,0.473816259425067,0.555060836397887,0.511551806599913,0.473816259425067,0.555060836397886
0.999935137280608,0.808299914100313,0.699769052778569,0.999935137280614,0.808299914100311,0.699769052778568,0.999935137280612,0.808299914100312,0.699769052778568,0.999935137280604,0.808299914100314,0.699769052778572,0.999935137280608
0.326287309940457,0.429352677253767,0.468907655048715,0.326287309940456,0.429352677253771,0.468907655048715,0.326287309940457,0.429352677253777,0.468907655048711,0.326287309940454,0.429352677253773,0.468907655048715,0.326287309940457
0.699464385855929,0.676196713012107,0.649211461712232,0.699464385855928,0.676196713012108,0.649211461712246,0.699464385855929,0.676196713012106,0.649211461712242,0.699464385855929,0.676196713012108,0.649211461712242,0.699464385855929
0.567689154672087,0.561548951098218,0.531138027972062,0.567689154672085,0.561548951098215,0.531138027972058,0.567689154672093,0.561548951098215,0.531138027972061,0.567689154672093,0.561548951098218,0.531138027972058,0.567689154672087
5.37975480471323,5.1928863587955,6.04071879115961,5.37975480471325,5.19288635879548,6.04071879115959,5.37975480471323,5.19288635879544,6.04071879115963,5.37975480471324,5.19288635879547,6.0407187911596,5.37975480471323
0.464517899777341,0.552695510972118,0.627008462202754,0.464517899777345,0.552695510972129,0.627008462202758,0.464517899777344,0.552695510972121,0.627008462202759,0.46451789977734,0.552695510972112,0.627008462202753,0.464517899777341
0.380173383209939,0.401621003249828,0.220329633858128,0.380173383209942,0.401621003249824,0.22032963385813,0.38017338320994,0.40162100324982,0.220329633858129,0.380173383209942,0.401621003249828,0.220329633858131,0.380173383209939
1.00602186225582,0.495293064663707,0.679025684088806,1.00602186225582,0.495293064663707,0.679025684088819,1.00602186225582,0.495293064663706,0.679025684088819,1.00602186225582,0.495293064663699,0.679025684088804,1.00602186225582
0.846145075978204,0.739776764840886,0.602848836884165,0.846145075978209,0.739776764840881,0.602848836884166,0.846145075978205,0.739776764840878,0.602848836884172,0.846145075978216,0.739776764840883,0.60284883688417,0.846145075978204
1.18170629804526,1.05494075950397,0.996228829331349,1.18170629804526,1.05494075950397,0.996228829331347,1.18170629804526,1.05494075950397,0.996228829331346,1.18170629804528,1.05494075950397,0.996228829331349,1.18170629804526
0.784611726708337,0.743277183262087,0.69394959813429,0.784611726708341,0.743277183262096,0.693949598134299,0.784611726708353,0.743277183262094,0.693949598134284,0.784611726708352,0.743277183262091,0.693949598134279,0.784611726708337
0.549231349223976,0.452221735985151,0.596521733040319,0.549231349223979,0.452221735985145,0.596521733040325,0.549231349223978,0.452221735985145,0.596521733040323,0.549231349223978,0.452221735985144,0.596521733040323,0.549231349223976
0.583372042605795,0.576925202185501,0.621892899607263,0.583372042605788,0.576925202185506,0.621892899607266,0.583372042605793,0.576925202185502,0.62189289960726,0.58337204260579,0.576925202185505,0.621892899607262,0.583372042605795
1.35664849060547,1.4878305104563,1.66780543636369,1.35664849060547,1.4878305104563,1.66780543636368,1.35664849060547,1.4878305104563,1.66780543636367,1.35664849060546,1.48783051045629,1.66780543636367,1.35664849060547
0.587274366610863,0.363732252197198,0.631264906948678,0.58727436661086,0.363732252197202,0.63126490694868,0.587274366610858,0.363732252197201,0.631264906948676,0.587274366610858,0.363732252197198,0.631264906948678,0.587274366610863
0.488061934931178,0.693385007571451,0.620184659251267,0.48806193493118,0.693385007571459,0.620184659251271,0.488061934931173,0.693385007571453,0.620184659251264,0.488061934931181,0.69338500757145,0.620184659251271,0.488061934931178
1.18314427191561,1.21668534965868,1.31790993005777,1.18314427191561,1.21668534965868,1.31790993005777,1.18314427191561,1.21668534965868,1.31790993005777,1.18314427191561,1.21668534965868,1.31790993005777,1.18314427191561
0.428674597575586,0.558278262462034,0.472762143038776,0.42867459757559,0.558278262462014,0.472762143038774,0.428674597575592,0.558278262462022,0.472762143038777,0.428674597575595,0.558278262462009,0.472762143038779,0.428674597575586
0.635854016225821,0.569961349189183,0.759544053415804,0.635854016225819,0.569961349189191,0.759544053415813,0.63585401622582,0.56996134918918,0.759544053415813,0.635854016225818,0.569961349189175,0.759544053415818,0.635854016225821
0.743078360088476,0.933626873020479,1.19059817118841,0.743078360088467,0.933626873020476,1.1905981711884,0.743078360088462,0.933626873020485,1.19059817118839,0.743078360088472,0.933626873020483,1.19059817118841,0.743078360088476
0.652518227319947,0.707834266623155,0.797592646204009,0.652518227319947,0.707834266623157,0.797592646204005,0.652518227319952,0.707834266623159,0.797592646204007,0.652518227319947,0.707834266623155,0.797592646204006,0.652518227319947
0.583470205189541,0.679874422251177,0.510080277784509,0.583470205189537,0.679874422251177,0.510080277784505,0.583470205189534,0.679874422251173,0.510080277784505,0.583470205189537,0.679874422251181,0.510080277784499,0.583470205189541
0.517607674846163,0.638028943609732,0.931015846027886,0.517607674846171,0.638028943609739,0.931015846027861,0.517607674846166,0.638028943609742,0.931015846027853,0.51760767484616,0.638028943609735,0.931015846027872,0.517607674846163
1.89338437819794,1.94147956288954,2.15622644970734,1.89338437819793,1.94147956288954,2.15622644970734,1.89338437819793,1.94147956288955,2.15622644970733,1.89338437819793,1.94147956288954,2.15622644970734,1.89338437819794
0.256479099012269,0.437190271038101,0.261809805949457,0.256479099012271,0.437190271038098,0.261809805949455,0.256479099012267,0.437190271038101,0.261809805949457,0.256479099012267,0.437190271038105,0.261809805949459,0.256479099012269
0.342400652480711,0.7069462650304,0.946254103368897,0.342400652480709,0.706946265030407,0.946254103368901,0.342400652480706,0.706946265030407,0.946254103368904,0.342400652480709,0.706946265030403,0.946254103368915,0.342400652480711
0.462453959372984,0.480343878274848,0.529554121264572,0.462453959372983,0.480343878274843,0.52955412126458,0.462453959372982,0.480343878274847,0.529554121264576,0.462453959372984,0.480343878274848,0.529554121264582,0.462453959372984
0.361561270578643,0.489629677016586,0.405802782977125,0.361561270578648,0.489629677016583,0.405802782977127,0.361561270578646,0.489629677016593,0.405802782977129,0.361561270578647,0.489629677016591,0.40580278297713,0.361561270578643
0.840893755363197,0.978705494997413,0.599897253877255,0.840893755363203,0.978705494997416,0.599897253877253,0.840893755363203,0.978705494997416,0.599897253877249,0.840893755363201,0.978705494997416,0.59989725387725,0.840893755363197
0.467658548517807,0.322613914698646,0.764122849821809,0.467658548517811,0.322613914698636,0.764122849821811,0.467658548517803,0.322613914698637,0.764122849821812,0.467658548517801,0.322613914698652,0.764122849821802,0.467658548517807
0.71577602725425,0.845731002152382,0.836465107919791,0.71577602725425,0.845731002152393,0.836465107919793,0.715776027254259,0.845731002152387,0.836465107919793,0.715776027254259,0.845731002152393,0.836465107919802,0.71577602725425
0.31361475178662,0.459372144340016,0.377048575860636,0.313614751786618,0.459372144340017,0.377048575860634,0.31361475178662,0.459372144340017,0.377048575860631,0.313614751786619,0.459372144340015,0.377048575860637,0.31361475178662
0.88726111655329,0.785780601263385,0.635883364324878,0.88726111655329,0.785780601263388,0.635883364324867,0.887261116553297,0.78578060126339,0.635883364324874,0.887261116553301,0.785780601263385,0.635883364324879,0.88726111655329
0.770761342528571,0.706481809786752,0.729649694937616,0.770761342528563,0.706481809786752,0.72964969493762,0.770761342528566,0.706481809786754,0.729649694937617,0.77076134252857,0.706481809786751,0.729649694937619,0.770761342528571
1.03834167327708,1.22007108910532,1.17932412867104,1.03834167327708,1.22007108910532,1.17932412867104,1.03834167327709,1.22007108910531,1.17932412867104,1.03834167327708,1.22007108910532,1.17932412867104,1.03834167327708
0.458681976776227,0.508442887207994,0.50756033985733,0.458681976776223,0.508442887207997,0.507560339857326,0.458681976776223,0.508442887207995,0.507560339857325,0.458681976776224,0.508442887207994,0.507560339857327,0.458681976776227
2.72478634207322,3.12656716079034,3.03955621488317,2.72478634207323,3.12656716079034,3.03955621488317,2.72478634207323,3.12656716079035,3.03955621488317,2.72478634207323,3.12656716079036,3.03955621488317,2.72478634207322
0.467849350138145,0.766645896982777,0.557958483841881,0.467849350138147,0.766645896982777,0.557958483841884,0.467849350138143,0.76664589698278,0.557958483841885,0.467849350138144,0.766645896982775,0.557958483841883,0.467849350138145
0.552461008003195,0.42814135270458,0.285848746956125,0.552461008003193,0.428141352704588,0.285848746956138,0.552461008003188,0.428141352704587,0.28584874695613,0.552461008003197,0.428141352704582,0.285848746956125,0.552461008003195
1.02076700610538,0.893162815179687,1.09268944594835,1.02076700610539,0.893162815179674,1.09268944594835,1.02076700610538,0.893162815179672,1.09268944594835,1.02076700610537,0.893162815179685,1.09268944594836,1.02076700610538
0.473922414201552,0.524601868043753,0.444290451034583,0.473922414201548,0.524601868043748,0.444290451034587,0.473922414201551,0.524601868043749,0.444290451034586,0.473922414201553,0.524601868043747,0.444290451034584,0.473922414201552
0.51360309618199,0.326705884203896,0.379746519154402,0.513603096181989,0.326705884203896,0.379746519154406,0.51360309618199,0.326705884203895,0.379746519154404,0.51360309618199,0.326705884203895,0.379746519154403,0.51360309618199
1.26085281041635,1.28758421991339,1.09404995699162,1.26085281041636,1.28758421991339,1.09404995699164,1.26085281041636,1.28758421991338,1.09404995699164,1.26085281041634,1.28758421991339,1.09404995699163,1.26085281041635
0.217680103280346,0.193626039770973,0.291178111103383,0.217680103280353,0.193626039770971,0.291178111103383,0.217680103280349,0.19362603977097,0.291178111103386,0.21768010328034,0.193626039770965,0.291178111103388,0.217680103280346
0.758373775118494,1.08807883077377,0.657651250664738,0.758373775118502,1.08807883077377,0.657651250664728,0.758373775118493,1.08807883077376,0.657651250664735,0.758373775118491,1.08807883077376,0.657651250664737,0.758373775118494
0.464387273056242,0.478458332714674,0.551020459872366,0.464387273056239,0.478458332714675,0.551020459872364,0.46438727305624,0.47845833271467,0.551020459872363,0.464387273056241,0.478458332714672,0.551020459872365,0.464387273056242
0.603655407205348,0.57180239227301,0.5999261018764,0.603655407205356,0.571802392273009,0.599926101876401,0.603655407205346,0.571802392273009,0.5999261018764,0.603655407205347,0.571802392273003,0.599926101876398,0.603655407205348
0.231631548976391,0.285015577766397,0.373726176285209,0.23163154897639,0.2850155777664,0.373726176285212,0.231631548976391,0.285015577766401,0.373726176285211,0.231631548976392,0.285015577766398,0.373726176285212,0.231631548976391
