r0,r30,r60,r90,r120,r150,r180,r210,r240,r270,r300,r330,r360
1,1,0,0,0,1,1,1,0,0,0,1,1
1,0,0,0,0,0,0,0,0,0,0,0,1
1,1,1,1,1,1,1,1,1,1,1,1,1
1,1,0,0,0,0,1,0,0,0,0,1,1
1,0,0,0,1,1,1,0,0,0,1,1,1
1,1,0,0,1,1,1,1,0,0,1,1,1
1,1,1,1,1,1,1,1,1,1,1,1,1
1,0,0,0,0,0,1,0,0,0,0,0,1
1,1,1,1,1,1,1,1,1,1,1,1,1
1,1,0,0,0,0,1,0,0,0,0,0,1
1,1,0,0,0,1,1,1,0,0,0,1,1
1,1,1,0,1,1,1,1,0,0,1,1,1
1,1,1,1,1,1,1,1,1,1,1,1,1
1,1,1,1,1,1,1,1,1,1,1,1,1
1,1,1,0,0,0,0,0,0,0,0,1,1
1,1,1,0,0,1,1,1,1,0,1,1,1
1,1,0,0,0,1,1,1,0,0,0,1,1
1,1,1,0,0,1,0,0,1,0,0,1,1
1,1,0,0,0,1,1,1,0,0,0,1,1
1,1,1,1,1,1,1,1,1,1,1,1,1
1,0,0,0,0,1,1,0,0,0,0,1,1
1,1,0,0,0,0,0,0,0,0,0,1,1
1,1,1,1,1,1,1,1,1,1,1,1,1
1,1,0,0,0,0,1,1,0,0,0,1,1
1,1,1,1,1,1,1,1,0,0,1,1,1
1,1,1,1,1,1,1,1,1,1,1,1,1
1,1,0,0,0,0,0,0,0,0,0,1,1
1,1,1,1,1,1,1,1,1,1,1,1,1
1,0,0,0,0,0,0,0,0,0,0,0,1
1,1,0,0,0,1,0,0,0,0,0,1,1
1,1,0,0,0,1,1,0,0,0,0,1,1
1,1,1,0,1,1,1,1,1,0,1,1,1
1,1,1,1,1,1,1,1,1,1,1,1,1
1,1,0,0,0,1,1,1,0,0,0,1,1
1,1,0,0,1,1,1,1,0,0,1,1,1
1,1,1,0,1,1,1,1,1,0,1,1,1
1,1,0,0,0,1,1,1,0,0,0,1,1
1,1,0,0,0,0,1,1,0,0,0,1,1
1,1,1,0,0,1,0,0,0,0,0,1,1
1,1,1,1,1,1,1,1,1,1,1,1,1
1,1,1,1,1,1,1,1,1,1,1,1,1
1,1,0,0,0,1,1,0,0,0,0,1,1
1,1,0,0,0,1,1,1,0,0,0,1,1
1,0,0,0,0,0,1,0,0,0,0,0,1
1,1,1,1,1,1,1,1,1,1,1,1,1
1,1,0,0,0,0,0,0,0,0,0,1,1
1,0,0,0,0,0,0,0,0,0,0,0,1
1,1,1,0,1,1,1,1,1,0,0,1,1
1,1,0,0,0,1,1,0,0,0,0,1,1
1,1,0,0,0,1,1,1,0,0,0,1,1
1,1,1,1,1,1,1,1,1,1,1,1,1
1,1,0,1,0,1,1,0,0,0,0,1,1
1,0,0,0,0,0,0,0,0,0,0,0,1
1,1,1,0,1,1,1,1,1,1,1,1,1
1,1,0,0,0,0,1,0,0,0,0,1,1
1,1,0,0,0,0,0,1,0,0,0,1,1
1,1,1,1,1,1,1,1,1,1,1,1,1
1,1,0,0,0,0,0,0,0,0,1,1,1
1,1,1,1,1,1,1,1,1,1,1,1,1
1,1,0,0,0,0,1,1,0,0,0,0,1
1,1,1,1,1,1,1,1,1,1,1,1,1
1,1,0,0,0,1,1,1,0,0,0,1,1
1,1,1,1,1,1,1,1,1,1,1,1,1
1,0,0,0,0,1,1,0,0,0,0,1,1
1,1,0,0,1,1,1,1,0,0,1,1,1
1,0,0,0,0,0,1,0,0,0,0,0,1
1,1,0,0,0,1,1,0,0,0,0,1,1
1,1,0,0,0,1,1,1,0,0,0,1,1
1,1,0,0,0,0,1,0,0,0,0,0,1
1,1,0,0,0,1,1,1,0,0,0,1,1
1,1,0,0,0,1,0,0,0,0,0,0,1
1,1,1,1,0,1,1,1,1,1,1,1,1
1,1,1,1,1,1,1,1,1,1,1,1,1
1,1,0,0,0,1,1,1,0,0,0,1,1
1,0,0,0,0,1,0,0,0,0,0,1,1
1,1,0,0,0,0,0,0,0,0,0,1,1
1,1,0,0,0,1,1,1,0,0,0,1,1
1,0,0,0,0,1,1,0,0,0,0,1,1
1,1,0,0,0,1,1,1,0,0,0,1,1
1,1,1,1,1,1,1,1,1,1,1,1,1
1,1,1,1,0,1,1,1,1,1,0,1,1
1,1,1,1,1,1,1,1,1,1,1,1,1
1,1,1,1,1,1,1,1,1,1,1,1,1
1,1,1,0,1,1,1,0,1,1,1,1,1
1,1,0,0,0,0,1,1,0,0,0,1,1
1,1,1,1,1,1,1,1,1,1,0,1,1
1,1,1,1,1,1,1,1,1,1,1,1,1
1,1,1,1,1,1,1,1,1,1,1,1,1
1,1,1,1,1,1,1,1,0,1,1,1,1
1,1,1,1,1,1,1,1,1,1,1,1,1
1,1,1,1,1,1,1,1,1,1,1,1,1
1,1,1,1,1,1,1,1,1,1,1,1,1
1,1,1,1,1,1,1,1,0,1,1,1,1
1,1,1,1,1,1,1,1,1,1,1,1,1
1,1,0,0,0,1,1,1,0,0,0,1,1
1,1,0,0,1,1,1,1,0,0,1,1,1
1,1,1,0,0,0,1,1,0,0,0,1,1
1,1,1,1,1,1,1,1,1,1,1,1,1
1,1,0,0,0,0,1,1,0,0,0,0,1
1,1,1,1,1,1,1,1,1,1,1,1,1
1,1,0,0,0,0,0,0,0,0,0,0,1
1,1,0,0,0,0,0,0,0,0,0,1,1
1,1,1,0,0,1,1,1,1,0,1,1,1
1,1,1,0,0,0,0,0,0,0,1,1,1
1,1,0,0,0,1,1,1,0,0,0,1,1
1,1,1,1,1,1,1,1,1,1,1,1,1
1,1,0,0,0,1,1,1,0,0,0,1,1
1,1,0,0,0,1,1,0,0,0,0,1,1
1,1,1,1,1,1,1,1,1,1,1,1,1
1,1,0,0,0,1,1,1,0,0,0,1,1
1,1,1,1,1,1,1,1,1,1,1,1,1
1,1,0,0,1,1,1,1,0,0,1,1,1
1,1,0,0,0,1,1,1,0,0,0,1,1
1,1,0,0,0,0,1,0,0,0,0,0,1
1,1,0,0,0,0,0,0,0,0,0,1,1
1,1,1,0,1,1,0,1,1,0,1,1,1
1,1,1,0,1,1,1,1,1,0,1,1,1
1,0,0,0,0,0,1,0,0,0,0,0,1
1,1,1,1,1,1,1,1,1,1,1,1,1
1,1,1,1,1,1,1,1,1,1,1,1,1
1,1,1,1,1,0,0,0,1,1,0,1,1
1,1,0,0,0,1,1,1,0,0,0,1,1
1,1,1,0,0,1,0,1,1,0,1,1,1
1,1,1,1,1,1,1,1,1,1,1,1,1
1,0,0,0,0,0,0,0,0,0,0,0,1
1,1,0,0,0,0,0,1,0,0,0,1,1
1,1,0,1,1,0,1,1,0,1,1,1,1
1,1,1,0,1,1,1,1,1,0,1,1,1
1,0,0,0,0,0,1,0,0,0,0,0,1
1,1,1,0,1,1,1,1,1,1,1,1,1
1,1,1,1,1,1,1,1,1,1,1,1,1
1,1,1,1,1,1,1,1,1,1,1,1,1
1,1,1,1,1,1,1,1,1,1,1,1,1
1,1,1,1,1,1,1,1,1,1,1,1,1
1,1,1,1,1,1,1,1,1,1,1,1,1
1,1,1,1,1,1,1,1,1,1,1,1,1
1,1,1,1,1,1,1,1,1,1,1,1,1
1,1,1,1,1,1,1,1,1,1,1,1,1
1,1,1,1,1,1,1,1,1,1,1,1,1
1,1,1,1,1,1,1,1,1,1,1,1,1
1,1,1,1,1,1,1,1,1,1,1,1,1
1,1,1,1,1,1,1,1,1,1,1,1,1
1,1,1,1,1,1,1,1,1,1,1,1,1
1,1,1,1,1,1,1,1,1,1,1,1,1
1,1,1,1,1,1,1,1,1,1,1,1,1
1,1,1,1,1,1,1,1,1,1,1,1,1
1,1,1,1,1,1,1,1,1,1,1,1,1
1,1,1,1,1,1,1,1,1,1,1,1,1
1,1,1,1,1,1,1,1,1,1,1,1,1
1,1,1,1,1,1,1,1,1,1,1,1,1
1,1,1,1,1,1,1,1,1,1,1,1,1
1,1,1,1,1,1,1,1,1,1,1,1,1
1,1,1,1,1,1,1,1,1,1,1,1,1
1,1,1,1,1,1,1,1,1,1,1,1,1
1,1,1,1,1,1,1,1,1,1,1,1,1
1,1,1,1,1,1,1,1,1,1,1,1,1
1,1,1,1,1,1,1,1,1,1,1,1,1
1,1,1,1,1,1,1,1,1,1,1,1,1
1,1,1,1,1,1,1,1,1,1,1,1,1
1,1,1,1,1,1,1,1,1,1,1,1,1
1,1,1,1,1,1,1,1,1,1,1,1,1
1,1,1,1,1,1,1,1,1,1,1,1,1
1,1,1,1,1,1,1,1,1,1,1,1,1
1,1,1,1,1,1,1,1,1,1,1,1,1
1,1,1,1,1,1,1,1,1,1,1,1,1
1,1,1,1,1,1,1,1,1,1,1,1,1
1,1,1,1,1,1,1,1,1,1,1,1,1
1,1,1,1,1,1,1,1,1,1,1,1,1
1,1,1,1,1,1,1,1,1,1,1,1,1
1,1,1,1,1,1,1,1,1,1,1,1,1
1,1,1,1,1,1,1,1,1,1,1,1,1
1,1,1,1,1,1,1,1,1,1,1,1,1
1,1,1,1,1,1,1,1,1,1,1,1,1
1,1,1,1,1,1,1,1,1,1,1,1,1
1,1,1,1,1,1,1,1,1,1,1,1,1
1,1,1,1,1,1,1,1,1,1,1,1,1
1,1,1,1,1,1,1,1,1,1,1,1,1
1,1,1,1,1,1,1,1,1,1,1,1,1
1,1,1,1,1,1,1,1,1,1,1,1,1
1,1,1,1,1,1,1,1,1,1,1,1,1
1,1,1,1,1,1,1,1,1,1,1,1,1
1,1,1,1,1,1,1,1,1,1,1,1,1
1,1,1,1,1,1,1,1,1,1,1,1,1
1,1,1,1,1,1,1,1,1,1,1,1,1
1,1,1,1,1,1,1,1,1,1,1,1,1
1,1,1,1,1,1,1,1,1,1,1,1,1
1,1,1,1,1,1,1,1,1,1,1,1,1
1,1,1,1,1,1,1,1,1,1,1,1,1
1,1,1,1,1,1,1,1,1,1,1,1,1
1,1,1,1,1,1,1,1,1,1,1,1,1
1,1,1,1,1,1,1,1,1,1,1,1,1
1,1,1,1,1,1,1,1,1,1,1,1,1
1,1,1,1,1,1,1,1,1,1,1,1,1
1,1,1,1,1,1,1,1,1,1,1,1,1
1,1,1,1,1,1,1,1,1,1,1,1,1
1,1,1,1,1,1,1,1,1,1,1,1,1
1,1,1,1,1,1,1,1,1,1,1,1,1
1,1,1,1,1,1,1,1,1,1,1,1,1
1,1,1,1,1,1,1,1,1,1,1,1,1
1,1,1,1,1,1,1,1,1,1,1,1,1
1,1,1,1,1,1,1,1,1,1,1,1,1
1,1,1,1,1,1,1,1,1,1,1,1,1
1,1,1,1,1,1,1,1,1,1,1,1,1
1,1,1,1,1,1,1,1,1,1,1,1,1
1,1,1,1,1,1,1,1,1,1,1,1,1
1,1,1,1,1,1,1,1,1,1,1,1,1
1,1,1,1,1,1,1,1,1,1,1,1,1
1,1,1,1,1,1,1,1,1,1,1,1,1
1,1,1,1,1,1,1,1,1,1,1,1,1
1,1,1,1,1,1,1,1,1,1,1,1,1
1,1,1,1,1,1,1,1,1,1,1,1,1
1,1,1,1,1,1,1,1,1,1,1,1,1
1,1,1,1,1,1,1,1,1,1,1,1,1
1,1,1,1,1,1,1,1,1,1,1,1,1
1,1,1,1,1,1,1,1,1,1,1,1,1
1,1,1,1,1,1,1,1,1,1,1,1,1
1,1,1,1,1,1,1,1,1,1,1,1,1
1,1,1,1,1,1,1,1,1,1,1,1,1
1,1,1,1,1,1,1,1,1,1,1,1,1
1,1,1,1,1,1,1,1,1,1,1,1,1
1,1,1,1,1,1,1,1,1,1,1,1,1
1,1,1,1,1,1,1,1,1,1,1,1,1
1,1,1,1,1,1,1,1,1,1,1,1,1
1,1,1,1,1,1,1,1,1,1,1,1,1
1,1,1,1,1,1,1,1,1,1,1,1,1
1,1,1,1,1,1,1,1,1,1,1,1,1
1,1,1,1,1,1,1,1,1,1,1,1,1
1,1,1,1,1,1,1,1,1,1,1,1,1
1,1,1,1,1,1,1,1,1,1,1,1,1
1,1,1,1,1,1,1,1,1,1,1,1,1
1,1,1,1,1,1,1,1,1,1,1,1,1
1,1,1,1,1,1,1,1,1,1,1,1,1
1,1,1,1,1,1,1,1,1,1,1,1,1
1,1,1,1,1,1,1,1,1,1,1,1,1
1,1,1,1,1,1,1,1,1,1,1,1,1
1,1,1,1,1,1,1,1,1,1,1,1,1
1,1,1,1,1,1,1,1,1,1,1,1,1
1,1,1,1,1,1,1,1,1,1,1,1,1
1,1,1,1,1,1,1,1,1,1,1,1,1
1,1,1,1,1,1,1,1,1,1,1,1,1
1,1,1,1,1,1,1,1,1,1,1,1,1
1,1,1,1,1,1,1,1,1,1,1,1,1
1,1,1,1,1,1,1,1,1,1,1,1,1
1,1,1,1,1,1,1,1,1,1,1,1,1
1,1,1,1,1,1,1,1,1,1,1,1,1
1,1,1,1,1,1,1,1,1,1,1,1,1
1,1,1,1,1,1,1,1,1,1,1,1,1
1,1,1,1,1,1,1,1,1,1,1,1,1
1,1,1,1,1,1,1,1,1,1,1,1,1
1,1,1,1,1,1,1,1,1,1,1,1,1
1,1,1,1,1,1,1,1,1,1,1,1,1
1,1,1,1,1,1,1,1,1,1,1,1,1
1,1,1,1,1,1,1,1,1,1,1,1,1
1,1,1,1,1,1,1,1,1,1,1,1,1
1,1,1,1,1,1,1,1,1,1,1,1,1
1,1,1,1,1,1,1,1,1,1,1,1,1
1,1,1,1,1,1,1,1,1,1,1,1,1
1,1,1,1,1,1,1,1,1,1,1,1,1
1,1,1,1,1,1,1,1,1,1,1,1,1
1,1,1,1,1,1,1,1,1,1,1,1,1
1,1,1,1,1,1,1,1,1,1,1,1,1
1,1,1,1,1,1,1,1,1,1,1,1,1
1,1,1,1,1,1,1,1,1,1,1,1,1
1,1,1,1,1,1,1,1,1,1,1,1,1
1,1,1,1,1,1,1,1,1,1,1,1,1
1,1,1,1,1,1,1,1,1,1,1,1,1
1,1,1,1,1,1,1,1,1,1,1,1,1
1,1,1,1,1,1,1,1,1,1,1,1,1
1,1,1,1,1,1,1,1,1,1,1,1,1
1,1,1,1,1,1,1,1,1,1,1,1,1
1,1,1,1,1,1,1,1,1,1,1,1,1
1,1,1,1,1,1,1,1,1,1,1,1,1
1,1,1,1,1,1,1,1,1,1,1,1,1
1,1,1,1,1,1,1,1,1,1,1,1,1
1,1,1,1,1,1,1,1,1,1,1,1,1
1,1,1,1,1,1,1,1,1,1,1,1,1
1,1,1,1,1,1,1,1,1,1,1,1,1
1,1,1,1,1,1,1,1,1,1,1,1,1
1,1,1,1,1,1,1,1,1,1,1,1,1
1,1,1,1,1,1,1,1,1,1,1,1,1
1,1,1,1,1,1,1,1,1,1,1,1,1
1,1,1,1,1,1,1,1,1,1,1,1,1
1,1,1,1,1,1,1,1,1,1,1,1,1
1,1,1,1,1,1,1,1,1,1,1,1,1
1,1,1,1,1,1,1,1,1,1,1,1,1
1,1,1,1,1,1,1,1,1,1,1,1,1
1,1,1,1,1,1,1,1,1,1,1,1,1
1,1,1,1,1,1,1,1,1,1,1,1,1
1,1,1,1,1,1,1,1,1,1,1,1,1
1,1,1,1,1,1,1,1,1,1,1,1,1
1,1,1,1,1,1,1,1,1,1,1,1,1
1,1,1,1,1,1,1,1,1,1,1,1,1
1,1,1,1,1,1,1,1,1,1,1,1,1
1,1,1,1,1,1,1,1,1,1,1,1,1
1,1,1,1,1,1,1,1,1,1,1,1,1
1,1,1,1,1,1,1,1,1,1,1,1,1
1,1,1,1,1,1,1,1,1,1,1,1,1
1,1,1,1,1,1,1,1,1,1,1,1,1
1,1,1,1,1,1,1,1,1,1,1,1,1
1,1,1,1,1,1,1,1,1,1,1,1,1
1,1,1,1,1,1,1,1,1,1,1,1,1
1,1,1,1,1,1,1,1,1,1,1,1,1
1,1,1,1,1,1,1,1,1,1,1,1,1
1,1,1,1,1,1,1,1,1,1,1,1,1
1,1,1,1,1,1,1,1,1,1,1,1,1
1,1,1,1,1,1,1,1,1,1,1,1,1
1,1,1,1,1,1,1,1,1,1,1,1,1
1,1,1,1,1,1,1,1,1,1,1,1,1
1,1,1,1,1,1,1,1,1,1,1,1,1
1,1,1,1,1,1,1,1,1,1,1,1,1
1,1,1,1,1,1,1,1,1,1,1,1,1
1,1,1,1,1,1,1,1,1,1,1,1,1
1,1,1,1,1,1,1,1,1,1,1,1,1
1,1,1,1,1,1,1,1,1,1,1,1,1
1,1,1,1,1,1,1,1,1,1,1,1,1
1,1,1,1,1,1,1,1,1,1,1,1,1
1,1,1,1,1,1,1,1,1,1,1,1,1
1,1,1,1,1,1,1,1,1,1,1,1,1
1,1,1,1,1,1,1,1,1,1,1,1,1
1,1,1,1,1,1,1,1,1,1,1,1,1
1,1,1,1,1,1,1,1,1,1,1,1,1
1,1,1,1,1,1,1,1,1,1,1,1,1
1,1,1,1,1,1,1,1,1,1,1,1,1
1,1,1,1,1,1,1,1,1,1,1,1,1
1,1,1,1,1,1,1,1,1,1,1,1,1
1,1,1,1,1,1,1,1,1,1,1,1,1
1,1,1,1,1,1,1,1,1,1,1,1,1
1,1,1,1,1,1,1,1,1,1,1,1,1
1,1,1,1,1,1,1,1,1,1,1,1,1
1,1,1,1,1,1,1,1,1,1,1,1,1
1,1,1,1,1,1,1,1,1,1,1,1,1
1,1,1,1,1,1,1,1,1,1,1,1,1
1,1,1,1,1,1,1,1,1,1,1,1,1
1,1,1,1,1,1,1,1,1,1,1,1,1
1,1,1,1,1,1,1,1,1,1,1,1,1
1,1,1,1,1,1,1,1,1,1,1,1,1
1,1,1,1,1,1,1,1,1,1,1,1,1
1,1,1,1,1,1,1,1,1,1,1,1,1
1,1,1,1,1,1,1,1,1,1,1,1,1
1,1,1,1,1,1,1,1,1,1,1,1,1
1,1,1,1,1,1,1,1,1,1,1,1,1
1,1,1,1,1,1,1,1,1,1,1,1,1
1,1,1,1,1,1,1,1,1,1,1,1,1
1,1,1,1,1,1,1,1,1,1,1,1,1
1,1,1,1,1,1,1,1,1,1,1,1,1
1,1,1,1,1,1,1,1,1,1,1,1,1
1,1,1,1,1,1,1,1,1,1,1,1,1
1,1,1,1,1,1,1,1,1,1,1,1,1
1,1,1,1,1,1,1,1,1,1,1,1,1
1,1,1,1,1,1,1,1,1,1,1,1,1
1,1,1,1,1,1,1,1,1,1,1,1,1
1,1,1,1,1,1,1,1,1,1,1,1,1
1,1,1,1,1,1,1,1,1,1,1,1,1
1,1,1,1,1,1,1,1,1,1,1,1,1
1,1,1,1,1,1,1,1,1,1,1,1,1
1,1,1,1,1,1,1,1,1,1,1,1,1
1,1,1,1,1,1,1,1,1,1,1,1,1
1,1,1,1,1,1,1,1,1,1,1,1,1
1,1,1,1,1,1,1,1,1,1,1,1,1
1,1,1,1,1,1,1,1,1,1,1,1,1
1,1,1,1,1,1,1,1,1,1,1,1,1
1,1,1,1,1,1,1,1,1,1,1,1,1
1,1,1,1,1,1,1,1,1,1,1,1,1
1,1,1,1,1,1,1,1,1,1,1,1,1
1,1,1,1,1,1,1,1,1,1,1,1,1
1,1,1,1,1,1,1,1,1,1,1,1,1
1,1,1,1,1,1,1,1,1,1,1,1,1
1,1,1,1,1,1,1,1,1,1,1,1,1
1,1,1,1,1,1,1,1,1,1,1,1,1
1,1,1,1,1,1,1,1,1,1,1,1,1
1,1,1,1,1,1,1,1,1,1,1,1,1
1,1,1,1,1,1,1,1,1,1,1,1,1
1,1,1,1,1,1,1,1,1,1,1,1,1
1,1,1,1,1,1,1,1,1,1,1,1,1
1,1,1,1,1,1,1,1,1,1,1,1,1
1,1,1,1,1,1,1,1,1,1,1,1,1
1,1,1,1,1,1,1,1,1,1,1,1,1
1,1,1,1,1,1,1,1,1,1,1,1,1
1,1,1,1,1,1,1,1,1,1,1,1,1
1,1,1,1,1,1,1,1,1,1,1,1,1
1,1,1,1,1,1,1,1,1,1,1,1,1
1,1,1,1,1,1,1,1,1,1,1,1,1
1,1,1,1,1,1,1,1,1,1,1,1,1
1,1,1,1,1,1,1,1,1,1,1,1,1
1,1,1,1,1,1,1,1,1,1,1,1,1
1,1,1,1,1,1,1,1,1,1,1,1,1
1,1,1,1,1,1,1,1,1,1,1,1,1
1,1,1,1,1,1,1,1,1,1,1,1,1
1,1,1,1,1,1,1,1,1,1,1,1,1
1,1,1,1,1,1,1,1,1,1,1,1,1
0.999999999999998,0.94512860480477,0.888271474416025,0.903970972410295,0.899731766976417,0.909446981833662,0.949308562645677,0.910897195592789,0.878906626115396,0.902382848328377,0.91672684137541,0.943255327734264,0.999999999999998
0.959487110710035,0.957775488868833,0.909295420107008,0.899776283516928,0.901902304908764,0.87502213399541,0.94656413987449,0.917075831039873,0.907183133000392,0.905532490649082,0.896519576219635,0.921999305753634,0.959487110710035
1,0.978934110805232,0.959221777502207,0.940757447286062,0.927176311362824,0.921375453680115,0.916748084994899,0.919514073172729,0.932459332678085,0.940757447286061,0.957819882981092,0.982974402859866,1
0.999999999999999,0.891619103418461,0.825337440993965,0.823588558169326,0.877394173269806,0.848541292290481,0.868706002558251,0.858562046112232,0.84534196630193,0.852009140752278,0.851652267401527,0.899805086641259,0.999999999999999
0.961961049898192,0.958253671197275,0.899532756821178,0.906985970476651,0.915948629179845,0.906375239076613,0.935022865028515,0.962810602215949,0.893459530171189,0.901373702137865,0.926934380003025,0.925945838834715,0.961961049898192
1,0.918170813499478,0.88592489037033,0.805667914278294,0.835795027524544,0.892581616011877,0.943870421209866,0.893457132713967,0.882138663406336,0.804001038184916,0.837773972274928,0.920140179473947,1
0.999999999999999,0.97950599631143,0.959267823711943,0.941809926204603,0.938845965302455,0.936335666238174,0.942607000252466,0.935715714808248,0.936207081230231,0.941809926204604,0.955329571781167,0.980056896980699,0.999999999999999
0.9434610095219,0.846969396391912,0.861547038469178,0.829151621026458,0.810875367969327,0.854539315266248,0.85489719093253,0.831708634793939,0.864159245532587,0.835131404188955,0.814193360191958,0.850128464191073,0.9434610095219
0.999999999999999,0.969000255552029,0.93266719129541,0.916097307819944,0.917838983461285,0.93877138027313,0.966726324868327,0.944180880607086,0.918895865327616,0.916097307819944,0.931740409503876,0.964922041299707,0.999999999999999
0.992631118954518,0.92244040568316,0.884181344203579,0.867037060884962,0.888104318342147,0.917302011617603,0.906503792286151,0.879484560689315,0.881444705881304,0.883744126979179,0.891858484718687,0.920391029043339,0.992631118954518
1,0.872410893554928,0.796075501917235,0.834583767678317,0.789411223274092,0.844714095793854,0.972003711890188,0.857802633819432,0.79688480394765,0.831088233879726,0.805617918860954,0.864303750705596,1
1,0.932140323307106,0.829962968631647,0.841561929950978,0.808553832536924,0.899600493450075,0.936885013382105,0.894983540313172,0.820109710333799,0.85433940940711,0.837211057094946,0.936015911161881,1
1,0.963648109568075,0.907306766206646,0.898939623807429,0.915917549408916,0.934126671942383,0.939507450441735,0.934555373572764,0.913768371402834,0.898939623807429,0.911045003949465,0.961765482920089,1
1,0.958829130891553,0.888682283081759,0.860431829467031,0.886256733229406,0.934102412563424,0.959771031712957,0.933722954784078,0.878168809386764,0.860431829467031,0.896687859897924,0.956319454676316,1
1,0.930988996307706,0.872354681901353,0.867924872140448,0.844235449705575,0.846751639991146,0.900923317097709,0.901435887919892,0.894022448337331,0.881913280020882,0.901898844416306,0.930783055340664,1
1,0.944725758536031,0.854827818995611,0.850846901379948,0.844588586855166,0.870679211196011,0.886568605826385,0.870813650875157,0.839967514791464,0.827790316020331,0.851940668952077,0.944877601007244,1
0.999999999999999,0.917536977340488,0.872454150677048,0.873068128725926,0.82043369399839,0.899869121121029,0.939185929029665,0.897995162841314,0.864957815206824,0.874381877564739,0.851802466483807,0.92069406694027,0.999999999999999
0.99814696239682,0.943897156576582,0.874732061839963,0.869208804291764,0.884813713522467,0.907015044429366,0.933010686431947,0.937198237270227,0.872856162147153,0.874199919513798,0.883870344091957,0.939338731218184,0.99814696239682
1,0.922815191313872,0.840107336694206,0.828856860222077,0.863458724336452,0.86660325303835,0.899717304601987,0.869451498896007,0.834710275240395,0.808588638485843,0.827181179814322,0.919682428773471,1
0.999999999999998,0.961584428154482,0.926373334291611,0.919306181165827,0.919000936930024,0.908887669834283,0.903950761533921,0.907196376320296,0.922460114279968,0.919306181165828,0.927431633936236,0.961199797221263,0.999999999999998
0.992838323569193,0.860916703304006,0.899092186134739,0.893994071316092,0.836401478200375,0.834055047050534,0.97711503675664,0.867539227430526,0.896773085247456,0.890473588763939,0.830981676116596,0.838980946497172,0.992838323569193
0.992021697437119,0.867276740386757,0.811137922119409,0.835277582062965,0.77943611291405,0.860154638763976,0.9360713880939,0.798933442498743,0.820794912389096,0.834164250521279,0.807077286826329,0.863427847694918,0.992021697437119
1,0.9689680658545,0.918208723430457,0.900971127371696,0.905157873512611,0.942558132606757,0.963590077125923,0.944257764488847,0.901922517808258,0.900971127371696,0.91170514738643,0.963998597191414,1
1,0.854391473585067,0.781911200292131,0.826202012933255,0.818130837807853,0.828871540078788,0.917126114658031,0.805445862045035,0.829304527727179,0.809750349079353,0.808356075043512,0.852080175222226,1
1,0.958170360839089,0.890037709450251,0.852691165725053,0.838802041562561,0.851806381432716,0.863481367499817,0.851938956891081,0.851834554477443,0.865218269314218,0.898343174177506,0.958388052483308,1
1,0.990235596315177,0.976670166827256,0.963863034562462,0.966637431442202,0.983993178977454,0.993061412029626,0.98438651279741,0.973846741803291,0.963863034562462,0.96744125320428,0.988058722806123,1
0.961274259913002,0.953235459976235,0.906261380350631,0.938703840176205,0.953975782870461,0.888965732305925,0.923848008854008,0.936514729489714,0.902612575330442,0.940718668186736,0.951515178359033,0.900662690245344,0.961274259913002
1,0.998083309742091,0.995898364916247,0.993672714349796,0.991629063773183,0.99024553267556,0.98963665198106,0.990196262266104,0.991685047353676,0.993672714349797,0.995891130151867,0.998256289826951,1
0.937103669223488,0.877926951917978,0.871532592355066,0.881975289937575,0.899798383818146,0.880455320173534,0.887553710154061,0.885587117086149,0.883920993360265,0.8890320635484,0.898092170304324,0.87127651343945,0.937103669223488
1,0.942662315020532,0.890256531672559,0.910940930011888,0.878531957052953,0.867095355359792,0.903144943675668,0.888418471160642,0.889444019175615,0.918670423010748,0.872043377070436,0.941905055789039,1
1,0.854140603953802,0.817870486953604,0.790068027812669,0.859919181053923,0.844190721237181,0.979843910191094,0.843779494373046,0.792720528434051,0.812033976606804,0.862784700098126,0.856354673877676,1
1,0.924171871072475,0.827297111272976,0.803719590701229,0.806008801860779,0.914127680621328,0.974111320732552,0.906804723166526,0.819141089074837,0.80630138937099,0.817114143528598,0.931848617093223,1
1,0.980981242155284,0.969121643253063,0.957931085453811,0.951678521979513,0.943011873360658,0.947807835565655,0.945783249339987,0.947849695620471,0.957931085453811,0.970360230394869,0.987234228858568,1
0.999860143352501,0.950626200607368,0.89704835278436,0.936057234352474,0.885037882938087,0.88983098817194,0.925343610894372,0.911082228806583,0.887058549518764,0.944400704730193,0.898753271401672,0.930114535923087,0.999860143352501
0.999999999999999,0.943690377081312,0.880697522786708,0.907730460000379,0.859546506166021,0.939713877483854,0.984910457726908,0.936709538057129,0.878876839961479,0.907338942565565,0.859683150924295,0.948021225687385,0.999999999999999
0.955324176631971,0.95208239446224,0.953248941394001,0.905945429025185,0.918412217469333,0.955069690543711,0.916741707212977,0.929726599878452,0.950178190154419,0.915013897726099,0.92787851971184,0.982932272235028,0.955324176631971
1,0.856629521822103,0.779824186270213,0.882023542189585,0.780038236331261,0.834090836180728,0.962125956538847,0.842161091014048,0.811445106977765,0.875716322068005,0.799094860254384,0.851265139272049,1
1,0.855119605406038,0.776291761611827,0.864362723076001,0.793450476462965,0.849259645871352,0.977798366462466,0.842912712378578,0.771913082241591,0.870588170543341,0.798971670734425,0.84771020785345,1
1,0.932946138234008,0.848451739881039,0.8559545639695,0.855922689844935,0.882958685812431,0.926764753659288,0.88105698484996,0.831914342277542,0.84443931602266,0.855929424924934,0.934045547344685,1
1,0.994520210626866,0.986615906108049,0.980912258923502,0.97938185762531,0.979416849739635,0.982080152390127,0.980492308200072,0.978589487040819,0.980912258923501,0.986118708059026,0.994031133715457,1
1,0.968560667174409,0.918917244346053,0.89281237940428,0.903844216935146,0.907108321837406,0.926642646317607,0.925898401059616,0.897419676974025,0.892812379404279,0.925336412662411,0.957381219690136,1
1,0.912960358508946,0.941281436483751,0.927501763713613,0.903540492058606,0.920506954187364,0.929845645914204,0.895736475592857,0.921608896853577,0.892992541825874,0.893609294202796,0.955419280958759,1
0.999999999999999,0.935853893755101,0.851993672544743,0.868710697035615,0.863806582849637,0.927515221412681,0.96707069131872,0.921493351443108,0.853823153710012,0.870317594434415,0.869243184214663,0.944716046712382,0.999999999999999
1,0.883527124532816,0.839778919635713,0.823973223500112,0.855480662351921,0.871614660147198,0.878326894663204,0.911063626162512,0.849272614391734,0.871724888141229,0.863256484324582,0.865404551764088,1
1,0.946721412373782,0.900453857556839,0.908071192356788,0.903260701750538,0.895289187030979,0.899351242480292,0.895904810285623,0.898188905598125,0.908071192356788,0.900006715931813,0.947303344226696,1
0.999999999999998,0.907388164543623,0.847593717119354,0.85562118684527,0.83093525395173,0.837886648711857,0.835823961393597,0.882113367109251,0.86844438585736,0.827248726015743,0.833531878463504,0.906113944721942,0.999999999999998
0.964016596670329,0.8175629737724,0.82254955102773,0.823573045496425,0.805760240515768,0.837041560117599,0.908577197511543,0.824330188837428,0.801432983821929,0.860108651181546,0.820975808440966,0.915705195108,0.964016596670329
0.999999999999998,0.946010396727776,0.858793344532696,0.899800186615994,0.862882178605258,0.921085970916451,0.957754449547665,0.927735949108354,0.859842924584456,0.880015219746386,0.873760020815246,0.947826960584219,0.999999999999998
0.995371428444993,0.909193930834034,0.908445659316002,0.941771941436833,0.909525360007101,0.856521188121244,0.888708503906851,0.940936675781062,0.951729495822665,0.920982678887597,0.900885615151654,0.91237868781281,0.995371428444993
1,0.955284253812021,0.897825238928265,0.911487219110868,0.916912987171522,0.953836531662452,0.995546280712328,0.954065899079191,0.89843548925078,0.911115872952202,0.917159484726091,0.954594666083799,1
0.999999999999999,0.987475959887478,0.97370618264253,0.973677813262186,0.979068167644307,0.976888155413464,0.987370818061833,0.980741365589441,0.975503652252095,0.973677813262185,0.982268206511912,0.985885475168111,0.999999999999999
1,0.955815806491053,0.923417147447896,0.889979467397216,0.900983116485292,0.906626761164907,0.913813080470105,0.912615385711873,0.907464633522542,0.893497963495797,0.926609250290945,0.956157205645779,1
0.953890780875579,0.955269881806909,0.849265058689752,0.885045605804704,0.86304286651537,0.846083869083423,0.914489297936214,0.900769708278473,0.857555758414025,0.910832894795141,0.916424339287523,0.884260395443248,0.953890780875579
0.999999999999998,0.963155447329265,0.929718854456721,0.907740456860963,0.896151876191406,0.899504062962329,0.905365281647662,0.906712885413623,0.890085116251796,0.900402167886563,0.927147336567429,0.96317728636059,0.999999999999998
0.999999999999998,0.915115651269003,0.921530291813174,0.86098680552328,0.887613926773367,0.847230678838792,0.909286622012103,0.890401389836428,0.87984544089764,0.897959126583206,0.883600083378303,0.87526645421578,0.999999999999998
0.99492389276659,0.933111958744114,0.894176525978569,0.921943524741764,0.876645044960774,0.878571954707905,0.89607620259391,0.869832239994839,0.898050748137684,0.919876338535661,0.917874328912403,0.93891289505874,0.99492389276659
1,0.977328706409043,0.945539505422566,0.922959727568739,0.923042168417778,0.915913510468072,0.907137506110927,0.916989712640353,0.921633008460738,0.92295972756874,0.938681637131593,0.974131850911095,1
1,0.940240410043897,0.870366901826505,0.825049733874257,0.880959371247666,0.830535719634563,0.866544804990353,0.858901024826457,0.862393679650692,0.826589552041341,0.866810700550075,0.938635116019356,1
0.999999999999999,0.942696637944594,0.874699674269923,0.855106236093773,0.873043351687216,0.926292836797305,0.958617217278377,0.925272084031427,0.873761816787261,0.855106236093773,0.875300567851754,0.944667023379576,0.999999999999999
1,0.84773635319338,0.835992663426776,0.811090325759645,0.809643010368222,0.835638258006029,0.964343636661663,0.828975662086757,0.806195953944861,0.833311985075479,0.821505444929653,0.845622768370017,1
0.999999999999998,0.970027142681891,0.944064812595053,0.950806466121691,0.96440461744655,0.948593140882489,0.932315196987639,0.950471241580749,0.962526597415454,0.95080646612169,0.9427271085492,0.969935740071831,0.999999999999998
1,0.879049261192099,0.768104916145493,0.750649116643964,0.781184642059024,0.839915436833187,0.955304932713982,0.857471579692608,0.745959695994793,0.755865334700903,0.783156683020706,0.86327078263905,1
1,0.955682828599373,0.916666275524104,0.914867862223779,0.929410573682787,0.917453284026437,0.902813978028845,0.920414052905288,0.931500975700985,0.914867862223778,0.91331660317214,0.959316434309215,1
0.984610151615771,0.914454354255146,0.812679149144223,0.839644363922799,0.86082641818209,0.883359459071056,0.950785972731816,0.921604219314321,0.816418662644058,0.835670107073857,0.856643162115579,0.896754965220866,0.984610151615771
1,0.939986139784831,0.874261880365158,0.847850125229241,0.840017172920119,0.931358825745115,0.975656319440343,0.926712708731947,0.880799269958848,0.851882307472631,0.848530152988217,0.945396555150742,1
0.981110903565658,0.825623990994288,0.895380695194109,0.849349192874174,0.850153816738098,0.874799644110416,0.924638352839053,0.804552854826255,0.881101391578324,0.866416685171943,0.840447974241186,0.867070115902221,0.981110903565658
0.999999999999999,0.874140985175553,0.721967180255132,0.757956507916667,0.764342079913894,0.761202008583405,0.843227608634892,0.78352720511058,0.815235004048439,0.737804530892365,0.743558160648793,0.873679152736475,0.999999999999999
0.999999999999999,0.839697239896164,0.821274496324533,0.840457666174212,0.82695647717737,0.822784289402869,0.939548697498978,0.825515869843768,0.817575200076433,0.834495799648695,0.807109132112593,0.831295363175292,0.999999999999999
1,0.85823577458431,0.869636578313608,0.903106385524034,0.85099479616071,0.859790251776647,0.960819111400545,0.850181441983317,0.860159512980651,0.898138734284567,0.8631758136189,0.859853657164329,1
1,0.910179246024972,0.838098602476643,0.877120787259318,0.917928688195897,0.88463494022469,0.919341032948678,0.879012539931851,0.843208912462333,0.869642489398016,0.91839957446596,0.910860162015927,1
0.988512678822065,0.910379174733457,0.879546742481388,0.891317638207303,0.862122920161089,0.848807934918885,0.922573755586996,0.866704338246913,0.880675721284047,0.921818797112093,0.875699600502795,0.911624142084331,0.988512678822065
1,0.945360811462965,0.907450516287231,0.901662094307803,0.893093033146264,0.899325052696007,0.922259295175867,0.892364866516111,0.8897085520148,0.901662094307803,0.910689980258387,0.948103500376502,1
0.999999999999999,0.973014092227605,0.942029988352289,0.937237138824861,0.941673841634394,0.960268997228336,0.973830588014778,0.961912571844578,0.943826130558217,0.937237138824861,0.94395357919561,0.971092701641843,0.999999999999999
1,0.937228296083481,0.882422515607578,0.899992413290539,0.915457510199589,0.906726170319699,0.964830491910196,0.918277728463445,0.865285567007541,0.898330726249962,0.911649613493449,0.925671301114842,1
0.980127195273657,0.919575037024083,0.943854338304414,0.950680733113705,0.947783385721536,0.935002685267424,0.954877425624066,0.919962655499318,0.954038583370373,0.951090952563676,0.952361510680085,0.939167591974264,0.980127195273657
0.951224688543881,0.869770244365687,0.888770730700873,0.852301857439901,0.82917122237627,0.84055274591495,0.856393620162578,0.853922855904584,0.897128154050057,0.848688731802488,0.824518048707126,0.896354868225138,0.951224688543881
0.999999999999998,0.909828611688574,0.861068816583138,0.896489585157799,0.841969141319485,0.869309401327384,0.934760166909998,0.870497027550332,0.852720361937109,0.854770016903821,0.855646349217976,0.91188851796007,0.999999999999998
0.999999999999999,0.930575522545659,0.936842264250597,0.903293513968228,0.87306987374421,0.885405859461407,0.933446166308218,0.935841323164567,0.916036928874685,0.907172674782306,0.877722752871079,0.891706794337378,0.999999999999999
0.987917716658074,0.937318001274086,0.900404866400271,0.919707289142267,0.887261461915072,0.907549689073755,0.935576134735808,0.899111770348605,0.887820702775738,0.921325902901283,0.902580644201694,0.94175700076567,0.987917716658074
1,0.933026174050854,0.91362084602835,0.902347639116924,0.892538953664356,0.902863363278088,0.895927956702075,0.904933167421121,0.884292151779364,0.902347639116925,0.91739779086174,0.933448133304758,1
1,0.935646269269687,0.841435029830063,0.812034868913544,0.844304125397435,0.873897159609171,0.912246741996381,0.868662646475019,0.817562855839191,0.812034868913544,0.856095077147865,0.937385554698494,1
1,0.964360526438995,0.918292929367407,0.904270750782959,0.909954648786232,0.9381091904179,0.958876588414544,0.941099183835028,0.910164468223795,0.90427075078296,0.918725104321739,0.960842035210559,1
1,0.962504061538657,0.921269741375974,0.906252542850114,0.899215608902989,0.898422911691382,0.888506326113251,0.893439644861242,0.904332961664439,0.906252542850114,0.919967721059299,0.963465896025336,1
0.998127877505309,0.930809984478026,0.94095307832137,0.935975732273818,0.887196157469334,0.929885438905344,0.936806624594352,0.916896529636052,0.915987834512577,0.922002644483698,0.906566234337468,0.975229376003878,0.998127877505309
1,0.86570412471742,0.828096087376299,0.841830873786136,0.830557203005467,0.83990678459537,0.943426299673916,0.832895260954564,0.828594641074496,0.835603096657216,0.85282424565295,0.867577970183813,1
0.999999999999997,0.970129304553991,0.944604118115269,0.941830300457889,0.948342547520062,0.947766511858397,0.946155365219895,0.947370664679828,0.948713819020427,0.94183030045789,0.947214593361761,0.973073186885466,0.999999999999997
1,0.961568741477501,0.979266262382002,0.965979179028464,0.949404799618029,0.968109452766166,0.940595011448019,0.967190211867525,0.955349842615388,0.965979179028464,0.982299231834388,0.963673290679882,1
0.999999999999999,0.961449202633555,0.949151381915164,0.96695756096498,0.950901752268168,0.948132148360835,0.958211555549671,0.94608677788935,0.953539825806545,0.966957560964979,0.95025703467488,0.962739817321673,0.999999999999999
1,0.977444799368033,0.954998661135817,0.942280714618729,0.948730783589755,0.965002406769326,0.975150222838529,0.961889751702542,0.954337837484278,0.942280714618729,0.956197754647624,0.978885813638778,1
0.999999999999999,0.992785228119839,0.982903255121003,0.9799634772874,0.978662442187703,0.971416715951972,0.966843096071895,0.974487096230269,0.980538904555539,0.9799634772874,0.984923694457994,0.994343475638645,0.999999999999999
0.999999999999999,0.975626656907725,0.949532476716706,0.945795733998599,0.944599951045759,0.964951923607267,0.984470979694051,0.967605822924105,0.945683464553509,0.945795733998599,0.94748303364962,0.971672444322876,0.999999999999999
0.999999999999999,0.982664394038238,0.968450368144826,0.965666827304315,0.958649708520637,0.950931154340041,0.951614377962869,0.950238018475891,0.960213030376675,0.965666827304315,0.968803321637337,0.984673333214083,0.999999999999999
0.999999999999999,0.91610751508167,0.834452433332969,0.812418532068781,0.802279205350103,0.839438125801771,0.857566237653036,0.835152917192109,0.827361312659607,0.812418532068781,0.832840760215298,0.918349176073074,0.999999999999999
1,0.95327635609695,0.926718635225935,0.933287518482483,0.923986890119687,0.919185745475054,0.922484737027992,0.925576130884427,0.926694705618032,0.933287518482483,0.928535781851473,0.959355493092149,1
1,0.926780431257848,0.838596293379073,0.866552490153645,0.836848893492965,0.915010524220637,0.969303389916579,0.909163015022007,0.845009663899397,0.865250504880483,0.847259680310897,0.933835522279064,1
1,0.946755844700428,0.908941670317723,0.869283813359672,0.874820365274175,0.919222975001234,0.951175583098518,0.920383690887839,0.905082891632287,0.860633722622802,0.883858373346474,0.945387877606451,1
0.999999999999998,0.940696599549996,0.842346985018118,0.803300078679455,0.845202987963791,0.863078654280945,0.772800247792454,0.778401330352596,0.811950339366064,0.800876090919919,0.849832755787459,0.941695410361142,0.999999999999998
1,0.967830509286705,0.922540022442756,0.903489485554772,0.923160024017001,0.952341867525156,0.972585313462486,0.956463463934422,0.921801177334351,0.903489485554773,0.928317273290891,0.965076621391486,1
0.999999999999998,0.866223838032998,0.837751635138148,0.913531160779977,0.894242859855105,0.877346007750958,0.950518148850455,0.860641689553511,0.844114824014011,0.917142801319296,0.887699223192746,0.860822012873449,0.999999999999998
1,0.967302782362019,0.934473286428123,0.910666259373081,0.888275111023754,0.863465809349126,0.854792414660791,0.862561584642624,0.880881321293318,0.910666259373081,0.931492594144846,0.96648115250648,1
0.945446551504712,0.910742949693799,0.861811399126254,0.892070063507447,0.882460540344554,0.901121280082114,0.885576525763127,0.877080116065869,0.881294437417865,0.876702706110729,0.920211062401376,0.942312814810212,0.945446551504712
1,0.840616114243946,0.761476750530843,0.808995599138947,0.857097015029002,0.772973906916048,0.832836731607378,0.773136733177824,0.877206473248954,0.801720211583055,0.799175730677946,0.851865354900056,1
1,0.937391780429516,0.904153702400229,0.905226184250233,0.899161176832908,0.939856352116343,0.964934232167764,0.926794942953144,0.908994579935283,0.907977420758936,0.89031823467574,0.955721788084675,1
0.972632956880521,0.958526139469103,0.874699524172432,0.90873616017411,0.9011791107008,0.846712661965096,0.910179326457448,0.930244234307765,0.883452951319938,0.899123117126331,0.909278654545089,0.927955847587077,0.972632956880521
0.999999999999999,0.939221647595088,0.872406355851165,0.893041709517623,0.890038596081057,0.893972111776655,0.929391433098526,0.892224079372309,0.840265715566203,0.846348802897371,0.882735756525378,0.942291012007786,0.999999999999999
0.999999999999999,0.987582413115744,0.97042002674932,0.960340399418141,0.966509188032393,0.973099332068491,0.975418448459793,0.978458646463104,0.972693385506981,0.960340399418141,0.970525312491506,0.984834617119511,0.999999999999999
1,0.861364015870324,0.788152077312974,0.775832419364981,0.769886882874314,0.833604126313343,0.953348854289152,0.835765488890888,0.796063325002653,0.760116757349473,0.787535549654172,0.858384391054394,1
0.999999999999999,0.917609151602553,0.904163773873547,0.856514935473481,0.890839669346524,0.908685614900696,0.962666094761268,0.894324678910118,0.915354549629876,0.872127761260484,0.904401503620746,0.936401856226597,0.999999999999999
1,0.980163352296378,0.961390000224381,0.95582682828982,0.957267795842901,0.967582324027248,0.973065739356066,0.966130098831397,0.957141485878362,0.95582682828982,0.96422947923932,0.979768122129525,1
1,0.914250223757232,0.840200294304757,0.931104655165801,0.872824185109725,0.897823017953563,0.952946053396235,0.896060525417751,0.833520445975812,0.928123233092358,0.851079611694011,0.919000349123825,1
0.999999999999998,0.978880480016447,0.953293293206118,0.939205674276345,0.928919612809325,0.921025262508684,0.924394617345866,0.92406267482062,0.926187964612679,0.939205674276345,0.954302080514228,0.97805137006169,0.999999999999998
0.999999999999999,0.915936891995546,0.881986433611585,0.848890658797554,0.802522237107479,0.905795185756271,0.965729358322925,0.895461682955935,0.867586786806755,0.845719259449296,0.807744734229755,0.92725554101712,0.999999999999999
0.999999999999999,0.900829393456151,0.8537925126051,0.854807788061813,0.807679439079441,0.882165100959406,0.948926041248329,0.876007436582054,0.849062250376775,0.852515990738071,0.805058790584257,0.90468581372171,0.999999999999999
0.970354686359414,0.910887125388515,0.902056766938469,0.950976490578212,0.915664347246613,0.930709611543437,0.925441278365029,0.899155546709651,0.907727854249748,0.9519397643274,0.905541843478566,0.934574358715637,0.970354686359414
0.987063493919364,0.903733158887173,0.839743100107076,0.861844104026102,0.836597305877801,0.862025947484092,0.842261036901213,0.832922630178221,0.889274825853349,0.928118694588947,0.847842649500595,0.890538984720769,0.987063493919364
0.968298102790387,0.964816003937652,0.87949361003631,0.87856189899321,0.922957415354444,0.922568317794715,0.955227224677477,0.956996341774572,0.88030321148137,0.87472124686054,0.923899949018693,0.929472134578423,0.968298102790387
0.999999999999999,0.978241214460151,0.961630278189554,0.96278556962894,0.952934130828269,0.969389091005,0.978668367838992,0.973660811498258,0.959924678687869,0.966048859816834,0.953931419276296,0.977129219280034,0.999999999999999
0.999171484427294,0.923866614800793,0.881773062861137,0.914786131511586,0.937521030575502,0.91837738192041,0.935692972163604,0.915327684227355,0.878821010304464,0.913060207477731,0.94801393716278,0.889348425479517,0.999171484427294
1,0.968995514513089,0.94156170758981,0.942255732292928,0.937612485388587,0.949619648889007,0.969606012029503,0.952963665455985,0.938899569733821,0.942255732292928,0.939817607547791,0.96609568574898,1
1,0.968261353321995,0.919886067786039,0.89554280145309,0.902335582887907,0.939577614605327,0.951070119686776,0.949002511606506,0.916188516784435,0.89554280145309,0.916268800633716,0.967958150152761,1
1,0.958509620161863,0.92601473361286,0.923434269918734,0.916482220787582,0.909648697136959,0.904321835370567,0.897062849454233,0.923863932169533,0.923434269918734,0.931313251752592,0.961110603439077,1
1,0.910911903473347,0.816438286816212,0.829703300371503,0.847485052840519,0.845553610876806,0.901282711240454,0.843414563332644,0.835157202060499,0.836758117394665,0.876656519552217,0.924362733689954,1
0.988948185261012,0.945529090840123,0.936692305902614,0.935364860299511,0.917948596799125,0.897432379932322,0.886115635033422,0.866465239671569,0.897800945049594,0.946757837487187,0.908464641254172,0.97370262658053,0.988948185261012
1,0.998996078174869,0.997032133711648,0.994796870883584,0.993328436027655,0.992012074708513,0.991019302592475,0.991454600172893,0.993107311106276,0.994796870883584,0.996767767858801,0.998939917253888,1
0.967305847873319,0.905276102108845,0.863778364707312,0.89450282078449,0.851309992255432,0.87090157140994,0.899824389921784,0.897787108228333,0.875898277672039,0.912330716555683,0.859552742324038,0.862205635086813,0.967305847873319
0.968104668308971,0.930978733184314,0.919723652480787,0.929937683571068,0.916555824952393,0.91142947426958,0.947918497915522,0.912476319412087,0.910544173566401,0.938445087172154,0.910742329136738,0.92270196553971,0.968104668308971
0.999999999999999,0.977397644026628,0.954751850825501,0.944724038758514,0.93663337017811,0.951601788163914,0.960354820901885,0.944895174434628,0.952031118547115,0.944724038758514,0.951341327714695,0.972125420307538,0.999999999999999
1,0.939203310538125,0.839056609823702,0.836276085912985,0.845906457741466,0.903593206821056,0.934581236322585,0.909522885635564,0.846954393439524,0.852561568212992,0.841227473135954,0.935539865188311,1
0.998532068825754,0.861134056303299,0.911724257714879,0.849720692772957,0.868072577828927,0.851821381329873,0.91085911441422,0.832404031268856,0.911523631136849,0.870214304233582,0.881376493872532,0.863730805641638,0.998532068825754
1,0.955068569604158,0.920687440647738,0.903609939456289,0.896026409460719,0.919936102201535,0.935535659899728,0.920696202196641,0.896304963169719,0.898823071930681,0.912797876649383,0.951183299433789,1
