
(SINGLE)
________________________________________________________________________________
[1] "_______________________________________________________________________"
[1] "Average ( V ) Performance Over Rotation = 24.0705128205128"
[1] "Minimum ( V ) Performance Over Rotation = 6.53846153846154"
[1] ""
[1] "Curve Fit For Error ( V )"
[1] "   SymLine  = 0.891825933738565"
[1] "  Parabola  = 0.898719850169653"
[1] "Parabola M  = 0.985393888266394"
[1] "Sinwave 90  = 4.4480404134406e-06"
[1] "Gaussian M  = 0.883501996255706"
[1] "Best Fit Curve Is # 3"
[1] ""
[1] "____________________________________________________________"
[1] "Average ( I ) Performance Over Rotation = 79.3589743589744"
[1] "Minimum ( I ) Performance Over Rotation = 79.2307692307692"
[1] ""
[1] "Curve Fit For Error ( I )"
[1] "   SymLine  = 0.00665271162099446"
[1] "Sinwave 90  = 0.999996431688242"
[1] "Best Fit Curve Is # 2"
[1] ""
[1] "_______________________________________________________________________"
[1] "Average ( VI ) Performance Over Rotation = 64.6474358974359"
[1] "Minimum ( VI ) Performance Over Rotation = 39.2307692307692"
[1] ""
[1] "Curve Fit For Error ( VI )"
[1] "   SymLine  = 0.146695901361684"
[1] "  Parabola  = 0.334771454033604"
[1] "Parabola M  = 0.963140761149223"
[1] "Sinwave 90  = 0.00113572296933706"
[1] "Gaussian M  = 0.969024074630333"
[1] "Best Fit Curve Is # 5"
[1] ""
[1] "_______________________________________________________________________"
[1] "Average ( VT ) Performance Over Rotation = 28.6538461538462"
[1] "Minimum ( VT ) Performance Over Rotation = 7.69230769230769"
[1] ""
[1] "Curve Fit For Error ( VT )"
[1] "   SymLine  = 0.864813792155045"
[1] "  Parabola  = 0.891422912114383"
[1] "Parabola M  = 0.984856295092475"
[1] "Sinwave 90  = 0.000150254807921968"
[1] "Gaussian M  = 0.926294516101237"
[1] "Best Fit Curve Is # 3"
[1] ""
[1] "_______________________________________________________________________"
[1] "Average ( VIT ) Performance Over Rotation = 72.1153846153846"
[1] "Minimum ( VIT ) Performance Over Rotation = 43.8461538461538"
[1] ""
[1] "Curve Fit For Error ( VIT )"
[1] "   SymLine  = 0.138021523207037"
[1] "  Parabola  = 0.311356245993462"
[1] "Parabola M  = 0.938973559935"
[1] "Sinwave 90  = 0.000690527878908775"
[1] "Gaussian M  = 0.96463274667614"
[1] "Best Fit Curve Is # 5"
[1] ""



(DISTRIBUTION WIDTH 1.5)
________________________________________________________________________________

[1] "_______________________________________________________________________"
[1] "Average ( V ) Performance Over Rotation = 32.8205128205128"
[1] "Minimum ( V ) Performance Over Rotation = 10.1923076923077"
[1] ""
[1] "Curve Fit For Error ( V )"
[1] "   SymLine  = 0.872194920262396"
[1] "  Parabola  = 0.917410772730072"
[1] "Parabola M  = 0.990933804406563"
[1] "Sinwave 90  = 5.2188329794367e-06"
[1] "Gaussian M  = 0.961368409492544"
[1] "Best Fit Curve Is # 3"
[1] ""
[1] "____________________________________________________________"
[1] "Average ( I ) Performance Over Rotation = 75.9615384615385"
[1] "Minimum ( I ) Performance Over Rotation = 75.5769230769231"
[1] ""
[1] "Curve Fit For Error ( I )"
[1] "   SymLine  = 0.00666402450396475"
[1] "Sinwave 90  = 0.999996362861437"
[1] "Best Fit Curve Is # 2"
[1] ""
[1] "_______________________________________________________________________"
[1] "Average ( VI ) Performance Over Rotation = 68.8782051282051"
[1] "Minimum ( VI ) Performance Over Rotation = 45"
[1] ""
[1] "Curve Fit For Error ( VI )"
[1] "   SymLine  = 0.286174397029049"
[1] "  Parabola  = 0.501518992920505"
[1] "Parabola M  = 0.939229337929429"
[1] "Sinwave 90  = 0.000749351993784009"
[1] "Gaussian M  = 0.981119847750449"
[1] "Best Fit Curve Is # 5"
[1] ""
[1] "_______________________________________________________________________"
[1] "Average ( VT ) Performance Over Rotation = 36.6025641025641"
[1] "Minimum ( VT ) Performance Over Rotation = 12.3076923076923"
[1] ""
[1] "Curve Fit For Error ( VT )"
[1] "   SymLine  = 0.847768089488548"
[1] "  Parabola  = 0.917987335348627"
[1] "Parabola M  = 0.988454587128034"
[1] "Sinwave 90  = 0.000621286396880194"
[1] "Gaussian M  = 0.975337193378598"
[1] "Best Fit Curve Is # 3"
[1] ""
[1] "_______________________________________________________________________"
[1] "Average ( VIT ) Performance Over Rotation = 76.9551282051282"
[1] "Minimum ( VIT ) Performance Over Rotation = 59.4230769230769"
[1] ""
[1] "Curve Fit For Error ( VIT )"
[1] "   SymLine  = 0.39255799670457"
[1] "  Parabola  = 0.615282722816323"
[1] "Parabola M  = 0.932806249225042"
[1] "Sinwave 90  = 5.62112158501993e-05"
[1] "Gaussian M  = 0.975175129259143"
[1] "Best Fit Curve Is # 5"
[1] ""



(DISTRIBUTION WIDTH 2)
________________________________________________________________________________
[1] "_______________________________________________________________________"
[1] "Average ( V ) Performance Over Rotation = 44.6794871794872"
[1] "Minimum ( V ) Performance Over Rotation = 17.3076923076923"
[1] ""
[1] "Curve Fit For Error ( V )"
[1] "   SymLine  = 0.897600005373907"
[1] "  Parabola  = 0.967925714979799"
[1] "Parabola M  = 0.995973568444365"
[1] "Sinwave 90  = 7.12568473010267e-05"
[1] "Gaussian M  = 0.987662919080923"
[1] "Best Fit Curve Is # 3"
[1] ""
[1] "____________________________________________________________"
[1] "Average ( I ) Performance Over Rotation = 76.7948717948718"
[1] "Minimum ( I ) Performance Over Rotation = 76.3461538461538"
[1] ""
[1] "Curve Fit For Error ( I )"
[1] "   SymLine  = 0.0123236012036734"
[1] "Sinwave 90  = 0.999997003743865"
[1] "Best Fit Curve Is # 2"
[1] ""
[1] "_______________________________________________________________________"
[1] "Average ( VI ) Performance Over Rotation = 78.2852564102564"
[1] "Minimum ( VI ) Performance Over Rotation = 66.3461538461538"
[1] ""
[1] "Curve Fit For Error ( VI )"
[1] "   SymLine  = 0.544329252920944"
[1] "  Parabola  = 0.767114020453662"
[1] "Parabola M  = 0.973228359254427"
[1] "Sinwave 90  = 9.99360994746734e-06"
[1] "Gaussian M  = 0.994237285217719"
[1] "Best Fit Curve Is # 5"
[1] ""
[1] "_______________________________________________________________________"
[1] "Average ( VT ) Performance Over Rotation = 46.0737179487179"
[1] "Minimum ( VT ) Performance Over Rotation = 19.2307692307692"
[1] ""
[1] "Curve Fit For Error ( VT )"
[1] "   SymLine  = 0.87298962446553"
[1] "  Parabola  = 0.955813263804518"
[1] "Parabola M  = 0.993682785622213"
[1] "Sinwave 90  = 6.28069492126793e-05"
[1] "Gaussian M  = 0.987479080219484"
[1] "Best Fit Curve Is # 3"
[1] ""
[1] "_______________________________________________________________________"
[1] "Average ( VIT ) Performance Over Rotation = 81.9711538461538"
[1] "Minimum ( VIT ) Performance Over Rotation = 70"
[1] ""
[1] "Curve Fit For Error ( VIT )"
[1] "   SymLine  = 0.497568435143023"
[1] "  Parabola  = 0.726964830992672"
[1] "Parabola M  = 0.975551327949557"
[1] "Sinwave 90  = 3.48306617992122e-06"
[1] "Gaussian M  = 0.996330308194861"
[1] "Best Fit Curve Is # 5"
[1] ""
