r0,r30,r60,r90,r120,r150,r180,r210,r240,r270,r300,r330,r360
1,0,0,0,0,0,1,0,0,0,0,0,1
1,0,0,0,0,0,0,0,0,0,0,0,1
1,0,0,0,0,0,0,0,0,0,0,0,1
1,1,0,0,0,0,1,0,0,0,0,1,1
1,1,0,0,0,0,1,0,0,0,0,0,1
1,1,1,0,1,1,0,1,1,0,1,1,1
1,1,0,0,0,0,0,0,0,0,0,0,1
1,0,0,0,0,1,1,0,0,0,0,1,1
1,1,1,0,0,0,0,0,0,0,0,1,1
1,1,0,0,0,0,1,1,0,0,0,1,1
1,0,0,0,0,0,0,0,0,0,0,0,1
1,0,0,0,0,0,0,0,0,0,0,0,1
1,1,1,1,1,1,0,1,1,1,1,1,1
1,1,1,1,1,1,1,1,1,1,1,1,1
1,1,0,0,0,0,0,0,0,0,0,0,1
1,0,0,0,0,0,0,0,0,0,0,0,1
1,1,0,0,0,0,0,0,0,0,0,0,1
1,1,1,0,0,1,1,1,1,0,1,1,1
1,0,0,0,0,0,0,0,0,0,0,0,1
1,1,0,0,0,0,0,0,0,0,0,1,1
1,1,0,0,0,0,1,1,0,0,0,0,1
1,0,0,0,0,0,0,0,0,0,0,0,1
1,1,0,0,0,0,0,0,0,0,0,1,1
1,1,0,0,0,0,0,0,0,0,0,1,1
1,1,0,0,0,0,0,0,0,0,0,1,1
1,1,0,0,0,0,1,1,0,0,0,1,1
1,0,0,0,0,0,0,0,0,0,0,0,1
1,0,0,0,0,0,0,0,0,0,0,0,1
1,1,0,0,0,0,0,0,0,0,0,1,1
1,1,0,0,0,0,0,0,0,0,0,1,1
1,1,0,0,0,0,0,0,0,0,0,1,1
1,0,0,0,0,0,0,0,0,0,0,0,1
1,1,0,1,1,1,0,1,1,1,1,1,1
1,1,0,0,0,0,1,1,0,0,0,1,1
1,1,0,0,0,1,1,1,0,0,0,1,1
1,0,0,0,0,0,0,0,0,0,0,0,1
1,0,0,0,0,0,0,0,0,0,0,0,1
1,0,0,0,0,0,0,0,0,0,0,0,1
1,0,0,0,0,0,1,0,0,0,0,1,1
1,0,0,0,0,0,0,0,0,0,0,0,1
1,1,1,1,1,1,1,1,1,1,1,1,1
1,1,0,0,0,1,1,1,0,0,0,1,1
1,1,0,0,0,0,0,0,0,0,0,0,1
1,0,0,0,0,0,0,0,0,0,0,0,1
1,0,0,0,0,0,1,0,0,0,0,0,1
1,0,0,0,0,1,1,0,0,0,0,1,1
1,0,0,0,0,0,0,0,0,0,0,0,1
1,0,0,0,0,0,0,0,0,0,0,0,1
1,0,0,0,0,0,1,0,0,0,0,1,1
1,0,0,0,0,0,0,0,0,0,0,0,1
1,0,0,0,0,0,0,0,0,0,0,0,1
1,0,0,0,0,0,0,0,0,0,0,0,1
1,0,0,0,0,0,0,0,0,0,0,0,1
1,0,0,0,0,0,0,0,0,0,0,0,1
1,0,0,0,0,0,0,0,0,0,0,0,1
1,0,0,0,0,0,0,0,0,0,0,0,1
1,0,0,0,0,0,0,0,0,0,0,0,1
1,0,0,0,0,0,1,0,0,0,0,0,1
1,0,0,0,0,0,0,0,0,0,0,0,1
1,1,0,0,0,0,1,1,0,0,0,1,1
1,0,0,0,0,0,0,0,0,0,0,0,1
1,1,0,0,0,0,0,0,0,0,0,1,1
1,1,1,0,0,0,0,0,0,0,1,1,1
1,1,0,0,0,0,1,0,0,0,0,1,1
1,1,0,0,0,0,0,0,0,0,0,0,1
1,0,0,0,0,0,1,0,0,0,0,0,1
1,1,0,0,0,0,1,0,0,0,0,0,1
1,0,0,0,0,0,0,0,0,0,0,0,1
1,1,1,1,0,0,0,0,0,0,1,1,1
1,1,0,0,0,0,0,0,0,0,0,1,1
1,0,0,0,0,0,0,0,0,0,0,0,1
1,0,0,0,0,0,0,0,0,0,0,0,1
1,0,0,0,0,0,0,0,0,0,0,0,1
1,0,0,0,0,0,0,0,0,0,0,0,1
1,0,0,0,0,0,0,0,0,0,0,0,1
1,1,0,0,0,0,1,1,0,0,0,1,1
1,1,0,0,0,0,1,0,0,0,0,1,1
1,0,0,0,0,0,1,0,0,0,0,0,1
1,1,0,0,0,0,0,0,0,0,0,1,1
1,1,1,1,1,1,1,1,1,1,1,1,1
1,0,0,0,0,0,0,0,0,0,0,0,1
1,0,0,0,0,0,1,0,0,0,0,0,1
1,0,0,0,0,0,0,0,0,0,0,1,1
1,1,0,0,0,0,0,0,0,0,0,1,1
1,1,0,0,0,0,1,0,0,0,0,0,1
1,0,0,0,0,0,0,0,0,0,0,0,1
1,0,0,0,0,0,1,0,0,0,0,1,1
1,1,0,0,0,0,0,0,0,0,0,1,1
1,0,0,0,0,0,0,0,0,0,0,0,1
1,1,0,0,0,0,0,0,0,0,0,1,1
1,1,0,0,0,0,0,0,0,0,0,1,1
1,0,0,0,0,0,1,0,0,0,0,0,1
1,1,1,0,0,0,0,0,0,0,1,1,1
1,0,0,0,0,0,0,0,0,0,0,0,1
1,1,1,0,1,1,1,1,1,0,1,1,1
1,1,0,0,0,0,0,0,0,0,0,1,1
1,0,0,0,0,0,1,0,0,0,0,0,1
1,0,0,0,0,0,0,0,0,0,0,0,1
1,1,1,0,0,0,0,0,0,0,0,1,1
1,0,0,0,0,0,0,0,0,0,0,0,1
1,0,0,0,0,0,1,0,0,0,0,0,1
1,1,0,0,0,0,0,0,1,0,1,1,1
1,0,0,0,0,0,0,0,0,0,0,0,1
1,1,0,0,0,0,0,0,0,0,0,0,1
1,1,0,0,0,0,0,0,0,0,0,1,1
1,1,0,0,0,0,0,0,0,0,0,0,1
1,0,0,0,0,0,0,0,0,0,0,0,1
1,0,0,0,0,0,0,0,0,0,0,0,1
1,1,0,1,1,0,0,0,1,1,0,1,1
1,0,0,0,0,0,0,0,0,0,0,0,1
1,0,0,0,0,0,0,0,0,0,0,0,1
1,0,0,0,0,0,0,0,0,0,0,0,1
1,1,0,0,0,0,0,0,0,0,0,1,1
1,0,0,0,0,0,0,0,0,0,0,0,1
1,1,0,0,0,0,0,0,0,0,0,1,1
1,0,0,0,0,0,0,0,0,0,0,0,1
1,0,0,0,0,0,0,0,0,0,0,0,1
1,1,0,0,0,0,0,0,0,0,0,1,1
1,1,1,0,1,1,0,1,1,0,1,1,1
1,0,0,0,0,0,0,0,0,0,0,0,1
1,0,0,0,0,0,0,0,0,0,0,0,1
1,1,0,0,0,1,1,0,0,0,0,1,1
1,1,0,0,0,0,0,0,0,0,0,0,1
1,0,0,1,0,0,1,0,0,1,0,1,1
1,1,0,0,0,0,0,0,0,0,0,1,1
1,0,0,0,0,0,0,0,0,0,0,0,1
1,1,1,1,1,0,0,0,1,1,1,1,1
1,0,0,0,0,0,0,0,0,0,0,0,1
1,0,0,0,0,0,0,0,0,0,0,0,1
1,0,0,0,0,0,0,0,0,0,0,0,1
1,1,1,1,1,1,1,1,1,1,1,1,1
1,1,1,1,1,1,1,1,1,1,1,1,1
1,1,1,1,1,1,1,1,1,1,1,1,1
1,1,1,1,1,1,1,1,1,1,1,1,1
1,1,1,1,1,1,1,1,1,1,1,1,1
1,1,1,1,1,1,1,1,1,1,1,1,1
1,1,1,1,1,1,1,1,1,1,1,1,1
1,1,1,1,1,1,1,1,1,1,1,1,1
1,1,1,1,1,1,1,1,1,1,1,1,1
1,1,1,1,1,1,1,1,1,1,1,1,1
1,1,1,1,1,1,1,1,1,1,1,1,1
1,1,1,1,1,1,1,1,1,1,1,1,1
1,1,1,1,1,1,1,1,1,1,1,1,1
1,1,1,1,1,1,1,1,1,1,1,1,1
1,1,1,1,1,1,1,1,1,1,1,1,1
1,1,1,1,1,1,1,1,1,1,1,1,1
1,1,1,1,1,1,1,1,1,1,1,1,1
1,1,1,1,1,1,1,1,1,1,1,1,1
1,1,1,1,1,1,1,1,1,1,1,1,1
1,1,1,1,1,1,1,1,1,1,1,1,1
1,1,1,1,1,1,1,1,1,1,1,1,1
1,1,1,1,1,1,1,1,1,1,1,1,1
1,1,1,1,1,1,1,1,1,1,1,1,1
1,1,1,1,1,1,1,1,1,1,1,1,1
1,1,1,1,1,1,1,1,1,1,1,1,1
1,1,1,1,1,1,1,1,1,1,1,1,1
1,1,1,1,1,1,1,1,1,1,1,1,1
1,1,1,1,1,1,1,1,1,1,1,1,1
1,1,1,1,1,1,1,1,1,1,1,1,1
1,1,1,1,1,1,1,1,1,1,1,1,1
1,1,1,1,1,1,1,1,1,1,1,1,1
1,1,1,1,1,1,1,1,1,1,1,1,1
1,1,1,1,1,1,1,1,1,1,1,1,1
1,1,1,1,1,1,1,1,1,1,1,1,1
1,1,1,1,1,1,1,1,1,1,1,1,1
1,1,1,1,1,1,1,1,1,1,1,1,1
1,1,1,1,1,1,1,1,1,1,1,1,1
1,1,1,1,1,1,1,1,1,1,1,1,1
1,1,1,1,1,1,1,1,1,1,1,1,1
1,1,1,1,1,1,1,1,1,1,1,1,1
1,1,1,1,1,1,1,1,1,1,1,1,1
1,1,1,1,1,1,1,1,1,1,1,1,1
1,1,1,1,1,1,1,1,1,1,1,1,1
1,1,1,1,1,1,1,1,1,1,1,1,1
1,1,1,1,1,1,1,1,1,1,1,1,1
1,1,1,1,1,1,1,1,1,1,1,1,1
1,1,1,1,1,1,1,1,1,1,1,1,1
1,1,1,1,1,1,1,1,1,1,1,1,1
1,1,1,1,1,1,1,1,1,1,1,1,1
1,1,1,1,1,1,1,1,1,1,1,1,1
1,1,1,1,1,1,1,1,1,1,1,1,1
1,1,1,1,1,1,1,1,1,1,1,1,1
1,1,1,1,1,1,1,1,1,1,1,1,1
1,1,1,1,1,1,1,1,1,1,1,1,1
1,1,1,1,1,1,1,1,1,1,1,1,1
1,1,1,1,1,1,1,1,1,1,1,1,1
1,1,1,1,1,1,1,1,1,1,1,1,1
1,1,1,1,1,1,1,1,1,1,1,1,1
1,1,1,1,1,1,1,1,1,1,1,1,1
1,1,1,1,1,1,1,1,1,1,1,1,1
1,1,1,1,1,1,1,1,1,1,1,1,1
1,1,1,1,1,1,1,1,1,1,1,1,1
1,1,1,1,1,1,1,1,1,1,1,1,1
1,1,1,1,1,1,1,1,1,1,1,1,1
1,1,1,1,1,1,1,1,1,1,1,1,1
1,1,1,1,1,1,1,1,1,1,1,1,1
1,1,1,1,1,1,1,1,1,1,1,1,1
1,1,1,1,1,1,1,1,1,1,1,1,1
1,1,1,1,1,1,1,1,1,1,1,1,1
1,1,1,1,1,1,1,1,1,1,1,1,1
1,1,1,1,1,1,1,1,1,1,1,1,1
1,1,1,1,1,1,1,1,1,1,1,1,1
1,1,1,1,1,1,1,1,1,1,1,1,1
1,1,1,1,1,1,1,1,1,1,1,1,1
1,1,1,1,1,1,1,1,1,1,1,1,1
1,1,1,1,1,1,1,1,1,1,1,1,1
1,1,1,1,1,1,1,1,1,1,1,1,1
1,1,1,1,1,1,1,1,1,1,1,1,1
1,1,1,1,1,1,1,1,1,1,1,1,1
1,1,1,1,1,1,1,1,1,1,1,1,1
1,1,1,1,1,1,1,1,1,1,1,1,1
1,1,1,1,1,1,1,1,1,1,1,1,1
1,1,1,1,1,1,1,1,1,1,1,1,1
1,1,1,1,1,1,1,1,1,1,1,1,1
1,1,1,1,1,1,1,1,1,1,1,1,1
1,1,1,1,1,1,1,1,1,1,1,1,1
1,1,1,1,1,1,1,1,1,1,1,1,1
1,1,1,1,1,1,1,1,1,1,1,1,1
1,1,1,1,1,1,1,1,1,1,1,1,1
1,1,1,1,1,1,1,1,1,1,1,1,1
1,1,1,1,1,1,1,1,1,1,1,1,1
1,1,1,1,1,1,1,1,1,1,1,1,1
1,1,1,1,1,1,1,1,1,1,1,1,1
1,1,1,1,1,1,1,1,1,1,1,1,1
1,1,1,1,1,1,1,1,1,1,1,1,1
1,1,1,1,1,1,1,1,1,1,1,1,1
1,1,1,1,1,1,1,1,1,1,1,1,1
1,1,1,1,1,1,1,1,1,1,1,1,1
1,1,1,1,1,1,1,1,1,1,1,1,1
1,1,1,1,1,1,1,1,1,1,1,1,1
1,1,1,1,1,1,1,1,1,1,1,1,1
1,1,1,1,1,1,1,1,1,1,1,1,1
1,1,1,1,1,1,1,1,1,1,1,1,1
1,1,1,1,1,1,1,1,1,1,1,1,1
1,1,1,1,1,1,1,1,1,1,1,1,1
1,1,1,1,1,1,1,1,1,1,1,1,1
1,1,1,1,1,1,1,1,1,1,1,1,1
1,1,1,1,1,1,1,1,1,1,1,1,1
1,1,1,1,1,1,1,1,1,1,1,1,1
1,1,1,1,1,1,1,1,1,1,1,1,1
1,1,1,1,1,1,1,1,1,1,1,1,1
1,1,1,1,1,1,1,1,1,1,1,1,1
1,1,1,1,1,1,1,1,1,1,1,1,1
1,1,1,1,1,1,1,1,1,1,1,1,1
1,1,1,1,1,1,1,1,1,1,1,1,1
1,1,1,1,1,1,1,1,1,1,1,1,1
1,1,1,1,1,1,1,1,1,1,1,1,1
1,1,1,1,1,1,1,1,1,1,1,1,1
1,1,1,1,1,1,1,1,1,1,1,1,1
1,1,1,1,1,1,1,1,1,1,1,1,1
1,1,1,1,1,1,1,1,1,1,1,1,1
1,1,1,1,1,1,1,1,1,1,1,1,1
1,1,1,1,1,1,1,1,1,1,1,1,1
1,1,1,1,1,1,1,1,1,1,1,1,1
1,1,1,1,1,1,1,1,1,1,1,1,1
1,1,1,1,1,1,1,1,1,1,1,1,1
1,1,1,1,1,1,1,1,1,1,1,1,1
1,1,1,1,1,1,1,1,1,1,1,1,1
1,1,1,1,1,1,1,1,1,1,1,1,1
1,1,1,1,1,1,1,1,1,1,1,1,1
1,1,1,1,1,1,1,1,1,1,1,1,1
1,1,1,1,1,1,1,1,1,1,1,1,1
1,1,1,1,1,1,1,1,1,1,1,1,1
1,1,1,1,1,1,1,1,1,1,1,1,1
1,1,1,1,1,1,1,1,1,1,1,1,1
1,1,1,1,1,1,1,1,1,1,1,1,1
1,1,1,1,1,1,1,1,1,1,1,1,1
1,1,1,1,1,1,1,1,1,1,1,1,1
1,1,1,1,1,1,1,1,1,1,1,1,1
1,1,1,1,1,1,1,1,1,1,1,1,1
1,1,1,1,1,1,1,1,1,1,1,1,1
1,1,1,1,1,1,1,1,1,1,1,1,1
1,1,1,1,1,1,1,1,1,1,1,1,1
1,1,1,1,1,1,1,1,1,1,1,1,1
1,1,1,1,1,1,1,1,1,1,1,1,1
1,1,1,1,1,1,1,1,1,1,1,1,1
1,1,1,1,1,1,1,1,1,1,1,1,1
1,1,1,1,1,1,1,1,1,1,1,1,1
1,1,1,1,1,1,1,1,1,1,1,1,1
1,1,1,1,1,1,1,1,1,1,1,1,1
1,1,1,1,1,1,1,1,1,1,1,1,1
1,1,1,1,1,1,1,1,1,1,1,1,1
1,1,1,1,1,1,1,1,1,1,1,1,1
1,1,1,1,1,1,1,1,1,1,1,1,1
1,1,1,1,1,1,1,1,1,1,1,1,1
1,1,1,1,1,1,1,1,1,1,1,1,1
1,1,1,1,1,1,1,1,1,1,1,1,1
1,1,1,1,1,1,1,1,1,1,1,1,1
1,1,1,1,1,1,1,1,1,1,1,1,1
1,1,1,1,1,1,1,1,1,1,1,1,1
1,1,1,1,1,1,1,1,1,1,1,1,1
1,1,1,1,1,1,1,1,1,1,1,1,1
1,1,1,1,1,1,1,1,1,1,1,1,1
1,1,1,1,1,1,1,1,1,1,1,1,1
1,1,1,1,1,1,1,1,1,1,1,1,1
1,1,1,1,1,1,1,1,1,1,1,1,1
1,1,1,1,1,1,1,1,1,1,1,1,1
1,1,1,1,1,1,1,1,1,1,1,1,1
1,1,1,1,1,1,1,1,1,1,1,1,1
1,1,1,1,1,1,1,1,1,1,1,1,1
1,1,1,1,1,1,1,1,1,1,1,1,1
1,1,1,1,1,1,1,1,1,1,1,1,1
1,1,1,1,1,1,1,1,1,1,1,1,1
1,1,1,1,1,1,1,1,1,1,1,1,1
1,1,1,1,1,1,1,1,1,1,1,1,1
1,1,1,1,1,1,1,1,1,1,1,1,1
1,1,1,1,1,1,1,1,1,1,1,1,1
1,1,1,1,1,1,1,1,1,1,1,1,1
1,1,1,1,1,1,1,1,1,1,1,1,1
1,1,1,1,1,1,1,1,1,1,1,1,1
1,1,1,1,1,1,1,1,1,1,1,1,1
1,1,1,1,1,1,1,1,1,1,1,1,1
1,1,1,1,1,1,1,1,1,1,1,1,1
1,1,1,1,1,1,1,1,1,1,1,1,1
1,1,1,1,1,1,1,1,1,1,1,1,1
1,1,1,1,1,1,1,1,1,1,1,1,1
1,1,1,1,1,1,1,1,1,1,1,1,1
1,1,1,1,1,1,1,1,1,1,1,1,1
1,1,1,1,1,1,1,1,1,1,1,1,1
1,1,1,1,1,1,1,1,1,1,1,1,1
1,1,1,1,1,1,1,1,1,1,1,1,1
1,1,1,1,1,1,1,1,1,1,1,1,1
1,1,1,1,1,1,1,1,1,1,1,1,1
1,1,1,1,1,1,1,1,1,1,1,1,1
1,1,1,1,1,1,1,1,1,1,1,1,1
1,1,1,1,1,1,1,1,1,1,1,1,1
1,1,1,1,1,1,1,1,1,1,1,1,1
1,1,1,1,1,1,1,1,1,1,1,1,1
1,1,1,1,1,1,1,1,1,1,1,1,1
1,1,1,1,1,1,1,1,1,1,1,1,1
1,1,1,1,1,1,1,1,1,1,1,1,1
1,1,1,1,1,1,1,1,1,1,1,1,1
1,1,1,1,1,1,1,1,1,1,1,1,1
1,1,1,1,1,1,1,1,1,1,1,1,1
1,1,1,1,1,1,1,1,1,1,1,1,1
1,1,1,1,1,1,1,1,1,1,1,1,1
1,1,1,1,1,1,1,1,1,1,1,1,1
1,1,1,1,1,1,1,1,1,1,1,1,1
1,1,1,1,1,1,1,1,1,1,1,1,1
1,1,1,1,1,1,1,1,1,1,1,1,1
1,1,1,1,1,1,1,1,1,1,1,1,1
1,1,1,1,1,1,1,1,1,1,1,1,1
1,1,1,1,1,1,1,1,1,1,1,1,1
1,1,1,1,1,1,1,1,1,1,1,1,1
1,1,1,1,1,1,1,1,1,1,1,1,1
1,1,1,1,1,1,1,1,1,1,1,1,1
1,1,1,1,1,1,1,1,1,1,1,1,1
1,1,1,1,1,1,1,1,1,1,1,1,1
1,1,1,1,1,1,1,1,1,1,1,1,1
1,1,1,1,1,1,1,1,1,1,1,1,1
1,1,1,1,1,1,1,1,1,1,1,1,1
1,1,1,1,1,1,1,1,1,1,1,1,1
1,1,1,1,1,1,1,1,1,1,1,1,1
1,1,1,1,1,1,1,1,1,1,1,1,1
1,1,1,1,1,1,1,1,1,1,1,1,1
1,1,1,1,1,1,1,1,1,1,1,1,1
1,1,1,1,1,1,1,1,1,1,1,1,1
1,1,1,1,1,1,1,1,1,1,1,1,1
1,1,1,1,1,1,1,1,1,1,1,1,1
1,1,1,1,1,1,1,1,1,1,1,1,1
1,1,1,1,1,1,1,1,1,1,1,1,1
1,1,1,1,1,1,1,1,1,1,1,1,1
1,1,1,1,1,1,1,1,1,1,1,1,1
1,1,1,1,1,1,1,1,1,1,1,1,1
1,1,1,1,1,1,1,1,1,1,1,1,1
1,1,1,1,1,1,1,1,1,1,1,1,1
1,1,1,1,1,1,1,1,1,1,1,1,1
1,1,1,1,1,1,1,1,1,1,1,1,1
1,1,1,1,1,1,1,1,1,1,1,1,1
1,1,1,1,1,1,1,1,1,1,1,1,1
1,1,1,1,1,1,1,1,1,1,1,1,1
1,1,1,1,1,1,1,1,1,1,1,1,1
1,1,1,1,1,1,1,1,1,1,1,1,1
1,1,1,1,1,1,1,1,1,1,1,1,1
1,1,1,1,1,1,1,1,1,1,1,1,1
1,1,1,1,1,1,1,1,1,1,1,1,1
1,1,1,1,1,1,1,1,1,1,1,1,1
1,1,1,1,1,1,1,1,1,1,1,1,1
1,1,1,1,1,1,1,1,1,1,1,1,1
1,1,1,1,1,1,1,1,1,1,1,1,1
1,1,1,1,1,1,1,1,1,1,1,1,1
1,1,1,1,1,1,1,1,1,1,1,1,1
1,1,1,1,1,1,1,1,1,1,1,1,1
1,1,1,1,1,1,1,1,1,1,1,1,1
1,1,1,1,1,1,1,1,1,1,1,1,1
1,1,1,1,1,1,1,1,1,1,1,1,1
1,1,1,1,1,1,1,1,1,1,1,1,1
1,1,1,1,1,1,1,1,1,1,1,1,1
1,1,1,1,1,1,1,1,1,1,1,1,1
1,1,1,1,1,1,1,1,1,1,1,1,1
1,0.939354901405304,0.944349458803139,0.96056557570675,0.928352093116905,0.951652700919904,0.960508117822467,0.949669396323792,0.94205097355341,0.959943691201675,0.940031770029882,0.947820848667372,1
1,0.943496065522912,0.938750897776106,0.952478720338943,0.957164357421293,0.952567886291906,0.96707363796442,0.946605965232054,0.941643260876135,0.947829092584573,0.960175738199896,0.96536727181377,1
0.999999999999999,0.963928568869881,0.937826257135059,0.949100645175318,0.949430771913634,0.946466662210584,0.96129792360707,0.956431698281453,0.958398485785438,0.942563292345377,0.945324983141163,0.939756275851494,0.999999999999999
0.999999999999999,0.954132412341195,0.93222187553472,0.944006368931336,0.955454568903263,0.946485508648329,0.954380758428072,0.947748937940803,0.942082642585725,0.949886098845507,0.956780004642282,0.955020648816461,0.999999999999999
1,0.960112570584636,0.946634839196659,0.965560077478496,0.95808560060734,0.952216124357452,0.969802178297931,0.958127014768937,0.950127115730486,0.960407259597051,0.961019790854551,0.963511924549713,1
0.999999999999999,0.978218139111307,0.960805233568868,0.959080042111155,0.961534363713899,0.962660818866264,0.963145799088346,0.963617672172608,0.964327651115364,0.96336388327139,0.958702818796245,0.979555741506106,0.999999999999999
1,0.933909346602179,0.907871473696639,0.917996727240383,0.908076754414064,0.9154581650779,0.927700379363416,0.915348440226832,0.91905728519211,0.908902393047186,0.925752324265801,0.944427637447936,1
0.999999999999999,0.941457175300953,0.9393056173571,0.976860870408988,0.939535571587941,0.931167975311895,0.971293888262684,0.937786707723777,0.937005501031823,0.966536984723054,0.927472424157413,0.937302775417422,0.999999999999999
1,0.981532252014636,0.967565928395025,0.961474394973796,0.960934745432402,0.960475123537853,0.968837518057738,0.968362147833714,0.970412366785609,0.964740034729901,0.965442051130857,0.981216919438305,1
1,0.964551060337479,0.952512171641161,0.956715975048239,0.956834182688204,0.960950375564644,0.972588460278079,0.957962274105724,0.947685579574467,0.957011215919841,0.951296898833327,0.96602499114291,1
0.999999999999997,0.92829779787383,0.891476960965776,0.915287123636009,0.914396548299144,0.940702014869161,0.969883841514535,0.928606677307295,0.901738227537671,0.917078810618835,0.88889787376365,0.933329448828813,0.999999999999997
1,0.934051480259939,0.927923110913103,0.926629289069966,0.941122974401437,0.956001752410208,0.961064652916048,0.956192756489874,0.909356286591591,0.94455412231171,0.957187201255558,0.962786597829077,1
1,0.965561297481041,0.953173897670647,0.959829643623374,0.949727417388834,0.943816577493533,0.949185473351951,0.94451234325633,0.949071721994516,0.959829643623374,0.950992995153481,0.965189615832014,1
1,0.982994774429807,0.960189872595988,0.943603972144397,0.939740027816943,0.941287013539333,0.942444939609062,0.940734239251052,0.939409057800773,0.943603972144397,0.959536593229763,0.981824717820018,1
1,0.93715746360088,0.939146152800659,0.926375089528977,0.945374341579092,0.933485580366904,0.932611194976883,0.938154840655622,0.9272168252848,0.940295881541031,0.936525188669792,0.946079088748656,1
1,0.92643563342937,0.907023205274274,0.898005321681648,0.902464046238746,0.927092217488036,0.941885792450761,0.897871770361226,0.909257622470407,0.906548123129407,0.905556853818124,0.91278453816324,1
1,0.956376668601544,0.954258246575108,0.960681581456941,0.948899695064774,0.954375419656635,0.961768099802528,0.950574766649625,0.954424489130285,0.96489518881799,0.954522412708609,0.95456906290117,1
1,0.98077244685564,0.967084118162798,0.973004796440574,0.966986428375548,0.964475845735822,0.983984730563361,0.968500717245292,0.961529688647852,0.964713758460448,0.960973397975409,0.976459256342027,1
0.999999999999999,0.939238142626691,0.893490901625561,0.918569846289295,0.888554815408421,0.930923808153531,0.969883841514535,0.934738371439737,0.873892164110342,0.927711443468488,0.921034605163323,0.926261869290327,0.999999999999999
1,0.975212610221446,0.965844950089453,0.960812615386361,0.957254191594232,0.955674219643994,0.963977750414548,0.955285568152949,0.951819483573119,0.954675858105795,0.959007823803096,0.970438996484398,1
1,0.963006103494285,0.95756423044089,0.965802122896425,0.953068120829691,0.972706800041906,0.973472439889629,0.952517533075964,0.96367422207383,0.964482617870422,0.948890116137926,0.974007657297959,1
1,0.93858737647893,0.960379580453647,0.929575242699624,0.913389643344605,0.952353857987024,0.942648389974697,0.916566352014664,0.936016336253894,0.923450328553535,0.925989320978591,0.948265883932257,1
1,0.97588042505838,0.948965231971696,0.941310711663073,0.947751618797565,0.943408553774917,0.947934776782336,0.951451273311671,0.955893705964354,0.951357790698241,0.950228809595466,0.977025806895639,1
1,0.955716592866414,0.942837578678984,0.954229873745516,0.944283695371602,0.961088426089439,0.954338988853331,0.958292562425717,0.950538525152275,0.963803556890255,0.958025642835278,0.960330117870755,1
0.999999999999999,0.957917611215357,0.944030532843395,0.958471720696231,0.960396715834056,0.958445452999482,0.967446247772089,0.960518029336985,0.948141398871206,0.962174724424865,0.957228052336025,0.961688636149264,0.999999999999999
1,0.955208354724957,0.927647151406104,0.932277224597636,0.935222184735354,0.945896851751065,0.990112271216,0.948921420331882,0.932007995787532,0.923356211964197,0.931484621599387,0.951828348710662,1
1,0.950594765493454,0.950422320995192,0.95175721559961,0.944944327578338,0.950584744535484,0.940740667390606,0.945194691062446,0.944214425860836,0.939164446606826,0.934001982767822,0.943241420216083,1
1,0.942625298358541,0.921932740277948,0.932441660564925,0.924588924262647,0.917172006254694,0.947288279673016,0.937760594030445,0.929744038681723,0.944928410264352,0.948312800426109,0.950762137094575,1
1,0.959830976209488,0.938407525202857,0.948231648854974,0.956322484392262,0.939295088315124,0.948080075945161,0.948306562959215,0.953792990420537,0.950370075074578,0.939681492142895,0.965789973902007,1
1,0.968197379157255,0.95401098799623,0.973457932779483,0.975181660029085,0.955143506489451,0.967997770743624,0.963436003108951,0.958345449023502,0.965784583182142,0.967889638669281,0.968621065314828,1
1,0.95581177438097,0.92732793017875,0.958295444219863,0.945554185980182,0.934787713235188,0.947381886800056,0.931685880258881,0.922473399495865,0.924836388633222,0.94401308418635,0.951476037621352,1
0.999999999999999,0.950691158286166,0.937768512897023,0.948299657171312,0.956171823924171,0.936721470148636,0.964461508329422,0.965999900599345,0.936955773549333,0.958454641985895,0.942941461727384,0.934357824173701,0.999999999999999
0.999999999999999,0.966834391688362,0.957869917412535,0.971169099138702,0.969963827870123,0.954986823011957,0.972271845068994,0.958889353840169,0.970987324316789,0.971169099138702,0.954290031792238,0.969324140530779,0.999999999999999
0.999999999999997,0.973388092123497,0.959296850171503,0.960906401078231,0.957361190509493,0.961187852578114,0.967571261502946,0.965228689926219,0.966122593543615,0.963056008924421,0.949185152212717,0.969706613066471,0.999999999999997
0.999999999999999,0.984320483871226,0.965682449575955,0.965784583182142,0.962142823035536,0.96836353507954,0.985250478682168,0.977369904308058,0.970065464379248,0.973457932779484,0.964554962904757,0.977989953540435,0.999999999999999
0.999999999999998,0.933302657086373,0.942386434135488,0.938868480373825,0.93617283111386,0.946863607169647,0.949358175326759,0.943218215735593,0.945661016234282,0.937169309130169,0.939500669063739,0.949396644480516,0.999999999999998
1,0.97669912369335,0.92506942866809,0.963355453483063,0.935371369291187,0.960941434393528,0.96106465291605,0.936023677157419,0.93458925370805,0.959635209204887,0.930692008804913,0.954370118718842,1
1,0.94716741792921,0.956855354791464,0.942636113439202,0.924117537166588,0.901990476673097,0.943826511996108,0.931330719189901,0.95384190924325,0.929751725203631,0.940364228358637,0.921173129923846,1
0.999999999999998,0.946225449886729,0.92505281278145,0.95087137844647,0.930162321482478,0.924329619750577,0.945289541214616,0.952456042251705,0.930315381119333,0.945680221334995,0.925850611032813,0.936269750879913,0.999999999999998
1,0.929946347582134,0.92931068463513,0.941715212394656,0.92080385198136,0.92458274572513,0.942357369035393,0.934583818054804,0.937681628004131,0.935075116770259,0.914204001685966,0.929018438582278,1
1,0.992334975483371,0.988032415945244,0.990754977231299,0.989807295235748,0.989104056678602,0.991308586354267,0.98526783921616,0.983454641341478,0.990754977231298,0.993957752656849,0.995694721635314,1
0.999999999999999,0.974572754774649,0.962492331435836,0.962174724424864,0.959309682662747,0.960460303121924,0.970488624635202,0.966564188684616,0.9600274066863,0.961948398365048,0.954356957029427,0.97103987064479,0.999999999999999
1,0.952476070433426,0.948983223247148,0.946875424946753,0.957786117888589,0.94836502598859,0.962203835041008,0.949340777628358,0.947699572726088,0.954894943469979,0.959348411698729,0.95247087614111,1
0.999999999999999,0.924444051706698,0.924159056322419,0.887844257420775,0.91717917512336,0.912358174084254,0.938766946462097,0.891853461329847,0.90615831908148,0.905684224401634,0.898474109990345,0.903443595903791,0.999999999999999
1,0.9538055958475,0.95216999814453,0.956135113308688,0.966807916717744,0.951214761596461,0.978233440491491,0.952702065504469,0.951760618262589,0.967517148854738,0.960985052487178,0.952324559591197,1
1,0.97080185405545,0.958722210964457,0.965008641750879,0.96065285199913,0.956166344805375,0.982431879001314,0.971394875002571,0.960827768461787,0.964862281015458,0.966206667463318,0.961954429719926,1
1,0.960768660494343,0.943230057867659,0.952207977632883,0.960196246392199,0.944438952533646,0.971497523644369,0.952865804404437,0.948248672940266,0.948299657171311,0.947395985192724,0.954932413821079,1
0.999999999999999,0.93725848395723,0.924911375366192,0.946729598553819,0.95270109066137,0.960945879411355,0.957360567034691,0.963125666301832,0.940600890930089,0.937340962734842,0.939425373609244,0.962155608757877,0.999999999999999
1,0.970697943865361,0.971224570394239,0.967517148854737,0.958329890547419,0.954826682390849,0.970400945666175,0.95702895390799,0.967780359860664,0.970347509683012,0.958769376565916,0.95749053758728,1
0.999999999999999,0.962778029110815,0.945218499038592,0.958454641985895,0.935240894484814,0.944564974844379,0.957500731645545,0.96107560450614,0.947087636782841,0.938849709556703,0.955561725222104,0.943957713178804,0.999999999999999
1,0.946232456389165,0.943128262742122,0.96816557110947,0.947152446309662,0.958554962949886,0.960225858690983,0.974216364979589,0.954678808549006,0.945816944716019,0.945332038675306,0.967826704091338,1
1,0.978262991909979,0.935216793218352,0.943382591477718,0.932740716831937,0.947720633995979,0.957500731645545,0.967582500374598,0.924212530528825,0.941711690936262,0.931189904099632,0.967539040830319,1
1,0.952055875978777,0.94641325942836,0.947369600849419,0.937719672079646,0.947489687716537,0.941494504768158,0.94949019035461,0.9485786761339,0.945361383006537,0.950092721875333,0.944760274802155,1
1,0.940045930373926,0.964480220685062,0.954963807825416,0.954164028220401,0.953588046920095,0.948148915515472,0.935383925431857,0.948119471761697,0.932351003013071,0.951211902706963,0.973857551843036,1
1,0.915393006398609,0.91965825172293,0.929334593458984,0.913958859652049,0.923657706147694,0.924769064317395,0.920801794904726,0.920911941714869,0.932441660564925,0.928777032868298,0.911525010794024,1
1,0.934137004142261,0.948588639883914,0.953871840780087,0.934127432341463,0.928301125147773,0.960820116535268,0.945926136099872,0.95367297465748,0.949853585976438,0.947632217843146,0.912635952603275,1
1,0.929708759419639,0.9334824651927,0.942706800846059,0.921722636064726,0.934483618896024,0.928421051031064,0.928001590121102,0.914863392812256,0.948231648854973,0.926982587150399,0.932034168243911,1
1,0.967745917658246,0.949882746586503,0.943069647640582,0.931855944843406,0.913260859843699,0.965558234508277,0.959891419256086,0.956945828913146,0.92206050046223,0.913167858926383,0.922029750056899,1
0.999999999999999,0.843074188465112,0.809253717629761,0.827311331718423,0.826044025525733,0.812939966738734,0.818904906358009,0.819772464246439,0.80728941899995,0.81124003536483,0.835897195827693,0.83972765894208,0.999999999999999
1,0.966836772573805,0.957395149252237,0.963766913242669,0.951952073094936,0.945314180647959,0.973568565827135,0.950611466280603,0.956406028624245,0.967825034704181,0.955203606300406,0.96398078159847,1
1,0.934745383766835,0.925618895793308,0.940222380613503,0.950077255184259,0.956814023482075,0.946653022696868,0.93240213453845,0.942721108956575,0.916800395191218,0.945906656378726,0.934666570840772,1
0.999999999999999,0.960456500939843,0.955308373544049,0.956313358038327,0.948553644192027,0.974935697100314,0.970715807062613,0.962436840213388,0.957098191641546,0.955107843467254,0.958010992005546,0.95771304331919,0.999999999999999
1,0.975343277462603,0.93857218925043,0.952729759617287,0.950649590217261,0.933104800952145,0.941696835153638,0.94407663931569,0.945383392432208,0.940880516695193,0.943535104800751,0.97061326726922,1
1,0.969361499502086,0.96188144045996,0.964482617870421,0.967607164262165,0.957200519985696,0.963244921535053,0.949404839937771,0.959333585741046,0.96500864175088,0.950344999920147,0.970653703023675,1
1,0.947108720427527,0.940904603311206,0.946628564454733,0.93420888463639,0.951286145155436,0.942709355702078,0.924071705758319,0.924302179769523,0.93452631602745,0.929613897556085,0.959167235517822,1
1,0.958572185103628,0.960080842213986,0.93482895694537,0.945736381900596,0.945859372832262,0.953338143998897,0.95667598317976,0.963299524487856,0.935255754554404,0.952689814738586,0.936703900746387,1
1,0.950497884690512,0.955105650767415,0.959425594696413,0.932246555168023,0.953769751756329,0.959549940378392,0.9386977695843,0.950252175457913,0.948734395882878,0.92501882672983,0.948147961820465,1
1,0.954888004191828,0.937227663613442,0.931210823192984,0.929522240734468,0.945881958278307,0.931570254159392,0.925809542138773,0.939111805779119,0.922734300747712,0.936489052489348,0.946519589089975,1
1,0.973217815789577,0.952516590138848,0.950318768924596,0.951199333186541,0.944935061926226,0.961495131256464,0.949630085808013,0.954207063304552,0.956392063128284,0.956301844690268,0.973009285285921,1
1,0.976250626794911,0.955083448385322,0.954733607684635,0.951162908775896,0.956696145169036,0.96435281430358,0.963208942965938,0.957195507669622,0.960596412312863,0.964073248066216,0.976149255635789,1
1,0.953975889621609,0.956577577179089,0.94401947270019,0.948144292757856,0.950870267340833,0.952804494215568,0.950570719489273,0.958242276009454,0.943573744645794,0.955683482102978,0.974418093272549,1
1,0.947673825865294,0.945089324557073,0.951528647976313,0.927308905834738,0.946203854709564,0.958515840168802,0.937358141022864,0.955698053144797,0.964162914704136,0.961321443197343,0.956476390478209,1
1,0.948894048082491,0.930425854194606,0.936858289690249,0.934481732910333,0.930131006391828,0.934705135686227,0.935765482769063,0.93306106242291,0.924111280039123,0.942439752382969,0.949261833338529,1
1,0.926843504952298,0.946201639843385,0.937057223665944,0.93557241907592,0.913977264271746,0.943426845573834,0.925188116429069,0.94056150693893,0.932150871085018,0.927183327914034,0.923075443845203,1
1,0.940703046779824,0.941735656599817,0.940971443620734,0.959260103630869,0.94119367582208,0.937545086490279,0.94227322849961,0.9463650540798,0.938019620408509,0.946161481296199,0.954192767078776,1
1,0.960194297261564,0.961096965789931,0.973926863630752,0.95696960659818,0.948515264611757,0.980596994720889,0.948169635099358,0.954147159943633,0.966693379956084,0.9556204126131,0.95571910482838,1
1,0.962914595621494,0.954650087438782,0.962526698478357,0.95101356702432,0.949657510613401,0.968038586080473,0.949696413173649,0.957169400495861,0.967941484634614,0.953758524185107,0.965316366385773,1
1,0.943051944037248,0.939005822700178,0.966536984723054,0.946054401334148,0.942610340351824,0.97535007810916,0.941886164312905,0.937878952353703,0.976860870408987,0.957500349975955,0.942745762042791,1
1,0.952351954228008,0.946147136157612,0.966665325355354,0.939293591611073,0.950740908736654,0.967311803463211,0.953838966670024,0.946517496062454,0.964888730211388,0.941064863082255,0.947418529543686,1
1,0.983155214546799,0.964298392778679,0.957105568074505,0.951088602514987,0.947623805024765,0.954504270901167,0.952664575716293,0.950219454725331,0.957105568074504,0.964929603321703,0.98038548580213,1
0.999999999999999,0.960769279986486,0.944442191055426,0.943423556300682,0.941043663201286,0.967644824001032,0.941165616186644,0.951929250776032,0.945432597208404,0.943141602087334,0.962271685450579,0.954544644069865,0.999999999999999
1,0.94498154992891,0.957672457741794,0.955706247306926,0.948262144693964,0.948374641764737,0.953438901653542,0.93760404657023,0.951924259630668,0.959425594696413,0.954985165939823,0.943156568136554,1
1,0.958102060475847,0.9566472102771,0.950872532604675,0.958900960426838,0.943284098569718,0.948148915515473,0.958551323989548,0.944472713546873,0.938283801745922,0.957887198994334,0.941759604965761,1
0.999999999999999,0.962466181101377,0.945084569199359,0.953848115475713,0.946460676559164,0.944086923974273,0.961495131256465,0.944434576938818,0.944741213570154,0.950924986014346,0.954160523695211,0.965772269579773,0.999999999999999
1,0.956826590341582,0.96097769613745,0.956189566307679,0.942384658830279,0.961891279164389,0.967648915157863,0.952887746197307,0.955863423936096,0.973926863630752,0.954561333262539,0.972022764423745,1
1,0.952791733935427,0.939010533046613,0.937582946814113,0.941515827099239,0.957462675163828,0.971497523644369,0.954195524668549,0.943186069905805,0.949007993624632,0.959206435270516,0.948618105170746,1
1,0.932496526550298,0.936186771623808,0.936423854708889,0.922535066380742,0.932801858296672,0.978855775259561,0.931600501949092,0.934273952148049,0.926163983691536,0.934285681132028,0.924487193016948,1
0.999999999999999,0.948220931379145,0.932347489456358,0.931186083606882,0.92496696701017,0.943958983201079,0.935225883562354,0.924712414215948,0.934561327960231,0.937059937283581,0.95286021481976,0.953758002650929,0.999999999999999
1,0.96671763741189,0.933681555540842,0.934526567663865,0.962754330309943,0.949855899364147,0.959028120216531,0.951371843047609,0.943938760940441,0.935791766909629,0.945992852061466,0.949240027330626,1
1,0.949142209615984,0.931729668700341,0.937684343965613,0.948954846276607,0.954634771582851,0.934871120032263,0.925537110869918,0.955508073658653,0.942696552074066,0.939298592562467,0.949572155382442,1
0.999999999999997,0.952660837060692,0.939452887309036,0.931140608215371,0.946063817038118,0.947291803878724,0.93100400238074,0.943911456235279,0.942153790006957,0.939911183856678,0.938830774439975,0.954254009897079,0.999999999999997
0.999999999999999,0.950806496819182,0.949730020898417,0.959635209204887,0.935385969453271,0.936718929759415,0.984572325784157,0.945186037394874,0.948230989704088,0.951101107925632,0.922037240485057,0.937929681211076,0.999999999999999
1,0.983282962600983,0.958410946508256,0.95207556378733,0.966118325600579,0.963759734315171,0.959830916055433,0.960030872936469,0.958734458472261,0.949011748487234,0.956720211614037,0.98241424924421,1
0.999999999999998,0.955679769977107,0.933592304926779,0.945476791973439,0.940896643299585,0.944297602071139,0.936219159148289,0.922018948425626,0.92934139502303,0.929288035788644,0.929266444147041,0.952951262689916,0.999999999999998
1,0.987521204302935,0.96637198863256,0.970347509683012,0.969599473330652,0.981766360708851,0.987996853720277,0.979607316276327,0.96329031899175,0.962305498412955,0.973400046230307,0.990352251727884,1
1,0.94446623170563,0.927781312474797,0.933086773049534,0.935952049863864,0.941079580764511,0.932611945246512,0.929538318814189,0.932289223382777,0.930221421345735,0.929119230592203,0.948398450027173,1
1,0.922849112120134,0.927149344406517,0.933101723324527,0.941087179948481,0.965548064329687,0.983606179772509,0.927249826444312,0.939766725719035,0.913594102668028,0.953235055297627,0.974815367381265,1
0.999999999999997,0.960182953090513,0.963711805025404,0.95264844266785,0.948839291000062,0.948062758936494,0.952804494215568,0.957417087247388,0.945946502342215,0.951881744252144,0.949052006743962,0.952181717929257,0.999999999999997
1,0.962777844392532,0.915520316503165,0.920874729827868,0.920061607221083,0.927489543573025,0.930397956444668,0.929664832955364,0.928561285072187,0.930421455026055,0.93275312241847,0.962714024884969,1
1,0.965570193871829,0.957023858719671,0.967825034704181,0.95248848961714,0.961765074774528,0.972274326087952,0.960602110505833,0.968412133192683,0.967346351808378,0.955444210050881,0.96624667678884,1
1,0.945694570262687,0.944647322128282,0.945015749810622,0.944677395391884,0.945283044349117,0.964359381690604,0.943602040278688,0.942774321363395,0.955706247306927,0.944275475646215,0.948453404051861,1
0.999999999999999,0.976720846281562,0.967079852241167,0.967941484634614,0.966757674723269,0.969774142466579,0.968837518057737,0.962116181308606,0.958491915498235,0.962526698478358,0.965604765014772,0.978431165844656,0.999999999999999
0.999999999999998,0.924966533074739,0.941360271900948,0.931636388805185,0.957718598138778,0.966918630571252,0.946486005393628,0.928940891115544,0.948594344703623,0.943069647640582,0.942169083147404,0.940276647605661,0.999999999999998
1,0.933869938567234,0.963116062539325,0.959943691201675,0.937449891956914,0.96295747118656,0.949509195082869,0.926134084150787,0.960938962908003,0.953893747057322,0.938163464786462,0.954404930417212,1
1,0.97031447315112,0.962361751348468,0.949886098845507,0.952696192782815,0.961571793433991,0.951432076441913,0.962790809076981,0.952442657528665,0.95943000608818,0.953349948912349,0.968124654525893,1
1,0.959621161607724,0.953755516310795,0.954011351456001,0.971389538096567,0.9643391405867,0.955300721972507,0.95971359505778,0.944371183184092,0.952405839187968,0.962899811296831,0.958548144270799,1
1,0.946948652026028,0.955564155452599,0.939565429432103,0.937263196570781,0.937971547847988,0.944234157620445,0.949163768961326,0.944502064536943,0.935253013153791,0.952193318731191,0.951221170344193,1
0.999999999999997,0.962583120205155,0.943548489648166,0.959430006088179,0.953371523693586,0.957191102176492,0.962203835041008,0.943905560885044,0.950205624812002,0.95264844266785,0.955725192865349,0.955099206314514,0.999999999999997
1,0.966902594710327,0.953499646494969,0.967018855859856,0.960860001504633,0.954253393581649,0.972271845068993,0.953673414216455,0.958706413438623,0.967018855859856,0.960532495334859,0.967640142651616,1
1,0.954399136421655,0.951130205935835,0.945879248087298,0.958315159185343,0.943325282351582,0.951007029828414,0.959207318415657,0.950775005010547,0.948242473514525,0.947815098334655,0.946558446172959,1
1,0.937266654339716,0.957568117834717,0.943531233858062,0.933199417499637,0.924914537676597,0.960820116535268,0.933362053026655,0.951301909037881,0.963355453483064,0.965150003396539,0.933007927861096,1
0.999999999999997,0.929100147773862,0.933139599463298,0.927799973941155,0.929199486555818,0.951379094637878,0.941885792450761,0.937666336113588,0.919042077101693,0.927673216500712,0.938312756681399,0.95390174860722,0.999999999999997
1,0.955497750652121,0.96293736832984,0.957299847080039,0.948877293006284,0.943232734593477,0.936620529410186,0.944636316623425,0.949741356553189,0.958295444219863,0.95198594021806,0.958666390125084,1
1,0.945475478814887,0.907724207298868,0.952127237852985,0.936447966701184,0.942663053799337,0.955537644901949,0.951438272812837,0.92735241411027,0.953871840780087,0.92610254756696,0.93948950805076,1
1,0.968857817288361,0.953709339449101,0.942697143380451,0.949257964070719,0.949561714235784,0.942765805442309,0.943493631677768,0.947209150510271,0.945236556243393,0.953097207815083,0.9664098488224,1
0.999999999999999,0.943648973157221,0.937411164710799,0.943786047825128,0.93869822826147,0.964116816700837,0.95821852693884,0.945784650518393,0.937707518035122,0.950150800704894,0.954114510678984,0.947652974341418,0.999999999999999
1,0.938749247608415,0.92975579970069,0.958289995365466,0.943642053731202,0.944127766471648,0.946486005393628,0.949900006615243,0.951655286859216,0.952756907111246,0.94716485115681,0.940431313557277,1
1,0.942239950288327,0.940261424794077,0.955463215652911,0.933040391698643,0.951689085337166,0.951029092092075,0.964630532309329,0.945671538451605,0.947594868520209,0.938083910777625,0.942075276649508,1
1,0.970866506797138,0.948781288234516,0.962547682457126,0.962402926354527,0.958074158649626,0.957323745714185,0.966888947150169,0.964894073978188,0.960617934130403,0.953706188269564,0.973203030136472,1
1,0.942719276218486,0.924413548024321,0.926843137002179,0.929373340151335,0.940550394275717,0.942424854451938,0.942698872853166,0.939814498333631,0.954963807825416,0.927404524052322,0.943056452972972,1
1,0.949542208927617,0.94330891878601,0.94608115832924,0.955489699928118,0.946394318497622,0.942051742465599,0.955828762495527,0.960108660266448,0.941968701193592,0.954921426427718,0.946755030750786,1
0.999999999999999,0.965527809878069,0.951048310748131,0.953002392366402,0.964982683945323,0.951726003141135,0.967808408658838,0.962619446659719,0.958787022374089,0.961553317429824,0.969836398963628,0.9655426431558,0.999999999999999
1,0.925471567667629,0.916629609565103,0.933848527861795,0.924383533698786,0.920591457938621,0.93933868233663,0.91284608766079,0.913209323295881,0.936607138106744,0.934892333752989,0.936622719815956,1
1,0.946364741576388,0.938016423553899,0.960399743586546,0.952136295828795,0.948486859078727,0.966752645080261,0.941109598472907,0.93263974206096,0.960399743586546,0.943007197077036,0.948604441433954,1
1,0.961282209567007,0.946942399762316,0.959808717188793,0.949603355084426,0.954892247038121,0.956690261752892,0.943577312595743,0.952441096590059,0.95178687164209,0.947561872255975,0.961881446582002,1
1,0.935791452888815,0.948084037153944,0.938727418660496,0.92724891664267,0.921375318659148,0.934596457999252,0.943994703957474,0.945222453179698,0.93348188574608,0.93319649784178,0.928883044780428,1
1,0.972186441765005,0.950418448076342,0.963175891920228,0.967160371610518,0.954716528290287,0.959830916055432,0.962314231599714,0.968416643749562,0.963175891920228,0.950547660843869,0.974817203382829,1
1,0.937569569561443,0.956303960605649,0.954894943469979,0.954578417364878,0.967534642879031,0.952525385359651,0.945781422050687,0.952862640309273,0.96816557110947,0.937173494482389,0.928606691956434,1
0.999999999999999,0.936602795293133,0.933113563062662,0.936149179317221,0.940743723929458,0.952020915372564,0.937380212569842,0.91320980096084,0.940959380498865,0.95005770313278,0.937974340021041,0.947132013762829,0.999999999999999
0.999999999999997,0.92638546218542,0.874490001109267,0.94525217399208,0.944188626479427,0.93152976280012,0.924548835682947,0.904957330745171,0.905356390581545,0.942636113439202,0.93213544610809,0.923726732488964,0.999999999999997
1,0,0,0,0,0,1,0,0,0,0,0,1
1,0,0,0,0,0,0,0,0,0,0,0,1
1,1,0,0,0,0,0,0,0,0,1,1,1
1,0,0,0,0,0,0,0,0,0,0,0,1
1,1,0,0,0,0,1,0,0,0,0,1,1
1,0,0,0,0,0,1,0,0,0,0,0,1
1,1,0,0,0,0,0,0,0,0,0,1,1
1,0,0,0,0,0,0,0,0,0,0,0,1
1,1,0,0,0,0,1,0,0,0,0,1,1
1,0,0,0,0,0,0,0,0,0,0,0,1
1,0,0,0,0,0,1,0,0,0,0,0,1
1,0,0,0,0,0,0,0,0,0,0,0,1
1,0,0,0,0,0,0,0,0,0,0,1,1
1,1,0,0,0,0,0,0,0,0,0,1,1
1,0,0,0,0,0,0,0,0,0,0,0,1
1,1,0,0,0,0,0,0,0,0,0,1,1
1,0,0,0,0,0,0,0,0,0,0,0,1
1,0,0,0,0,0,0,0,0,0,0,0,1
1,0,0,0,0,0,0,0,0,0,0,0,1
1,1,0,0,0,0,0,0,0,0,0,1,1
1,0,0,0,0,0,1,0,0,0,0,0,1
1,0,0,0,0,0,0,0,0,0,0,0,1
1,1,0,0,0,0,1,0,0,0,0,1,1
1,0,0,0,0,0,0,0,0,0,0,0,1
1,1,0,0,0,0,0,0,0,0,0,1,1
1,1,1,0,0,1,1,1,1,0,0,1,1
1,1,0,0,0,0,0,0,0,0,0,1,1
1,1,1,1,1,1,1,1,1,1,1,1,1
1,0,0,0,0,0,0,0,0,0,0,0,1
1,0,0,0,0,0,0,0,0,0,0,0,1
1,0,0,0,0,0,1,0,0,0,0,0,1
1,0,0,0,0,0,1,0,0,0,0,0,1
1,1,1,0,0,0,0,0,0,0,1,1,1
1,1,0,0,0,0,0,0,0,0,0,1,1
1,0,0,0,0,0,1,0,0,0,0,0,1
1,1,0,0,0,0,0,0,0,0,0,1,1
1,0,0,0,0,0,0,0,0,0,0,0,1
1,0,0,0,0,0,1,0,0,0,0,0,1
1,0,0,0,0,0,0,0,0,0,0,0,1
1,1,1,1,1,1,1,1,1,1,1,1,1
1,1,0,0,0,0,0,0,0,0,0,1,1
1,0,0,0,0,0,0,0,0,0,0,0,1
1,0,0,0,0,0,0,0,0,0,0,0,1
1,0,0,0,0,0,0,0,0,0,0,0,1
1,1,0,0,0,0,0,0,0,0,0,1,1
1,0,0,0,0,0,0,0,0,0,0,0,1
1,0,0,0,0,0,0,0,0,0,0,0,1
1,0,0,0,0,0,1,0,0,0,0,0,1
1,0,0,0,0,0,0,0,0,0,0,0,1
1,0,0,0,0,1,1,0,0,0,0,0,1
1,1,1,1,1,1,1,1,1,1,1,1,1
1,0,0,0,0,0,0,0,0,0,0,1,1
1,0,0,0,0,0,0,0,0,0,0,0,1
1,1,0,0,0,0,0,0,0,0,0,1,1
1,0,0,0,0,0,0,0,0,0,0,0,1
1,0,0,0,0,0,0,0,0,0,0,0,1
1,1,1,0,0,0,0,0,0,0,0,1,1
1,1,0,0,0,0,0,0,0,0,0,1,1
1,0,0,0,0,0,1,0,0,0,0,0,1
1,0,0,0,0,0,1,0,0,0,0,0,1
1,1,0,1,1,1,0,1,1,1,0,1,1
1,0,0,0,0,0,0,0,0,0,0,0,1
1,1,0,0,0,0,0,0,0,0,0,1,1
1,0,0,0,0,0,1,0,0,0,0,0,1
1,0,0,0,0,0,1,0,0,0,0,0,1
1,0,0,0,0,0,0,0,0,0,0,0,1
1,0,0,0,0,0,0,0,0,0,0,0,1
1,0,0,0,0,0,0,0,0,0,0,0,1
1,0,0,0,0,0,0,0,0,0,0,0,1
1,0,0,0,0,0,0,0,0,0,0,0,1
1,0,0,0,0,0,0,0,0,0,0,1,1
1,0,0,0,0,0,0,0,0,0,0,0,1
1,1,0,0,0,1,1,1,0,0,0,1,1
1,0,0,0,0,0,1,0,0,0,0,0,1
1,0,0,0,0,0,0,0,0,0,0,0,1
1,0,0,0,0,0,0,0,0,0,0,0,1
1,0,0,0,0,0,0,0,0,0,0,0,1
1,0,0,0,0,0,0,0,0,0,0,0,1
1,0,0,0,0,0,1,0,0,0,0,0,1
1,0,0,0,0,0,0,0,0,0,0,0,1
1,0,0,0,0,0,0,0,0,0,0,1,1
1,1,0,0,0,0,0,0,0,0,0,1,1
1,1,0,0,0,0,0,0,0,0,0,1,1
1,1,0,0,0,0,0,0,0,0,0,1,1
1,0,0,0,0,0,0,0,0,0,0,0,1
1,1,0,0,0,0,0,0,0,0,0,1,1
1,1,1,1,0,1,0,1,0,1,1,1,1
1,1,0,1,1,0,0,0,1,1,0,1,1
1,1,1,0,0,1,1,1,0,0,0,1,1
1,1,1,1,1,1,0,1,1,1,1,1,1
1,1,0,0,0,1,1,0,0,0,0,1,1
1,1,1,1,1,1,1,1,1,1,1,1,1
1,0,0,0,0,0,0,0,0,0,0,0,1
1,1,0,0,0,0,0,0,0,0,0,1,1
1,0,0,0,0,0,1,0,0,0,0,0,1
1,0,0,0,0,0,0,0,0,0,0,0,1
1,1,0,0,0,0,0,0,0,0,0,0,1
1,1,0,0,0,0,1,0,0,0,0,1,1
1,0,0,0,0,0,0,0,0,0,0,0,1
1,1,0,0,0,0,0,0,0,0,0,1,1
1,0,0,0,0,0,0,0,0,0,0,0,1
1,0,0,0,0,0,0,0,0,0,0,0,1
1,1,0,0,0,0,0,0,0,0,0,1,1
1,1,0,0,0,0,0,0,0,0,0,1,1
1,0,0,0,0,0,0,0,0,0,0,0,1
1,1,1,0,1,1,1,1,1,0,1,1,1
1,0,0,0,0,0,1,0,0,0,0,0,1
1,0,0,0,0,0,1,0,0,0,0,0,1
1,1,1,0,1,1,1,1,0,0,1,1,1
1,0,0,0,0,0,0,0,0,0,0,0,1
1,1,1,0,0,0,0,0,0,0,0,1,1
1,0,0,0,0,0,1,0,0,0,0,0,1
1,0,0,0,0,0,1,0,0,0,0,0,1
1,0,0,0,0,0,0,0,0,0,0,0,1
1,0,0,0,0,0,0,0,0,0,0,0,1
1,1,0,0,0,0,1,1,0,0,0,1,1
1,1,0,0,0,1,1,1,0,0,0,1,1
1,0,0,0,0,0,0,0,0,0,0,0,1
1,1,0,0,0,0,1,0,0,0,0,1,1
1,1,0,0,0,0,0,1,0,0,0,1,1
1,1,0,0,0,0,0,0,0,0,0,1,1
1,0,0,0,0,0,0,0,0,0,0,0,1
1,1,0,0,0,0,0,0,0,0,0,1,1
1,1,1,1,1,1,1,1,1,1,1,1,1
1,0,0,0,0,0,0,0,0,0,0,0,1
1,0,0,0,0,0,0,0,0,0,0,0,1
1,1,0,0,0,0,0,0,0,0,0,1,1
1,1,0,0,0,0,0,0,0,0,0,0,1
1,0,0,0,0,0,0,0,0,0,0,0,1
1,1,0,0,0,0,0,0,0,0,0,0,1
1,1,1,1,1,1,1,1,1,1,1,1,1
1,1,1,1,1,1,1,1,1,1,1,1,1
1,1,1,1,1,1,1,1,1,1,1,1,1
1,1,1,1,1,1,1,1,1,1,1,1,1
1,1,1,1,1,1,1,1,1,1,1,1,1
1,1,1,1,1,1,1,1,1,1,1,1,1
1,1,1,1,1,1,1,1,1,1,1,1,1
1,1,1,1,1,1,1,1,1,1,1,1,1
1,1,1,1,1,1,1,1,1,1,1,1,1
1,1,1,1,1,1,1,1,1,1,1,1,1
1,1,1,1,1,1,1,1,1,1,1,1,1
1,1,1,1,1,1,1,1,1,1,1,1,1
1,1,1,1,1,1,1,1,1,1,1,1,1
1,1,1,1,1,1,1,1,1,1,1,1,1
1,1,1,1,1,1,1,1,1,1,1,1,1
1,1,1,1,1,1,1,1,1,1,1,1,1
1,1,1,1,1,1,1,1,1,1,1,1,1
1,1,1,1,1,1,1,1,1,1,1,1,1
1,1,1,1,1,1,1,1,1,1,1,1,1
1,1,1,1,1,1,1,1,1,1,1,1,1
1,1,1,1,1,1,1,1,1,1,1,1,1
1,1,1,1,1,1,1,1,1,1,1,1,1
1,1,1,1,1,1,1,1,1,1,1,1,1
1,1,1,1,1,1,1,1,1,1,1,1,1
1,1,1,1,1,1,1,1,1,1,1,1,1
1,1,1,1,1,1,1,1,1,1,1,1,1
1,1,1,1,1,1,1,1,1,1,1,1,1
1,1,1,1,1,1,1,1,1,1,1,1,1
1,1,1,1,1,1,1,1,1,1,1,1,1
1,1,1,1,1,1,1,1,1,1,1,1,1
1,1,1,1,1,1,1,1,1,1,1,1,1
1,1,1,1,1,1,1,1,1,1,1,1,1
1,1,1,1,1,1,1,1,1,1,1,1,1
1,1,1,1,1,1,1,1,1,1,1,1,1
1,1,1,1,1,1,1,1,1,1,1,1,1
1,1,1,1,1,1,1,1,1,1,1,1,1
1,1,1,1,1,1,1,1,1,1,1,1,1
1,1,1,1,1,1,1,1,1,1,1,1,1
1,1,1,1,1,1,1,1,1,1,1,1,1
1,1,1,1,1,1,1,1,1,1,1,1,1
1,1,1,1,1,1,1,1,1,1,1,1,1
1,1,1,1,1,1,1,1,1,1,1,1,1
1,1,1,1,1,1,1,1,1,1,1,1,1
1,1,1,1,1,1,1,1,1,1,1,1,1
1,1,1,1,1,1,1,1,1,1,1,1,1
1,1,1,1,1,1,1,1,1,1,1,1,1
1,1,1,1,1,1,1,1,1,1,1,1,1
1,1,1,1,1,1,1,1,1,1,1,1,1
1,1,1,1,1,1,1,1,1,1,1,1,1
1,1,1,1,1,1,1,1,1,1,1,1,1
1,1,1,1,1,1,1,1,1,1,1,1,1
1,1,1,1,1,1,1,1,1,1,1,1,1
1,1,1,1,1,1,1,1,1,1,1,1,1
1,1,1,1,1,1,1,1,1,1,1,1,1
1,1,1,1,1,1,1,1,1,1,1,1,1
1,1,1,1,1,1,1,1,1,1,1,1,1
1,1,1,1,1,1,1,1,1,1,1,1,1
1,1,1,1,1,1,1,1,1,1,1,1,1
1,1,1,1,1,1,1,1,1,1,1,1,1
1,1,1,1,1,1,1,1,1,1,1,1,1
1,1,1,1,1,1,1,1,1,1,1,1,1
1,1,1,1,1,1,1,1,1,1,1,1,1
1,1,1,1,1,1,1,1,1,1,1,1,1
1,1,1,1,1,1,1,1,1,1,1,1,1
1,1,1,1,1,1,1,1,1,1,1,1,1
1,1,1,1,1,1,1,1,1,1,1,1,1
1,1,1,1,1,1,1,1,1,1,1,1,1
1,1,1,1,1,1,1,1,1,1,1,1,1
1,1,1,1,1,1,1,1,1,1,1,1,1
1,1,1,1,1,1,1,1,1,1,1,1,1
1,1,1,1,1,1,1,1,1,1,1,1,1
1,1,1,1,1,1,1,1,1,1,1,1,1
1,1,1,1,1,1,1,1,1,1,1,1,1
1,1,1,1,1,1,1,1,1,1,1,1,1
1,1,1,1,1,1,1,1,1,1,1,1,1
1,1,1,1,1,1,1,1,1,1,1,1,1
1,1,1,1,1,1,1,1,1,1,1,1,1
1,1,1,1,1,1,1,1,1,1,1,1,1
1,1,1,1,1,1,1,1,1,1,1,1,1
1,1,1,1,1,1,1,1,1,1,1,1,1
1,1,1,1,1,1,1,1,1,1,1,1,1
1,1,1,1,1,1,1,1,1,1,1,1,1
1,1,1,1,1,1,1,1,1,1,1,1,1
1,1,1,1,1,1,1,1,1,1,1,1,1
1,1,1,1,1,1,1,1,1,1,1,1,1
1,1,1,1,1,1,1,1,1,1,1,1,1
1,1,1,1,1,1,1,1,1,1,1,1,1
1,1,1,1,1,1,1,1,1,1,1,1,1
1,1,1,1,1,1,1,1,1,1,1,1,1
1,1,1,1,1,1,1,1,1,1,1,1,1
1,1,1,1,1,1,1,1,1,1,1,1,1
1,1,1,1,1,1,1,1,1,1,1,1,1
1,1,1,1,1,1,1,1,1,1,1,1,1
1,1,1,1,1,1,1,1,1,1,1,1,1
1,1,1,1,1,1,1,1,1,1,1,1,1
1,1,1,1,1,1,1,1,1,1,1,1,1
1,1,1,1,1,1,1,1,1,1,1,1,1
1,1,1,1,1,1,1,1,1,1,1,1,1
1,1,1,1,1,1,1,1,1,1,1,1,1
1,1,1,1,1,1,1,1,1,1,1,1,1
1,1,1,1,1,1,1,1,1,1,1,1,1
1,1,1,1,1,1,1,1,1,1,1,1,1
1,1,1,1,1,1,1,1,1,1,1,1,1
1,1,1,1,1,1,1,1,1,1,1,1,1
1,1,1,1,1,1,1,1,1,1,1,1,1
1,1,1,1,1,1,1,1,1,1,1,1,1
1,1,1,1,1,1,1,1,1,1,1,1,1
1,1,1,1,1,1,1,1,1,1,1,1,1
1,1,1,1,1,1,1,1,1,1,1,1,1
1,1,1,1,1,1,1,1,1,1,1,1,1
1,1,1,1,1,1,1,1,1,1,1,1,1
1,1,1,1,1,1,1,1,1,1,1,1,1
1,1,1,1,1,1,1,1,1,1,1,1,1
1,1,1,1,1,1,1,1,1,1,1,1,1
1,1,1,1,1,1,1,1,1,1,1,1,1
1,1,1,1,1,1,1,1,1,1,1,1,1
1,1,1,1,1,1,1,1,1,1,1,1,1
1,1,1,1,1,1,1,1,1,1,1,1,1
1,1,1,1,1,1,1,1,1,1,1,1,1
1,1,1,1,1,1,1,1,1,1,1,1,1
1,1,1,1,1,1,1,1,1,1,1,1,1
1,1,1,1,1,1,1,1,1,1,1,1,1
1,1,1,1,1,1,1,1,1,1,1,1,1
1,1,1,1,1,1,1,1,1,1,1,1,1
1,1,1,1,1,1,1,1,1,1,1,1,1
1,1,1,1,1,1,1,1,1,1,1,1,1
1,1,1,1,1,1,1,1,1,1,1,1,1
1,1,1,1,1,1,1,1,1,1,1,1,1
1,1,1,1,1,1,1,1,1,1,1,1,1
1,1,1,1,1,1,1,1,1,1,1,1,1
1,1,1,1,1,1,1,1,1,1,1,1,1
1,1,1,1,1,1,1,1,1,1,1,1,1
1,1,1,1,1,1,1,1,1,1,1,1,1
1,1,1,1,1,1,1,1,1,1,1,1,1
1,1,1,1,1,1,1,1,1,1,1,1,1
1,1,1,1,1,1,1,1,1,1,1,1,1
1,1,1,1,1,1,1,1,1,1,1,1,1
1,1,1,1,1,1,1,1,1,1,1,1,1
1,1,1,1,1,1,1,1,1,1,1,1,1
1,1,1,1,1,1,1,1,1,1,1,1,1
1,1,1,1,1,1,1,1,1,1,1,1,1
1,1,1,1,1,1,1,1,1,1,1,1,1
1,1,1,1,1,1,1,1,1,1,1,1,1
1,1,1,1,1,1,1,1,1,1,1,1,1
1,1,1,1,1,1,1,1,1,1,1,1,1
1,1,1,1,1,1,1,1,1,1,1,1,1
1,1,1,1,1,1,1,1,1,1,1,1,1
1,1,1,1,1,1,1,1,1,1,1,1,1
1,1,1,1,1,1,1,1,1,1,1,1,1
1,1,1,1,1,1,1,1,1,1,1,1,1
1,1,1,1,1,1,1,1,1,1,1,1,1
1,1,1,1,1,1,1,1,1,1,1,1,1
1,1,1,1,1,1,1,1,1,1,1,1,1
1,1,1,1,1,1,1,1,1,1,1,1,1
1,1,1,1,1,1,1,1,1,1,1,1,1
1,1,1,1,1,1,1,1,1,1,1,1,1
1,1,1,1,1,1,1,1,1,1,1,1,1
1,1,1,1,1,1,1,1,1,1,1,1,1
1,1,1,1,1,1,1,1,1,1,1,1,1
1,1,1,1,1,1,1,1,1,1,1,1,1
1,1,1,1,1,1,1,1,1,1,1,1,1
1,1,1,1,1,1,1,1,1,1,1,1,1
1,1,1,1,1,1,1,1,1,1,1,1,1
1,1,1,1,1,1,1,1,1,1,1,1,1
1,1,1,1,1,1,1,1,1,1,1,1,1
1,1,1,1,1,1,1,1,1,1,1,1,1
1,1,1,1,1,1,1,1,1,1,1,1,1
1,1,1,1,1,1,1,1,1,1,1,1,1
1,1,1,1,1,1,1,1,1,1,1,1,1
1,1,1,1,1,1,1,1,1,1,1,1,1
1,1,1,1,1,1,1,1,1,1,1,1,1
1,1,1,1,1,1,1,1,1,1,1,1,1
1,1,1,1,1,1,1,1,1,1,1,1,1
1,1,1,1,1,1,1,1,1,1,1,1,1
1,1,1,1,1,1,1,1,1,1,1,1,1
1,1,1,1,1,1,1,1,1,1,1,1,1
1,1,1,1,1,1,1,1,1,1,1,1,1
1,1,1,1,1,1,1,1,1,1,1,1,1
1,1,1,1,1,1,1,1,1,1,1,1,1
1,1,1,1,1,1,1,1,1,1,1,1,1
1,1,1,1,1,1,1,1,1,1,1,1,1
1,1,1,1,1,1,1,1,1,1,1,1,1
1,1,1,1,1,1,1,1,1,1,1,1,1
1,1,1,1,1,1,1,1,1,1,1,1,1
1,1,1,1,1,1,1,1,1,1,1,1,1
1,1,1,1,1,1,1,1,1,1,1,1,1
1,1,1,1,1,1,1,1,1,1,1,1,1
1,1,1,1,1,1,1,1,1,1,1,1,1
1,1,1,1,1,1,1,1,1,1,1,1,1
1,1,1,1,1,1,1,1,1,1,1,1,1
1,1,1,1,1,1,1,1,1,1,1,1,1
1,1,1,1,1,1,1,1,1,1,1,1,1
1,1,1,1,1,1,1,1,1,1,1,1,1
1,1,1,1,1,1,1,1,1,1,1,1,1
1,1,1,1,1,1,1,1,1,1,1,1,1
1,1,1,1,1,1,1,1,1,1,1,1,1
1,1,1,1,1,1,1,1,1,1,1,1,1
1,1,1,1,1,1,1,1,1,1,1,1,1
1,1,1,1,1,1,1,1,1,1,1,1,1
1,1,1,1,1,1,1,1,1,1,1,1,1
1,1,1,1,1,1,1,1,1,1,1,1,1
1,1,1,1,1,1,1,1,1,1,1,1,1
1,1,1,1,1,1,1,1,1,1,1,1,1
1,1,1,1,1,1,1,1,1,1,1,1,1
1,1,1,1,1,1,1,1,1,1,1,1,1
1,1,1,1,1,1,1,1,1,1,1,1,1
1,1,1,1,1,1,1,1,1,1,1,1,1
1,1,1,1,1,1,1,1,1,1,1,1,1
1,1,1,1,1,1,1,1,1,1,1,1,1
1,1,1,1,1,1,1,1,1,1,1,1,1
1,1,1,1,1,1,1,1,1,1,1,1,1
1,1,1,1,1,1,1,1,1,1,1,1,1
1,1,1,1,1,1,1,1,1,1,1,1,1
1,1,1,1,1,1,1,1,1,1,1,1,1
1,1,1,1,1,1,1,1,1,1,1,1,1
1,1,1,1,1,1,1,1,1,1,1,1,1
1,1,1,1,1,1,1,1,1,1,1,1,1
1,1,1,1,1,1,1,1,1,1,1,1,1
1,1,1,1,1,1,1,1,1,1,1,1,1
1,1,1,1,1,1,1,1,1,1,1,1,1
1,1,1,1,1,1,1,1,1,1,1,1,1
1,1,1,1,1,1,1,1,1,1,1,1,1
1,1,1,1,1,1,1,1,1,1,1,1,1
1,1,1,1,1,1,1,1,1,1,1,1,1
1,1,1,1,1,1,1,1,1,1,1,1,1
1,1,1,1,1,1,1,1,1,1,1,1,1
1,1,1,1,1,1,1,1,1,1,1,1,1
1,1,1,1,1,1,1,1,1,1,1,1,1
1,1,1,1,1,1,1,1,1,1,1,1,1
1,1,1,1,1,1,1,1,1,1,1,1,1
1,1,1,1,1,1,1,1,1,1,1,1,1
1,1,1,1,1,1,1,1,1,1,1,1,1
1,1,1,1,1,1,1,1,1,1,1,1,1
1,1,1,1,1,1,1,1,1,1,1,1,1
1,1,1,1,1,1,1,1,1,1,1,1,1
1,1,1,1,1,1,1,1,1,1,1,1,1
1,1,1,1,1,1,1,1,1,1,1,1,1
1,1,1,1,1,1,1,1,1,1,1,1,1
1,1,1,1,1,1,1,1,1,1,1,1,1
1,1,1,1,1,1,1,1,1,1,1,1,1
1,1,1,1,1,1,1,1,1,1,1,1,1
1,1,1,1,1,1,1,1,1,1,1,1,1
1,1,1,1,1,1,1,1,1,1,1,1,1
1,1,1,1,1,1,1,1,1,1,1,1,1
1,1,1,1,1,1,1,1,1,1,1,1,1
1,1,1,1,1,1,1,1,1,1,1,1,1
1,1,1,1,1,1,1,1,1,1,1,1,1
1,1,1,1,1,1,1,1,1,1,1,1,1
1,1,1,1,1,1,1,1,1,1,1,1,1
1,1,1,1,1,1,1,1,1,1,1,1,1
1,1,1,1,1,1,1,1,1,1,1,1,1
1,1,1,1,1,1,1,1,1,1,1,1,1
1,1,1,1,1,1,1,1,1,1,1,1,1
1,1,1,1,1,1,1,1,1,1,1,1,1
1,1,1,1,1,1,1,1,1,1,1,1,1
1,1,1,1,1,1,1,1,1,1,1,1,1
1,1,1,1,1,1,1,1,1,1,1,1,1
1,1,1,1,1,1,1,1,1,1,1,1,1
1,1,1,1,1,1,1,1,1,1,1,1,1
1,1,1,1,1,1,1,1,1,1,1,1,1
0.999999999999998,0.946353541622567,0.949875796089133,0.955794114056379,0.944256499438144,0.954946276893835,0.949308562645677,0.935559442938073,0.940015887258032,0.954114945481043,0.96209260354016,0.955432692699332,0.999999999999998
1,0.965642032412756,0.944685842603141,0.960057580785094,0.957521783628725,0.943969544862073,0.957917103002672,0.940122227543789,0.954634354860595,0.968818840435691,0.962962029550675,0.954278663276755,1
1,0.978934110805232,0.970561026588149,0.949287333813877,0.956631308913602,0.966923695393604,0.967173829704201,0.963889257265649,0.956815482700633,0.947930378680662,0.957819882981092,0.982974402859866,1
0.999999999999999,0.922564294480014,0.930780257617536,0.939329513238661,0.91275005292769,0.943400243699034,0.936748764856834,0.925358076294563,0.932905048592768,0.944167858297043,0.926825619796972,0.932607955020738,0.999999999999999
1,0.978935211366756,0.964693024390046,0.963389911972692,0.967564893274763,0.96935378307151,0.971996595005041,0.968067902706822,0.966897004636921,0.964979632387612,0.967764747148398,0.979581249252469,1
1,0.957953679616126,0.960359785383668,0.963703711730905,0.94873449153436,0.941411799542682,0.943870421209866,0.957333991192906,0.930881970570526,0.947239703560532,0.937086705128741,0.941646559762924,1
0.999999999999999,0.97950599631143,0.965827603041791,0.961605504304899,0.965835668076256,0.962115848602591,0.962755927371058,0.971764137940158,0.966667659928848,0.972007617529567,0.976724385922597,0.980056896980699,0.999999999999999
1,0.904803505234632,0.958580052263145,0.95379234360003,0.924547321107183,0.925302828628769,0.959653593141114,0.91376245187288,0.923502682201621,0.937703827289758,0.915196586403316,0.917104855910987,1
0.999999999999999,0.969000255552029,0.9525279987853,0.966500947989031,0.954440361573717,0.952776632605345,0.966726324868327,0.954376803139793,0.944511682925345,0.957154976882193,0.965243723339754,0.964922041299707,0.999999999999999
1,0.942686921785304,0.936206823001599,0.934839317019544,0.93396831924014,0.952402781687508,0.949540647717476,0.93555863939519,0.956832594115636,0.950744640118178,0.953768356003449,0.955610001067486,1
1,0.963174988920594,0.930517876869696,0.935001552240405,0.926977756566497,0.949458766719804,0.972003711890188,0.967685600602995,0.930874089663579,0.926515557713635,0.935509780878057,0.961458255372184,1
1,0.955426486591857,0.945644072019676,0.946656566895259,0.936269680575874,0.952323048026611,0.952344890296273,0.945787648393888,0.947223306891632,0.940307052507875,0.943230878566308,0.941510138643809,1
1,0.96793938571856,0.950171662191653,0.960024555066217,0.958552192764653,0.959531544527686,0.952882000587016,0.96862096663402,0.952579745920249,0.955622950984441,0.960668293044816,0.961765482920089,1
1,0.958829130891553,0.95611372515666,0.963508050017029,0.952757798816056,0.950366464880144,0.964138238621535,0.949755880349645,0.965996337322986,0.967435372244918,0.951926924717957,0.956319454676316,1
1,0.952177351046785,0.931536243371379,0.932335162265238,0.946372452896677,0.932041402196661,0.955995968071114,0.94146516068758,0.937146841211189,0.946321244492098,0.961782682761687,0.946163300120326,1
1,0.944725758536031,0.913263802528006,0.918392845833955,0.907238770050196,0.90276979289272,0.908210692967365,0.895808079530649,0.90676863953963,0.919480818343784,0.912519519561433,0.944877601007244,1
0.999999999999999,0.937810981722711,0.955270468214169,0.965341091270574,0.936718318074409,0.947532088101476,0.959853882822484,0.942698008554891,0.938027828516199,0.962777805953368,0.930956965267139,0.938108139289135,0.999999999999999
0.999999999999999,0.951532007086454,0.952166483653202,0.9567157609679,0.947351590959361,0.947312052341605,0.951992000361966,0.949149132578411,0.939532620540799,0.948622375659206,0.946674530762073,0.953461958626282,0.999999999999999
1,0.943520347981501,0.960307828724559,0.93519273471981,0.949682671914316,0.940063698076153,0.956143839248626,0.946217860338322,0.971027731088766,0.952224556695396,0.9496843101958,0.952229213474542,1
0.999999999999998,0.961584428154482,0.949931933277886,0.947094470454708,0.947013830726309,0.946912278955393,0.947882315662071,0.938388801350052,0.949665613142741,0.946609522141261,0.934455760386961,0.961199797221263,0.999999999999998
1,0.945992836769248,0.964799963400575,0.949705299275251,0.927983796452442,0.91407704461817,0.984163295836498,0.949861070098797,0.962311377151381,0.945965430026608,0.917960715106292,0.914613379723185,1
1,0.933067217489375,0.92447643265321,0.932621283704378,0.925746234117884,0.891754172542946,0.954262025324084,0.928938868847664,0.923497944910605,0.926324369222985,0.905218107049231,0.897682136023663,1
1,0.9689680658545,0.939019237261359,0.945543023800612,0.961079310309313,0.947962515943417,0.963590077125923,0.955292081298611,0.946036601430239,0.945301170071283,0.952942196631814,0.963998597191414,1
1,0.900352657217035,0.919609402594193,0.922421093268443,0.924576988697547,0.928623387232628,0.968753208589324,0.889621344085366,0.929183182944556,0.926543397121528,0.924299343831089,0.953445981930084,1
1,0.958170360839089,0.954750562287856,0.947593568075792,0.934433678471141,0.949127924220635,0.941248940803323,0.95910089339963,0.950052891392654,0.940137390719821,0.952038074495006,0.958388052483308,1
1,0.990235596315177,0.976670166827256,0.981526315144566,0.973986602207249,0.983993178977454,0.993061412029626,0.98438651279741,0.973846741803291,0.978210742478834,0.969157845726948,0.988058722806123,1
1,0.967079842826513,0.957071077544548,0.968167297454339,0.963291018943817,0.963203295909439,0.961027526365745,0.960558222945401,0.957281783031803,0.961470558450418,0.954158560718571,0.965463854212857,1
1,0.998083309742091,0.995898364916247,0.993672714349796,0.991629063773183,0.99024553267556,0.98963665198106,0.990196262266104,0.991685047353676,0.993672714349797,0.995891130151867,0.998256289826951,1
1,0.934562361383653,0.927452629066187,0.923525737913213,0.947453301286772,0.924896751939708,0.955744286864685,0.936559727175762,0.93799649862147,0.935908847599729,0.947361447568442,0.937663163373961,1
1,0.962993282073222,0.946021786615169,0.965992892002285,0.972679279396155,0.951258030281351,0.960531210449432,0.943534940568287,0.9643485485923,0.958405508046747,0.966463008488187,0.942393700688977,1
1,0.923513667462348,0.936653641774802,0.91768343810219,0.961063212529986,0.966628733725836,0.979843910191094,0.911936423230885,0.928456976139616,0.934161048303066,0.964265775048492,0.962046620612548,1
1,0.927400100970392,0.950066319037593,0.963821311085344,0.936991678043344,0.933417258327336,0.974111320732552,0.927192573466661,0.942647929205868,0.956667762722162,0.942749571321508,0.933274519756935,1
1,0.980981242155284,0.969121643253063,0.959152249450106,0.964891078260862,0.957572070537074,0.961093063031691,0.958357797399728,0.957533021902404,0.96207215216703,0.970360230394869,0.987234228858568,1
1,0.95111554585527,0.95097374880193,0.950404568657792,0.944557660232044,0.95563352835955,0.94930601803977,0.945689947807247,0.947848726693283,0.958875922838314,0.946072793216105,0.945066644681218,1
0.999999999999999,0.955910640214862,0.96126465254736,0.97717786272591,0.962409868066801,0.96350644638628,0.984910457726908,0.958094053895772,0.956398933402768,0.974542185713124,0.958217527473436,0.981394865950697,0.999999999999999
0.999999999999999,0.981864762351517,0.960760601978698,0.966713253995737,0.967321691539731,0.968959212619198,0.971118406809104,0.967966240554053,0.966061810867224,0.967376065166432,0.963714820575293,0.982932272235028,0.999999999999999
1,0.939173906056949,0.931799396051569,0.9706495820021,0.922922666055484,0.915532751139113,0.975233941762664,0.950608253412655,0.943090743176339,0.967101394370131,0.921239430480156,0.920689203989542,1
1,0.928327165915059,0.922583755274906,0.963708610155242,0.921030105455544,0.947063243934033,0.977798366462466,0.911877095187174,0.919718556204895,0.970649582002101,0.929409339814107,0.953833002826069,1
1,0.953133327998835,0.935021961231056,0.948703502843055,0.948647839014737,0.936578051731739,0.953512083688193,0.934634706198255,0.959525015692485,0.966611127030183,0.947117416700255,0.954886034270011,1
1,0.994520210626866,0.986615906108049,0.980912258923502,0.97938185762531,0.979416849739635,0.982080152390127,0.980492308200072,0.978589487040819,0.980912258923501,0.986118708059026,0.994031133715457,1
1,0.968560667174409,0.951120909494759,0.944902177469372,0.945700348937625,0.941611355364398,0.952601283497944,0.9622343557839,0.950117529816907,0.951530477022532,0.958641467344266,0.957381219690136,1
1,0.959391346138997,0.959117133559316,0.95755433948738,0.953437747022179,0.953964152815676,0.954140226394907,0.952535353999065,0.952704652564302,0.963235727329043,0.948185191575248,0.959068810588468,1
0.999999999999999,0.956516731200143,0.958652148422696,0.974542185713124,0.956439275122243,0.94195199857368,0.967343905028208,0.955970449892163,0.960710656726336,0.97717786272591,0.961110315721966,0.962704127838775,0.999999999999999
1,0.962560336839828,0.927289595967406,0.928981873779288,0.924207289997704,0.932066202794761,0.931366974806474,0.953528905998182,0.908345813539825,0.938426178934072,0.948795565089266,0.935420853600398,1
1,0.946721412373782,0.951387383274859,0.950431284082272,0.945614310489105,0.965322328213879,0.955953701774006,0.934539819187073,0.955413771391267,0.954851273066074,0.940997062096887,0.947303344226696,1
0.999999999999998,0.930203192541348,0.931633729410095,0.939635316419355,0.933134727411759,0.931033130581535,0.913522156535759,0.943944266224919,0.947004640150353,0.933280059362278,0.943103123452456,0.936324974695911,0.999999999999998
0.999999999999996,0.917636424363961,0.939350168336016,0.930100925934879,0.933833763776995,0.930776811390877,0.946290405327358,0.933173869840042,0.930190548723874,0.918609167546244,0.933397966338373,0.964259704216162,0.999999999999996
0.999999999999998,0.947319852129128,0.945415476105554,0.972802507560946,0.944658709793199,0.948011572601696,0.957754449547665,0.954687602364497,0.943016126689916,0.950678549877402,0.956315916650513,0.950543940924399,0.999999999999998
0.999999999999999,0.935120643843665,0.937347351566765,0.945576864354145,0.942662269134631,0.968211349971974,0.958529078253541,0.952491932231682,0.951729495822665,0.95848793742911,0.937902267113433,0.931237624760229,0.999999999999999
1,0.962668958717091,0.966927838876764,0.959332262993266,0.972595699599388,0.953836531662452,0.995546280712328,0.963345746077956,0.9655008487564,0.968167297454338,0.973034048033556,0.954663680977755,1
0.999999999999999,0.987475959887478,0.97370618264253,0.973677813262186,0.979068167644307,0.976888155413464,0.987370818061833,0.980741365589441,0.975503652252095,0.973677813262185,0.982268206511912,0.985885475168111,0.999999999999999
1,0.963560320442486,0.968423922882801,0.960676852407336,0.946022176934035,0.955131811899208,0.953109693991213,0.952891246131118,0.965526975550225,0.955315725647782,0.951707536309629,0.956157205645779,1
1,0.958285578829326,0.943977550628434,0.943317843688381,0.940806397413656,0.941686279796013,0.951251083989193,0.94501465500561,0.967364872390935,0.945279975016899,0.957977971004307,0.958429471830221,1
0.999999999999998,0.963155447329265,0.951174741561856,0.954722654966609,0.952132433214462,0.952235069523312,0.961105617630469,0.957194801148929,0.939243183355893,0.966500947989031,0.955628199081564,0.96317728636059,0.999999999999998
0.999999999999998,0.928348181211148,0.949082523678905,0.952289311927171,0.929104147242599,0.937839238260953,0.948020194935226,0.926555371743058,0.926482803234498,0.937948425805071,0.930670641238261,0.926144774196311,0.999999999999998
1,0.945329515948696,0.937472091673115,0.949249728927599,0.936750558718724,0.932565106237809,0.940780513846642,0.947272041364004,0.935363308122972,0.956651548177113,0.943472840691448,0.953736322823909,1
1,0.977328706409043,0.945539505422566,0.948819677649071,0.950130947811249,0.947609435368668,0.943271734921765,0.945669716144759,0.952474769427312,0.947941827488395,0.947483548620146,0.974131850911095,1
1,0.940240410043897,0.931078004804725,0.935500534145645,0.927016922509944,0.9444267093997,0.940001102606196,0.928129004686149,0.937730669452746,0.943361219678052,0.931691780147327,0.938635116019356,1
0.999999999999999,0.94287284634792,0.965873932702356,0.949953371825042,0.963020598777829,0.965494852497563,0.958617217278377,0.956146843549231,0.96045817669388,0.948074178819552,0.959663157527335,0.961319374001081,0.999999999999999
1,0.942679099276113,0.928748349598991,0.937763106928413,0.936817596718326,0.948017588449623,0.964343636661663,0.936445262201618,0.92551821880185,0.947429915048867,0.943296581870096,0.963643053071905,1
0.999999999999998,0.970027142681891,0.94790639858044,0.950806466121691,0.96440461744655,0.948593140882489,0.954894464301159,0.950471241580749,0.962526597415454,0.95080646612169,0.956559219171646,0.969935740071831,0.999999999999998
1,0.925556724527266,0.925162848248918,0.909248795492708,0.933621756137018,0.935093116582012,0.963854051734958,0.933959448686976,0.924287823190798,0.897762587224096,0.935978612949982,0.928285665814427,1
1,0.955682828599373,0.946970759802478,0.942813388946931,0.933303041979166,0.932544194434199,0.946123872241561,0.937853221032687,0.936341206304968,0.93711350213893,0.947344740240515,0.959316434309215,1
1,0.933854343685994,0.937687541661363,0.961915089472054,0.931259342955909,0.931172255382754,0.965647135743577,0.921604219314321,0.943222747246417,0.953800875289726,0.932052059218449,0.938263667170581,1
1,0.949127549475825,0.954511680563951,0.968432036892097,0.955159324127629,0.964129658892728,0.975656319440343,0.952348218126515,0.958354494360164,0.970510494631026,0.955589913560993,0.965280472976711,1
1,0.905275164637659,0.909396279674165,0.91068387218843,0.926434027976105,0.953408983703855,0.955648196463538,0.901074562666794,0.923753378535637,0.90495929356999,0.917117113139782,0.946708464907052,1
0.999999999999999,0.932922487948385,0.923891149758242,0.917172360230086,0.963017253278612,0.924091876799165,0.923481498625152,0.908409108241349,0.928833894351054,0.912464083277116,0.9182097129493,0.910462184556571,0.999999999999999
0.999999999999999,0.951186287944132,0.938111698643124,0.963418393091198,0.931901428412903,0.927750110213678,0.975233941762664,0.919934667074488,0.941205764932606,0.968225748714974,0.929703401452782,0.915231335118255,0.999999999999999
1,0.92994564283787,0.933713237353528,0.95414701263055,0.942897951370493,0.947759290830624,0.969787981202859,0.908729008905865,0.930824453923873,0.948898605946793,0.936446361502371,0.956883689843138,1
1,0.957527998561918,0.941562424499258,0.945394208972774,0.954265837886739,0.939028174516518,0.940917165126243,0.939810001244306,0.947784292799205,0.950688663125865,0.957307388814041,0.945805047289177,1
0.999999999999996,0.962526698619303,0.960133430603863,0.955622950984441,0.958377766115928,0.945198244425978,0.948797964927206,0.944867021739966,0.957271352137377,0.947323949621304,0.955014981041357,0.950101368310047,0.999999999999996
1,0.955472556332622,0.957109007638592,0.935119433062489,0.952806255033289,0.95454391005659,0.939920632496166,0.939799433139846,0.948052888076382,0.955455236551349,0.946350901804459,0.948365530357469,1
0.999999999999999,0.973014092227605,0.948920767984604,0.969982044474416,0.96124981257653,0.960268997228336,0.973830588014778,0.961912571844578,0.948251616399743,0.969621161134972,0.962333669400954,0.971092701641843,0.999999999999999
1,0.982445203859552,0.95781765704145,0.959844108941624,0.966566778803022,0.947473672642556,0.964830491910196,0.969896982287841,0.941269791920591,0.958071915650605,0.959128976209718,0.958588405900865,1
0.999999999999999,0.959521019798018,0.973734113220208,0.972382096194517,0.95883644310379,0.949580264504814,0.969899530052128,0.956255881524973,0.971505948839568,0.971193353982996,0.967565297104144,0.960283600322673,0.999999999999999
1,0.956859713756142,0.959871332340814,0.937334055050745,0.950806349520961,0.927241076865791,0.938192407492532,0.931710112541956,0.950034446039511,0.920010064356541,0.951138472064846,0.940585455142084,1
0.999999999999998,0.960107944662018,0.930728960517354,0.944167858297043,0.927657420009389,0.94357159829909,0.949278383841731,0.944083365437929,0.941626919901861,0.946656566895258,0.948484255834905,0.961372333201832,0.999999999999998
0.999999999999999,0.964686686549552,0.953310399356444,0.953905584642132,0.964047241086285,0.953236185532087,0.939920632496167,0.959298202512715,0.9530260933958,0.933225705991005,0.95738961511943,0.948814152436839,0.999999999999999
0.999999999999999,0.961192374429622,0.961643724796353,0.954114945481042,0.965498790515341,0.942733384047229,0.947018277899372,0.969744758634594,0.959633546888981,0.955794114056379,0.946817054060076,0.954801044115536,0.999999999999999
1,0.933400783308744,0.941801009292389,0.933376579413661,0.940768879863807,0.941321657109996,0.932408255642473,0.936727052325602,0.959198647418427,0.951695735692211,0.933026164966932,0.953447298169884,1
1,0.950242734310165,0.933050289107183,0.939724722311166,0.948160849947641,0.948463194260475,0.920520176027863,0.949492845299963,0.930891002744974,0.952652921538788,0.953943291994704,0.937385554698494,1
1,0.964360526438995,0.961694692258699,0.958377631696738,0.951537181282419,0.955096101370267,0.963353298505509,0.959307479607544,0.956865580108231,0.965113335580141,0.955994769363584,0.960842035210559,1
1,0.962504061538657,0.945782678074556,0.943268089320851,0.951529120966207,0.955400622915595,0.943984718241974,0.948413669570872,0.946624461876945,0.954669246390248,0.947306399233662,0.963465896025336,1
0.999999999999998,0.972900388518421,0.953005909415978,0.967640618782553,0.955217811772582,0.956405313793705,0.971118406809104,0.967195365574055,0.960640078248842,0.960647223422077,0.969086178387745,0.975229376003878,0.999999999999998
1,0.928140622875454,0.923861791865804,0.948511196539603,0.941678969779462,0.933676003754716,0.969787981202859,0.914125769119245,0.924699958364777,0.946427229056382,0.93554506111481,0.953373688394108,1
0.999999999999997,0.970851209710094,0.961267492707554,0.967271867230091,0.965772025486702,0.961073877533672,0.958000569452831,0.968535784102871,0.965314336410311,0.956839052660394,0.963012024702266,0.974279291873646,0.999999999999997
1,0.961568741477501,0.979266262382002,0.965979179028464,0.950268030883072,0.968109452766166,0.955490714840212,0.967190211867525,0.962047025124918,0.965979179028464,0.982299231834388,0.963673290679882,1
0.999999999999999,0.961449202633555,0.94973435090216,0.96695756096498,0.950901752268168,0.951885914272444,0.959278702299147,0.950238306171075,0.953539825806545,0.966957560964979,0.951711401448095,0.962739817321673,0.999999999999999
1,0.977444799368033,0.954998661135817,0.965113335580141,0.954347168779379,0.965002406769326,0.975150222838529,0.961889751702542,0.956333932202978,0.958377631696739,0.959046356439295,0.978885813638778,1
0.999999999999999,0.992785228119839,0.982903255121003,0.9799634772874,0.978662442187703,0.971416715951972,0.969899319104281,0.974487096230269,0.980538904555539,0.9799634772874,0.984923694457994,0.994343475638645,0.999999999999999
0.999999999999999,0.978293115051894,0.964905081885698,0.983334498146306,0.9728483138972,0.964951923607267,0.984470979694051,0.973412582377778,0.968420778849526,0.981742186342211,0.970221972119539,0.971672444322876,0.999999999999999
0.999999999999999,0.982664394038238,0.968450368144826,0.965666827304315,0.958649708520637,0.950931154340041,0.951614377962869,0.950238018475891,0.960213030376675,0.965666827304315,0.968803321637337,0.984673333214083,0.999999999999999
0.999999999999999,0.940038243972325,0.943699363391851,0.929622397660061,0.926681252865125,0.918786395881562,0.944866785279212,0.931761234983695,0.924419402334497,0.930037615765365,0.939182062790151,0.92018218624207,0.999999999999999
1,0.95327635609695,0.942770842197758,0.961470558450418,0.947940679299132,0.944371750281413,0.955953701774006,0.95994499019887,0.943060033634478,0.95339401894838,0.952968004417319,0.959355493092149,1
1,0.959547172915711,0.944335899460116,0.966353790971771,0.950968342077038,0.942613902654753,0.969303389916579,0.939005202787411,0.962570294445197,0.965884918215657,0.949384120611396,0.945750196132536,1
1,0.96294255471261,0.963745231254448,0.957524300442544,0.960894719092743,0.964298277897531,0.957888269760195,0.953707674903928,0.960714253958146,0.952639501897437,0.944831549306061,0.952638080827758,1
0.999999999999998,0.940696599549996,0.936136143599171,0.947009774224891,0.935515896599451,0.915360473502384,0.925748458834967,0.932791337774146,0.941221688814256,0.933878189236605,0.937472447930179,0.945105478155426,0.999999999999998
1,0.967830509286705,0.967634259206853,0.971193353982995,0.968445306954369,0.958472415054104,0.972585313462486,0.961134756726965,0.963169129480014,0.972382096194518,0.969125180415038,0.965076621391486,1
0.999999999999998,0.939911825029755,0.935490182949475,0.968225748714974,0.94938269631081,0.948870394312756,0.966318110281146,0.925780962296264,0.940530816108945,0.955964868980916,0.933613401870509,0.948931541073441,0.999999999999998
1,0.967302782362019,0.94667914079862,0.9384808587381,0.942200772006582,0.948181801489506,0.948215862738694,0.950858902541878,0.949268789873495,0.944690817665765,0.952899811710422,0.96648115250648,1
1,0.952324067478045,0.964164798749121,0.944748217632651,0.969603267349836,0.947168204331105,0.955744286864685,0.946847629424125,0.942835763929525,0.939559410262386,0.95793865322954,0.945024330531284,1
1,0.886808547718012,0.914097376120481,0.893558832731042,0.907367559877448,0.930327822986279,0.925304978986862,0.88238737496645,0.964705021828317,0.926104543620286,0.916558701305463,0.898244914365555,1
1,0.95417486249271,0.95263080533822,0.959557635170821,0.952691324972495,0.963299008863888,0.967815949476697,0.963674771926197,0.957929885699588,0.967640618782552,0.955571446208392,0.955721788084675,1
1,0.958526139469103,0.92102499848246,0.927414828657388,0.921146713229031,0.940903900505422,0.950348684302129,0.940228276929811,0.934865358603047,0.942181396008415,0.932372790240075,0.958209452215228,1
0.999999999999999,0.943380847620801,0.954284261593908,0.952224556695396,0.948937344111462,0.957242892215598,0.936748764856835,0.951547290912059,0.963172113203478,0.960676852407337,0.961375719564428,0.96399627754866,0.999999999999999
0.999999999999999,0.987582413115744,0.97042002674932,0.96207215216703,0.966509188032393,0.973099332068491,0.975418448459793,0.978458646463104,0.972693385506981,0.966973798715639,0.970525312491506,0.984834617119511,0.999999999999999
1,0.89853223835176,0.911562412936972,0.961701990427853,0.920420434211946,0.921884416016571,0.953348854289152,0.905202926686493,0.914273741987518,0.931897065704144,0.917359232748653,0.927512553367206,1
0.999999999999999,0.957481152450996,0.943895295468552,0.939336646979646,0.95677400307023,0.962802772490803,0.962666094761268,0.952623600844354,0.94022316369098,0.95078515744843,0.956573154885205,0.957255494049709,0.999999999999999
1,0.980163352296378,0.961390000224381,0.962635121433605,0.957267795842901,0.967582324027248,0.973065739356066,0.966130098831397,0.96254957298996,0.9616055043049,0.96422947923932,0.979768122129525,1
1,0.95594464253156,0.967500419186771,0.951980742769791,0.929910373371254,0.968100930892735,0.964734581856279,0.963558916869463,0.947299520127909,0.965992892002285,0.951182057959501,0.951461169362738,1
0.999999999999998,0.978880480016447,0.953293293206118,0.963743171634422,0.966644065762362,0.968004458006691,0.973830787225678,0.968742715748952,0.961508298667947,0.95810701278008,0.962047614439574,0.97805137006169,0.999999999999998
0.999999999999999,0.957382486744273,0.953289687789082,0.966611127030182,0.947051952460433,0.946177055740758,0.965729358322925,0.953222154121948,0.938414528933481,0.963821311085344,0.944363931392675,0.961344684960461,0.999999999999999
0.999999999999999,0.96516029285645,0.962761538772812,0.931697853244955,0.945086565586455,0.922325532129968,0.948926041248329,0.951368765645801,0.957427556014117,0.938938706052121,0.942613617955397,0.927172884062367,0.999999999999999
1,0.959163748142932,0.956214735331931,0.973005268074056,0.943879923283756,0.957488352626462,0.969437092580497,0.954491627978676,0.947097123748816,0.970315502377767,0.961521224582979,0.963509232878175,1
0.999999999999998,0.930731632848034,0.93798857695809,0.922041100795794,0.931376190622329,0.936531388922423,0.944866785279212,0.927052704898394,0.941128266684852,0.939724722311166,0.928816068330843,0.928176388114449,0.999999999999998
1,0.964816003937652,0.961963035213268,0.970436501297753,0.960329813169269,0.964749490034033,0.978951787164737,0.956996341774572,0.965009498219133,0.967091502972324,0.957127410156072,0.96074134596488,1
0.999999999999999,0.978241214460151,0.975531836260039,0.981742186342212,0.976952370231171,0.969389091005,0.978668367838992,0.973660811498258,0.968904648957411,0.983334498146306,0.979364573449155,0.977129219280034,0.999999999999999
1,0.959903900390734,0.944001423213089,0.952597041707186,0.947160092662128,0.951460075913892,0.952920086489797,0.952778850659448,0.955682253092197,0.962562258912338,0.969014181521278,0.943290263117352,1
1,0.968995514513089,0.965817160707733,0.965368802024347,0.963802293552678,0.970382028344191,0.969606012029503,0.958935261069209,0.966668166273909,0.966713253995736,0.956064769129978,0.96609568574898,1
1,0.968261353321995,0.952636377014412,0.957154976882193,0.951647102000586,0.955359874187903,0.965608385009878,0.949002511606506,0.956941467186224,0.957457200192624,0.949299067849513,0.967958150152761,1
1,0.959679749426564,0.946938102142621,0.944125569814482,0.945695544463851,0.949106089783073,0.96110561763047,0.950538359946714,0.94933166232754,0.947493584293079,0.937689148948789,0.961110603439077,1
1,0.954271760003403,0.954229563604562,0.949414500929378,0.935607103317499,0.948373721511715,0.950644673577035,0.942946203640637,0.948737129859202,0.957452191307167,0.953489744927736,0.959736803066479,1
0.999999999999999,0.975603667864825,0.952125634354718,0.95385297597762,0.954109747374863,0.949987422582021,0.952959396627324,0.953514629420863,0.951557857529411,0.950621675533208,0.95335895658852,0.974868006877281,0.999999999999999
1,0.998996078174869,0.997032133711648,0.994796870883584,0.993328436027655,0.992012074708513,0.991019302592475,0.991454600172893,0.993107311106276,0.994796870883584,0.996767767858801,0.998939917253888,1
0.999999999999999,0.935097834454257,0.931705873303783,0.966145132029766,0.93112254554316,0.93240723671983,0.937206964606472,0.9383320433241,0.924227181280008,0.95379234360003,0.919428339748971,0.941902353053471,0.999999999999999
1,0.932605271349631,0.940862382098165,0.938592390236535,0.942267133233811,0.949065964528242,0.949936586382239,0.938617111114342,0.945966958487072,0.944038957285695,0.95814325168424,0.95449331502067,1
0.999999999999999,0.977397644026628,0.955344750329637,0.96411927146116,0.956523772710721,0.953599404325868,0.96262668152567,0.961682553452716,0.952622328480483,0.958989425250319,0.954634944010153,0.972125420307538,0.999999999999999
1,0.939203310538125,0.960014244873392,0.947318283509441,0.960164551285702,0.941989438656718,0.960531210449432,0.958790978473108,0.956443449737519,0.972802507560945,0.96665891405894,0.936829419697241,1
1,0.93117893560769,0.923057435741078,0.936738435386851,0.958948458615792,0.926625662442292,0.948696771094038,0.915931619028808,0.920443360522361,0.939334543874927,0.947271092444234,0.95370398993996,1
1,0.955068569604158,0.95687752970368,0.956695055637455,0.947887249215432,0.958832072270892,0.959092601882712,0.950679664804286,0.959293384426167,0.951339230008214,0.953252803403756,0.964205099717492,1
