r0,r30,r60,r90,r120,r150,r180,r210,r240,r270,r300,r330,r360
1,0,0,0,0,1,1,0,0,0,0,1,1
1,1,1,0,0,0,0,0,1,0,0,0,1
1,0,1,0,0,1,0,0,0,0,0,0,1
1,1,0,0,0,0,1,0,0,0,0,1,1
1,1,1,0,0,0,1,0,0,0,0,0,1
1,1,1,0,1,1,0,1,1,0,1,1,1
1,1,0,0,0,0,0,0,0,0,0,0,1
1,1,1,0,0,1,1,0,1,0,1,1,1
1,1,1,0,0,0,0,0,0,0,0,1,1
1,1,1,0,0,0,1,1,0,0,0,1,1
1,1,0,0,0,0,0,0,0,0,0,0,1
1,1,1,0,0,0,0,0,0,0,0,0,1
1,1,1,1,1,0,0,1,0,1,0,1,1
1,1,1,1,1,1,1,1,1,1,1,1,1
1,1,0,0,0,0,0,0,0,0,0,0,1
1,0,0,0,0,0,0,0,0,0,0,0,1
1,1,0,0,0,0,0,0,0,0,0,0,1
1,1,1,0,0,1,1,1,1,0,1,1,1
1,1,1,0,0,0,0,0,0,0,0,0,1
1,1,0,0,0,0,0,0,0,0,0,1,1
1,1,0,0,0,0,1,1,0,0,0,0,1
1,1,0,0,0,0,1,1,1,0,1,1,1
1,1,0,0,0,0,0,0,0,0,1,1,1
1,1,1,0,0,0,0,0,0,0,1,1,1
1,1,0,0,0,0,0,0,0,0,0,1,1
1,1,1,1,1,1,1,1,1,1,1,1,1
1,0,0,0,0,0,0,0,0,0,0,1,1
1,1,1,0,0,0,0,0,0,0,1,1,1
1,0,0,0,0,0,0,0,0,0,0,1,1
1,1,0,0,0,0,0,0,0,0,0,1,1
1,1,0,0,0,0,0,0,0,0,0,0,1
1,0,0,0,0,0,0,0,0,0,0,0,1
1,1,0,1,1,1,0,1,1,1,1,1,1
1,1,0,0,0,0,1,1,0,0,0,1,1
1,1,0,0,0,1,1,1,0,0,0,1,1
1,1,1,0,0,0,0,0,0,0,0,0,1
1,0,0,0,0,0,0,0,0,0,0,0,1
1,0,0,0,0,0,0,0,0,0,0,1,1
1,1,1,0,0,0,0,0,0,0,1,1,1
1,0,1,1,0,0,0,0,0,0,1,1,1
1,1,1,1,1,1,1,1,1,1,1,1,1
1,1,0,0,0,1,1,1,0,0,0,1,1
1,1,1,0,0,0,0,0,0,0,0,0,1
1,0,0,0,0,0,0,0,0,0,0,0,1
1,1,1,0,0,0,1,0,0,0,0,0,1
1,0,0,0,0,1,1,0,0,0,0,1,1
1,0,0,0,0,0,0,0,0,0,1,1,1
1,1,1,0,0,0,0,0,0,0,0,0,1
1,0,0,0,0,0,1,0,0,0,0,0,1
1,0,0,0,0,0,0,0,0,0,1,1,1
1,1,1,0,0,0,0,0,0,0,0,0,1
1,0,0,0,0,1,0,0,0,0,0,0,1
1,0,0,0,0,0,0,0,0,0,0,0,1
1,1,0,0,0,0,0,0,0,0,0,0,1
1,0,0,0,0,0,0,0,0,0,0,0,1
1,0,0,0,0,0,0,0,0,0,0,0,1
1,0,0,0,0,0,0,0,0,0,0,0,1
1,0,0,0,0,1,1,0,0,0,0,1,1
1,0,0,0,0,0,0,0,0,0,0,0,1
1,1,0,0,0,0,1,0,0,0,0,1,1
1,1,0,0,0,0,0,0,0,0,0,0,1
1,1,0,0,0,0,0,0,0,0,0,1,1
1,1,0,0,0,0,0,0,0,0,0,1,1
1,1,0,0,0,0,1,0,0,0,0,1,1
1,1,1,0,1,0,1,1,1,1,0,0,1
1,0,0,0,0,0,0,0,0,0,0,1,1
1,1,1,0,0,0,1,1,1,0,0,1,1
1,0,0,0,0,0,0,0,0,0,1,1,1
1,1,1,1,0,0,0,0,0,0,1,1,1
1,1,0,0,0,0,0,0,0,0,0,1,1
1,0,0,0,0,0,0,0,0,0,0,0,1
1,1,0,0,0,0,0,0,0,0,0,0,1
1,1,0,0,0,0,0,0,0,0,0,0,1
1,0,0,0,0,0,0,0,0,0,0,0,1
1,0,0,0,0,0,0,0,0,0,0,0,1
1,1,0,0,0,0,1,0,0,0,0,0,1
1,1,0,0,0,0,1,0,0,0,0,1,1
1,0,0,0,0,0,1,0,0,0,0,0,1
1,1,1,0,0,0,0,0,0,0,0,1,1
1,1,1,1,1,1,1,1,1,1,1,1,1
1,0,0,0,0,0,0,0,0,0,0,0,1
1,0,0,0,0,0,0,0,0,0,0,0,1
1,0,0,0,0,0,0,0,0,0,0,0,1
1,1,0,0,0,0,0,0,0,0,0,1,1
1,1,0,0,0,0,1,0,0,0,0,0,1
1,0,0,0,0,0,0,0,0,0,0,1,1
1,1,1,1,1,1,1,1,1,1,1,1,1
1,1,0,0,0,0,0,0,0,0,0,1,1
1,0,0,1,0,0,0,0,0,0,0,1,1
1,1,1,0,0,0,0,0,0,0,0,1,1
1,1,0,0,0,0,0,0,0,0,0,1,1
1,0,0,0,0,1,1,0,0,0,0,1,1
1,1,1,0,0,0,0,0,0,0,1,1,1
1,0,0,0,0,0,0,0,0,0,0,0,1
1,1,1,0,1,1,1,1,1,0,1,1,1
1,1,0,0,0,0,0,0,0,0,0,1,1
1,0,0,0,0,0,1,0,1,0,0,0,1
1,0,0,0,0,0,0,0,0,0,0,1,1
1,1,0,0,0,0,0,0,0,0,1,1,1
1,0,0,0,0,0,0,0,0,0,0,0,1
1,0,1,0,1,1,1,0,0,0,1,1,1
1,1,0,0,0,0,0,0,1,0,1,1,1
1,1,0,0,0,0,0,0,0,0,0,0,1
1,0,0,0,0,0,0,0,0,0,0,0,1
1,1,0,0,0,0,0,0,0,0,0,1,1
1,1,0,0,0,0,1,0,0,0,0,0,1
1,0,0,0,0,0,0,0,0,0,0,0,1
1,0,0,0,0,0,0,0,0,0,0,0,1
1,1,0,1,1,1,0,0,1,1,0,1,1
1,0,0,0,0,0,0,0,0,0,1,1,1
1,0,0,0,0,0,0,0,0,0,0,0,1
1,1,0,0,0,0,0,0,0,0,0,0,1
1,0,0,0,0,0,0,0,0,0,0,1,1
1,1,1,0,0,0,0,0,0,0,0,0,1
1,1,0,0,0,0,0,0,0,0,0,1,1
1,1,0,0,0,0,0,0,0,0,0,1,1
1,0,0,0,0,0,0,0,0,0,0,0,1
1,1,0,0,0,0,0,0,0,0,0,1,1
1,1,1,0,1,1,0,1,1,0,0,1,1
1,0,0,0,0,0,0,0,0,0,0,1,1
1,0,0,0,0,0,0,0,0,0,0,1,1
1,1,1,0,0,0,1,0,0,0,0,1,1
1,1,0,0,0,0,0,0,0,0,0,0,1
1,0,0,1,0,0,1,0,0,1,0,1,1
1,1,0,0,0,0,0,0,0,0,0,1,1
1,0,0,0,0,0,0,0,0,0,0,0,1
1,1,1,1,1,0,0,0,1,1,1,1,1
1,0,0,0,0,0,0,0,0,0,0,0,1
1,1,1,0,0,0,0,0,0,0,1,1,1
1,1,0,0,0,0,0,0,1,0,0,0,1
1,30,30,1,30,30,1,30,30,30,30,8,1
1,9,19,30,30,30,1,30,30,30,1,1,1
1,1,30,30,5,6,1,30,30,30,4,4,1
1,30,20,30,30,30,30,30,30,30,30,30,1
1,1,30,1,12,5,1,30,30,1,1,1,1
1,1,1,30,1,1,1,1,1,1,30,1,1
1,6,27,30,30,30,30,30,30,30,30,12,1
1,30,30,1,30,12,1,30,30,1,30,7,1
1,1,1,1,1,1,1,1,1,1,1,1,1
1,1,27,30,30,1,1,30,30,30,30,1,1
1,5,30,30,30,30,1,6,30,30,30,30,1
1,5,16,4,5,6,1,5,15,4,6,1,1
1,1,30,30,30,30,30,30,30,3,30,1,1
1,1,1,30,30,30,30,30,30,30,30,1,1
1,30,30,30,30,30,30,30,30,30,30,30,1
1,30,30,30,30,6,30,30,30,30,30,30,1
1,6,30,1,21,8,1,30,30,1,14,4,1
1,1,1,1,1,1,1,1,1,1,1,1,1
1,6,30,30,30,30,1,30,30,4,30,30,1
1,1,1,1,30,10,1,30,30,30,6,1,1
1,1,10,1,14,1,1,5,1,1,19,1,1
1,18,1,30,21,8,30,30,30,30,26,7,1
1,1,8,30,30,30,30,8,4,30,30,1,1
1,4,20,30,30,1,30,5,15,1,21,1,1
1,30,30,4,1,14,1,1,30,1,5,1,1
1,3,18,23,17,5,1,30,22,26,16,3,1
1,30,30,30,30,26,30,30,30,30,30,7,1
1,16,26,30,30,30,30,30,30,30,29,15,1
1,9,9,16,30,26,22,16,15,24,30,1,1
1,1,30,1,1,30,1,1,30,1,1,1,1
1,4,30,30,30,30,7,29,30,30,30,30,1
1,30,30,15,7,7,1,1,30,30,30,30,1
1,1,30,1,1,30,1,30,1,1,30,1,1
1,1,3,1,30,1,1,1,1,1,30,1,1
1,1,1,1,1,1,1,1,1,1,1,1,1
1,8,30,30,30,30,30,30,30,30,30,30,1
1,1,30,1,30,1,1,30,21,2,30,30,1
1,30,30,5,30,7,30,30,30,5,5,10,1
1,19,30,30,30,30,30,5,11,30,20,5,1
1,30,30,30,30,30,30,30,30,30,17,5,1
1,1,1,1,1,1,1,1,1,1,1,1,1
1,1,1,1,30,1,1,1,1,1,30,1,1
1,4,28,13,30,30,1,9,30,27,3,9,1
1,30,30,30,30,30,30,30,30,30,30,30,1
1,8,16,30,1,4,1,4,16,1,1,7,1
1,1,18,1,1,3,1,1,1,1,1,1,1
1,1,9,20,1,6,1,30,30,30,13,5,1
1,5,15,30,30,1,30,1,30,6,30,1,1
1,1,1,1,3,19,1,13,1,1,3,20,1
1,1,30,30,18,9,5,1,7,17,15,7,1
1,5,17,1,9,5,1,1,30,30,8,1,1
1,1,7,30,12,8,30,1,8,30,11,1,1
1,30,30,30,30,30,30,30,30,30,30,30,1
1,30,1,30,7,6,30,30,19,30,30,1,1
1,30,30,30,30,30,30,30,30,30,30,30,1
1,30,30,3,13,30,1,4,30,30,30,30,1
1,30,30,30,30,30,30,30,30,30,30,30,1
1,1,30,30,30,10,1,3,30,30,30,10,1
1,30,30,30,30,30,30,30,30,30,30,30,1
1,1,4,1,30,30,1,30,4,1,7,1,1
1,7,23,30,30,30,30,8,30,30,30,30,1
1,1,13,7,8,1,1,1,5,4,3,3,1
1,1,30,30,30,30,30,30,30,30,30,1,1
1,1,1,1,1,15,1,15,3,1,8,1,1
1,3,15,30,30,30,30,30,30,30,9,3,1
1,3,1,7,14,21,28,3,1,15,22,17,1
1,8,22,3,30,30,3,30,30,10,22,5,1
1,3,17,30,30,30,30,30,30,30,15,6,1
1,1,30,30,30,30,1,30,30,30,30,1,1
1,1,7,30,30,30,1,1,30,1,1,1,1
1,30,30,30,30,30,30,30,3,20,30,1,1
1,11,30,30,20,6,30,30,30,1,1,3,1
1,22,30,30,30,30,30,30,30,30,30,21,1
1,30,30,30,30,30,30,30,30,30,30,30,1
1,6,30,30,30,30,30,30,30,30,30,30,1
1,1,1,1,27,25,1,27,4,1,30,20,1
1,1,30,1,30,30,1,30,30,1,30,1,1
1,30,12,1,30,30,1,30,10,1,30,30,1
1,5,22,1,18,30,1,30,8,1,25,6,1
1,1,1,30,30,30,30,30,30,30,1,1,1
1,1,30,30,30,1,30,30,30,30,1,30,1
1,30,30,30,30,30,13,30,30,30,30,30,1
1,5,20,30,30,30,30,30,30,30,30,30,1
1,1,30,30,30,30,1,30,30,30,30,1,1
1,4,1,4,17,1,1,22,4,1,20,1,1
1,30,30,30,30,15,1,30,30,30,3,8,1
1,15,13,24,30,6,1,30,30,30,11,4,1
1,18,30,30,30,30,30,30,30,30,30,30,1
1,1,30,30,1,30,30,30,30,30,13,6,1
1,4,30,30,30,30,30,30,30,30,30,30,1
1,11,30,30,30,30,30,30,30,30,30,30,1
1,30,30,3,30,17,1,30,30,4,30,14,1
1,1,10,30,1,1,30,1,30,30,8,1,1
1,4,26,30,30,30,30,30,30,30,21,5,1
1,1,1,1,1,1,1,1,1,1,1,1,1
1,30,30,30,30,30,30,30,30,30,30,30,1
1,4,9,8,6,1,1,4,11,8,6,1,1
1,1,1,19,30,10,30,30,30,30,30,4,1
1,1,30,30,30,30,30,30,30,30,30,1,1
1,1,21,1,30,1,1,1,1,1,30,1,1
1,30,30,30,30,30,1,30,30,30,23,9,1
1,1,1,1,1,1,1,1,7,1,1,1,1
1,8,30,8,30,1,7,30,30,30,30,30,1
1,26,1,3,30,1,30,30,1,30,30,30,1
1,1,1,18,30,1,13,1,5,30,23,1,1
1,3,30,5,1,1,8,4,30,30,1,30,1
1,30,30,30,30,30,30,30,30,30,30,5,1
1,1,30,2,11,17,1,30,30,30,30,30,1
1,1,30,1,1,30,1,30,4,1,1,1,1
1,30,30,30,30,30,30,30,10,30,28,7,1
1,30,4,30,30,30,1,30,30,1,1,30,1
1,6,16,8,7,30,5,12,22,8,10,3,1
1,6,1,30,12,24,22,8,9,27,30,30,1
1,7,23,30,30,30,30,30,30,4,30,30,1
1,1,5,30,30,30,30,8,30,30,30,1,1
1,30,30,30,30,1,5,30,30,30,30,9,1
1,30,14,3,30,30,30,30,30,14,30,14,1
1,30,30,30,30,30,30,1,9,30,30,25,1
1,1,30,1,1,5,30,1,1,1,30,1,1
1,30,30,30,30,30,30,30,30,4,30,12,1
1,30,30,30,30,6,30,30,1,8,27,12,1
1,1,20,27,1,30,1,1,3,1,1,1,1
1,30,30,30,30,30,30,30,30,30,30,30,1
1,30,30,1,30,30,1,30,30,1,30,30,1
1,1,30,2,30,30,5,30,5,30,30,1,1
1,30,30,30,30,30,30,10,30,30,30,30,1
1,1,30,1,1,30,3,1,1,1,30,1,1
1,30,30,30,30,1,27,13,30,1,11,26,1
1,7,16,30,30,30,30,30,30,30,28,14,1
1,30,21,30,5,30,30,30,30,30,30,30,1
1,1,1,1,1,1,1,1,1,1,1,1,1
1,1,1,1,1,1,1,1,1,1,1,1,1
1,1,1,1,1,1,1,1,1,1,1,1,1
1,1,1,1,1,1,1,1,1,1,1,1,1
1,1,1,1,1,1,1,1,1,1,1,1,1
1,1,1,1,1,1,1,1,1,1,1,1,1
1,1,3,1,3,1,1,1,1,3,1,1,1
1,1,1,1,1,1,1,1,1,1,1,1,1
1,1,1,1,1,1,1,1,1,1,1,1,1
1,1,1,1,1,1,1,1,1,1,1,1,1
1,1,9,1,1,1,1,1,4,1,3,1,1
1,1,1,1,1,1,1,1,3,1,1,1,1
1,1,1,1,1,1,1,1,1,1,1,1,1
1,1,1,1,1,1,1,1,1,1,1,1,1
1,1,1,1,1,1,1,1,1,1,1,1,1
1,1,3,3,5,1,1,4,2,3,3,1,1
1,1,1,1,1,1,1,1,1,1,1,1,1
1,1,1,1,1,1,1,1,1,1,1,1,1
1,1,10,1,5,1,1,1,10,1,1,1,1
1,1,1,1,1,1,1,1,1,1,1,1,1
1,1,1,1,1,1,1,1,1,1,1,1,1
1,1,1,1,1,1,1,1,1,1,1,1,1
1,1,1,1,1,1,1,1,1,1,1,1,1
1,1,1,1,1,1,1,1,1,1,1,1,1
1,1,1,1,1,1,1,1,1,1,1,1,1
1,1,1,1,1,1,1,1,1,1,1,1,1
1,1,1,1,1,1,1,1,1,1,1,1,1
1,1,1,1,1,1,1,1,1,1,1,1,1
1,1,1,1,1,1,1,1,1,1,1,1,1
1,1,1,1,1,1,1,1,1,1,1,1,1
1,1,1,1,1,1,1,1,1,1,1,1,1
1,1,1,1,1,1,1,1,1,1,1,1,1
1,1,1,1,1,1,1,1,1,1,1,1,1
1,1,1,1,1,1,1,1,1,1,1,1,1
1,1,1,1,1,1,1,1,1,1,1,1,1
1,1,1,1,1,1,1,1,1,1,1,1,1
1,1,1,1,1,1,1,1,1,1,1,1,1
1,1,1,1,1,4,1,1,1,1,1,1,1
1,1,1,1,1,1,1,1,1,1,1,1,1
1,1,1,1,1,1,1,1,1,1,1,1,1
1,1,1,1,1,1,1,1,1,1,1,1,1
1,1,1,1,1,1,1,1,1,1,1,1,1
1,1,1,1,1,1,1,1,1,1,1,1,1
1,1,1,5,1,1,1,4,3,3,4,4,1
1,1,1,1,1,1,1,1,1,1,1,1,1
1,1,1,1,1,1,1,1,1,1,1,1,1
1,1,1,1,1,1,1,1,1,1,1,1,1
1,1,1,1,1,1,1,1,1,1,1,1,1
1,1,1,1,1,1,1,1,1,1,1,1,1
1,1,1,1,1,1,1,1,1,1,1,1,1
1,1,1,1,1,1,1,1,1,1,1,1,1
1,1,1,1,1,1,1,1,1,1,1,1,1
1,1,1,1,1,1,1,1,1,1,1,1,1
1,1,1,1,1,1,1,1,1,1,1,1,1
1,1,1,1,1,1,1,1,1,1,1,1,1
1,1,1,1,1,1,1,1,1,1,1,1,1
1,1,1,1,1,1,1,1,1,1,1,1,1
1,1,1,1,1,1,1,1,1,1,1,1,1
1,7,30,30,9,30,30,8,30,30,30,30,1
1,1,1,1,1,1,1,1,1,1,1,1,1
1,1,1,1,1,1,1,1,1,1,1,1,1
1,1,1,1,1,1,1,1,1,1,1,1,1
1,1,1,1,1,1,1,1,1,1,1,1,1
1,1,1,1,1,1,1,1,1,1,1,1,1
1,1,1,1,1,1,1,1,1,1,1,1,1
1,1,1,1,1,1,1,1,1,1,1,1,1
1,1,1,1,1,1,1,1,1,1,1,1,1
1,1,1,1,1,1,1,1,1,1,1,1,1
1,1,1,1,1,1,1,1,1,1,1,1,1
1,1,1,1,1,1,1,1,1,1,1,1,1
1,1,1,1,1,1,1,1,1,1,1,1,1
1,1,1,1,1,1,1,1,1,1,1,1,1
1,1,1,1,1,1,1,1,1,1,1,1,1
1,1,1,1,1,1,1,1,1,1,1,1,1
1,1,1,1,1,1,1,1,1,1,1,1,1
1,1,1,1,1,1,1,1,1,1,1,1,1
1,1,1,1,1,1,1,1,1,1,1,1,1
1,1,1,1,1,1,1,1,1,1,1,1,1
1,1,1,1,1,1,1,1,1,1,1,1,1
1,1,1,1,1,1,1,1,1,1,1,1,1
1,1,1,1,1,1,1,1,1,1,1,1,1
1,1,1,1,1,1,1,1,1,1,1,1,1
1,1,1,1,1,1,1,1,1,1,1,1,1
1,1,1,1,1,1,1,1,1,1,1,1,1
1,1,1,1,1,1,1,1,1,1,1,1,1
1,1,1,1,1,1,1,1,1,1,1,1,1
1,1,1,1,1,1,1,1,1,1,1,1,1
1,1,1,1,1,1,1,1,1,1,1,1,1
1,1,1,1,1,1,1,1,1,1,1,1,1
1,1,1,1,1,1,1,1,1,1,1,1,1
1,1,1,1,1,1,1,1,1,1,1,1,1
1,1,1,1,1,1,1,1,1,1,1,1,1
1,1,1,1,1,1,1,1,1,1,1,1,1
1,1,1,1,1,1,1,1,1,1,1,1,1
1,1,1,1,1,1,1,1,1,1,1,1,1
1,1,1,1,1,1,1,1,1,1,1,1,1
1,1,1,1,1,1,1,1,1,1,1,1,1
1,1,1,1,1,1,1,1,1,1,1,1,1
1,1,1,1,1,1,1,1,1,1,1,1,1
1,1,1,1,1,1,1,1,1,1,1,1,1
1,1,1,1,1,1,1,1,1,1,1,1,1
1,1,1,1,1,1,1,1,1,1,1,1,1
1,1,1,1,1,1,1,1,1,1,1,1,1
1,1,1,1,1,1,1,1,1,1,1,1,1
1,1,1,1,1,1,1,1,1,1,1,1,1
1,1,1,1,1,1,1,1,1,1,1,1,1
1,1,1,1,1,1,1,1,1,1,1,1,1
1,1,1,1,1,1,1,1,1,1,1,1,1
1,1,1,1,1,1,1,1,1,1,1,1,1
1,1,1,1,1,1,1,1,1,1,1,1,1
1,1,1,1,1,1,1,1,1,1,1,1,1
1,1,1,1,1,1,1,1,1,1,1,1,1
1,1,1,1,1,1,1,1,1,1,1,1,1
1,1,12,1,1,1,1,1,1,1,1,1,1
1,1,1,1,1,1,1,1,1,1,1,1,1
1,1,1,1,1,1,1,1,1,1,1,1,1
1,1,1,1,1,1,1,1,1,1,1,1,1
1,1,1,1,1,1,1,1,1,1,1,1,1
1,1,1,1,1,1,1,1,1,1,1,1,1
1,1,1,1,1,1,1,1,1,1,1,1,1
1,1,1,1,1,1,1,1,1,1,1,1,1
1,1,1,1,1,1,1,1,1,1,1,1,1
1,1,1,1,1,1,1,1,1,1,1,1,1
1,1,1,1,1,1,1,1,1,1,1,1,1
1,1,1,1,1,1,1,1,1,1,1,1,1
1,1,1,1,1,1,1,1,1,1,1,1,1
1,1,1,1,1,1,1,1,1,1,1,1,1
1,1,1,1,1,1,1,1,1,1,1,1,1
1,1,1,1,1,1,1,1,1,1,1,1,1
1,1,11,1,1,1,1,3,3,1,1,1,1
1,0.943344689154987,0.944561391981718,0.96056557570675,0.935274789427254,0.959398551700698,0.960508117822467,0.95008652612784,0.953745677794147,0.959943691201675,0.944864779033822,0.960544558648538,1
1,0.963146081405947,0.960709979032507,0.952478720338943,0.957325036846583,0.957575945687778,0.96707363796442,0.954316855475298,0.949626435717266,0.947829092584573,0.960175738199896,0.96536727181377,1
0.999999999999999,0.963928568869881,0.958112294101753,0.955720841179522,0.960658047708123,0.961792314220028,0.96129792360707,0.957642615564865,0.958398485785438,0.95184278596094,0.960674432828485,0.965570042565344,0.999999999999999
0.999999999999999,0.954328760483792,0.96023257888652,0.951763966564732,0.955454568903263,0.951623002722731,0.954380758428072,0.947857952360844,0.942495084185654,0.950806152263934,0.956780004642282,0.955020648816461,0.999999999999999
1,0.960112570584636,0.95972743809466,0.965560077478496,0.961891916859708,0.960210477599225,0.969802178297931,0.95891357630004,0.952479417974473,0.960407259597051,0.961019790854551,0.963511924549713,1
0.999999999999999,0.978218139111307,0.960805233568868,0.959080042111155,0.961534363713899,0.962660818866264,0.963145799088346,0.963617672172608,0.964327651115364,0.96336388327139,0.958702818796245,0.979555741506106,0.999999999999999
1,0.964392940024078,0.961533463189319,0.948007005836821,0.950164884314258,0.948435012650615,0.947634903992874,0.941598046108297,0.943190182908532,0.957414166782957,0.957080999508998,0.960034733683846,1
0.999999999999999,0.947197265617071,0.952936157129529,0.976860870408988,0.939762987213594,0.961831085156204,0.971293888262684,0.938140474392082,0.942750694827135,0.966536984723054,0.937533034173022,0.960658332932412,0.999999999999999
1,0.981532252014636,0.967565928395025,0.961474394973796,0.960934745432402,0.960475123537853,0.968837518057738,0.968362147833714,0.970412366785609,0.964740034729901,0.965442051130857,0.981216919438305,1
1,0.964551060337479,0.960710637542293,0.958604295016979,0.956834182688204,0.960950375564644,0.972588460278079,0.958795070165675,0.955005613282007,0.9579450383917,0.951296898833327,0.96602499114291,1
0.999999999999997,0.966997640017488,0.952053429765942,0.950288707874138,0.95596600364681,0.940702014869161,0.969883841514535,0.967798261559648,0.945317509183625,0.943284050343927,0.946281921954202,0.942574842543224,0.999999999999997
1,0.96305857088792,0.96409228487177,0.964786334440067,0.961526957250479,0.960147510918133,0.961064652916048,0.966581903487482,0.963897263172409,0.961008902623633,0.96562624388775,0.962786597829077,1
1,0.965561297481041,0.953173897670647,0.959829643623374,0.949727417388834,0.954183517946845,0.951291757084172,0.947337440551224,0.952332286033799,0.96062335226883,0.956293113446512,0.965189615832014,1
1,0.982994774429807,0.960189872595988,0.943603972144397,0.939740027816943,0.941287013539333,0.942444939609062,0.940734239251052,0.939409057800773,0.943603972144397,0.959536593229763,0.981824717820018,1
1,0.950555043803231,0.943269685368925,0.942197708374828,0.949461051237736,0.949579905346663,0.941981403980133,0.938899554969113,0.947846610265973,0.944003289573931,0.948045159050824,0.948946402138108,1
1,0.952693938422032,0.956427055779412,0.954897574852723,0.956896120307638,0.960101968314267,0.949537858121557,0.951573506464047,0.952788186991464,0.952218032404075,0.949149162922434,0.946834918698921,1
1,0.960003839091938,0.956597531631229,0.960681581456941,0.9603766027426,0.960099638867123,0.961768099802528,0.952481247955354,0.956661129150652,0.96489518881799,0.960152787961571,0.960141075275994,1
1,0.98077244685564,0.967084118162798,0.973004796440574,0.966986428375548,0.964475845735822,0.983984730563361,0.968500717245292,0.961529688647852,0.964713758460448,0.960973397975409,0.976459256342027,1
0.999999999999999,0.976908449470598,0.956506977905121,0.942839147968237,0.937057030156971,0.937374677466127,0.969883841514535,0.956554638770984,0.94506801401096,0.960336973492333,0.940244628999769,0.926261869290327,0.999999999999999
1,0.975212610221446,0.965844950089453,0.960812615386361,0.957629468913034,0.960118810979465,0.963977750414548,0.955285568152949,0.955064296122475,0.954684572573198,0.960269108042837,0.970438996484398,1
1,0.963006103494285,0.962692883308123,0.965802122896425,0.960004495459725,0.972706800041906,0.973472439889629,0.960053225490553,0.96367422207383,0.964482617870422,0.96050202894537,0.974007657297959,1
1,0.960861564229903,0.960379580453647,0.934514798582999,0.960177549780712,0.960260093392036,0.945767081449666,0.936104050229747,0.940215246131783,0.948616854562514,0.96048868886047,0.963413844541123,1
1,0.97588042505838,0.960379662069089,0.958138241798784,0.947751618797565,0.954578857475095,0.957569219842127,0.960097778037686,0.961065390361811,0.958049002850441,0.954518858193937,0.977025806895639,1
1,0.960777180503769,0.961520361077999,0.954229873745516,0.955596399831725,0.961088426089439,0.955025163549609,0.960009398638702,0.960240717763486,0.963803556890255,0.963443280894315,0.960330117870755,1
0.999999999999999,0.957917611215357,0.958614402463152,0.960770655707383,0.960396715834056,0.960026224890051,0.967446247772089,0.960518029336985,0.958230216554113,0.962174724424865,0.960020067836239,0.961688636149264,0.999999999999999
1,0.960597708524688,0.960386041021816,0.960314210920305,0.960996079569125,0.963852962661554,0.990112271216,0.959250128237844,0.960710910463472,0.961767402437086,0.961041958196621,0.960025240170982,1
1,0.951182662847119,0.950422320995192,0.95175721559961,0.944944327578338,0.960236126704426,0.955448785265031,0.955904390861436,0.95801752287889,0.943842642083507,0.942741700185254,0.963006403128269,1
1,0.961034154416216,0.961596076554979,0.939276730089962,0.94239570167518,0.947120135070481,0.952048239695451,0.942185919532039,0.938718232899188,0.944928410264352,0.961838328206515,0.962620286784343,1
1,0.96010437037494,0.962071203559857,0.960229564552999,0.957364216215662,0.960094917709667,0.960108671588928,0.96005273245213,0.960206481790842,0.960072335743756,0.956209448243364,0.965789973902007,1
1,0.968197379157255,0.954509506765497,0.973457932779483,0.975181660029085,0.956394349230624,0.967997770743624,0.963436003108951,0.958345449023502,0.965784583182142,0.967889638669281,0.968621065314828,1
1,0.961441887074309,0.945191059203151,0.958295444219863,0.958537476595078,0.957331680363559,0.960981523086917,0.960066403116547,0.955508113261883,0.956938420464319,0.957371338871229,0.956660436097011,1
0.999999999999999,0.960188841672351,0.955819222550301,0.960648926270489,0.960236729434226,0.960267445334402,0.964461508329422,0.965999900599345,0.956633324645311,0.959380060938477,0.954108241152574,0.94451129501056,0.999999999999999
0.999999999999999,0.966834391688362,0.957969031437729,0.971169099138702,0.969963827870123,0.95498992256228,0.972271845068994,0.958889353840169,0.970987324316789,0.971169099138702,0.954290031792238,0.969324140530779,0.999999999999999
0.999999999999997,0.973388092123497,0.961172025216246,0.960906401078231,0.957361190509493,0.961187852578114,0.967571261502946,0.965228689926219,0.966122593543615,0.963056008924421,0.949185152212717,0.969706613066471,0.999999999999997
0.999999999999999,0.984320483871226,0.965682449575955,0.965784583182142,0.962142823035536,0.96836353507954,0.985250478682168,0.977369904308058,0.970065464379248,0.973457932779484,0.964554962904757,0.977989953540435,0.999999999999999
0.999999999999998,0.961023205885852,0.960494803534944,0.944830433493717,0.945436197519777,0.946863607169647,0.954248372020053,0.952693138986528,0.953128285828171,0.957090230315994,0.954157251696858,0.956206120596547,0.999999999999998
1,0.97669912369335,0.952821671966598,0.963355453483063,0.958241147060195,0.960941434393528,0.96106465291605,0.958266260789844,0.961049775189875,0.960998254784369,0.954944558219212,0.958537499473196,1
1,0.94988952242621,0.956855354791464,0.964115565200485,0.958437647840707,0.961287658049161,0.952265665103855,0.954172182217186,0.955571989176852,0.963543757967693,0.96220002357435,0.967502050426967,1
0.999999999999998,0.960110002216531,0.954058643971073,0.951273301508123,0.948124637295774,0.950979267018695,0.950201541089529,0.960611543420922,0.960512330658811,0.958295309789865,0.963000691234798,0.96239776118287,0.999999999999998
1,0.932119737292915,0.959755220855789,0.951856595258439,0.934819558032115,0.935814772719216,0.942357369035393,0.935050785318302,0.938385794554139,0.936878770455557,0.963432509042982,0.971580890447246,1
1,0.992334975483371,0.988032415945244,0.990754977231299,0.989807295235748,0.989104056678602,0.991308586354267,0.98526783921616,0.983454641341478,0.990754977231298,0.993957752656849,0.995694721635314,1
0.999999999999999,0.974572754774649,0.962492331435836,0.962174724424864,0.959309682662747,0.960460303121924,0.970488624635202,0.966564188684616,0.9600274066863,0.961948398365048,0.954356957029427,0.97103987064479,0.999999999999999
1,0.960565134161175,0.960053781496001,0.960439108868632,0.957786117888589,0.950208616736391,0.962203835041008,0.96092443817896,0.9499130800502,0.960078534871468,0.960879713553018,0.960182351308412,1
0.999999999999999,0.941926467045329,0.943101976130287,0.937298726169531,0.946485839311188,0.959946174161873,0.945608676512277,0.948647748841647,0.937788001436211,0.939466830852099,0.941313553065302,0.9374461799848,0.999999999999999
1,0.961971684266714,0.966171607318158,0.957568651968449,0.966807916717744,0.961298438078903,0.978233440491491,0.960373584350441,0.961831334432656,0.967517148854738,0.960985052487178,0.960779349130635,1
1,0.97080185405545,0.960543080000715,0.965008641750879,0.96065285199913,0.960378285343428,0.982431879001314,0.971394875002571,0.960827768461787,0.964862281015458,0.966206667463318,0.961954429719926,1
1,0.960768660494343,0.961953400705226,0.960738636250591,0.960196246392199,0.964979989391954,0.971497523644369,0.958625863250935,0.957015617941465,0.954462975046637,0.969952239903872,0.971959155575367,1
0.999999999999999,0.967866150389295,0.963025778288584,0.955566743441999,0.959714239537577,0.960945879411355,0.957360567034691,0.963125666301832,0.958141266163929,0.962518298087761,0.957681628021767,0.962155608757877,0.999999999999999
1,0.970697943865361,0.971224570394239,0.967517148854737,0.96088483401185,0.962679544253657,0.970400945666175,0.962701051307081,0.967780359860664,0.970347509683012,0.961813525784555,0.96160743406014,1
0.999999999999999,0.962778029110815,0.955315394940067,0.958948202024815,0.965481360979206,0.960054462469588,0.960162234681657,0.96107560450614,0.963178900541547,0.960790033627736,0.967391513207063,0.963783267575027,0.999999999999999
1,0.974021411081463,0.967447914945127,0.96816557110947,0.96373928631369,0.960406726633764,0.960225858690983,0.974216364979589,0.957146875436527,0.956080024639273,0.964582495771269,0.967826704091338,1
1,0.978262991909979,0.963196390093671,0.956276059080567,0.966033759269108,0.961047486438366,0.958606010819929,0.967582500374598,0.960411678494463,0.954357115273942,0.96464992315239,0.967539040830319,1
1,0.95921293763776,0.946706949877634,0.950385581883291,0.949891099143645,0.953207512720922,0.943640549767006,0.957335719267207,0.954461264084273,0.950918301454346,0.953496224429873,0.951273885984862,1
1,0.950644103215955,0.964480220685062,0.958863191378355,0.960163682429564,0.960050554913674,0.957781422142135,0.937414504777319,0.961613328210415,0.959242220153005,0.953331107631354,0.973857551843036,1
1,0.919376945191785,0.939855807634088,0.930949418199854,0.919940019800304,0.924005392202465,0.926845992186633,0.92525359982345,0.920911941714869,0.932441660564925,0.939408648868498,0.926864121478006,1
1,0.957747190205361,0.949443053418698,0.961297094572252,0.961739386140221,0.92842190110367,0.960820116535268,0.960537535296269,0.953783182566616,0.958006332776826,0.958926699438749,0.917782935483294,1
1,0.929779042568733,0.950643850285265,0.942826819394476,0.92685051843183,0.936900637041028,0.936451330714423,0.928794270929748,0.928055316066435,0.948231648854973,0.937150248580355,0.938125310412804,1
1,0.967745917658246,0.949882746586503,0.95325505296573,0.953826769279574,0.962555761365532,0.965558234508277,0.961352798711725,0.956945828913146,0.954504450671535,0.945631993659974,0.968939300952679,1
0.999999999999999,0.919791827195629,0.878741054017655,0.899758721948007,0.915611153432195,0.909791461457235,0.896614100124854,0.916685650563327,0.892334920082582,0.891974743714869,0.902312399670363,0.891939170802621,0.999999999999999
1,0.966836772573805,0.960920677407435,0.963766913242669,0.951952073094936,0.947164406885549,0.973568565827135,0.950990789631393,0.960824662782333,0.967825034704181,0.960037912169107,0.96398078159847,1
1,0.962962076019246,0.961375521078096,0.953824446445801,0.952495999402046,0.957417497117092,0.947308024952394,0.960237474268979,0.958847702483631,0.959744982284695,0.945906656378726,0.939725605223805,1
0.999999999999999,0.960456500939843,0.960485047707813,0.960436466740139,0.960129932744124,0.974935697100314,0.970715807062613,0.962436840213388,0.960819059909716,0.960398577169972,0.961299260329357,0.964037125265042,0.999999999999999
1,0.975343277462603,0.9470064580042,0.952729759617287,0.950649590217261,0.94627836705409,0.94657503025281,0.94407663931569,0.951986145787409,0.951684638805818,0.953861888293771,0.97061326726922,1
1,0.969361499502086,0.96188144045996,0.964482617870421,0.967607164262165,0.960082158228471,0.963244921535053,0.961909051584777,0.962409052328551,0.96500864175088,0.960040505573719,0.970653703023675,1
1,0.960181778262751,0.965044498501444,0.953512891903201,0.950026365644496,0.951286145155436,0.949799968083514,0.954120693702788,0.94708210554261,0.956445258253453,0.961474592856038,0.96028139158855,1
1,0.9647555796189,0.960080842213986,0.960569815282146,0.96029758335393,0.961993806088194,0.96049432137263,0.960508497603436,0.963299524487856,0.960527926549825,0.962157450734695,0.960107019565515,1
1,0.96033050948124,0.960707013066962,0.960625513369312,0.957358289202347,0.958739119411489,0.960239031555544,0.954512323767721,0.952472756736039,0.960058153662741,0.962294598459423,0.961286330189005,1
1,0.961092683850424,0.960117669651263,0.931210823192984,0.939372490861265,0.947429356180105,0.934147444555713,0.932770640305116,0.939353214508266,0.938018497127574,0.961089872926616,0.96211518973131,1
1,0.973217815789577,0.952865960631105,0.950318768924596,0.951712536014968,0.948156026679438,0.961495131256464,0.951369247848056,0.955595249233813,0.956392063128284,0.956301844690268,0.973009285285921,1
1,0.976250626794911,0.960098552427758,0.956762787965634,0.956749508388807,0.957596197322894,0.96435281430358,0.963208942965938,0.959610659965895,0.960596412312863,0.964073248066216,0.976149255635789,1
1,0.95423671728717,0.958148856896494,0.958615626158582,0.948144292757856,0.952995446887101,0.955795702360223,0.950757218667505,0.960043748088694,0.960100700725365,0.955683482102978,0.974418093272549,1
1,0.960481593951035,0.955747028343736,0.959603778894154,0.960918048777355,0.961719856596273,0.959584946651041,0.946644418961939,0.955698053144797,0.964162914704136,0.961321443197343,0.960211938952353,1
1,0.960575503139939,0.932417225431533,0.946745346565461,0.934587028856695,0.938803057946454,0.94116171983783,0.936461509536066,0.937867565867422,0.947905756009354,0.952391675334342,0.960043222447988,1
1,0.943379329286248,0.946349953982252,0.937057223665944,0.937619663432737,0.939774177429089,0.94371183095153,0.935091619454053,0.949137980402837,0.944259942429171,0.940163795385102,0.94360748439944,1
1,0.96098269203452,0.941789688755015,0.95551669859071,0.959535724761629,0.94119367582208,0.949463041141709,0.946908206616957,0.951652840522361,0.947439006564482,0.958761635224575,0.958781081213294,1
1,0.960194297261564,0.961096965789931,0.973926863630752,0.960056793137768,0.960270480852578,0.980596994720889,0.962823000114116,0.962822665626047,0.966693379956084,0.957390139955958,0.960932571040802,1
1,0.962914595621494,0.955139809461838,0.962526698478357,0.951057243683009,0.956674873573502,0.968038586080473,0.949696413173649,0.958579424588688,0.967941484634614,0.953758524185107,0.965316366385773,1
1,0.946834411204131,0.961443210802937,0.966536984723054,0.946054401334148,0.950040428409589,0.97535007810916,0.948615203461957,0.962168257117772,0.976860870408987,0.957743486513685,0.946712728818742,1
1,0.960424958563522,0.960992964084774,0.966665325355354,0.961410994241575,0.95903286292304,0.967311803463211,0.953838966670024,0.960191213845859,0.964888730211388,0.960696129444959,0.961785879262902,1
1,0.983155214546799,0.964298392778679,0.957778575653795,0.95348885340201,0.955512063530078,0.959926221969302,0.958514142317784,0.957557486471393,0.958928789695218,0.964929603321703,0.98038548580213,1
0.999999999999999,0.960769279986486,0.944597082624419,0.950980695008992,0.952588587611128,0.967644824001032,0.953491875960669,0.955785292895293,0.945432597208404,0.949833838447898,0.962271685450579,0.956135025632503,0.999999999999999
1,0.956988379686388,0.957672457741794,0.958761949783409,0.956609124608509,0.953665375811078,0.960449882163595,0.953943074597098,0.951974036582383,0.959425594696413,0.955388935416518,0.947891327408438,1
1,0.960155906019782,0.960244667798764,0.958544438029635,0.958900960426838,0.945526230202271,0.949861914194897,0.95915381378523,0.956620690531337,0.95554055092104,0.957887198994334,0.951813081251804,1
0.999999999999999,0.962466181101377,0.949465944674044,0.953848115475713,0.946810711831272,0.952308958448383,0.961495131256465,0.945275672119436,0.944741213570154,0.950924986014346,0.954160523695211,0.965772269579773,0.999999999999999
1,0.961007276755122,0.96097769613745,0.96051594996188,0.960814953354512,0.961891279164389,0.967648915157863,0.9600784787975,0.962106318984549,0.973926863630752,0.960556868288022,0.972022764423745,1
1,0.956912952478622,0.957802036345281,0.950788496960247,0.944648568115106,0.962535627768194,0.971497523644369,0.95851567958322,0.959826603762945,0.952949730370702,0.960016933176298,0.960925573774929,1
1,0.960399950562036,0.961164582371439,0.961251920823575,0.958428370769124,0.964531810628575,0.978855775259561,0.948585229428575,0.946206757700232,0.94876216248354,0.970587683231504,0.964207151598863,1
0.999999999999999,0.960776873315446,0.94038218253836,0.931186083606882,0.934248962052777,0.948385781042629,0.945058969966344,0.944226899800339,0.941251868298199,0.946560047457445,0.953019355211668,0.953764393166584,0.999999999999999
1,0.96671763741189,0.954824494230654,0.948078426734309,0.962754330309943,0.950216769879799,0.959028120216531,0.952910203256588,0.948017842815444,0.94655323822401,0.96199348320412,0.960342353610799,1
1,0.963453552720815,0.946016147951439,0.94928839630732,0.956465930489159,0.954634771582851,0.946246443141622,0.955653823662747,0.955508073658653,0.942696552074066,0.940198792441721,0.953842771366748,1
0.999999999999997,0.960093553844405,0.939723090949986,0.937003479755602,0.950320749044745,0.950775904938889,0.934554509471131,0.943911456235279,0.947871426169948,0.939911183856678,0.942849644829668,0.954254009897079,0.999999999999997
0.999999999999999,0.954974680538358,0.949730020898417,0.967272573785945,0.951080599742413,0.964796315879282,0.984572325784157,0.952376158224107,0.948230989704088,0.961613152602362,0.949692007043284,0.964912920228085,0.999999999999999
1,0.983282962600983,0.9602602504346,0.95207556378733,0.966118325600579,0.963759734315171,0.959830916055433,0.960030872936469,0.958734458472261,0.949011748487234,0.960180966711589,0.98241424924421,1
0.999999999999998,0.960145557208666,0.960202987483721,0.958019489293133,0.954487212610807,0.955189953910851,0.953018558485795,0.951560541106882,0.956585281396035,0.957469773728086,0.960584892678281,0.960917397276666,0.999999999999998
1,0.987521204302935,0.96637198863256,0.970347509683012,0.969599473330652,0.981766360708851,0.987996853720277,0.979607316276327,0.96329031899175,0.962305498412955,0.973400046230307,0.990352251727884,1
1,0.94446623170563,0.928176588133909,0.933086773049534,0.935952049863864,0.941875500848824,0.932611945246512,0.929538318814189,0.932301354993426,0.930255012368251,0.929119230592203,0.949394740184621,1
1,0.963643690029631,0.96289672724562,0.961888417607119,0.961210643803907,0.965548064329687,0.983606179772509,0.960311766290943,0.96825992781933,0.962518316171113,0.972293191981919,0.974815367381265,1
0.999999999999997,0.960182953090513,0.963711805025404,0.960436942412557,0.950039558783463,0.96026027188364,0.952854408024627,0.957417087247388,0.951945362718751,0.951881744252144,0.954579304540884,0.960848609232963,0.999999999999997
1,0.962777844392532,0.957219619928752,0.927449842110455,0.942525914151759,0.944259332322701,0.942620202246717,0.943989946214112,0.940659493670122,0.94580923390886,0.957275955388299,0.962714024884969,1
1,0.965570193871829,0.96008592218467,0.967825034704181,0.953340287212015,0.961765074774528,0.972274326087952,0.960602110505833,0.968412133192683,0.967346351808378,0.958600695710753,0.96624667678884,1
1,0.957770550088236,0.956766747628994,0.95192418052339,0.956589620016884,0.959557255396884,0.964359381690604,0.957011820023988,0.958665727001533,0.955706247306927,0.965529765899672,0.961027559242389,1
0.999999999999999,0.976720846281562,0.967079852241167,0.967941484634614,0.966757674723269,0.969774142466579,0.968837518057737,0.962116181308606,0.960091267401356,0.962526698478358,0.965604765014772,0.978431165844656,0.999999999999999
0.999999999999998,0.961104769817552,0.959137891009739,0.963030651293701,0.958208413142762,0.966918630571252,0.963289279632589,0.953827390212852,0.958257553730306,0.950593717470307,0.943408525685115,0.940276647605661,0.999999999999998
1,0.960137502451277,0.963116062539325,0.960445240698201,0.956811862422579,0.96295747118656,0.956469196372989,0.955342138461134,0.960938962908003,0.956163105967569,0.944736986486387,0.957692587789259,1
1,0.97031447315112,0.962361751348468,0.960164182165895,0.953839119996815,0.961571793433991,0.96109989900395,0.962790809076981,0.960726103078016,0.959856424107884,0.960393264522529,0.968124654525893,1
1,0.960846212149782,0.957798388940408,0.960606457539985,0.971389538096567,0.9643391405867,0.960132449898292,0.960488494213644,0.951825278851022,0.958154253228315,0.962899811296831,0.959827316132424,1
1,0.949915870411812,0.957943390980504,0.95344211647564,0.952887716445639,0.957635830089299,0.955488323672019,0.954131064665708,0.95954370490827,0.952809451519492,0.953394311076876,0.962142109159145,1
0.999999999999997,0.962583120205155,0.95747863211553,0.960196996920595,0.960474297459021,0.960021889065669,0.962203835041008,0.948914792354867,0.959261916923846,0.95806651582142,0.957540596636883,0.959512088047296,0.999999999999997
1,0.966902594710327,0.955436116041877,0.967018855859856,0.960860001504633,0.955969901004982,0.972271845068993,0.958046369235438,0.960864082454282,0.967018855859856,0.960532495334859,0.967640142651616,1
1,0.954454504388891,0.951130205935835,0.946875833514662,0.958315159185343,0.958947954977747,0.955795491419867,0.959808735628135,0.961477389261415,0.958438829711298,0.962380145759906,0.961113917200271,1
1,0.953220722030759,0.960895831215414,0.954357133398114,0.945824155963914,0.944795761656784,0.960820116535268,0.944724673393894,0.951301909037881,0.963355453483064,0.965150003396539,0.933207614636615,1
0.999999999999997,0.9661245139653,0.96535514031722,0.961703934006334,0.961513339781158,0.95921809857571,0.962505360133144,0.96230351658347,0.960056811953772,0.961182963879525,0.96037745196969,0.960759997053377,0.999999999999997
1,0.961238807279681,0.96293736832984,0.958061911404428,0.961573566424202,0.960318368086212,0.960210687424501,0.960551708246179,0.960955853852068,0.960492236271966,0.959171325431207,0.958865692680881,1
1,0.970591986211757,0.961942310866564,0.958536162001547,0.945812635304523,0.942663053799337,0.955537644901949,0.95203718784814,0.949726651176037,0.962129581173522,0.945642743779763,0.939602567918205,1
1,0.968857817288361,0.960092246934682,0.94638742889337,0.955820455888898,0.958350450935219,0.95036473218109,0.960579962573741,0.959537034753248,0.953999586855387,0.955746043302611,0.9664098488224,1
0.999999999999999,0.947878486794443,0.948861694161028,0.943786047825128,0.952581756732336,0.964116816700837,0.960426629121908,0.956317627089714,0.955698471367553,0.950557664154303,0.959567124143277,0.961289971005872,0.999999999999999
1,0.951375933865254,0.96265998053597,0.962946732495577,0.951395947749354,0.951283157415065,0.959380140140375,0.949900006615243,0.954798598582182,0.960102104716262,0.950853603498579,0.96026606631993,1
1,0.948001659102244,0.940409147755402,0.955463215652911,0.939834273161175,0.953460850000613,0.951029092092075,0.964630532309329,0.960630458417428,0.953096028501852,0.950810812611562,0.96090922737661,1
1,0.970866506797138,0.950844012031484,0.962547682457126,0.962402926354527,0.960306965395893,0.959007955786562,0.966888947150169,0.964894073978188,0.960617934130403,0.957569827160668,0.973203030136472,1
1,0.955263373799829,0.957032855490728,0.950921873289178,0.935538695090823,0.948781129103342,0.94627665028167,0.944007446475382,0.956197654288354,0.960218501587271,0.934891777190824,0.961948476554515,1
1,0.951768647203073,0.946093885997057,0.953394171877419,0.957017958822885,0.962062010551902,0.953879145758982,0.955828762495527,0.960108660266448,0.960375466591724,0.96015151386371,0.960128819801729,1
0.999999999999999,0.965527809878069,0.960826083227085,0.960864113036113,0.964982683945323,0.959310449522115,0.967808408658838,0.962619446659719,0.960670785682206,0.961553317429824,0.969836398963628,0.9655426431558,0.999999999999999
1,0.929069696180741,0.937043035952945,0.933848527861795,0.931341092866956,0.940610790521823,0.93933868233663,0.925764341654836,0.929596943369385,0.938645247346008,0.934892333752989,0.948160852232733,1
1,0.956422234261112,0.950420937268555,0.960399743586546,0.953148031140608,0.951123059512741,0.966752645080261,0.94950073801311,0.943696194462338,0.960399743586546,0.947838052890671,0.956049215046925,1
1,0.961282209567007,0.950825661680971,0.960098449788178,0.952825221277363,0.955305278144806,0.960095821647749,0.955315864554318,0.960843865170816,0.956847860559083,0.951095112476958,0.961881446582002,1
1,0.954590744239142,0.95593912870358,0.946075354726681,0.945891524376843,0.944498820971119,0.954957151340322,0.962660693569187,0.950921192723512,0.936197959787869,0.941436541812931,0.935096115949195,1
1,0.972186441765005,0.950418448076342,0.963175891920228,0.967160371610518,0.957170792863166,0.960103856608159,0.962314231599714,0.968416643749562,0.963175891920228,0.950888611843607,0.974817203382829,1
1,0.955651998871687,0.956303960605649,0.954894943469979,0.956306426058873,0.967534642879031,0.960250556555121,0.961890778153348,0.959902522112965,0.96816557110947,0.963867752065371,0.962728543451696,1
0.999999999999999,0.96579193062985,0.967710199545982,0.94929975973057,0.947976403437544,0.955243146833188,0.942971565657465,0.94277239282209,0.940959380498865,0.952289710138409,0.960300434161421,0.960258910109225,0.999999999999999
0.999999999999997,0.959652707047432,0.960157811510337,0.956593787550299,0.961029991057614,0.946790069862151,0.953539627657166,0.937462443121697,0.924124173314225,0.956482791024088,0.951446298164489,0.94157370356884,0.999999999999997
1,1,0,0,0,0,1,1,0,0,0,0,1
1,0,0,0,0,0,0,0,0,0,0,0,1
1,1,0,0,0,0,0,0,0,0,1,1,1
1,0,0,0,0,0,0,0,0,0,0,0,1
1,1,0,0,0,0,1,0,0,0,0,1,1
1,0,0,0,0,0,0,0,0,0,0,1,1
1,1,0,0,0,0,0,0,0,0,0,1,1
1,0,0,0,0,0,0,0,0,0,0,0,1
1,1,0,0,0,0,1,0,0,0,0,1,1
1,1,0,0,0,0,0,0,0,0,0,0,1
1,0,0,0,0,1,1,0,0,0,0,0,1
1,0,0,0,0,0,0,0,0,0,0,0,1
1,0,0,0,0,0,0,0,0,0,0,1,1
1,1,0,0,0,0,0,0,0,0,0,0,1
1,0,0,0,0,0,0,0,0,0,0,0,1
1,1,0,0,0,0,0,0,0,0,0,1,1
1,0,0,0,0,0,0,0,0,0,0,1,1
1,0,0,0,0,0,0,0,0,0,0,1,1
1,0,0,0,0,0,0,0,0,0,0,1,1
1,1,0,0,0,0,0,0,0,0,0,1,1
1,0,0,0,0,0,1,0,0,0,0,0,1
1,0,0,0,0,0,0,0,0,0,0,0,1
1,1,0,0,0,0,1,0,0,0,0,1,1
1,1,0,0,0,0,0,0,1,0,0,0,1
1,1,0,0,0,0,0,0,0,0,0,1,1
1,1,1,0,0,1,1,1,1,0,0,1,1
1,1,0,0,0,0,0,0,0,0,0,1,1
1,1,1,1,1,1,1,1,1,1,1,1,1
1,0,0,0,0,0,0,0,0,0,0,0,1
1,0,0,0,0,0,0,0,0,0,0,0,1
1,0,0,0,0,0,1,0,0,0,0,0,1
1,1,0,0,0,0,1,0,0,0,0,0,1
1,1,1,0,0,0,0,0,1,0,1,1,1
1,0,0,0,0,0,0,0,0,0,0,1,1
1,0,0,0,0,0,1,0,0,0,0,0,1
1,1,0,0,0,0,0,0,0,0,0,1,1
1,0,0,0,0,0,0,0,0,0,0,0,1
1,1,0,0,0,0,1,1,0,0,0,0,1
1,0,0,0,0,0,0,0,0,0,0,0,1
1,1,1,1,1,1,1,1,1,1,1,1,1
1,1,0,0,0,0,0,0,0,0,0,1,1
1,0,0,0,0,0,0,0,0,0,0,0,1
1,0,0,0,0,0,0,0,0,0,0,0,1
1,0,0,0,0,0,0,0,0,0,0,1,1
1,1,0,0,0,0,0,0,0,0,0,0,1
1,1,0,0,0,0,0,0,0,0,0,0,1
1,0,0,0,0,0,0,0,0,0,0,0,1
1,1,0,0,0,1,1,0,0,0,0,1,1
1,0,0,0,0,0,0,0,0,0,1,1,1
1,0,0,0,0,1,1,0,0,0,0,0,1
1,1,1,1,1,1,1,1,1,1,1,1,1
1,0,0,0,0,0,0,0,0,0,0,0,1
1,1,1,0,0,0,0,0,0,0,0,0,1
1,1,0,0,0,0,0,0,0,0,0,1,1
1,0,0,0,0,0,0,0,0,0,0,0,1
1,0,0,0,0,0,0,0,0,0,0,0,1
1,1,0,0,0,0,0,0,0,0,0,1,1
1,0,0,0,0,0,0,0,0,0,0,0,1
1,1,0,0,0,0,1,0,0,0,0,0,1
1,0,0,0,0,0,1,0,0,0,0,0,1
1,1,0,1,1,1,0,1,1,1,0,1,1
1,1,1,0,0,0,0,0,0,0,0,1,1
1,1,0,0,1,1,0,1,1,0,0,0,1
1,0,0,0,0,0,1,0,0,0,0,0,1
1,0,0,0,0,0,1,0,0,0,1,0,1
1,1,1,0,0,0,0,0,0,0,0,0,1
1,0,0,0,0,0,0,0,0,0,0,0,1
1,0,0,0,0,0,0,0,0,0,0,0,1
1,1,0,0,0,0,0,0,0,0,0,0,1
1,0,0,0,0,0,0,0,0,0,0,0,1
1,0,0,0,0,0,0,0,0,0,0,0,1
1,0,0,0,0,0,0,0,0,0,0,1,1
1,1,0,0,0,1,1,1,0,0,0,1,1
1,0,0,0,0,1,1,0,0,0,0,1,1
1,0,0,0,0,0,0,0,0,0,0,0,1
1,0,0,0,0,0,0,0,0,0,0,0,1
1,0,0,0,0,0,0,0,0,0,0,0,1
1,0,0,0,0,0,0,0,0,0,0,0,1
1,0,0,0,0,0,1,0,0,0,0,0,1
1,0,0,0,0,0,0,0,0,0,0,0,1
1,1,0,0,0,0,0,0,0,0,0,0,1
1,1,0,0,0,0,0,0,0,0,0,1,1
1,1,0,0,0,0,0,0,0,0,0,1,1
1,1,0,0,0,0,0,0,0,0,0,1,1
1,1,1,0,0,0,0,0,0,0,1,1,1
1,1,0,0,0,0,0,0,0,0,0,1,1
1,1,1,1,1,1,0,1,0,1,1,1,1
1,1,0,1,0,0,0,0,1,1,0,1,1
1,1,1,0,0,1,1,1,0,0,0,1,1
1,1,1,1,1,1,0,1,1,1,1,1,1
1,1,0,0,0,1,1,0,0,0,0,1,1
1,1,1,1,1,1,1,1,1,1,1,1,1
1,0,0,0,0,0,0,0,0,0,0,0,1
1,1,0,0,0,0,0,0,0,0,0,1,1
1,0,0,0,0,0,1,0,0,0,0,0,1
1,0,0,0,0,0,0,0,0,0,0,0,1
1,1,0,0,0,0,0,0,0,0,0,0,1
1,1,0,0,0,0,1,0,0,0,0,1,1
1,1,0,0,0,0,0,0,0,0,0,0,1
1,1,0,0,0,0,0,0,0,0,0,1,1
1,1,0,0,0,0,0,0,0,0,0,0,1
1,1,0,0,0,0,0,0,0,0,0,0,1
1,0,0,0,0,0,0,0,0,0,0,1,1
1,1,0,0,0,0,0,0,0,0,0,1,1
1,0,0,0,0,0,0,0,0,0,0,0,1
1,1,1,0,1,1,1,1,1,0,1,1,1
1,1,0,0,0,0,1,1,0,0,0,0,1
1,0,0,0,0,0,1,0,0,0,0,0,1
1,1,1,0,1,1,1,1,0,0,1,1,1
1,0,0,0,0,0,0,0,0,0,0,1,1
1,1,1,0,0,0,0,0,0,0,0,1,1
1,0,0,0,0,0,1,0,0,0,0,0,1
1,0,0,0,0,0,1,0,0,0,0,0,1
1,0,0,0,0,0,0,0,0,0,0,0,1
1,0,0,0,0,0,0,0,0,0,0,0,1
1,1,0,0,0,0,1,0,0,0,0,1,1
1,1,0,0,0,1,1,1,0,0,0,1,1
1,1,0,0,0,0,0,0,0,0,0,0,1
1,1,0,0,0,0,1,0,0,0,0,1,1
1,1,0,0,0,1,0,1,0,0,0,1,1
1,1,0,0,0,0,0,0,0,0,0,1,1
1,0,0,0,0,0,0,0,0,0,0,1,1
1,1,0,0,0,0,0,0,0,0,0,1,1
1,1,1,1,1,1,1,1,1,1,1,1,1
1,0,0,0,0,0,0,0,0,0,0,0,1
1,0,0,0,0,0,0,0,0,0,0,0,1
1,1,0,0,0,0,0,0,0,0,0,1,1
1,0,0,0,0,0,0,0,0,0,0,0,1
1,0,0,0,0,0,0,0,0,0,0,1,1
1,1,0,0,0,0,0,0,0,0,1,0,1
1,26,30,30,30,30,4,30,30,4,1,30,1
1,1,30,1,3,30,3,30,4,1,1,30,1
1,1,1,30,30,1,1,1,30,30,4,1,1
1,30,30,30,30,30,16,30,10,30,30,30,1
1,1,1,1,1,1,1,1,1,1,1,1,1
1,30,1,1,30,30,30,30,30,30,30,17,1
1,1,1,1,1,1,1,1,1,1,1,1,1
1,30,3,30,30,30,30,30,30,30,30,30,1
1,1,30,1,8,30,1,8,30,4,1,1,1
1,30,30,30,30,30,30,30,4,30,30,8,1
1,1,11,28,30,17,1,1,23,30,30,1,1
1,30,30,30,30,30,30,30,30,30,30,30,1
1,1,30,1,3,3,30,1,10,30,1,1,1
1,30,30,1,30,30,1,30,1,1,30,30,1
1,4,30,30,30,30,30,30,16,30,1,30,1
1,30,30,30,30,30,30,30,30,30,30,30,1
1,30,30,1,30,30,2,30,30,1,30,6,1
1,30,30,30,30,30,30,30,30,30,30,11,1
1,30,1,30,30,30,30,30,1,30,30,26,1
1,1,30,30,30,30,30,30,30,30,30,1,1
1,30,1,5,22,30,1,30,1,5,22,30,1
1,30,30,30,30,30,30,30,30,30,30,30,1
1,1,30,30,1,30,1,30,30,30,30,1,1
1,12,30,8,30,30,1,30,30,11,30,30,1
1,30,30,30,30,30,30,30,30,30,30,30,1
1,1,1,1,1,1,1,1,1,1,1,1,1
1,1,15,1,1,1,1,1,30,1,30,1,1
1,1,1,1,1,1,1,1,1,1,1,1,1
1,30,30,30,30,30,6,30,30,30,30,30,1
1,1,10,1,1,30,1,30,1,3,1,10,1
1,10,24,30,1,1,1,8,26,30,1,1,1
1,30,30,1,30,30,1,30,30,25,30,30,1
1,1,1,3,1,3,1,30,8,1,1,1,1
1,30,30,30,30,30,30,30,30,30,30,19,1
1,30,1,1,1,1,1,9,30,1,30,1,1
1,1,1,1,1,1,1,1,1,1,1,1,1
1,30,30,1,15,30,1,30,30,1,16,30,1
1,14,30,1,30,30,1,17,30,1,30,30,1
1,30,6,4,30,30,4,30,3,1,30,30,1
1,1,1,1,1,1,1,1,1,1,1,1,1
1,1,30,30,30,30,30,1,30,30,30,30,1
1,3,30,5,30,30,30,30,30,1,30,3,1
1,6,30,1,5,27,1,30,1,1,1,1,1
1,1,13,30,30,30,30,30,30,30,13,12,1
1,30,30,30,30,1,30,30,30,30,30,30,1
1,18,30,16,30,30,30,30,30,30,30,30,1
1,30,30,30,30,30,30,30,30,30,30,1,1
1,30,30,1,30,30,3,30,30,30,30,11,1
1,30,30,30,30,1,30,30,30,30,30,8,1
1,1,1,3,1,30,1,1,1,1,1,30,1
1,1,1,1,1,1,1,1,1,1,1,1,1
1,1,1,1,30,12,30,7,1,5,9,30,1
1,30,30,30,30,30,30,30,1,30,4,3,1
1,1,30,30,30,30,1,30,30,1,30,1,1
1,30,30,30,30,30,30,30,20,10,30,30,1
1,30,30,30,30,30,30,16,27,30,30,13,1
1,1,30,30,30,30,30,10,6,30,27,1,1
1,30,30,30,30,30,30,30,30,30,30,30,1
1,30,1,30,1,1,30,6,1,30,2,1,1
1,10,25,30,10,30,1,11,28,23,10,1,1
1,1,30,30,1,30,30,30,1,30,30,1,1
1,10,23,30,30,30,1,13,25,30,30,30,1
1,30,5,30,30,30,30,30,30,30,5,5,1
1,30,30,1,30,30,1,30,30,30,30,30,1
1,20,30,1,28,1,1,30,3,1,28,1,1
1,13,23,30,30,30,9,14,24,30,30,28,1
1,30,30,30,1,30,30,30,30,30,30,30,1
1,30,30,1,21,30,1,30,30,1,20,30,1
1,9,30,3,30,30,1,10,24,30,30,30,1
1,30,30,30,30,30,30,30,30,18,30,30,1
1,1,1,30,30,30,30,12,6,30,30,30,1
1,30,30,30,30,30,30,30,30,30,30,30,1
1,1,30,1,1,1,1,1,30,1,1,1,1
1,1,30,13,1,21,1,1,30,30,3,20,1
1,3,1,1,30,30,1,30,1,1,1,1,1
1,30,30,30,30,30,30,30,30,30,30,30,1
1,1,30,30,30,30,30,30,30,30,16,1,1
1,1,30,30,1,30,30,4,30,30,4,30,1
1,1,1,4,1,30,30,1,30,4,30,30,1
1,30,30,30,30,30,30,30,3,30,30,30,1
1,8,30,12,4,30,30,30,30,30,4,30,1
1,1,1,30,30,30,1,30,30,1,30,1,1
1,1,30,30,30,30,30,30,30,30,30,1,1
1,1,5,1,4,4,1,1,1,1,1,1,1
1,8,21,14,30,20,1,10,24,11,29,24,1
1,1,1,1,1,1,30,1,1,30,1,1,1
1,1,1,1,30,1,30,1,1,1,1,1,1
1,1,30,1,30,30,30,30,30,1,30,1,1
1,1,30,1,30,1,1,1,30,30,30,1,1
1,1,1,1,1,1,1,1,1,1,1,1,1
1,1,1,1,1,1,1,1,1,1,1,1,1
1,1,1,1,30,30,30,30,1,1,1,1,1
1,30,30,30,30,30,29,30,30,30,30,30,1
1,30,30,1,30,30,30,30,30,30,30,30,1
1,2,25,1,8,24,1,30,1,1,30,30,1
1,1,1,6,1,1,26,30,1,30,30,6,1
1,30,30,4,30,30,30,30,30,30,30,30,1
1,1,1,1,1,10,1,1,1,1,1,1,1
1,14,30,1,30,30,1,16,30,4,30,30,1
1,1,30,30,30,30,30,30,30,8,7,1,1
1,30,1,30,1,30,30,30,30,30,30,30,1
1,30,30,30,30,30,30,30,1,30,30,30,1
1,30,30,8,30,1,1,1,9,1,15,5,1
1,30,30,30,30,30,30,30,30,30,30,30,1
1,30,30,30,30,8,30,30,1,1,1,1,1
1,1,1,1,1,1,1,1,1,1,1,1,1
1,13,30,1,30,30,5,18,30,30,30,30,1
1,30,30,30,30,1,1,30,30,30,30,30,1
1,1,1,1,30,1,1,1,1,1,1,1,1
1,4,1,30,30,1,1,1,7,1,30,10,1
1,1,30,1,1,1,1,1,1,4,1,1,1
1,9,12,1,30,6,1,10,30,1,30,1,1
1,1,1,15,30,30,30,30,30,12,30,30,1
1,30,4,1,30,11,1,8,30,1,1,1,1
1,30,30,30,30,30,30,30,30,30,30,30,1
1,1,1,1,1,1,1,30,1,1,10,1,1
1,1,1,1,1,1,1,1,1,1,1,1,1
1,13,30,30,6,30,4,21,30,1,1,30,1
1,1,1,1,1,1,1,30,1,1,30,1,1
1,1,30,30,30,10,1,6,30,8,22,1,1
1,4,28,30,30,30,1,30,30,30,30,1,1
1,30,6,30,30,17,6,30,30,5,7,14,1
1,1,30,30,30,30,10,30,30,18,30,1,1
1,1,1,1,1,1,1,1,1,1,1,1,1
1,30,30,1,30,30,30,30,30,30,30,6,1
1,30,30,30,30,30,30,30,30,30,30,30,1
1,1,30,1,30,30,1,1,30,9,30,1,1
1,30,1,30,1,30,1,30,8,1,1,30,1
1,10,20,29,30,30,4,13,29,29,30,25,1
1,17,4,30,30,3,30,30,5,30,30,1,1
1,1,1,1,1,1,1,1,1,1,1,1,1
1,1,1,1,1,1,1,1,1,1,1,1,1
1,1,1,1,1,1,1,1,1,1,1,1,1
1,1,1,1,1,1,1,1,1,1,1,1,1
1,1,1,1,1,1,1,1,1,1,1,1,1
1,1,1,1,1,1,1,1,1,1,1,1,1
1,1,1,1,1,1,1,1,1,1,1,1,1
1,5,1,1,1,1,1,1,1,1,1,1,1
1,1,1,1,1,1,1,1,1,1,1,1,1
1,1,1,1,1,1,1,1,1,1,1,1,1
1,1,1,1,1,1,1,1,1,1,1,1,1
1,1,1,1,1,1,1,1,1,1,1,1,1
1,1,1,1,1,1,1,1,1,1,1,1,1
1,1,1,1,1,1,1,1,1,1,1,1,1
1,1,1,1,1,1,1,1,1,1,1,1,1
1,1,1,1,30,30,4,30,3,1,1,1,1
1,1,1,1,1,1,1,1,1,1,1,1,1
1,1,1,1,1,1,1,1,1,1,1,1,1
1,1,1,1,1,1,1,1,1,1,1,1,1
1,1,1,1,1,1,1,1,1,1,1,1,1
1,1,1,1,1,1,1,1,1,1,1,1,1
1,1,1,1,1,30,1,1,1,1,20,30,1
1,1,1,1,1,1,1,1,1,1,1,1,1
1,7,1,1,1,1,1,9,1,1,1,1,1
1,1,1,1,1,1,1,1,1,1,1,1,1
1,1,1,1,1,1,1,1,1,1,1,1,1
1,1,1,1,1,1,1,1,1,1,1,1,1
1,1,1,1,1,1,1,1,1,1,1,1,1
1,1,1,1,1,1,1,1,1,1,1,1,1
1,1,1,1,1,1,1,1,1,1,1,1,1
1,1,1,1,1,1,1,1,1,1,1,1,1
1,1,1,1,1,1,1,1,1,1,1,1,1
1,1,1,1,1,1,1,1,1,1,1,1,1
1,1,1,1,1,1,1,1,1,1,1,1,1
1,1,1,1,1,1,1,1,1,1,1,1,1
1,1,1,1,1,1,1,1,1,1,1,1,1
1,1,1,1,1,1,1,1,1,1,1,1,1
1,1,1,1,1,1,1,1,1,1,1,1,1
1,1,1,1,1,1,1,1,1,1,1,1,1
1,1,1,1,1,1,1,1,1,1,1,1,1
1,1,1,1,1,1,1,1,1,1,1,1,1
1,1,1,1,1,1,1,1,1,1,1,1,1
1,1,1,1,1,1,1,1,1,1,1,1,1
1,1,1,1,1,1,1,1,3,1,1,1,1
1,1,1,1,1,1,1,1,1,1,1,1,1
1,1,1,1,1,1,1,1,1,1,1,1,1
1,1,1,1,1,1,1,1,1,1,1,1,1
1,1,1,1,1,1,1,1,1,1,1,1,1
1,1,1,1,1,1,1,1,1,1,1,1,1
1,1,1,1,1,1,1,1,1,1,1,1,1
1,1,1,1,1,1,1,1,1,1,1,1,1
1,1,1,1,1,1,1,1,1,1,1,1,1
1,1,1,1,1,1,1,1,1,1,1,1,1
1,1,1,1,1,1,1,1,1,1,1,1,1
1,1,1,1,1,1,1,1,1,1,1,1,1
1,1,1,1,1,1,1,1,1,1,1,1,1
1,1,1,1,1,1,1,1,1,1,1,1,1
1,1,1,1,1,1,1,1,1,1,1,1,1
1,1,1,1,1,1,1,1,1,1,1,1,1
1,1,1,1,1,1,1,1,1,1,1,1,1
1,1,1,1,1,1,1,1,1,1,1,1,1
1,1,1,2,1,1,1,1,1,8,1,1,1
1,1,1,1,1,1,1,1,1,1,1,1,1
1,1,1,1,1,1,1,1,1,1,1,1,1
1,1,1,1,1,1,1,1,1,1,1,1,1
1,5,3,1,1,1,1,5,1,4,1,1,1
1,1,1,1,1,1,1,3,1,1,1,1,1
1,1,1,1,1,1,1,1,1,1,1,1,1
1,1,1,1,1,1,1,3,1,1,1,1,1
1,1,1,1,1,1,1,1,1,1,1,1,1
1,1,1,1,1,1,1,1,1,1,1,1,1
1,1,1,1,1,1,1,1,1,1,1,1,1
1,1,1,1,1,1,1,1,1,1,1,1,1
1,1,1,1,1,1,1,1,1,1,1,1,1
1,1,1,1,1,1,1,1,1,1,1,1,1
1,1,1,1,1,1,1,1,1,1,1,1,1
1,1,1,1,1,1,1,1,1,1,1,1,1
1,1,1,1,1,1,1,1,1,1,1,1,1
1,1,1,1,1,1,1,1,1,1,1,1,1
1,1,1,1,1,1,1,1,1,1,1,1,1
1,1,1,1,1,1,1,1,1,1,1,1,1
1,1,1,1,1,1,1,1,1,1,1,1,1
1,1,1,1,1,1,1,1,1,1,1,1,1
1,1,1,1,1,1,1,1,1,1,1,1,1
1,1,1,1,1,1,1,1,1,1,1,1,1
1,1,1,1,1,1,1,1,1,1,1,1,1
1,1,1,1,1,1,1,1,1,1,1,1,1
1,1,1,1,1,1,1,1,1,1,1,1,1
1,1,1,1,1,1,1,1,1,1,1,1,1
1,1,1,1,1,1,1,1,1,1,1,1,1
1,1,1,1,1,1,1,1,1,1,1,1,1
1,1,1,1,1,1,1,1,1,1,1,1,1
1,1,1,1,1,1,1,1,1,1,1,1,1
1,1,1,1,1,1,1,1,1,1,1,1,1
1,1,1,1,1,1,1,1,1,1,1,1,1
1,1,1,1,1,1,1,1,1,1,1,1,1
1,1,1,1,1,1,1,1,1,1,1,1,1
1,1,1,1,1,1,1,1,1,1,1,1,1
1,1,1,1,1,1,1,1,1,1,1,1,1
1,1,1,1,1,1,1,1,1,1,1,1,1
1,1,1,1,1,1,1,1,1,1,1,1,1
1,15,1,6,3,1,1,20,1,1,1,4,1
1,1,1,1,1,1,1,1,1,1,1,1,1
1,1,1,1,1,1,1,1,1,1,1,1,1
1,1,1,1,1,1,1,1,1,1,1,1,1
1,1,1,1,1,1,1,1,1,1,1,1,1
1,6,1,1,1,1,1,7,1,1,1,1,1
1,1,1,1,1,1,1,1,1,1,1,1,1
1,1,1,1,1,1,1,1,1,1,1,1,1
1,1,1,1,1,1,1,1,1,1,1,1,1
1,1,1,1,1,1,1,1,1,1,1,1,1
1,1,1,1,1,1,1,1,1,1,1,1,1
1,1,1,1,1,1,1,1,1,1,1,1,1
1,1,1,1,1,1,1,1,1,1,1,1,1
1,1,1,1,1,1,1,1,1,1,1,1,1
1,1,1,1,1,1,1,1,1,1,1,1,1
1,1,1,1,1,1,1,1,1,1,1,1,1
1,1,1,1,1,1,1,1,1,1,1,1,1
1,1,1,1,1,1,1,1,1,1,1,1,1
1,1,1,1,1,1,1,1,1,1,1,1,1
1,1,1,1,1,1,1,1,1,1,1,1,1
1,1,1,1,1,1,1,1,1,1,1,1,1
1,1,1,1,1,1,1,1,1,1,1,1,1
1,1,1,1,1,1,1,1,1,1,1,1,1
1,1,1,1,1,1,1,1,1,1,1,1,1
1,1,1,1,1,1,1,1,1,1,1,1,1
1,1,1,1,1,1,1,1,1,1,1,1,1
1,1,1,1,1,1,1,1,1,1,1,1,1
1,1,1,1,1,1,1,1,1,1,1,1,1
1,1,1,1,1,1,1,1,1,1,1,1,1
0.999999999999998,0.960226138869006,0.949875796089133,0.958474838902881,0.954547614510301,0.955024550079779,0.961835154534572,0.95763592000019,0.94529310815712,0.960500575093208,0.96209260354016,0.955432692699332,0.999999999999998
1,0.965642032412756,0.95801513611452,0.960057580785094,0.960131915590344,0.950613488904304,0.962607364172768,0.949476755101259,0.96170787140852,0.968818840435691,0.962962029550675,0.956053802370969,1
1,0.978934110805232,0.970561026588149,0.952761537501784,0.956631308913602,0.966923695393604,0.967173829704201,0.963889257265649,0.956815482700633,0.950379149647458,0.960039536836923,0.982974402859866,1
0.999999999999999,0.945730410462583,0.957582272918131,0.945923645115778,0.943787555650926,0.946986401436781,0.96084975116679,0.951745374320041,0.960354841249046,0.949889274625861,0.944168769876397,0.947765372339297,0.999999999999999
1,0.978935211366756,0.964693024390046,0.963389911972692,0.967564893274763,0.96935378307151,0.971996595005041,0.968067902706822,0.966897004636921,0.964979632387612,0.967764747148398,0.979581249252469,1
1,0.957953679616126,0.960359785383668,0.963703711730905,0.94873449153436,0.941787486937342,0.952880773746119,0.957333991192906,0.933971173496445,0.947239703560532,0.941535917318573,0.961480892606786,1
0.999999999999999,0.97950599631143,0.965827603041791,0.961605504304899,0.965835668076256,0.962115848602591,0.962755927371058,0.971764137940158,0.966667659928848,0.972007617529567,0.976724385922597,0.980056896980699,0.999999999999999
1,0.928851976202483,0.960542741748607,0.95379234360003,0.932832245156312,0.935971543195357,0.959768152357855,0.921921672292901,0.948195500175373,0.950291200733999,0.933406003225212,0.937025129709198,1
0.999999999999999,0.969000255552029,0.953433291329722,0.966500947989031,0.960272680000499,0.95509590643464,0.966726324868327,0.960031969830221,0.944511682925345,0.960377936608792,0.965243723339754,0.964922041299707,0.999999999999999
1,0.9531812412836,0.942782057455516,0.941720785948058,0.957987178043762,0.957756176468272,0.950489057954667,0.950083835985298,0.961096226389058,0.956033769917585,0.956636002235227,0.960486433922978,1
1,0.963174988920594,0.960423773899601,0.962592370259288,0.926977756566497,0.961594933613576,0.972003711890188,0.967685600602995,0.960752042788238,0.951831248495581,0.935509780878057,0.961458255372184,1
1,0.955426486591857,0.949666438608147,0.954184347718049,0.937039700167643,0.956762410159504,0.955539308629413,0.945787648393888,0.947454476616993,0.945159592763022,0.943384459976005,0.941510138643809,1
1,0.96793938571856,0.955384882604254,0.960024555066217,0.961081820081084,0.960135205818596,0.955136908756355,0.96862096663402,0.960035019585158,0.956762742045279,0.960668293044816,0.961765482920089,1
1,0.958829130891553,0.95792605424338,0.963508050017029,0.95284678027604,0.950366464880144,0.964138238621535,0.949755880349645,0.965996337322986,0.967435372244918,0.952923239971355,0.958216044034776,1
1,0.960345522183083,0.949833239947233,0.954820729207199,0.957622522326038,0.957876938310083,0.95701661490218,0.959835879709201,0.961097250511046,0.947911618056241,0.961782682761687,0.959440923053587,1
1,0.944725758536031,0.913263802528006,0.918392845833955,0.908482320766214,0.907145101753427,0.921312449989677,0.903063597870234,0.916495430848174,0.926576249503845,0.916995069883201,0.944877601007244,1
0.999999999999999,0.942749209731471,0.955546989039674,0.965341091270574,0.951018859038591,0.958096699992845,0.960157939869991,0.95493865575723,0.956703754463857,0.962777805953368,0.931847537645532,0.966795583944007,0.999999999999999
0.999999999999999,0.956151132304815,0.952166483653202,0.9567157609679,0.950733244366966,0.956083498320726,0.953152698167708,0.950920893276987,0.952773423662662,0.951665584937433,0.946674530762073,0.960542247148998,0.999999999999999
1,0.943520347981501,0.960307828724559,0.93630484254706,0.950151868330872,0.940619856219129,0.956143839248626,0.946217860338322,0.971027731088766,0.952224556695396,0.951107500759804,0.960959212419581,1
0.999999999999998,0.961584428154482,0.952569442269185,0.951788482893589,0.951041970026121,0.948055133946274,0.948826923098883,0.945249858995636,0.956313451558186,0.955367631522971,0.946432749025103,0.961199797221263,0.999999999999998
1,0.950725821042021,0.964799963400575,0.9608517659961,0.961166537372911,0.91407704461817,0.984163295836498,0.95225421110045,0.962311377151381,0.960592318805669,0.962049265926392,0.914613379723185,1
1,0.934101613040065,0.92447643265321,0.947935097818384,0.940433763132094,0.891754172542946,0.955488346348414,0.930109463726311,0.92868274449081,0.942081315844995,0.93270075631829,0.897682136023663,1
1,0.9689680658545,0.950232030584934,0.945565190643924,0.961079310309313,0.954623512274983,0.963590077125923,0.955292081298611,0.94786413047224,0.948504280308897,0.953170744068845,0.963998597191414,1
1,0.961267137471988,0.939971321156931,0.960945517115486,0.945291164339773,0.95821147580358,0.968753208589324,0.959346468790311,0.947588282107856,0.960724726193943,0.93874895305768,0.956159227631097,1
1,0.958333766364311,0.958118575326946,0.947593568075792,0.935592056682417,0.949359862247416,0.945171275944664,0.95910089339963,0.950052891392654,0.949581714322151,0.952038074495006,0.958388052483308,1
1,0.990235596315177,0.976670166827256,0.981526315144566,0.973986602207249,0.983993178977454,0.993061412029626,0.98438651279741,0.973846741803291,0.978210742478834,0.969157845726948,0.988058722806123,1
1,0.967079842826513,0.960145913555496,0.968167297454339,0.963291018943817,0.963203295909439,0.961027526365745,0.960558222945401,0.957281783031803,0.961470558450418,0.956916943740483,0.965463854212857,1
1,0.998083309742091,0.995898364916247,0.993672714349796,0.991629063773183,0.99024553267556,0.98963665198106,0.990196262266104,0.991685047353676,0.993672714349797,0.995891130151867,0.998256289826951,1
1,0.934562361383653,0.93850853583803,0.945474647580799,0.947453301286772,0.928868396010825,0.960223341394859,0.936559727175762,0.945814595944124,0.943114719712688,0.954761387135388,0.938693531040557,1
1,0.962993282073222,0.961535564007447,0.965992892002285,0.972679279396155,0.958014056621647,0.960531210449432,0.959664708181392,0.9643485485923,0.962633546317769,0.966463008488187,0.961939179159631,1
1,0.964063228259758,0.96294265056034,0.91821290030244,0.961063212529986,0.966628733725836,0.979843910191094,0.962133364842967,0.960498829859824,0.934161048303066,0.964265775048492,0.962046620612548,1
1,0.940335156917389,0.955286970380538,0.963821311085344,0.944351644094456,0.942915245820231,0.974111320732552,0.951270288875619,0.956506679613871,0.96006471710534,0.958084781550487,0.953157741395707,1
1,0.980981242155284,0.969121643253063,0.961082394832934,0.964891078260862,0.960304888327603,0.961093063031691,0.95995161791093,0.960727749149768,0.96207215216703,0.970360230394869,0.987234228858568,1
1,0.952040912241272,0.95097374880193,0.953557252957999,0.947293366072863,0.956960346985185,0.951797999035013,0.948154528339722,0.952627791973641,0.958875922838314,0.946072793216105,0.96064482159301,1
0.999999999999999,0.957194551385046,0.96126465254736,0.97717786272591,0.962409868066801,0.96350644638628,0.984910457726908,0.96021073280756,0.956398933402768,0.974542185713124,0.958217527473436,0.981394865950697,0.999999999999999
0.999999999999999,0.981864762351517,0.960760601978698,0.966713253995737,0.967321691539731,0.968959212619198,0.971118406809104,0.967966240554053,0.966061810867224,0.967376065166432,0.963714820575293,0.982932272235028,0.999999999999999
1,0.952913537072214,0.931799396051569,0.9706495820021,0.963345793430929,0.915532751139113,0.975233941762664,0.955311061966355,0.943090743176339,0.967101394370131,0.960158719519951,0.925790579848878,1
1,0.961846458185945,0.926000555556542,0.963708610155242,0.944335795167406,0.947063243934033,0.977798366462466,0.963152676881532,0.925962054412451,0.970649582002101,0.946509902181611,0.953833002826069,1
1,0.959403069847882,0.961884403873025,0.960102812636274,0.958077884546393,0.959258951634389,0.962566988292506,0.950154980984902,0.960690558182674,0.966611127030183,0.958232970273817,0.95613372545283,1
1,0.994520210626866,0.986615906108049,0.980912258923502,0.97938185762531,0.979416849739635,0.982080152390127,0.980492308200072,0.978589487040819,0.980912258923501,0.986118708059026,0.994031133715457,1
1,0.968560667174409,0.951349530152604,0.944902177469372,0.945700348937625,0.944324249936484,0.953597794995423,0.9622343557839,0.950117529816907,0.957303649770175,0.959109940651423,0.959960278260572,1
1,0.960309830909864,0.959117133559316,0.960234454321266,0.958059381103057,0.953964152815676,0.957723973943691,0.958509801608702,0.952760643309238,0.963235727329043,0.949731590015685,0.960132256351059,1
0.999999999999999,0.960381998928732,0.959148568002689,0.974542185713124,0.960488367187191,0.961150416367965,0.967343905028208,0.956503129889663,0.960710656726336,0.97717786272591,0.961110315721966,0.962704127838775,0.999999999999999
1,0.962560336839828,0.960873204538477,0.955776341678783,0.954536123589522,0.940166643230975,0.934767389936849,0.95736862451562,0.957807364857145,0.949613906749334,0.960269595581625,0.968106697154127,1
1,0.946721412373782,0.951387383274859,0.950431284082272,0.952473007764182,0.965322328213879,0.95697698706138,0.942153631775434,0.955840380903402,0.954851273066074,0.940997062096887,0.95647697517263,1
0.999999999999998,0.961703114589706,0.938880246514824,0.960336995970162,0.955523147906452,0.938988001079431,0.941459978282117,0.943944266224919,0.954734726452313,0.958397553051086,0.958931574735798,0.940123168728109,0.999999999999998
0.999999999999996,0.95647041394877,0.945748274552274,0.930404636181037,0.937783091162928,0.93407103249769,0.953361481391927,0.951967217049192,0.952551127717627,0.918609167546244,0.953997886550135,0.964259704216162,0.999999999999996
0.999999999999998,0.948695596166003,0.945415476105554,0.972802507560946,0.953131129835009,0.959501199492513,0.961864840171796,0.954687602364497,0.953422692995877,0.958134434502082,0.956315916650513,0.962071336347082,0.999999999999998
0.999999999999999,0.9438252673397,0.939047161847929,0.948935101902788,0.945254269429471,0.968211349971974,0.958529078253541,0.952546214132398,0.958436726999319,0.958511783107752,0.940787114285658,0.960482660446886,0.999999999999999
1,0.962668958717091,0.966927838876764,0.960177819987422,0.972595699599388,0.954091851234039,0.995546280712328,0.963345746077956,0.9655008487564,0.968167297454338,0.973034048033556,0.955394994762216,1
0.999999999999999,0.987475959887478,0.97370618264253,0.973677813262186,0.979068167644307,0.976888155413464,0.987370818061833,0.980741365589441,0.975503652252095,0.973677813262185,0.982268206511912,0.985885475168111,0.999999999999999
1,0.963560320442486,0.968423922882801,0.960676852407336,0.957003515514856,0.960034189547663,0.954116571451434,0.960692046047501,0.965526975550225,0.960530471222835,0.960473142278002,0.959129860656682,1
1,0.959880876659365,0.956811152059856,0.949687316441703,0.943786690917765,0.956665737823823,0.959066862945166,0.950394397861374,0.967364872390935,0.950902357955128,0.960276553377777,0.961308862524236,1
0.999999999999998,0.963155447329265,0.953880346518268,0.957127620608748,0.953980298419329,0.952405665582992,0.961105617630469,0.95854248111842,0.949447883654584,0.966500947989031,0.95583927295899,0.96317728636059,0.999999999999998
0.999999999999998,0.938848824085949,0.95708796288241,0.952289311927171,0.935421721380117,0.940830410596337,0.948497425362467,0.938729057298673,0.96006352910925,0.961257559192721,0.949648545933485,0.935674758624516,0.999999999999998
1,0.953640174629738,0.957097020644201,0.956557181522742,0.950402361516963,0.953600055184365,0.956116945270617,0.960349083713023,0.960509324716187,0.956810926112246,0.947843395386235,0.960701674032208,1
1,0.977328706409043,0.958545536777701,0.959897366591618,0.957441873943695,0.959948837792414,0.957195576121972,0.96002022380928,0.960722420478134,0.95626743987477,0.960109114437059,0.974131850911095,1
1,0.943328324138232,0.943304994897265,0.952239234682085,0.9488992991618,0.950089281751142,0.94782491682441,0.949254152915737,0.952784221945276,0.95185906622419,0.94282595230328,0.94745765785277,1
0.999999999999999,0.95378792223659,0.965873932702356,0.949953371825042,0.963020598777829,0.965494852497563,0.958617217278377,0.96001051942146,0.96045817669388,0.948074178819552,0.960056044697584,0.961319374001081,0.999999999999999
1,0.960590526354401,0.964581882398349,0.958264293590395,0.962430445344256,0.948951246303051,0.964343636661663,0.960982220311563,0.960239525766151,0.960446048764523,0.963355764742069,0.963643053071905,1
0.999999999999998,0.970027142681891,0.948274797141266,0.951355077688757,0.96440461744655,0.948593140882489,0.954894464301159,0.950471241580749,0.962526597415454,0.95080646612169,0.956559219171646,0.969935740071831,0.999999999999998
1,0.965102094947957,0.961805125573364,0.946898652484197,0.946331656623486,0.937502576400018,0.963854051734958,0.961051441141501,0.960347701544511,0.941749827730871,0.944740997074398,0.946556741086422,1
1,0.955682828599373,0.960178220692981,0.950854682552913,0.949063535462184,0.948432247031674,0.953060802506574,0.951811760767224,0.953118875713443,0.937426743620404,0.962114611836842,0.962233705638497,1
1,0.948388868036051,0.952991458480191,0.961915089472054,0.944649286672424,0.946109298360431,0.965647135743577,0.943746229155799,0.959944641785391,0.958863404233406,0.94452240893188,0.9491105538069,1
1,0.960003555750315,0.954511680563951,0.968432036892097,0.960224973510563,0.964129658892728,0.975656319440343,0.955239595700068,0.961119449408205,0.970510494631026,0.963535467799384,0.965280472976711,1
1,0.969636339463063,0.966861327705591,0.930496141489438,0.958107059055976,0.957125396885975,0.960738008528899,0.960187115700883,0.960580488958307,0.923545467774513,0.954209605548659,0.960102551299858,1
0.999999999999999,0.93546568830425,0.924166292752934,0.95011456002601,0.963017253278612,0.925761225465611,0.928186451125597,0.922145236310339,0.929907924342727,0.919058872057433,0.918487090368792,0.915477583728928,0.999999999999999
0.999999999999999,0.956568826568376,0.938174181470274,0.963418393091198,0.965420277544996,0.927750110213678,0.975233941762664,0.938658715469408,0.941437667218531,0.968225748714974,0.961408177932257,0.915523683493505,0.999999999999999
1,0.962925375712754,0.960640547535422,0.962156606569309,0.952052841054695,0.947971639664674,0.969787981202859,0.963877786991363,0.961661863909485,0.958921743788812,0.941107172670483,0.956883689843138,1
1,0.957894196254073,0.941826625843846,0.952338756860199,0.954265837886739,0.93935243987279,0.940917165126243,0.941633484324043,0.948027263229392,0.960477952800094,0.957307388814041,0.946678172742441,1
0.999999999999996,0.962526698619303,0.960133430603863,0.957798886178822,0.958455550172913,0.952753179402574,0.948797964927206,0.960368804599482,0.960592695566431,0.953596859279232,0.9571494745626,0.957982968299147,0.999999999999996
1,0.955472556332622,0.959668258284695,0.948829376208882,0.952806255033289,0.956029812196059,0.949363309780499,0.949751359850259,0.953482235323213,0.955455236551349,0.948813526229786,0.953134398307024,1
0.999999999999999,0.973014092227605,0.948920767984604,0.969982044474416,0.96124981257653,0.960268997228336,0.973830588014778,0.961912571844578,0.957039596489664,0.969621161134972,0.962333669400954,0.971092701641843,0.999999999999999
1,0.982445203859552,0.959923285435266,0.96146581560357,0.966566778803022,0.960944697951717,0.964830491910196,0.969896982287841,0.960120174129423,0.958687025125512,0.96290676388143,0.962475658285218,1
0.999999999999999,0.960331921850392,0.973734113220208,0.972382096194517,0.958843998697484,0.955077211872622,0.969899530052128,0.957676132683154,0.971505948839568,0.971193353982996,0.967565297104144,0.960283600322673,0.999999999999999
1,0.956859713756142,0.959871332340814,0.956289384176247,0.950868769806364,0.939229116315543,0.950241707107648,0.945645485522113,0.954084757185925,0.949698050283848,0.951138472064846,0.945077850333768,1
0.999999999999998,0.960107944662018,0.9525801193126,0.944167858297043,0.934036229113891,0.94357159829909,0.949278383841731,0.945022228013773,0.942467688483058,0.949512612765222,0.960083290871661,0.961372333201832,0.999999999999998
0.999999999999999,0.964686686549552,0.955140805583276,0.956410209913705,0.964047241086285,0.953849789533732,0.958120625720724,0.960337340221257,0.958862092109017,0.958751304016709,0.960140112977605,0.951909927524415,0.999999999999999
0.999999999999999,0.961192374429622,0.961643724796353,0.960501612829783,0.965498790515341,0.942733384047229,0.949684546548763,0.969744758634594,0.959633546888981,0.960643031367752,0.946817054060076,0.954801044115536,0.999999999999999
1,0.948670714199046,0.948735967173727,0.946464057174196,0.954214681056092,0.947413259934048,0.93969255080829,0.943681778771779,0.96287200882382,0.954118007460715,0.952563197824874,0.953484642656698,1
1,0.961677505413979,0.93676181849886,0.962822358044557,0.960846462735973,0.95390783004538,0.950587755684152,0.949761987096528,0.930891002744974,0.957073556186882,0.961021835947761,0.94599389413546,1
1,0.964360526438995,0.961694692258699,0.958377631696738,0.952323934823369,0.958741195170013,0.963353298505509,0.959320279331172,0.956865580108231,0.965113335580141,0.955994769363584,0.960842035210559,1
1,0.962504061538657,0.954214800794386,0.957471602501292,0.958096321431546,0.956313523225956,0.9486230987695,0.951076546176819,0.947477607857166,0.954669246390248,0.949494152608982,0.963465896025336,1
0.999999999999998,0.972900388518421,0.960540139300565,0.967640618782553,0.960173283278675,0.962080825382106,0.971118406809104,0.967195365574055,0.960640078248842,0.960647223422077,0.969086178387745,0.975229376003878,0.999999999999998
1,0.963088127341276,0.965023979180215,0.961028784919976,0.957678919130507,0.960707406887007,0.969787981202859,0.965702182347048,0.961576171125194,0.962809322166545,0.960303401776117,0.960842323968849,1
0.999999999999997,0.970851209710094,0.961267492707554,0.967271867230091,0.965772025486702,0.961073877533672,0.958000569452831,0.968535784102871,0.965314336410311,0.957830990140547,0.963012024702266,0.974279291873646,0.999999999999997
1,0.961568741477501,0.979266262382002,0.965979179028464,0.954913393015762,0.968109452766166,0.957900692943498,0.967190211867525,0.962047025124918,0.965979179028464,0.982299231834388,0.963673290679882,1
0.999999999999999,0.961449202633555,0.954736611632753,0.96695756096498,0.954677980136095,0.952340875179976,0.959278702299147,0.950238306171075,0.953539825806545,0.966957560964979,0.951711401448095,0.962739817321673,0.999999999999999
1,0.977444799368033,0.954998661135817,0.965113335580141,0.957216894973794,0.965002406769326,0.975150222838529,0.961889751702542,0.956454441746686,0.958662834118829,0.959589982679285,0.978885813638778,1
0.999999999999999,0.992785228119839,0.982903255121003,0.9799634772874,0.978662442187703,0.971416715951972,0.969899319104281,0.974487096230269,0.980538904555539,0.9799634772874,0.984923694457994,0.994343475638645,0.999999999999999
0.999999999999999,0.978293115051894,0.964905081885698,0.983334498146306,0.9728483138972,0.964951923607267,0.984470979694051,0.973412582377778,0.968420778849526,0.981742186342211,0.970221972119539,0.971672444322876,0.999999999999999
0.999999999999999,0.982664394038238,0.968450368144826,0.965666827304315,0.958698708380773,0.950931154340041,0.951614377962869,0.950238018475891,0.960213030376675,0.965666827304315,0.968803321637337,0.984673333214083,0.999999999999999
0.999999999999999,0.945981429939266,0.946679654036353,0.937019863453804,0.933617970470768,0.937143777530638,0.960310517594797,0.94289929078263,0.937743159016262,0.93131056254755,0.941718405523411,0.931342262115563,0.999999999999999
1,0.953965841364868,0.94613803454933,0.961470558450418,0.950674321696512,0.951900959318403,0.957832069835143,0.95994499019887,0.949665171542443,0.954227296128758,0.956256802237842,0.959692991208621,1
1,0.960279814288204,0.960150836943434,0.966353790971771,0.960790590656667,0.961264195794182,0.969303389916579,0.939700353467613,0.962570294445197,0.965884918215657,0.950681456177379,0.950713839259854,1
1,0.96294255471261,0.963745231254448,0.960201063730287,0.960894719092743,0.964298277897531,0.9601046118127,0.957052434859766,0.960714253958146,0.958971062223694,0.948711192726036,0.960498798446124,1
0.999999999999998,0.949668096663104,0.947315023647026,0.960531507241531,0.945449901555245,0.931666473881937,0.928106893509275,0.937824037778377,0.941221688814256,0.935142861271206,0.939858885645044,0.953796985848222,0.999999999999998
1,0.967830509286705,0.967634259206853,0.971193353982995,0.968445306954369,0.960083137874923,0.972585313462486,0.961134756726965,0.963169129480014,0.972382096194518,0.969125180415038,0.965076621391486,1
0.999999999999998,0.960473282921333,0.938517521415675,0.968225748714974,0.956547217518158,0.948870394312756,0.966318110281146,0.960295141989178,0.940530816108945,0.960245627331095,0.948923832074244,0.948931541073441,0.999999999999998
1,0.967302782362019,0.94667914079862,0.9384808587381,0.945859698422419,0.956115005518177,0.95484163425035,0.951132557513909,0.951100622051845,0.960534233431417,0.961915004165837,0.96648115250648,1
1,0.954446893703809,0.964164798749121,0.954302843427691,0.969603267349836,0.947168204331105,0.955744286864685,0.947090210200236,0.951401610915101,0.94547074495903,0.95793865322954,0.951897100177706,1
1,0.959329238729496,0.940858740397763,0.934287229116507,0.927526000707169,0.943461366637711,0.935103583321251,0.919650407046766,0.964705021828317,0.951501819508307,0.930624569660989,0.934919568666416,1
1,0.95478970599766,0.958819171755688,0.960591716852158,0.960347414507285,0.963299008863888,0.967815949476697,0.963674771926197,0.960085291492206,0.967640618782552,0.96020025240409,0.960094654445422,1
1,0.959396817392842,0.937091878479296,0.950531010196248,0.941568119953362,0.940903900505422,0.950975717490207,0.948323354043888,0.950347090038445,0.947206195916415,0.944289085454108,0.95846535678131,1
0.999999999999999,0.943380847620801,0.957154755242682,0.954194239685817,0.950960859429077,0.960074640794379,0.936748764856835,0.951547290912059,0.963172113203478,0.960676852407337,0.961375719564428,0.96399627754866,0.999999999999999
0.999999999999999,0.987582413115744,0.97042002674932,0.96207215216703,0.966509188032393,0.973099332068491,0.975418448459793,0.978458646463104,0.972693385506981,0.966973798715639,0.970525312491506,0.984834617119511,0.999999999999999
1,0.961766221542671,0.915199587910066,0.961701990427853,0.932553398067551,0.921884416016571,0.961289130419517,0.963085196384654,0.914273741987518,0.944974784608339,0.932086324373281,0.927512553367206,1
0.999999999999999,0.957481152450996,0.944253826839208,0.940052956216887,0.958483448521536,0.962802772490803,0.962666094761268,0.952623600844354,0.94022316369098,0.951854723128266,0.958075382006642,0.957255494049709,0.999999999999999
1,0.980163352296378,0.961390000224381,0.962635121433605,0.957267795842901,0.967582324027248,0.973065739356066,0.966130098831397,0.96254957298996,0.9616055043049,0.96422947923932,0.979768122129525,1
1,0.960181785467325,0.967500419186771,0.952903722780079,0.929910373371254,0.968100930892735,0.964734581856279,0.963558916869463,0.960363706206251,0.965992892002285,0.951182057959501,0.965591537514016,1
0.999999999999998,0.978880480016447,0.958894513558694,0.963743171634422,0.966644065762362,0.968004458006691,0.973830787225678,0.968742715748952,0.961508298667947,0.960706987498488,0.962047614439574,0.97805137006169,0.999999999999998
0.999999999999999,0.960073181660534,0.961341636027521,0.966611127030182,0.959587401723677,0.961309240960746,0.965729358322925,0.960004808202937,0.958136035163185,0.963821311085344,0.950463022441988,0.961344684960461,0.999999999999999
0.999999999999999,0.96516029285645,0.962761538772812,0.960684920191596,0.9564521554826,0.922325532129968,0.949681424427359,0.95457371757188,0.957655411783319,0.960311099114268,0.959878724796287,0.927172884062367,0.999999999999999
1,0.959539387549359,0.960443982939452,0.973005268074056,0.948454639128604,0.96027370983001,0.969437092580497,0.960010012206373,0.95356304562561,0.970315502377767,0.961521224582979,0.963509232878175,1
0.999999999999998,0.945507153252619,0.939452420812869,0.945037970489676,0.949357289229528,0.936560473168873,0.945315507112032,0.93726322847377,0.941128266684852,0.950878845011851,0.93743770494559,0.941269938530743,0.999999999999998
1,0.964816003937652,0.961963035213268,0.970436501297753,0.960329813169269,0.964749490034033,0.978951787164737,0.959231106233804,0.965009498219133,0.967091502972324,0.960210876711043,0.96074134596488,1
0.999999999999999,0.978241214460151,0.975531836260039,0.981742186342212,0.976952370231171,0.969389091005,0.978668367838992,0.973660811498258,0.968904648957411,0.983334498146306,0.979364573449155,0.977129219280034,0.999999999999999
1,0.965124329842856,0.944001423213089,0.955843465718661,0.961123644095689,0.951460075913892,0.963740672992999,0.96253339324868,0.95581539859583,0.962562258912338,0.969014181521278,0.946697867410326,1
1,0.968995514513089,0.965817160707733,0.965368802024347,0.963802293552678,0.970382028344191,0.969606012029503,0.958935261069209,0.966668166273909,0.966713253995736,0.956064769129978,0.96609568574898,1
1,0.968261353321995,0.955956883287511,0.958157432567008,0.955598683329109,0.960918013289127,0.965608385009878,0.960497226236111,0.957954459474706,0.960100725426567,0.960045719390312,0.967958150152761,1
1,0.960187378397632,0.960123197991876,0.950014713975474,0.945695544463851,0.957570660921631,0.96110561763047,0.950538359946714,0.951732428344632,0.947493584293079,0.938090499492158,0.961110603439077,1
1,0.955430921675958,0.960372435692768,0.95570072666903,0.939713565464474,0.961431663355357,0.960372192046206,0.951902115616524,0.955725580144685,0.960134235110609,0.960256160221733,0.964169578627017,1
0.999999999999999,0.975603667864825,0.959641509395844,0.957586501799521,0.95795923261622,0.959196652956736,0.960042968364751,0.956627908512555,0.955898326283755,0.960059922362346,0.959739165494443,0.974868006877281,0.999999999999999
1,0.998996078174869,0.997032133711648,0.994796870883584,0.993328436027655,0.992012074708513,0.991019302592475,0.991454600172893,0.993107311106276,0.994796870883584,0.996767767858801,0.998939917253888,1
0.999999999999999,0.944204455766306,0.937585555511278,0.966145132029766,0.953671209254661,0.945695630572139,0.95247443019278,0.941113347923662,0.94287985829146,0.954385846087119,0.94472100796822,0.961244622398544,0.999999999999999
1,0.937376701619598,0.946075095250357,0.941967985783812,0.942267133233811,0.953755256534578,0.949936586382239,0.942213735955043,0.953328499649858,0.944038957285695,0.95814325168424,0.954694900069753,1
0.999999999999999,0.977397644026628,0.955344750329637,0.96411927146116,0.956523772710721,0.953599404325868,0.96262668152567,0.961682553452716,0.953975986799687,0.960198461152362,0.958198974476801,0.972125420307538,0.999999999999999
1,0.940168383399974,0.960014244873392,0.957535130078403,0.960164551285702,0.95688687564077,0.960531210449432,0.958790978473108,0.96276151032185,0.972802507560945,0.96665891405894,0.956110215366912,1
1,0.960106601659504,0.961415358408849,0.962848736967172,0.958951152749071,0.95948456976235,0.960830443122509,0.960253008063245,0.960103102342187,0.960172587655831,0.954190049190563,0.960106961564192,1
1,0.960145629226828,0.96027000966113,0.956695055637455,0.955723715225491,0.96023056763252,0.959092601882712,0.954009186238065,0.960119175948093,0.951339230008214,0.960903043308811,0.964205099717492,1
